//+
Point(1) = {2.000000,-2.000000,0,1.000000};
//+
Point(2) = {2.000000,-1.809524,0,1.000000};
//+
Point(3) = {2.000000,-1.619048,0,1.000000};
//+
Point(4) = {2.000000,-1.428571,0,1.000000};
//+
Point(5) = {2.000000,-1.238095,0,1.000000};
//+
Point(6) = {2.000000,-1.047619,0,1.000000};
//+
Point(7) = {2.000000,-0.857143,0,1.000000};
//+
Point(8) = {2.000000,-0.666667,0,1.000000};
//+
Point(9) = {2.000000,-0.476190,0,1.000000};
//+
Point(10) = {2.000000,-0.285714,0,1.000000};
//+
Point(11) = {2.000000,-0.095238,0,1.000000};
//+
Point(12) = {2.000000,0.095238,0,1.000000};
//+
Point(13) = {2.000000,0.285714,0,1.000000};
//+
Point(14) = {2.000000,0.476190,0,1.000000};
//+
Point(15) = {2.000000,0.666667,0,1.000000};
//+
Point(16) = {2.000000,0.857143,0,1.000000};
//+
Point(17) = {2.000000,1.047619,0,1.000000};
//+
Point(18) = {2.000000,1.238095,0,1.000000};
//+
Point(19) = {2.000000,1.428571,0,1.000000};
//+
Point(20) = {2.000000,1.619048,0,1.000000};
//+
Point(21) = {2.000000,1.809524,0,1.000000};
//+
Point(22) = {2.000000,2.000000,0,1.000000};
//+
Point(23) = {1.809524,2.000000,0,1.000000};
//+
Point(24) = {1.619048,2.000000,0,1.000000};
//+
Point(25) = {1.428571,2.000000,0,1.000000};
//+
Point(26) = {1.238095,2.000000,0,1.000000};
//+
Point(27) = {1.047619,2.000000,0,1.000000};
//+
Point(28) = {0.857143,2.000000,0,1.000000};
//+
Point(29) = {0.666667,2.000000,0,1.000000};
//+
Point(30) = {0.476190,2.000000,0,1.000000};
//+
Point(31) = {0.285714,2.000000,0,1.000000};
//+
Point(32) = {0.095238,2.000000,0,1.000000};
//+
Point(33) = {-0.095238,2.000000,0,1.000000};
//+
Point(34) = {-0.285714,2.000000,0,1.000000};
//+
Point(35) = {-0.476190,2.000000,0,1.000000};
//+
Point(36) = {-0.666667,2.000000,0,1.000000};
//+
Point(37) = {-0.857143,2.000000,0,1.000000};
//+
Point(38) = {-1.047619,2.000000,0,1.000000};
//+
Point(39) = {-1.238095,2.000000,0,1.000000};
//+
Point(40) = {-1.428571,2.000000,0,1.000000};
//+
Point(41) = {-1.619048,2.000000,0,1.000000};
//+
Point(42) = {-1.809524,2.000000,0,1.000000};
//+
Point(43) = {-2.000000,2.000000,0,1.000000};
//+
Point(44) = {-2.000000,1.809524,0,1.000000};
//+
Point(45) = {-2.000000,1.619048,0,1.000000};
//+
Point(46) = {-2.000000,1.428571,0,1.000000};
//+
Point(47) = {-2.000000,1.238095,0,1.000000};
//+
Point(48) = {-2.000000,1.047619,0,1.000000};
//+
Point(49) = {-2.000000,0.857143,0,1.000000};
//+
Point(50) = {-2.000000,0.666667,0,1.000000};
//+
Point(51) = {-2.000000,0.476190,0,1.000000};
//+
Point(52) = {-2.000000,0.285714,0,1.000000};
//+
Point(53) = {-2.000000,0.095238,0,1.000000};
//+
Point(54) = {-2.000000,-0.095238,0,1.000000};
//+
Point(55) = {-2.000000,-0.285714,0,1.000000};
//+
Point(56) = {-2.000000,-0.476190,0,1.000000};
//+
Point(57) = {-2.000000,-0.666667,0,1.000000};
//+
Point(58) = {-2.000000,-0.857143,0,1.000000};
//+
Point(59) = {-2.000000,-1.047619,0,1.000000};
//+
Point(60) = {-2.000000,-1.238095,0,1.000000};
//+
Point(61) = {-2.000000,-1.428571,0,1.000000};
//+
Point(62) = {-2.000000,-1.619048,0,1.000000};
//+
Point(63) = {-2.000000,-1.809524,0,1.000000};
//+
Point(64) = {-2.000000,-2.000000,0,1.000000};
//+
Point(65) = {-1.809524,-2.000000,0,1.000000};
//+
Point(66) = {-1.619048,-2.000000,0,1.000000};
//+
Point(67) = {-1.428571,-2.000000,0,1.000000};
//+
Point(68) = {-1.238095,-2.000000,0,1.000000};
//+
Point(69) = {-1.047619,-2.000000,0,1.000000};
//+
Point(70) = {-0.857143,-2.000000,0,1.000000};
//+
Point(71) = {-0.666667,-2.000000,0,1.000000};
//+
Point(72) = {-0.476190,-2.000000,0,1.000000};
//+
Point(73) = {-0.285714,-2.000000,0,1.000000};
//+
Point(74) = {-0.095238,-2.000000,0,1.000000};
//+
Point(75) = {0.095238,-2.000000,0,1.000000};
//+
Point(76) = {0.285714,-2.000000,0,1.000000};
//+
Point(77) = {0.476190,-2.000000,0,1.000000};
//+
Point(78) = {0.666667,-2.000000,0,1.000000};
//+
Point(79) = {0.857143,-2.000000,0,1.000000};
//+
Point(80) = {1.047619,-2.000000,0,1.000000};
//+
Point(81) = {1.238095,-2.000000,0,1.000000};
//+
Point(82) = {1.428571,-2.000000,0,1.000000};
//+
Point(83) = {1.619048,-2.000000,0,1.000000};
//+
Point(84) = {1.809524,-2.000000,0,1.000000};
//+
Line(1) = {1,2};
//+
Line(2) = {2,3};
//+
Line(3) = {3,4};
//+
Line(4) = {4,5};
//+
Line(5) = {5,6};
//+
Line(6) = {6,7};
//+
Line(7) = {7,8};
//+
Line(8) = {8,9};
//+
Line(9) = {9,10};
//+
Line(10) = {10,11};
//+
Line(11) = {11,12};
//+
Line(12) = {12,13};
//+
Line(13) = {13,14};
//+
Line(14) = {14,15};
//+
Line(15) = {15,16};
//+
Line(16) = {16,17};
//+
Line(17) = {17,18};
//+
Line(18) = {18,19};
//+
Line(19) = {19,20};
//+
Line(20) = {20,21};
//+
Line(21) = {21,22};
//+
Line(22) = {22,23};
//+
Line(23) = {23,24};
//+
Line(24) = {24,25};
//+
Line(25) = {25,26};
//+
Line(26) = {26,27};
//+
Line(27) = {27,28};
//+
Line(28) = {28,29};
//+
Line(29) = {29,30};
//+
Line(30) = {30,31};
//+
Line(31) = {31,32};
//+
Line(32) = {32,33};
//+
Line(33) = {33,34};
//+
Line(34) = {34,35};
//+
Line(35) = {35,36};
//+
Line(36) = {36,37};
//+
Line(37) = {37,38};
//+
Line(38) = {38,39};
//+
Line(39) = {39,40};
//+
Line(40) = {40,41};
//+
Line(41) = {41,42};
//+
Line(42) = {42,43};
//+
Line(43) = {43,44};
//+
Line(44) = {44,45};
//+
Line(45) = {45,46};
//+
Line(46) = {46,47};
//+
Line(47) = {47,48};
//+
Line(48) = {48,49};
//+
Line(49) = {49,50};
//+
Line(50) = {50,51};
//+
Line(51) = {51,52};
//+
Line(52) = {52,53};
//+
Line(53) = {53,54};
//+
Line(54) = {54,55};
//+
Line(55) = {55,56};
//+
Line(56) = {56,57};
//+
Line(57) = {57,58};
//+
Line(58) = {58,59};
//+
Line(59) = {59,60};
//+
Line(60) = {60,61};
//+
Line(61) = {61,62};
//+
Line(62) = {62,63};
//+
Line(63) = {63,64};
//+
Line(64) = {64,65};
//+
Line(65) = {65,66};
//+
Line(66) = {66,67};
//+
Line(67) = {67,68};
//+
Line(68) = {68,69};
//+
Line(69) = {69,70};
//+
Line(70) = {70,71};
//+
Line(71) = {71,72};
//+
Line(72) = {72,73};
//+
Line(73) = {73,74};
//+
Line(74) = {74,75};
//+
Line(75) = {75,76};
//+
Line(76) = {76,77};
//+
Line(77) = {77,78};
//+
Line(78) = {78,79};
//+
Line(79) = {79,80};
//+
Line(80) = {80,81};
//+
Line(81) = {81,82};
//+
Line(82) = {82,83};
//+
Line(83) = {83,84};
//+
Line(84) = {84,1};
//+
Point(85) = {0.812500,0.500000,0,1.000000};
//+
Point(86) = {0.762310,0.610386,0,1.000000};
//+
Point(87) = {0.665327,0.687157,0,1.000000};
//+
Point(88) = {0.555569,0.743958,0,1.000000};
//+
Point(89) = {0.440462,0.788292,0,1.000000};
//+
Point(90) = {0.322260,0.822573,0,1.000000};
//+
Point(91) = {0.201828,0.845490,0,1.000000};
//+
Point(92) = {0.081331,0.843194,0,1.000000};
//+
Point(93) = {0.055156,0.739315,0,1.000000};
//+
Point(94) = {0.095015,0.621811,0,1.000000};
//+
Point(95) = {0.112500,0.499972,0,1.000000};
//+
Point(96) = {0.095046,0.378303,0,1.000000};
//+
Point(97) = {0.055647,0.262151,0,1.000000};
//+
Point(98) = {0.078806,0.157639,0,1.000000};
//+
Point(99) = {0.203459,0.154716,0,1.000000};
//+
Point(100) = {0.325262,0.178165,0,1.000000};
//+
Point(101) = {0.443901,0.212866,0,1.000000};
//+
Point(102) = {0.558857,0.257499,0,1.000000};
//+
Point(103) = {0.667873,0.314417,0,1.000000};
//+
Point(104) = {0.763393,0.390801,0,1.000000};
//+
Line(85) = {85,86};
//+
Line(86) = {86,87};
//+
Line(87) = {87,88};
//+
Line(88) = {88,89};
//+
Line(89) = {89,90};
//+
Line(90) = {90,91};
//+
Line(91) = {91,92};
//+
Line(92) = {92,93};
//+
Line(93) = {93,94};
//+
Line(94) = {94,95};
//+
Line(95) = {95,96};
//+
Line(96) = {96,97};
//+
Line(97) = {97,98};
//+
Line(98) = {98,99};
//+
Line(99) = {99,100};
//+
Line(100) = {100,101};
//+
Line(101) = {101,102};
//+
Line(102) = {102,103};
//+
Line(103) = {103,104};
//+
Line(104) = {104,85};
//+
Curve Loop(1) = {1,2,3,4,5,6,7,8,9,10,11,12,13,14,15,16,17,18,19,20,21,22,23,24,25,26,27,28,29,30,31,32,33,34,35,36,37,38,39,40,41,42,43,44,45,46,47,48,49,50,51,52,53,54,55,56,57,58,59,60,61,62,63,64,65,66,67,68,69,70,71,72,73,74,75,76,77,78,79,80,81,82,83,84};
//+
Physical Curve("Outer boundary",1) = {1,2,3,4,5,6,7,8,9,10,11,12,13,14,15,16,17,18,19,20,21,22,23,24,25,26,27,28,29,30,31,32,33,34,35,36,37,38,39,40,41,42,43,44,45,46,47,48,49,50,51,52,53,54,55,56,57,58,59,60,61,62,63,64,65,66,67,68,69,70,71,72,73,74,75,76,77,78,79,80,81,82,83,84};
//+
Curve Loop(2) = {85,86,87,88,89,90,91,92,93,94,95,96,97,98,99,100,101,102,103,104};
//+
Physical Curve("Inner boundary",2) = {85,86,87,88,89,90,91,92,93,94,95,96,97,98,99,100,101,102,103,104};
//+
Plane Surface(1) = {1,2};
