%!PS-Adobe-3.0 EPSF-3.0
%%Creator: (MATLAB, The Mathworks, Inc. Version 9.13.0.2105380 \(R2022b\) Update 2. Operating System: Linux)
%%Title: ./PMCFSP_forcesNtorques_getMeshTetraNew_forces.eps
<<<<<<< HEAD
%%CreationDate: 2024-01-22T01:20:06
%%Pages: (atend)
%%BoundingBox:    18     6   414   317
=======
%%CreationDate: 2024-01-22T00:32:27
%%Pages: (atend)
%%BoundingBox:    15     6   388   298
>>>>>>> f4de00b5db4de07fdb797f1545578c2683f6c040
%%LanguageLevel: 3
%%EndComments
%%BeginProlog
%%BeginResource: procset (Apache XML Graphics Std ProcSet) 1.2 0
%%Version: 1.2 0
%%Copyright: (Copyright 2001-2003,2010 The Apache Software Foundation. License terms: http://www.apache.org/licenses/LICENSE-2.0)
/bd{bind def}bind def
/ld{load def}bd
/GR/grestore ld
/GS/gsave ld
/RM/rmoveto ld
/C/curveto ld
/t/show ld
/L/lineto ld
/ML/setmiterlimit ld
/CT/concat ld
/f/fill ld
/N/newpath ld
/S/stroke ld
/CC/setcmykcolor ld
/A/ashow ld
/cp/closepath ld
/RC/setrgbcolor ld
/LJ/setlinejoin ld
/GC/setgray ld
/LW/setlinewidth ld
/M/moveto ld
/re {4 2 roll M
1 index 0 rlineto
0 exch rlineto
neg 0 rlineto
cp } bd
/_ctm matrix def
/_tm matrix def
/BT { _ctm currentmatrix pop matrix _tm copy pop 0 0 moveto } bd
/ET { _ctm setmatrix } bd
/iTm { _ctm setmatrix _tm concat } bd
/Tm { _tm astore pop iTm 0 0 moveto } bd
/ux 0.0 def
/uy 0.0 def
/F {
  /Tp exch def
  /Tf exch def
  Tf findfont Tp scalefont setfont
  /cf Tf def  /cs Tp def
} bd
/ULS {currentpoint /uy exch def /ux exch def} bd
/ULE {
  /Tcx currentpoint pop def
  gsave
  newpath
  cf findfont cs scalefont dup
  /FontMatrix get 0 get /Ts exch def /FontInfo get dup
  /UnderlinePosition get Ts mul /To exch def
  /UnderlineThickness get Ts mul /Tt exch def
  ux uy To add moveto  Tcx uy To add lineto
  Tt setlinewidth stroke
  grestore
} bd
/OLE {
  /Tcx currentpoint pop def
  gsave
  newpath
  cf findfont cs scalefont dup
  /FontMatrix get 0 get /Ts exch def /FontInfo get dup
  /UnderlinePosition get Ts mul /To exch def
  /UnderlineThickness get Ts mul /Tt exch def
  ux uy To add cs add moveto Tcx uy To add cs add lineto
  Tt setlinewidth stroke
  grestore
} bd
/SOE {
  /Tcx currentpoint pop def
  gsave
  newpath
  cf findfont cs scalefont dup
  /FontMatrix get 0 get /Ts exch def /FontInfo get dup
  /UnderlinePosition get Ts mul /To exch def
  /UnderlineThickness get Ts mul /Tt exch def
  ux uy To add cs 10 mul 26 idiv add moveto Tcx uy To add cs 10 mul 26 idiv add lineto
  Tt setlinewidth stroke
  grestore
} bd
/QT {
/Y22 exch store
/X22 exch store
/Y21 exch store
/X21 exch store
currentpoint
/Y21 load 2 mul add 3 div exch
/X21 load 2 mul add 3 div exch
/X21 load 2 mul /X22 load add 3 div
/Y21 load 2 mul /Y22 load add 3 div
/X22 load /Y22 load curveto
} bd
/SSPD {
dup length /d exch dict def
{
/v exch def
/k exch def
currentpagedevice k known {
/cpdv currentpagedevice k get def
v cpdv ne {
/upd false def
/nullv v type /nulltype eq def
/nullcpdv cpdv type /nulltype eq def
nullv nullcpdv or
{
/upd true def
} {
/sametype v type cpdv type eq def
sametype {
v type /arraytype eq {
/vlen v length def
/cpdvlen cpdv length def
vlen cpdvlen eq {
0 1 vlen 1 sub {
/i exch def
/obj v i get def
/cpdobj cpdv i get def
obj cpdobj ne {
/upd true def
exit
} if
} for
} {
/upd true def
} ifelse
} {
v type /dicttype eq {
v {
/dv exch def
/dk exch def
/cpddv cpdv dk get def
dv cpddv ne {
/upd true def
exit
} if
} forall
} {
/upd true def
} ifelse
} ifelse
} if
} ifelse
upd true eq {
d k v put
} if
} if
} if
} forall
d length 0 gt {
d setpagedevice
} if
} bd
/RE { % /NewFontName [NewEncodingArray] /FontName RE -
  findfont dup length dict begin
  {
    1 index /FID ne
    {def} {pop pop} ifelse
  } forall
  /Encoding exch def
  /FontName 1 index def
  currentdict definefont pop
  end
} bind def
%%EndResource
%%BeginResource: procset (Apache XML Graphics EPS ProcSet) 1.0 0
%%Version: 1.0 0
%%Copyright: (Copyright 2002-2003 The Apache Software Foundation. License terms: http://www.apache.org/licenses/LICENSE-2.0)
/BeginEPSF { %def
/b4_Inc_state save def         % Save state for cleanup
/dict_count countdictstack def % Count objects on dict stack
/op_count count 1 sub def      % Count objects on operand stack
userdict begin                 % Push userdict on dict stack
/showpage { } def              % Redefine showpage, { } = null proc
0 setgray 0 setlinecap         % Prepare graphics state
1 setlinewidth 0 setlinejoin
10 setmiterlimit [ ] 0 setdash newpath
/languagelevel where           % If level not equal to 1 then
{pop languagelevel             % set strokeadjust and
1 ne                           % overprint to their defaults.
{false setstrokeadjust false setoverprint
} if
} if
} bd
/EndEPSF { %def
count op_count sub {pop} repeat            % Clean up stacks
countdictstack dict_count sub {end} repeat
b4_Inc_state restore
} bd
%%EndResource
%FOPBeginFontDict
%%IncludeResource: font Courier-Oblique
%%IncludeResource: font Courier-BoldOblique
%%IncludeResource: font Courier-Bold
%%IncludeResource: font ZapfDingbats
%%IncludeResource: font Symbol
%%IncludeResource: font Helvetica
%%IncludeResource: font Helvetica-Oblique
%%IncludeResource: font Helvetica-Bold
%%IncludeResource: font Helvetica-BoldOblique
%%IncludeResource: font Times-Roman
%%IncludeResource: font Times-Italic
%%IncludeResource: font Times-Bold
%%IncludeResource: font Times-BoldItalic
%%IncludeResource: font Courier
%FOPEndFontDict
%%BeginResource: encoding WinAnsiEncoding
/WinAnsiEncoding [
/.notdef /.notdef /.notdef /.notdef /.notdef
/.notdef /.notdef /.notdef /.notdef /.notdef
/.notdef /.notdef /.notdef /.notdef /.notdef
/.notdef /.notdef /.notdef /.notdef /.notdef
/.notdef /.notdef /.notdef /.notdef /.notdef
/.notdef /.notdef /.notdef /.notdef /.notdef
/.notdef /.notdef /space /exclam /quotedbl
/numbersign /dollar /percent /ampersand /quotesingle
/parenleft /parenright /asterisk /plus /comma
/hyphen /period /slash /zero /one
/two /three /four /five /six
/seven /eight /nine /colon /semicolon
/less /equal /greater /question /at
/A /B /C /D /E
/F /G /H /I /J
/K /L /M /N /O
/P /Q /R /S /T
/U /V /W /X /Y
/Z /bracketleft /backslash /bracketright /asciicircum
/underscore /quoteleft /a /b /c
/d /e /f /g /h
/i /j /k /l /m
/n /o /p /q /r
/s /t /u /v /w
/x /y /z /braceleft /bar
/braceright /asciitilde /bullet /Euro /bullet
/quotesinglbase /florin /quotedblbase /ellipsis /dagger
/daggerdbl /circumflex /perthousand /Scaron /guilsinglleft
/OE /bullet /Zcaron /bullet /bullet
/quoteleft /quoteright /quotedblleft /quotedblright /bullet
/endash /emdash /asciitilde /trademark /scaron
/guilsinglright /oe /bullet /zcaron /Ydieresis
/space /exclamdown /cent /sterling /currency
/yen /brokenbar /section /dieresis /copyright
/ordfeminine /guillemotleft /logicalnot /sfthyphen /registered
/macron /degree /plusminus /twosuperior /threesuperior
/acute /mu /paragraph /middot /cedilla
/onesuperior /ordmasculine /guillemotright /onequarter /onehalf
/threequarters /questiondown /Agrave /Aacute /Acircumflex
/Atilde /Adieresis /Aring /AE /Ccedilla
/Egrave /Eacute /Ecircumflex /Edieresis /Igrave
/Iacute /Icircumflex /Idieresis /Eth /Ntilde
/Ograve /Oacute /Ocircumflex /Otilde /Odieresis
/multiply /Oslash /Ugrave /Uacute /Ucircumflex
/Udieresis /Yacute /Thorn /germandbls /agrave
/aacute /acircumflex /atilde /adieresis /aring
/ae /ccedilla /egrave /eacute /ecircumflex
/edieresis /igrave /iacute /icircumflex /idieresis
/eth /ntilde /ograve /oacute /ocircumflex
/otilde /odieresis /divide /oslash /ugrave
/uacute /ucircumflex /udieresis /yacute /thorn
/ydieresis
] def
%%EndResource
%FOPBeginFontReencode
/Courier-Oblique findfont
dup length dict begin
  {1 index /FID ne {def} {pop pop} ifelse} forall
  /Encoding WinAnsiEncoding def
  currentdict
end
/Courier-Oblique exch definefont pop
/Courier-BoldOblique findfont
dup length dict begin
  {1 index /FID ne {def} {pop pop} ifelse} forall
  /Encoding WinAnsiEncoding def
  currentdict
end
/Courier-BoldOblique exch definefont pop
/Courier-Bold findfont
dup length dict begin
  {1 index /FID ne {def} {pop pop} ifelse} forall
  /Encoding WinAnsiEncoding def
  currentdict
end
/Courier-Bold exch definefont pop
/Helvetica findfont
dup length dict begin
  {1 index /FID ne {def} {pop pop} ifelse} forall
  /Encoding WinAnsiEncoding def
  currentdict
end
/Helvetica exch definefont pop
/Helvetica-Oblique findfont
dup length dict begin
  {1 index /FID ne {def} {pop pop} ifelse} forall
  /Encoding WinAnsiEncoding def
  currentdict
end
/Helvetica-Oblique exch definefont pop
/Helvetica-Bold findfont
dup length dict begin
  {1 index /FID ne {def} {pop pop} ifelse} forall
  /Encoding WinAnsiEncoding def
  currentdict
end
/Helvetica-Bold exch definefont pop
/Helvetica-BoldOblique findfont
dup length dict begin
  {1 index /FID ne {def} {pop pop} ifelse} forall
  /Encoding WinAnsiEncoding def
  currentdict
end
/Helvetica-BoldOblique exch definefont pop
/Times-Roman findfont
dup length dict begin
  {1 index /FID ne {def} {pop pop} ifelse} forall
  /Encoding WinAnsiEncoding def
  currentdict
end
/Times-Roman exch definefont pop
/Times-Italic findfont
dup length dict begin
  {1 index /FID ne {def} {pop pop} ifelse} forall
  /Encoding WinAnsiEncoding def
  currentdict
end
/Times-Italic exch definefont pop
/Times-Bold findfont
dup length dict begin
  {1 index /FID ne {def} {pop pop} ifelse} forall
  /Encoding WinAnsiEncoding def
  currentdict
end
/Times-Bold exch definefont pop
/Times-BoldItalic findfont
dup length dict begin
  {1 index /FID ne {def} {pop pop} ifelse} forall
  /Encoding WinAnsiEncoding def
  currentdict
end
/Times-BoldItalic exch definefont pop
/Courier findfont
dup length dict begin
  {1 index /FID ne {def} {pop pop} ifelse} forall
  /Encoding WinAnsiEncoding def
  currentdict
end
/Courier exch definefont pop
%FOPEndFontReencode
%%EndProlog
%%Page: 1 1
%%PageBoundingBox: 0 0 448 336
%%BeginPageSetup
N
<<<<<<< HEAD
   18     6 M
  432     6 L
  432   323 L
   18   323 L
=======
   15     6 M
  403     6 L
  403   304 L
   15   304 L
>>>>>>> f4de00b5db4de07fdb797f1545578c2683f6c040
cp
clip
[1 0 0 -1 0 336] CT
%%EndPageSetup
GS
[0.8 0 0 0.8 0 0] CT
1 GC
N
0 0 560 420 re
f
GR
GS
[0.8 0 0 0.8 0 0] CT
1 GC
N
0 0 560 420 re
f
GR
GS
[0.8 0 0 0.8 0 0] CT
1 GC
N
73 374 M
507 374 L
507 31 L
73 31 L
cp
f
GR
GS
[0.8 0 0 0.8 0 0] CT
0.149 GC
2 setlinecap
1 LJ
0.625 LW
N
73 374 M
507 374 L
S
GR
GS
[0.8 0 0 0.8 0 0] CT
0.149 GC
2 setlinecap
1 LJ
0.625 LW
N
73 31 M
507 31 L
S
GR
GS
[0.8 0 0 0.8 0 0] CT
0.149 GC
2 setlinecap
1 LJ
0.625 LW
N
217.678 374 M
217.678 369.66 L
S
GR
GS
[0.8 0 0 0.8 0 0] CT
0.149 GC
2 setlinecap
1 LJ
0.625 LW
N
322.952 374 M
322.952 369.66 L
S
GR
GS
[0.8 0 0 0.8 0 0] CT
0.149 GC
2 setlinecap
1 LJ
0.625 LW
N
404.608 374 M
404.608 369.66 L
S
GR
GS
[0.8 0 0 0.8 0 0] CT
0.149 GC
2 setlinecap
1 LJ
0.625 LW
N
471.326 374 M
471.326 369.66 L
S
GR
GS
[0.8 0 0 0.8 0 0] CT
0.149 GC
2 setlinecap
1 LJ
0.625 LW
N
217.678 31 M
217.678 35.34 L
S
GR
GS
[0.8 0 0 0.8 0 0] CT
0.149 GC
2 setlinecap
1 LJ
0.625 LW
N
322.952 31 M
322.952 35.34 L
S
GR
GS
[0.8 0 0 0.8 0 0] CT
0.149 GC
2 setlinecap
1 LJ
0.625 LW
N
404.608 31 M
404.608 35.34 L
S
GR
GS
[0.8 0 0 0.8 0 0] CT
0.149 GC
2 setlinecap
1 LJ
0.625 LW
N
471.326 31 M
471.326 35.34 L
S
GR
GS
[0.8 0 0 0.8 0 0] CT
0.149 GC
2 setlinecap
1 LJ
0.625 LW
N
104.181 374 M
104.181 371.83 L
S
GR
GS
[0.8 0 0 0.8 0 0] CT
0.149 GC
2 setlinecap
1 LJ
0.625 LW
N
136.022 374 M
136.022 371.83 L
S
GR
GS
[0.8 0 0 0.8 0 0] CT
0.149 GC
2 setlinecap
1 LJ
0.625 LW
N
165.312 374 M
165.312 371.83 L
S
GR
GS
[0.8 0 0 0.8 0 0] CT
0.149 GC
2 setlinecap
1 LJ
0.625 LW
N
192.431 374 M
192.431 371.83 L
S
GR
GS
[0.8 0 0 0.8 0 0] CT
0.149 GC
2 setlinecap
1 LJ
0.625 LW
N
241.295 374 M
241.295 371.83 L
S
GR
GS
[0.8 0 0 0.8 0 0] CT
0.149 GC
2 setlinecap
1 LJ
0.625 LW
N
263.48 374 M
263.48 371.83 L
S
GR
GS
[0.8 0 0 0.8 0 0] CT
0.149 GC
2 setlinecap
1 LJ
0.625 LW
N
284.396 374 M
284.396 371.83 L
S
GR
GS
[0.8 0 0 0.8 0 0] CT
0.149 GC
2 setlinecap
1 LJ
0.625 LW
N
304.181 374 M
304.181 371.83 L
S
GR
GS
[0.8 0 0 0.8 0 0] CT
0.149 GC
2 setlinecap
1 LJ
0.625 LW
N
340.806 374 M
340.806 371.83 L
S
GR
GS
[0.8 0 0 0.8 0 0] CT
0.149 GC
2 setlinecap
1 LJ
0.625 LW
N
357.829 374 M
357.829 371.83 L
S
GR
GS
[0.8 0 0 0.8 0 0] CT
0.149 GC
2 setlinecap
1 LJ
0.625 LW
N
374.096 374 M
374.096 371.83 L
S
GR
GS
[0.8 0 0 0.8 0 0] CT
0.149 GC
2 setlinecap
1 LJ
0.625 LW
N
389.67 374 M
389.67 371.83 L
S
GR
GS
[0.8 0 0 0.8 0 0] CT
0.149 GC
2 setlinecap
1 LJ
0.625 LW
N
418.96 374 M
418.96 371.83 L
S
GR
GS
[0.8 0 0 0.8 0 0] CT
0.149 GC
2 setlinecap
1 LJ
0.625 LW
N
432.771 374 M
432.771 371.83 L
S
GR
GS
[0.8 0 0 0.8 0 0] CT
0.149 GC
2 setlinecap
1 LJ
0.625 LW
N
446.079 374 M
446.079 371.83 L
S
GR
GS
[0.8 0 0 0.8 0 0] CT
0.149 GC
2 setlinecap
1 LJ
0.625 LW
N
458.92 374 M
458.92 371.83 L
S
GR
GS
[0.8 0 0 0.8 0 0] CT
0.149 GC
2 setlinecap
1 LJ
0.625 LW
N
483.325 374 M
483.325 371.83 L
S
GR
GS
[0.8 0 0 0.8 0 0] CT
0.149 GC
2 setlinecap
1 LJ
0.625 LW
N
494.943 374 M
494.943 371.83 L
S
GR
GS
<<<<<<< HEAD
[0.8 0 0 0.8 75.2 316] CT
=======
[0.75 0 0 0.75 0 0] CT
0.149 GC
2 setlinecap
1 LJ
0.667 LW
N
506.204 374 M
506.204 371.83 L
S
GR
GS
[0.75 0 0 0.75 0 0] CT
0.149 GC
2 setlinecap
1 LJ
0.667 LW
N
104.181 31 M
104.181 33.17 L
S
GR
GS
[0.75 0 0 0.75 0 0] CT
0.149 GC
2 setlinecap
1 LJ
0.667 LW
N
136.022 31 M
136.022 33.17 L
S
GR
GS
[0.75 0 0 0.75 0 0] CT
0.149 GC
2 setlinecap
1 LJ
0.667 LW
N
165.312 31 M
165.312 33.17 L
S
GR
GS
[0.75 0 0 0.75 0 0] CT
0.149 GC
2 setlinecap
1 LJ
0.667 LW
N
192.431 31 M
192.431 33.17 L
S
GR
GS
[0.75 0 0 0.75 0 0] CT
0.149 GC
2 setlinecap
1 LJ
0.667 LW
N
241.295 31 M
241.295 33.17 L
S
GR
GS
[0.75 0 0 0.75 0 0] CT
0.149 GC
2 setlinecap
1 LJ
0.667 LW
N
263.48 31 M
263.48 33.17 L
S
GR
GS
[0.75 0 0 0.75 0 0] CT
0.149 GC
2 setlinecap
1 LJ
0.667 LW
N
284.396 31 M
284.396 33.17 L
S
GR
GS
[0.75 0 0 0.75 0 0] CT
0.149 GC
2 setlinecap
1 LJ
0.667 LW
N
304.181 31 M
304.181 33.17 L
S
GR
GS
[0.75 0 0 0.75 0 0] CT
0.149 GC
2 setlinecap
1 LJ
0.667 LW
N
340.806 31 M
340.806 33.17 L
S
GR
GS
[0.75 0 0 0.75 0 0] CT
0.149 GC
2 setlinecap
1 LJ
0.667 LW
N
357.829 31 M
357.829 33.17 L
S
GR
GS
[0.75 0 0 0.75 0 0] CT
0.149 GC
2 setlinecap
1 LJ
0.667 LW
N
374.096 31 M
374.096 33.17 L
S
GR
GS
[0.75 0 0 0.75 0 0] CT
0.149 GC
2 setlinecap
1 LJ
0.667 LW
N
389.67 31 M
389.67 33.17 L
S
GR
GS
[0.75 0 0 0.75 0 0] CT
0.149 GC
2 setlinecap
1 LJ
0.667 LW
N
418.96 31 M
418.96 33.17 L
S
GR
GS
[0.75 0 0 0.75 0 0] CT
0.149 GC
2 setlinecap
1 LJ
0.667 LW
N
432.771 31 M
432.771 33.17 L
S
GR
GS
[0.75 0 0 0.75 0 0] CT
0.149 GC
2 setlinecap
1 LJ
0.667 LW
N
446.079 31 M
446.079 33.17 L
S
GR
GS
[0.75 0 0 0.75 0 0] CT
0.149 GC
2 setlinecap
1 LJ
0.667 LW
N
458.92 31 M
458.92 33.17 L
S
GR
GS
[0.75 0 0 0.75 0 0] CT
0.149 GC
2 setlinecap
1 LJ
0.667 LW
N
483.325 31 M
483.325 33.17 L
S
GR
GS
[0.75 0 0 0.75 0 0] CT
0.149 GC
2 setlinecap
1 LJ
0.667 LW
N
494.943 31 M
494.943 33.17 L
S
GR
GS
[0.75 0 0 0.75 0 0] CT
0.149 GC
2 setlinecap
1 LJ
0.667 LW
N
506.204 31 M
506.204 33.17 L
S
GR
GS
[0.75 0 0 0.75 163.2586 284.50001] CT
>>>>>>> f4de00b5db4de07fdb797f1545578c2683f6c040
0.149 GC
/Helvetica 12.5 F
GS
[1 0 0 1 0 0] CT
-15 13 moveto 
1 -1 scale
(0.15) t 
GR
GR
GS
<<<<<<< HEAD
[0.8 0 0 0.8 88 311.2] CT
0.149 GC
/Helvetica 10 F
GS
[1 0 0 1 0 0] CT
0 0 moveto 
1 -1 scale
(-1) t 
GR
GR
GS
[0.8 0 0 0.8 396 316] CT
=======
[0.75 0 0 0.75 242.21368 284.50001] CT
>>>>>>> f4de00b5db4de07fdb797f1545578c2683f6c040
0.149 GC
/Helvetica 12.5 F
GS
[1 0 0 1 0 0] CT
-11 13 moveto 
1 -1 scale
(0.2) t 
GR
GR
GS
<<<<<<< HEAD
[0.8 0 0 0.8 408.8 311.2] CT
0.149 GC
/Helvetica 10 F
=======
[0.75 0 0 0.75 303.456 284.50001] CT
0.149 GC
/Helvetica 13.333 F
>>>>>>> f4de00b5db4de07fdb797f1545578c2683f6c040
GS
[1 0 0 1 0 0] CT
-15 13 moveto 
1 -1 scale
(0.25) t 
GR
GR
GS
<<<<<<< HEAD
[0.8 0 0 0.8 232.00017 319.4] CT
=======
[0.75 0 0 0.75 353.49463 284.50001] CT
0.149 GC
/Helvetica 13.333 F
GS
[1 0 0 1 0 0] CT
-11 13 moveto 
1 -1 scale
(0.3) t 
GR
GR
GS
[0.75 0 0 0.75 217.50016 298.24999] CT
>>>>>>> f4de00b5db4de07fdb797f1545578c2683f6c040
0.149 GC
/Helvetica 13.75 F
GS
[1 0 0 1 0 0] CT
-44.5 13 moveto 
1 -1 scale
(meshwidth h) t 
GR
GR
GS
[0.8 0 0 0.8 0 0] CT
0.149 GC
2 setlinecap
1 LJ
0.625 LW
N
73 374 M
73 31 L
S
GR
GS
[0.8 0 0 0.8 0 0] CT
0.149 GC
2 setlinecap
1 LJ
0.625 LW
N
507 374 M
507 31 L
S
GR
GS
[0.8 0 0 0.8 0 0] CT
0.149 GC
2 setlinecap
1 LJ
0.625 LW
N
73 374 M
77.34 374 L
S
GR
GS
[0.8 0 0 0.8 0 0] CT
0.149 GC
2 setlinecap
1 LJ
0.625 LW
N
73 331.125 M
77.34 331.125 L
S
GR
GS
[0.8 0 0 0.8 0 0] CT
0.149 GC
2 setlinecap
1 LJ
0.625 LW
N
73 305.4 M
77.34 305.4 L
S
GR
GS
[0.8 0 0 0.8 0 0] CT
0.149 GC
2 setlinecap
1 LJ
0.625 LW
N
73 245.375 M
77.34 245.375 L
S
GR
GS
[0.8 0 0 0.8 0 0] CT
0.149 GC
2 setlinecap
1 LJ
0.625 LW
N
73 236.8 M
77.34 236.8 L
S
GR
GS
[0.8 0 0 0.8 0 0] CT
0.149 GC
2 setlinecap
1 LJ
0.625 LW
N
73 159.625 M
77.34 159.625 L
S
GR
GS
[0.8 0 0 0.8 0 0] CT
0.149 GC
2 setlinecap
1 LJ
0.625 LW
N
73 168.2 M
77.34 168.2 L
S
GR
GS
[0.75 0 0 0.75 0 0] CT
0.149 GC
2 setlinecap
1 LJ
0.667 LW
N
73 99.6 M
77.34 99.6 L
S
GR
GS
[0.8 0 0 0.8 0 0] CT
0.149 GC
2 setlinecap
1 LJ
0.625 LW
N
73 73.875 M
77.34 73.875 L
S
GR
GS
[0.8 0 0 0.8 0 0] CT
0.149 GC
2 setlinecap
1 LJ
0.625 LW
N
73 31 M
77.34 31 L
S
GR
GS
[0.8 0 0 0.8 0 0] CT
0.149 GC
2 setlinecap
1 LJ
0.625 LW
N
507 374 M
502.66 374 L
S
GR
GS
[0.8 0 0 0.8 0 0] CT
0.149 GC
2 setlinecap
1 LJ
0.625 LW
N
507 331.125 M
502.66 331.125 L
S
GR
GS
[0.8 0 0 0.8 0 0] CT
0.149 GC
2 setlinecap
1 LJ
0.625 LW
N
507 305.4 M
502.66 305.4 L
S
GR
GS
[0.8 0 0 0.8 0 0] CT
0.149 GC
2 setlinecap
1 LJ
0.625 LW
N
507 245.375 M
502.66 245.375 L
S
GR
GS
[0.8 0 0 0.8 0 0] CT
0.149 GC
2 setlinecap
1 LJ
0.625 LW
N
507 236.8 M
502.66 236.8 L
S
GR
GS
[0.8 0 0 0.8 0 0] CT
0.149 GC
2 setlinecap
1 LJ
0.625 LW
N
507 159.625 M
502.66 159.625 L
S
GR
GS
[0.8 0 0 0.8 0 0] CT
0.149 GC
2 setlinecap
1 LJ
0.625 LW
N
507 168.2 M
502.66 168.2 L
S
GR
GS
[0.75 0 0 0.75 0 0] CT
0.149 GC
2 setlinecap
1 LJ
0.667 LW
N
507 99.6 M
502.66 99.6 L
S
GR
GS
[0.8 0 0 0.8 0 0] CT
0.149 GC
2 setlinecap
1 LJ
0.625 LW
N
507 73.875 M
502.66 73.875 L
S
GR
GS
[0.8 0 0 0.8 0 0] CT
0.149 GC
2 setlinecap
1 LJ
0.625 LW
N
507 31 M
502.66 31 L
S
GR
GS
[0.8 0 0 0.8 0 0] CT
0.149 GC
2 setlinecap
1 LJ
0.625 LW
N
73 374 M
75.17 374 L
S
GR
GS
[0.8 0 0 0.8 0 0] CT
0.149 GC
2 setlinecap
1 LJ
0.625 LW
N
73 353.349 M
75.17 353.349 L
S
GR
GS
[0.8 0 0 0.8 0 0] CT
0.149 GC
2 setlinecap
1 LJ
0.625 LW
N
73 341.269 M
75.17 341.269 L
S
GR
GS
[0.8 0 0 0.8 0 0] CT
0.149 GC
2 setlinecap
1 LJ
0.625 LW
N
73 332.699 M
75.17 332.699 L
S
GR
GS
[0.8 0 0 0.8 0 0] CT
0.149 GC
2 setlinecap
1 LJ
0.625 LW
N
73 326.051 M
75.17 326.051 L
S
GR
GS
[0.8 0 0 0.8 0 0] CT
0.149 GC
2 setlinecap
1 LJ
0.625 LW
N
73 320.619 M
75.17 320.619 L
S
GR
GS
[0.8 0 0 0.8 0 0] CT
0.149 GC
2 setlinecap
1 LJ
0.625 LW
N
73 316.026 M
75.17 316.026 L
S
GR
GS
[0.8 0 0 0.8 0 0] CT
0.149 GC
2 setlinecap
1 LJ
0.625 LW
N
73 312.048 M
75.17 312.048 L
S
GR
GS
[0.8 0 0 0.8 0 0] CT
0.149 GC
2 setlinecap
1 LJ
0.625 LW
N
73 308.539 M
75.17 308.539 L
S
GR
GS
[0.8 0 0 0.8 0 0] CT
0.149 GC
2 setlinecap
1 LJ
0.625 LW
N
73 305.4 M
75.17 305.4 L
S
GR
GS
[0.8 0 0 0.8 0 0] CT
0.149 GC
2 setlinecap
1 LJ
0.625 LW
N
73 305.4 M
75.17 305.4 L
S
GR
GS
[0.8 0 0 0.8 0 0] CT
0.149 GC
2 setlinecap
1 LJ
0.625 LW
N
73 284.749 M
75.17 284.749 L
S
GR
GS
[0.8 0 0 0.8 0 0] CT
0.149 GC
2 setlinecap
1 LJ
0.625 LW
N
73 272.669 M
75.17 272.669 L
S
GR
GS
[0.8 0 0 0.8 0 0] CT
0.149 GC
2 setlinecap
1 LJ
0.625 LW
N
73 264.099 M
75.17 264.099 L
S
GR
GS
[0.8 0 0 0.8 0 0] CT
0.149 GC
2 setlinecap
1 LJ
0.625 LW
N
73 257.451 M
75.17 257.451 L
S
GR
GS
[0.8 0 0 0.8 0 0] CT
0.149 GC
2 setlinecap
1 LJ
0.625 LW
N
73 252.019 M
75.17 252.019 L
S
GR
GS
[0.8 0 0 0.8 0 0] CT
0.149 GC
2 setlinecap
1 LJ
0.625 LW
N
73 247.426 M
75.17 247.426 L
S
GR
GS
[0.8 0 0 0.8 0 0] CT
0.149 GC
2 setlinecap
1 LJ
0.625 LW
N
73 243.448 M
75.17 243.448 L
S
GR
GS
[0.8 0 0 0.8 0 0] CT
0.149 GC
2 setlinecap
1 LJ
0.625 LW
N
73 239.939 M
75.17 239.939 L
S
GR
GS
[0.8 0 0 0.8 0 0] CT
0.149 GC
2 setlinecap
1 LJ
0.625 LW
N
73 236.8 M
75.17 236.8 L
S
GR
GS
[0.8 0 0 0.8 0 0] CT
0.149 GC
2 setlinecap
1 LJ
0.625 LW
N
73 216.149 M
75.17 216.149 L
S
GR
GS
[0.8 0 0 0.8 0 0] CT
0.149 GC
2 setlinecap
1 LJ
0.625 LW
N
73 204.069 M
75.17 204.069 L
S
GR
GS
[0.8 0 0 0.8 0 0] CT
0.149 GC
2 setlinecap
1 LJ
0.625 LW
N
73 195.499 M
75.17 195.499 L
S
GR
GS
[0.8 0 0 0.8 0 0] CT
0.149 GC
2 setlinecap
1 LJ
0.625 LW
N
73 188.851 M
75.17 188.851 L
S
GR
GS
[0.8 0 0 0.8 0 0] CT
0.149 GC
2 setlinecap
1 LJ
0.625 LW
N
73 183.419 M
75.17 183.419 L
S
GR
GS
[0.8 0 0 0.8 0 0] CT
0.149 GC
2 setlinecap
1 LJ
0.625 LW
N
73 178.826 M
75.17 178.826 L
S
GR
GS
[0.8 0 0 0.8 0 0] CT
0.149 GC
2 setlinecap
1 LJ
0.625 LW
N
73 174.848 M
75.17 174.848 L
S
GR
GS
[0.8 0 0 0.8 0 0] CT
0.149 GC
2 setlinecap
1 LJ
0.625 LW
N
73 171.339 M
75.17 171.339 L
S
GR
GS
[0.8 0 0 0.8 0 0] CT
0.149 GC
2 setlinecap
1 LJ
0.625 LW
N
73 168.2 M
75.17 168.2 L
S
GR
GS
[0.8 0 0 0.8 0 0] CT
0.149 GC
2 setlinecap
1 LJ
0.625 LW
N
73 147.549 M
75.17 147.549 L
S
GR
GS
[0.8 0 0 0.8 0 0] CT
0.149 GC
2 setlinecap
1 LJ
0.625 LW
N
73 135.469 M
75.17 135.469 L
S
GR
GS
[0.8 0 0 0.8 0 0] CT
0.149 GC
2 setlinecap
1 LJ
0.625 LW
N
73 126.899 M
75.17 126.899 L
S
GR
GS
[0.8 0 0 0.8 0 0] CT
0.149 GC
2 setlinecap
1 LJ
0.625 LW
N
73 120.251 M
75.17 120.251 L
S
GR
GS
[0.8 0 0 0.8 0 0] CT
0.149 GC
2 setlinecap
1 LJ
0.625 LW
N
73 114.819 M
75.17 114.819 L
S
GR
GS
[0.8 0 0 0.8 0 0] CT
0.149 GC
2 setlinecap
1 LJ
0.625 LW
N
73 110.226 M
75.17 110.226 L
S
GR
GS
[0.8 0 0 0.8 0 0] CT
0.149 GC
2 setlinecap
1 LJ
0.625 LW
N
73 106.248 M
75.17 106.248 L
S
GR
GS
[0.8 0 0 0.8 0 0] CT
0.149 GC
2 setlinecap
1 LJ
0.625 LW
N
73 102.739 M
75.17 102.739 L
S
GR
GS
[0.8 0 0 0.8 0 0] CT
0.149 GC
2 setlinecap
1 LJ
0.625 LW
N
73 99.6 M
75.17 99.6 L
S
GR
GS
[0.8 0 0 0.8 0 0] CT
0.149 GC
2 setlinecap
1 LJ
0.625 LW
N
73 78.949 M
75.17 78.949 L
S
GR
GS
[0.8 0 0 0.8 0 0] CT
0.149 GC
2 setlinecap
1 LJ
0.625 LW
N
73 66.869 M
75.17 66.869 L
S
GR
GS
[0.8 0 0 0.8 0 0] CT
0.149 GC
2 setlinecap
1 LJ
0.625 LW
N
73 58.299 M
75.17 58.299 L
S
GR
GS
[0.8 0 0 0.8 0 0] CT
0.149 GC
2 setlinecap
1 LJ
0.625 LW
N
73 51.651 M
75.17 51.651 L
S
GR
GS
[0.8 0 0 0.8 0 0] CT
0.149 GC
2 setlinecap
1 LJ
0.625 LW
N
73 46.219 M
75.17 46.219 L
S
GR
GS
[0.8 0 0 0.8 0 0] CT
0.149 GC
2 setlinecap
1 LJ
0.625 LW
N
73 41.626 M
75.17 41.626 L
S
GR
GS
[0.8 0 0 0.8 0 0] CT
0.149 GC
2 setlinecap
1 LJ
0.625 LW
N
73 37.648 M
75.17 37.648 L
S
GR
GS
[0.8 0 0 0.8 0 0] CT
0.149 GC
2 setlinecap
1 LJ
0.625 LW
N
<<<<<<< HEAD
73 161.587 M
75.17 161.587 L
S
GR
GS
[0.8 0 0 0.8 0 0] CT
0.149 GC
2 setlinecap
1 LJ
0.625 LW
N
73 159.625 M
75.17 159.625 L
S
GR
GS
[0.8 0 0 0.8 0 0] CT
0.149 GC
2 setlinecap
1 LJ
0.625 LW
N
73 146.718 M
75.17 146.718 L
S
GR
GS
[0.8 0 0 0.8 0 0] CT
0.149 GC
2 setlinecap
1 LJ
0.625 LW
N
73 139.168 M
75.17 139.168 L
S
GR
GS
[0.8 0 0 0.8 0 0] CT
0.149 GC
2 setlinecap
1 LJ
0.625 LW
N
73 133.812 M
75.17 133.812 L
S
GR
GS
[0.8 0 0 0.8 0 0] CT
0.149 GC
2 setlinecap
1 LJ
0.625 LW
N
73 129.657 M
75.17 129.657 L
S
GR
GS
[0.8 0 0 0.8 0 0] CT
0.149 GC
2 setlinecap
1 LJ
0.625 LW
N
73 126.262 M
75.17 126.262 L
S
GR
GS
[0.8 0 0 0.8 0 0] CT
0.149 GC
2 setlinecap
1 LJ
0.625 LW
N
73 123.391 M
75.17 123.391 L
S
GR
GS
[0.8 0 0 0.8 0 0] CT
0.149 GC
2 setlinecap
1 LJ
0.625 LW
N
73 120.905 M
75.17 120.905 L
S
GR
GS
[0.8 0 0 0.8 0 0] CT
0.149 GC
2 setlinecap
1 LJ
0.625 LW
N
73 118.712 M
75.17 118.712 L
S
GR
GS
[0.8 0 0 0.8 0 0] CT
0.149 GC
2 setlinecap
1 LJ
0.625 LW
N
73 116.75 M
75.17 116.75 L
S
GR
GS
[0.8 0 0 0.8 0 0] CT
0.149 GC
2 setlinecap
1 LJ
0.625 LW
N
73 103.843 M
75.17 103.843 L
S
GR
GS
[0.8 0 0 0.8 0 0] CT
0.149 GC
2 setlinecap
1 LJ
0.625 LW
N
73 96.293 M
75.17 96.293 L
S
GR
GS
[0.8 0 0 0.8 0 0] CT
0.149 GC
2 setlinecap
1 LJ
0.625 LW
N
73 90.937 M
75.17 90.937 L
S
GR
GS
[0.8 0 0 0.8 0 0] CT
0.149 GC
2 setlinecap
1 LJ
0.625 LW
N
73 86.782 M
75.17 86.782 L
S
GR
GS
[0.8 0 0 0.8 0 0] CT
0.149 GC
2 setlinecap
1 LJ
0.625 LW
N
73 83.387 M
75.17 83.387 L
S
GR
GS
[0.8 0 0 0.8 0 0] CT
0.149 GC
2 setlinecap
1 LJ
0.625 LW
N
73 80.516 M
75.17 80.516 L
S
GR
GS
[0.8 0 0 0.8 0 0] CT
0.149 GC
2 setlinecap
1 LJ
0.625 LW
N
73 78.03 M
75.17 78.03 L
S
GR
GS
[0.8 0 0 0.8 0 0] CT
0.149 GC
2 setlinecap
1 LJ
0.625 LW
N
73 75.837 M
75.17 75.837 L
S
GR
GS
[0.8 0 0 0.8 0 0] CT
0.149 GC
2 setlinecap
1 LJ
0.625 LW
N
73 73.875 M
75.17 73.875 L
S
GR
GS
[0.8 0 0 0.8 0 0] CT
0.149 GC
2 setlinecap
1 LJ
0.625 LW
N
73 60.968 M
75.17 60.968 L
S
GR
GS
[0.8 0 0 0.8 0 0] CT
0.149 GC
2 setlinecap
1 LJ
0.625 LW
N
73 53.418 M
75.17 53.418 L
S
GR
GS
[0.8 0 0 0.8 0 0] CT
0.149 GC
2 setlinecap
1 LJ
0.625 LW
N
73 48.062 M
75.17 48.062 L
S
GR
GS
[0.8 0 0 0.8 0 0] CT
0.149 GC
2 setlinecap
1 LJ
0.625 LW
N
73 43.907 M
75.17 43.907 L
S
GR
GS
[0.8 0 0 0.8 0 0] CT
0.149 GC
2 setlinecap
1 LJ
0.625 LW
N
73 40.512 M
75.17 40.512 L
S
GR
GS
[0.8 0 0 0.8 0 0] CT
0.149 GC
2 setlinecap
1 LJ
0.625 LW
N
73 37.641 M
75.17 37.641 L
S
GR
GS
[0.8 0 0 0.8 0 0] CT
0.149 GC
2 setlinecap
1 LJ
0.625 LW
N
73 35.155 M
75.17 35.155 L
S
GR
GS
[0.8 0 0 0.8 0 0] CT
0.149 GC
2 setlinecap
1 LJ
0.625 LW
N
73 32.962 M
75.17 32.962 L
=======
73 34.139 M
75.17 34.139 L
>>>>>>> f4de00b5db4de07fdb797f1545578c2683f6c040
S
GR
GS
[0.8 0 0 0.8 0 0] CT
0.149 GC
2 setlinecap
1 LJ
0.625 LW
N
73 31 M
75.17 31 L
S
GR
GS
[0.8 0 0 0.8 0 0] CT
0.149 GC
2 setlinecap
1 LJ
0.625 LW
N
507 374 M
504.83 374 L
S
GR
GS
[0.8 0 0 0.8 0 0] CT
0.149 GC
2 setlinecap
1 LJ
0.625 LW
N
507 353.349 M
504.83 353.349 L
S
GR
GS
[0.8 0 0 0.8 0 0] CT
0.149 GC
2 setlinecap
1 LJ
0.625 LW
N
507 341.269 M
504.83 341.269 L
S
GR
GS
[0.8 0 0 0.8 0 0] CT
0.149 GC
2 setlinecap
1 LJ
0.625 LW
N
507 332.699 M
504.83 332.699 L
S
GR
GS
[0.8 0 0 0.8 0 0] CT
0.149 GC
2 setlinecap
1 LJ
0.625 LW
N
507 326.051 M
504.83 326.051 L
S
GR
GS
[0.8 0 0 0.8 0 0] CT
0.149 GC
2 setlinecap
1 LJ
0.625 LW
N
507 320.619 M
504.83 320.619 L
S
GR
GS
[0.8 0 0 0.8 0 0] CT
0.149 GC
2 setlinecap
1 LJ
0.625 LW
N
507 316.026 M
504.83 316.026 L
S
GR
GS
[0.8 0 0 0.8 0 0] CT
0.149 GC
2 setlinecap
1 LJ
0.625 LW
N
507 312.048 M
504.83 312.048 L
S
GR
GS
[0.8 0 0 0.8 0 0] CT
0.149 GC
2 setlinecap
1 LJ
0.625 LW
N
507 308.539 M
504.83 308.539 L
S
GR
GS
[0.8 0 0 0.8 0 0] CT
0.149 GC
2 setlinecap
1 LJ
0.625 LW
N
507 305.4 M
504.83 305.4 L
S
GR
GS
[0.8 0 0 0.8 0 0] CT
0.149 GC
2 setlinecap
1 LJ
0.625 LW
N
507 305.4 M
504.83 305.4 L
S
GR
GS
[0.8 0 0 0.8 0 0] CT
0.149 GC
2 setlinecap
1 LJ
0.625 LW
N
507 284.749 M
504.83 284.749 L
S
GR
GS
[0.8 0 0 0.8 0 0] CT
0.149 GC
2 setlinecap
1 LJ
0.625 LW
N
507 272.669 M
504.83 272.669 L
S
GR
GS
[0.8 0 0 0.8 0 0] CT
0.149 GC
2 setlinecap
1 LJ
0.625 LW
N
507 264.099 M
504.83 264.099 L
S
GR
GS
[0.8 0 0 0.8 0 0] CT
0.149 GC
2 setlinecap
1 LJ
0.625 LW
N
507 257.451 M
504.83 257.451 L
S
GR
GS
[0.8 0 0 0.8 0 0] CT
0.149 GC
2 setlinecap
1 LJ
0.625 LW
N
507 252.019 M
504.83 252.019 L
S
GR
GS
[0.8 0 0 0.8 0 0] CT
0.149 GC
2 setlinecap
1 LJ
0.625 LW
N
507 247.426 M
504.83 247.426 L
S
GR
GS
[0.8 0 0 0.8 0 0] CT
0.149 GC
2 setlinecap
1 LJ
0.625 LW
N
507 243.448 M
504.83 243.448 L
S
GR
GS
[0.8 0 0 0.8 0 0] CT
0.149 GC
2 setlinecap
1 LJ
0.625 LW
N
507 239.939 M
504.83 239.939 L
S
GR
GS
[0.8 0 0 0.8 0 0] CT
0.149 GC
2 setlinecap
1 LJ
0.625 LW
N
507 236.8 M
504.83 236.8 L
S
GR
GS
[0.8 0 0 0.8 0 0] CT
0.149 GC
2 setlinecap
1 LJ
0.625 LW
N
507 216.149 M
504.83 216.149 L
S
GR
GS
[0.8 0 0 0.8 0 0] CT
0.149 GC
2 setlinecap
1 LJ
0.625 LW
N
507 204.069 M
504.83 204.069 L
S
GR
GS
[0.8 0 0 0.8 0 0] CT
0.149 GC
2 setlinecap
1 LJ
0.625 LW
N
507 195.499 M
504.83 195.499 L
S
GR
GS
[0.8 0 0 0.8 0 0] CT
0.149 GC
2 setlinecap
1 LJ
0.625 LW
N
507 188.851 M
504.83 188.851 L
S
GR
GS
[0.8 0 0 0.8 0 0] CT
0.149 GC
2 setlinecap
1 LJ
0.625 LW
N
507 183.419 M
504.83 183.419 L
S
GR
GS
[0.8 0 0 0.8 0 0] CT
0.149 GC
2 setlinecap
1 LJ
0.625 LW
N
507 178.826 M
504.83 178.826 L
S
GR
GS
[0.8 0 0 0.8 0 0] CT
0.149 GC
2 setlinecap
1 LJ
0.625 LW
N
507 174.848 M
504.83 174.848 L
S
GR
GS
[0.8 0 0 0.8 0 0] CT
0.149 GC
2 setlinecap
1 LJ
0.625 LW
N
507 171.339 M
504.83 171.339 L
S
GR
GS
[0.8 0 0 0.8 0 0] CT
0.149 GC
2 setlinecap
1 LJ
0.625 LW
N
507 168.2 M
504.83 168.2 L
S
GR
GS
[0.8 0 0 0.8 0 0] CT
0.149 GC
2 setlinecap
1 LJ
0.625 LW
N
507 147.549 M
504.83 147.549 L
S
GR
GS
[0.8 0 0 0.8 0 0] CT
0.149 GC
2 setlinecap
1 LJ
0.625 LW
N
507 135.469 M
504.83 135.469 L
S
GR
GS
[0.8 0 0 0.8 0 0] CT
0.149 GC
2 setlinecap
1 LJ
0.625 LW
N
507 126.899 M
504.83 126.899 L
S
GR
GS
[0.8 0 0 0.8 0 0] CT
0.149 GC
2 setlinecap
1 LJ
0.625 LW
N
507 120.251 M
504.83 120.251 L
S
GR
GS
[0.8 0 0 0.8 0 0] CT
0.149 GC
2 setlinecap
1 LJ
0.625 LW
N
507 114.819 M
504.83 114.819 L
S
GR
GS
[0.8 0 0 0.8 0 0] CT
0.149 GC
2 setlinecap
1 LJ
0.625 LW
N
507 110.226 M
504.83 110.226 L
S
GR
GS
[0.8 0 0 0.8 0 0] CT
0.149 GC
2 setlinecap
1 LJ
0.625 LW
N
507 106.248 M
504.83 106.248 L
S
GR
GS
[0.8 0 0 0.8 0 0] CT
0.149 GC
2 setlinecap
1 LJ
0.625 LW
N
507 102.739 M
504.83 102.739 L
S
GR
GS
[0.8 0 0 0.8 0 0] CT
0.149 GC
2 setlinecap
1 LJ
0.625 LW
N
507 99.6 M
504.83 99.6 L
S
GR
GS
[0.8 0 0 0.8 0 0] CT
0.149 GC
2 setlinecap
1 LJ
0.625 LW
N
507 78.949 M
504.83 78.949 L
S
GR
GS
[0.8 0 0 0.8 0 0] CT
0.149 GC
2 setlinecap
1 LJ
0.625 LW
N
507 66.869 M
504.83 66.869 L
S
GR
GS
[0.8 0 0 0.8 0 0] CT
0.149 GC
2 setlinecap
1 LJ
0.625 LW
N
507 58.299 M
504.83 58.299 L
S
GR
GS
[0.8 0 0 0.8 0 0] CT
0.149 GC
2 setlinecap
1 LJ
0.625 LW
N
507 51.651 M
504.83 51.651 L
S
GR
GS
[0.8 0 0 0.8 0 0] CT
0.149 GC
2 setlinecap
1 LJ
0.625 LW
N
507 46.219 M
504.83 46.219 L
S
GR
GS
[0.8 0 0 0.8 0 0] CT
0.149 GC
2 setlinecap
1 LJ
0.625 LW
N
507 41.626 M
504.83 41.626 L
S
GR
GS
[0.8 0 0 0.8 0 0] CT
0.149 GC
2 setlinecap
1 LJ
0.625 LW
N
507 37.648 M
504.83 37.648 L
S
GR
GS
[0.8 0 0 0.8 0 0] CT
0.149 GC
2 setlinecap
1 LJ
0.625 LW
N
<<<<<<< HEAD
507 161.587 M
504.83 161.587 L
S
GR
GS
[0.8 0 0 0.8 0 0] CT
0.149 GC
2 setlinecap
1 LJ
0.625 LW
N
507 159.625 M
504.83 159.625 L
S
GR
GS
[0.8 0 0 0.8 0 0] CT
0.149 GC
2 setlinecap
1 LJ
0.625 LW
N
507 146.718 M
504.83 146.718 L
S
GR
GS
[0.8 0 0 0.8 0 0] CT
0.149 GC
2 setlinecap
1 LJ
0.625 LW
N
507 139.168 M
504.83 139.168 L
S
GR
GS
[0.8 0 0 0.8 0 0] CT
0.149 GC
2 setlinecap
1 LJ
0.625 LW
N
507 133.812 M
504.83 133.812 L
S
GR
GS
[0.8 0 0 0.8 0 0] CT
0.149 GC
2 setlinecap
1 LJ
0.625 LW
N
507 129.657 M
504.83 129.657 L
S
GR
GS
[0.8 0 0 0.8 0 0] CT
0.149 GC
2 setlinecap
1 LJ
0.625 LW
N
507 126.262 M
504.83 126.262 L
S
GR
GS
[0.8 0 0 0.8 0 0] CT
0.149 GC
2 setlinecap
1 LJ
0.625 LW
N
507 123.391 M
504.83 123.391 L
S
GR
GS
[0.8 0 0 0.8 0 0] CT
0.149 GC
2 setlinecap
1 LJ
0.625 LW
N
507 120.905 M
504.83 120.905 L
S
GR
GS
[0.8 0 0 0.8 0 0] CT
0.149 GC
2 setlinecap
1 LJ
0.625 LW
N
507 118.712 M
504.83 118.712 L
S
GR
GS
[0.8 0 0 0.8 0 0] CT
0.149 GC
2 setlinecap
1 LJ
0.625 LW
N
507 116.75 M
504.83 116.75 L
S
GR
GS
[0.8 0 0 0.8 0 0] CT
0.149 GC
2 setlinecap
1 LJ
0.625 LW
N
507 103.843 M
504.83 103.843 L
S
GR
GS
[0.8 0 0 0.8 0 0] CT
0.149 GC
2 setlinecap
1 LJ
0.625 LW
N
507 96.293 M
504.83 96.293 L
S
GR
GS
[0.8 0 0 0.8 0 0] CT
0.149 GC
2 setlinecap
1 LJ
0.625 LW
N
507 90.937 M
504.83 90.937 L
S
GR
GS
[0.8 0 0 0.8 0 0] CT
0.149 GC
2 setlinecap
1 LJ
0.625 LW
N
507 86.782 M
504.83 86.782 L
S
GR
GS
[0.8 0 0 0.8 0 0] CT
0.149 GC
2 setlinecap
1 LJ
0.625 LW
N
507 83.387 M
504.83 83.387 L
S
GR
GS
[0.8 0 0 0.8 0 0] CT
0.149 GC
2 setlinecap
1 LJ
0.625 LW
N
507 80.516 M
504.83 80.516 L
S
GR
GS
[0.8 0 0 0.8 0 0] CT
0.149 GC
2 setlinecap
1 LJ
0.625 LW
N
507 78.03 M
504.83 78.03 L
S
GR
GS
[0.8 0 0 0.8 0 0] CT
0.149 GC
2 setlinecap
1 LJ
0.625 LW
N
507 75.837 M
504.83 75.837 L
S
GR
GS
[0.8 0 0 0.8 0 0] CT
0.149 GC
2 setlinecap
1 LJ
0.625 LW
N
507 73.875 M
504.83 73.875 L
S
GR
GS
[0.8 0 0 0.8 0 0] CT
0.149 GC
2 setlinecap
1 LJ
0.625 LW
N
507 60.968 M
504.83 60.968 L
S
GR
GS
[0.8 0 0 0.8 0 0] CT
0.149 GC
2 setlinecap
1 LJ
0.625 LW
N
507 53.418 M
504.83 53.418 L
S
GR
GS
[0.8 0 0 0.8 0 0] CT
0.149 GC
2 setlinecap
1 LJ
0.625 LW
N
507 48.062 M
504.83 48.062 L
S
GR
GS
[0.8 0 0 0.8 0 0] CT
0.149 GC
2 setlinecap
1 LJ
0.625 LW
N
507 43.907 M
504.83 43.907 L
S
GR
GS
[0.8 0 0 0.8 0 0] CT
0.149 GC
2 setlinecap
1 LJ
0.625 LW
N
507 40.512 M
504.83 40.512 L
S
GR
GS
[0.8 0 0 0.8 0 0] CT
0.149 GC
2 setlinecap
1 LJ
0.625 LW
N
507 37.641 M
504.83 37.641 L
S
GR
GS
[0.8 0 0 0.8 0 0] CT
0.149 GC
2 setlinecap
1 LJ
0.625 LW
N
507 35.155 M
504.83 35.155 L
S
GR
GS
[0.8 0 0 0.8 0 0] CT
0.149 GC
2 setlinecap
1 LJ
0.625 LW
N
507 32.962 M
504.83 32.962 L
=======
507 34.139 M
504.83 34.139 L
>>>>>>> f4de00b5db4de07fdb797f1545578c2683f6c040
S
GR
GS
[0.8 0 0 0.8 0 0] CT
0.149 GC
2 setlinecap
1 LJ
0.625 LW
N
507 31 M
504.83 31 L
S
GR
GS
[0.8 0 0 0.8 33.6 304.8] CT
0.149 GC
/Helvetica 12.5 F
GS
[1 0 0 1 0 0] CT
0 0 moveto 
1 -1 scale
(10) t 
GR
GR
GS
[0.8 0 0 0.8 46.4 300] CT
0.149 GC
/Helvetica 10 F
GS
[1 0 0 1 0 0] CT
0 0 moveto 
1 -1 scale
(-5) t 
GR
GR
GS
<<<<<<< HEAD
[0.8 0 0 0.8 33.6 270.4] CT
=======
[0.75 0 0 0.75 30 233.25] CT
>>>>>>> f4de00b5db4de07fdb797f1545578c2683f6c040
0.149 GC
/Helvetica 12.5 F
GS
[1 0 0 1 0 0] CT
0 0 moveto 
1 -1 scale
(10) t 
GR
GR
GS
<<<<<<< HEAD
[0.8 0 0 0.8 46.4 265.6] CT
=======
[0.75 0 0 0.75 42.75 228.75] CT
>>>>>>> f4de00b5db4de07fdb797f1545578c2683f6c040
0.149 GC
/Helvetica 10 F
GS
[1 0 0 1 0 0] CT
0 0 moveto 
1 -1 scale
(-5) t 
GR
GR
GS
[0.8 0 0 0.8 33.6 236] CT
0.149 GC
/Helvetica 12.5 F
GS
[1 0 0 1 0 0] CT
0 0 moveto 
1 -1 scale
(10) t 
GR
GR
GS
[0.8 0 0 0.8 46.4 231.2] CT
0.149 GC
/Helvetica 10 F
GS
[1 0 0 1 0 0] CT
0 0 moveto 
1 -1 scale
(-4) t 
GR
GR
GS
<<<<<<< HEAD
[0.8 0 0 0.8 33.6 201.6] CT
=======
[0.75 0 0 0.75 30 182.25] CT
>>>>>>> f4de00b5db4de07fdb797f1545578c2683f6c040
0.149 GC
/Helvetica 12.5 F
GS
[1 0 0 1 0 0] CT
0 0 moveto 
1 -1 scale
(10) t 
GR
GR
GS
<<<<<<< HEAD
[0.8 0 0 0.8 46.4 196.8] CT
=======
[0.75 0 0 0.75 42.75 177.75] CT
0.149 GC
/Helvetica 10.667 F
GS
[1 0 0 1 0 0] CT
0 0 moveto 
1 -1 scale
(-3) t 
GR
GR
GS
[0.75 0 0 0.75 30 130.5] CT
0.149 GC
/Helvetica 13.333 F
GS
[1 0 0 1 0 0] CT
0 0 moveto 
1 -1 scale
(10) t 
GR
GR
GS
[0.75 0 0 0.75 42.75 126] CT
>>>>>>> f4de00b5db4de07fdb797f1545578c2683f6c040
0.149 GC
/Helvetica 10 F
GS
[1 0 0 1 0 0] CT
0 0 moveto 
1 -1 scale
(-3) t 
GR
GR
GS
[0.8 0 0 0.8 33.6 168] CT
0.149 GC
/Helvetica 12.5 F
GS
[1 0 0 1 0 0] CT
0 0 moveto 
1 -1 scale
(10) t 
GR
GR
GS
[0.8 0 0 0.8 46.4 163.2] CT
0.149 GC
/Helvetica 10 F
GS
[1 0 0 1 0 0] CT
0 0 moveto 
1 -1 scale
(-2) t 
GR
GR
GS
<<<<<<< HEAD
[0.8 0 0 0.8 33.6 133.6] CT
=======
[0.75 0 0 0.75 30 79.5] CT
>>>>>>> f4de00b5db4de07fdb797f1545578c2683f6c040
0.149 GC
/Helvetica 12.5 F
GS
[1 0 0 1 0 0] CT
0 0 moveto 
1 -1 scale
(10) t 
GR
GR
GS
<<<<<<< HEAD
[0.8 0 0 0.8 46.4 128.8] CT
=======
[0.75 0 0 0.75 42.75 75] CT
>>>>>>> f4de00b5db4de07fdb797f1545578c2683f6c040
0.149 GC
/Helvetica 10 F
GS
[1 0 0 1 0 0] CT
0 0 moveto 
1 -1 scale
(-1) t 
GR
GR
GS
[0.8 0 0 0.8 36 99.2] CT
0.149 GC
/Helvetica 12.5 F
GS
[1 0 0 1 0 0] CT
0 0 moveto 
1 -1 scale
(10) t 
GR
GR
GS
[0.8 0 0 0.8 48.8 94.4] CT
0.149 GC
/Helvetica 10 F
GS
[1 0 0 1 0 0] CT
0 0 moveto 
1 -1 scale
(-1) t 
GR
GR
GS
[0.8 0 0 0.8 36 64.8] CT
0.149 GC
/Helvetica 12.5 F
GS
[1 0 0 1 0 0] CT
0 0 moveto 
1 -1 scale
(10) t 
GR
GR
GS
[0.8 0 0 0.8 48.8 60] CT
0.149 GC
/Helvetica 10 F
GS
[1 0 0 1 0 0] CT
0 0 moveto 
1 -1 scale
(1) t 
GR
GR
GS
[0.8 0 0 0.8 36 30.4] CT
0.149 GC
/Helvetica 12.5 F
GS
[1 0 0 1 0 0] CT
0 0 moveto 
1 -1 scale
(10) t 
GR
GR
GS
[0.8 0 0 0.8 48.8 25.6] CT
0.149 GC
/Helvetica 10 F
GS
[1 0 0 1 0 0] CT
0 0 moveto 
1 -1 scale
(0) t 
GR
GR
GS
[0 -0.8 0.8 0 30.6 161.99987] CT
0.149 GC
/Helvetica 13.75 F
GS
[1 0 0 1 0 0] CT
<<<<<<< HEAD
-63.5 -4 moveto 
=======
-73 -4 moveto 
>>>>>>> f4de00b5db4de07fdb797f1545578c2683f6c040
1 -1 scale
(Error in total torque) t 
GR
GR
GS
[0.8 0 0 0.8 0 0] CT
0 0.447 0.741 RC
1 LJ
2.5 LW
N
507 181.349 M
401.37 204.091 L
366.412 226.812 L
265.16 249.405 L
138.336 274.759 L
73 308.858 L
S
GR
GS
<<<<<<< HEAD
[0.8 0 0 0.8 347.43152 250.44268] CT
=======
[0.75 0 0 0.75 380.25 136.01147] CT
>>>>>>> f4de00b5db4de07fdb797f1545578c2683f6c040
0 0.447 0.741 RC
10.0 ML
2.5 LW
N
0 -7 M
0 7 L
-7 0 M
7 0 L
S
GR
GS
<<<<<<< HEAD
[0.8 0 0 0.8 251.08767 276.13247] CT
=======
[0.75 0 0 0.75 301.02715 153.06815] CT
>>>>>>> f4de00b5db4de07fdb797f1545578c2683f6c040
0 0.447 0.741 RC
10.0 ML
2.5 LW
N
0 -7 M
0 7 L
-7 0 M
7 0 L
S
GR
GS
<<<<<<< HEAD
[0.8 0 0 0.8 154.74384 277.71953] CT
=======
[0.75 0 0 0.75 274.80936 170.10925] CT
>>>>>>> f4de00b5db4de07fdb797f1545578c2683f6c040
0 0.447 0.741 RC
10.0 ML
2.5 LW
N
0 -7 M
0 7 L
-7 0 M
7 0 L
S
GR
GS
<<<<<<< HEAD
[0.8 0 0 0.8 58.4 290.17083] CT
=======
[0.75 0 0 0.75 198.87035 187.0541] CT
0 0.447 0.741 RC
10.0 ML
2.667 LW
N
0 -7 M
0 7 L
-7 0 M
7 0 L
S
GR
GS
[0.75 0 0 0.75 103.75234 206.06891] CT
0 0.447 0.741 RC
10.0 ML
2.667 LW
N
0 -7 M
0 7 L
-7 0 M
7 0 L
S
GR
GS
[0.75 0 0 0.75 54.75 231.6438] CT
>>>>>>> f4de00b5db4de07fdb797f1545578c2683f6c040
0 0.447 0.741 RC
10.0 ML
2.5 LW
N
0 -7 M
0 7 L
-7 0 M
7 0 L
S
GR
GS
[0.8 0 0 0.8 0 0] CT
0.851 0.325 0.098 RC
1 LJ
2.5 LW
N
507 37.39 M
401.37 51.494 L
366.412 55.33 L
265.16 69.098 L
138.336 84.55 L
73 92.293 L
S
GR
GS
<<<<<<< HEAD
[0.8 0 0 0.8 347.43152 46.44818] CT
=======
[0.75 0 0 0.75 380.25 28.04287] CT
>>>>>>> f4de00b5db4de07fdb797f1545578c2683f6c040
0.851 0.325 0.098 RC
10.0 ML
2.5 LW
N
0 -8.331 M
-7.215 4.166 L
7.215 4.166 L
cp
S
GR
GS
<<<<<<< HEAD
[0.8 0 0 0.8 251.08767 56.38075] CT
=======
[0.75 0 0 0.75 301.02715 38.62065] CT
>>>>>>> f4de00b5db4de07fdb797f1545578c2683f6c040
0.851 0.325 0.098 RC
10.0 ML
2.5 LW
N
0 -8.331 M
-7.215 4.166 L
7.215 4.166 L
cp
S
GR
GS
<<<<<<< HEAD
[0.8 0 0 0.8 154.74384 66.97635] CT
=======
[0.75 0 0 0.75 274.80936 41.4976] CT
>>>>>>> f4de00b5db4de07fdb797f1545578c2683f6c040
0.851 0.325 0.098 RC
10.0 ML
2.5 LW
N
0 -8.331 M
-7.215 4.166 L
7.215 4.166 L
cp
S
GR
GS
<<<<<<< HEAD
[0.8 0 0 0.8 58.4 77.6904] CT
=======
[0.75 0 0 0.75 198.87035 51.82375] CT
0.851 0.325 0.098 RC
10.0 ML
2.667 LW
N
0 -8.887 M
-7.696 4.443 L
7.696 4.443 L
cp
S
GR
GS
[0.75 0 0 0.75 103.75234 63.41233] CT
0.851 0.325 0.098 RC
10.0 ML
2.667 LW
N
0 -8.887 M
-7.696 4.443 L
7.696 4.443 L
cp
S
GR
GS
[0.75 0 0 0.75 54.75 69.21985] CT
>>>>>>> f4de00b5db4de07fdb797f1545578c2683f6c040
0.851 0.325 0.098 RC
10.0 ML
2.5 LW
N
0 -8.331 M
-7.215 4.166 L
7.215 4.166 L
cp
S
GR
GS
[0.8 0 0 0.8 0 0] CT
[10 6] 0 setdash
2 LJ
0.625 LW
N
507 180.477 M
401.37 210.136 L
366.412 219.951 L
265.16 248.381 L
138.336 283.992 L
73 302.337 L
S
GR
GS
[0.8 0 0 0.8 0 0] CT
[10 6] 0 setdash
2 LJ
0.625 LW
N
507 37.785 M
401.37 51.161 L
366.412 55.588 L
265.16 68.41 L
138.336 84.469 L
73 92.743 L
S
GR
GS
[0.8 0 0 0.8 0 0] CT
1 GC
N
497 364 M
497 331 L
424 331 L
424 364 L
cp
f
GR
GS
[0.8 0 0 0.8 374.55781 272.11077] CT
/Helvetica 11.25 F
GS
[1 0 0 1 0 0] CT
0 4 moveto 
1 -1 scale
(BEM) t 
GR
GR
GS
[0.8 0 0 0.8 0 0] CT
0 0.447 0.741 RC
1 LJ
2.5 LW
N
427.973 340.138 M
465.218 340.138 L
S
GR
GS
[0.8 0 0 0.8 357.2762 272.11077] CT
0 0.447 0.741 RC
10.0 ML
2.5 LW
N
0 -6 M
0 6 L
-6 0 M
6 0 L
S
GR
GS
[0.8 0 0 0.8 374.55781 283.88923] CT
/Helvetica 11.25 F
GS
[1 0 0 1 0 0] CT
0 4 moveto 
1 -1 scale
(MST) t 
GR
GR
GS
[0.8 0 0 0.8 0 0] CT
0.851 0.325 0.098 RC
1 LJ
2.5 LW
N
427.973 354.862 M
465.218 354.862 L
S
GR
GS
[0.8 0 0 0.8 357.2762 283.88923] CT
0.851 0.325 0.098 RC
10.0 ML
2.5 LW
N
0 -7.498 M
-6.493 3.749 L
6.493 3.749 L
cp
S
GR
GS
[0.8 0 0 0.8 0 0] CT
0.149 GC
10.0 ML
0.625 LW
N
424 364 M
424 331 L
497 331 L
497 364 L
cp
S
GR
%%Trailer
%%Pages: 1
%%EOF
