%!PS-Adobe-3.0 EPSF-3.0
%%Creator: (MATLAB, The Mathworks, Inc. Version 9.13.0.2105380 \(R2022b\) Update 2. Operating System: Linux)
%%Title: ./PMCFSP_forcesNtorques_getMeshCube_torques.eps
<<<<<<< HEAD
%%CreationDate: 2024-01-22T01:20:04
=======
%%CreationDate: 2024-01-22T00:32:25
>>>>>>> f4de00b5db4de07fdb797f1545578c2683f6c040
%%Pages: (atend)
%%BoundingBox:    19     8   420   311
%%LanguageLevel: 3
%%EndComments
%%BeginProlog
%%BeginResource: procset (Apache XML Graphics Std ProcSet) 1.2 0
%%Version: 1.2 0
%%Copyright: (Copyright 2001-2003,2010 The Apache Software Foundation. License terms: http://www.apache.org/licenses/LICENSE-2.0)
/bd{bind def}bind def
/ld{load def}bd
/GR/grestore ld
/GS/gsave ld
/RM/rmoveto ld
/C/curveto ld
/t/show ld
/L/lineto ld
/ML/setmiterlimit ld
/CT/concat ld
/f/fill ld
/N/newpath ld
/S/stroke ld
/CC/setcmykcolor ld
/A/ashow ld
/cp/closepath ld
/RC/setrgbcolor ld
/LJ/setlinejoin ld
/GC/setgray ld
/LW/setlinewidth ld
/M/moveto ld
/re {4 2 roll M
1 index 0 rlineto
0 exch rlineto
neg 0 rlineto
cp } bd
/_ctm matrix def
/_tm matrix def
/BT { _ctm currentmatrix pop matrix _tm copy pop 0 0 moveto } bd
/ET { _ctm setmatrix } bd
/iTm { _ctm setmatrix _tm concat } bd
/Tm { _tm astore pop iTm 0 0 moveto } bd
/ux 0.0 def
/uy 0.0 def
/F {
  /Tp exch def
  /Tf exch def
  Tf findfont Tp scalefont setfont
  /cf Tf def  /cs Tp def
} bd
/ULS {currentpoint /uy exch def /ux exch def} bd
/ULE {
  /Tcx currentpoint pop def
  gsave
  newpath
  cf findfont cs scalefont dup
  /FontMatrix get 0 get /Ts exch def /FontInfo get dup
  /UnderlinePosition get Ts mul /To exch def
  /UnderlineThickness get Ts mul /Tt exch def
  ux uy To add moveto  Tcx uy To add lineto
  Tt setlinewidth stroke
  grestore
} bd
/OLE {
  /Tcx currentpoint pop def
  gsave
  newpath
  cf findfont cs scalefont dup
  /FontMatrix get 0 get /Ts exch def /FontInfo get dup
  /UnderlinePosition get Ts mul /To exch def
  /UnderlineThickness get Ts mul /Tt exch def
  ux uy To add cs add moveto Tcx uy To add cs add lineto
  Tt setlinewidth stroke
  grestore
} bd
/SOE {
  /Tcx currentpoint pop def
  gsave
  newpath
  cf findfont cs scalefont dup
  /FontMatrix get 0 get /Ts exch def /FontInfo get dup
  /UnderlinePosition get Ts mul /To exch def
  /UnderlineThickness get Ts mul /Tt exch def
  ux uy To add cs 10 mul 26 idiv add moveto Tcx uy To add cs 10 mul 26 idiv add lineto
  Tt setlinewidth stroke
  grestore
} bd
/QT {
/Y22 exch store
/X22 exch store
/Y21 exch store
/X21 exch store
currentpoint
/Y21 load 2 mul add 3 div exch
/X21 load 2 mul add 3 div exch
/X21 load 2 mul /X22 load add 3 div
/Y21 load 2 mul /Y22 load add 3 div
/X22 load /Y22 load curveto
} bd
/SSPD {
dup length /d exch dict def
{
/v exch def
/k exch def
currentpagedevice k known {
/cpdv currentpagedevice k get def
v cpdv ne {
/upd false def
/nullv v type /nulltype eq def
/nullcpdv cpdv type /nulltype eq def
nullv nullcpdv or
{
/upd true def
} {
/sametype v type cpdv type eq def
sametype {
v type /arraytype eq {
/vlen v length def
/cpdvlen cpdv length def
vlen cpdvlen eq {
0 1 vlen 1 sub {
/i exch def
/obj v i get def
/cpdobj cpdv i get def
obj cpdobj ne {
/upd true def
exit
} if
} for
} {
/upd true def
} ifelse
} {
v type /dicttype eq {
v {
/dv exch def
/dk exch def
/cpddv cpdv dk get def
dv cpddv ne {
/upd true def
exit
} if
} forall
} {
/upd true def
} ifelse
} ifelse
} if
} ifelse
upd true eq {
d k v put
} if
} if
} if
} forall
d length 0 gt {
d setpagedevice
} if
} bd
/RE { % /NewFontName [NewEncodingArray] /FontName RE -
  findfont dup length dict begin
  {
    1 index /FID ne
    {def} {pop pop} ifelse
  } forall
  /Encoding exch def
  /FontName 1 index def
  currentdict definefont pop
  end
} bind def
%%EndResource
%%BeginResource: procset (Apache XML Graphics EPS ProcSet) 1.0 0
%%Version: 1.0 0
%%Copyright: (Copyright 2002-2003 The Apache Software Foundation. License terms: http://www.apache.org/licenses/LICENSE-2.0)
/BeginEPSF { %def
/b4_Inc_state save def         % Save state for cleanup
/dict_count countdictstack def % Count objects on dict stack
/op_count count 1 sub def      % Count objects on operand stack
userdict begin                 % Push userdict on dict stack
/showpage { } def              % Redefine showpage, { } = null proc
0 setgray 0 setlinecap         % Prepare graphics state
1 setlinewidth 0 setlinejoin
10 setmiterlimit [ ] 0 setdash newpath
/languagelevel where           % If level not equal to 1 then
{pop languagelevel             % set strokeadjust and
1 ne                           % overprint to their defaults.
{false setstrokeadjust false setoverprint
} if
} if
} bd
/EndEPSF { %def
count op_count sub {pop} repeat            % Clean up stacks
countdictstack dict_count sub {end} repeat
b4_Inc_state restore
} bd
%%EndResource
%FOPBeginFontDict
%%IncludeResource: font Courier-Oblique
%%IncludeResource: font Courier-BoldOblique
%%IncludeResource: font Courier-Bold
%%IncludeResource: font ZapfDingbats
%%IncludeResource: font Symbol
%%IncludeResource: font Helvetica
%%IncludeResource: font Helvetica-Oblique
%%IncludeResource: font Helvetica-Bold
%%IncludeResource: font Helvetica-BoldOblique
%%IncludeResource: font Times-Roman
%%IncludeResource: font Times-Italic
%%IncludeResource: font Times-Bold
%%IncludeResource: font Times-BoldItalic
%%IncludeResource: font Courier
%FOPEndFontDict
%%BeginResource: encoding WinAnsiEncoding
/WinAnsiEncoding [
/.notdef /.notdef /.notdef /.notdef /.notdef
/.notdef /.notdef /.notdef /.notdef /.notdef
/.notdef /.notdef /.notdef /.notdef /.notdef
/.notdef /.notdef /.notdef /.notdef /.notdef
/.notdef /.notdef /.notdef /.notdef /.notdef
/.notdef /.notdef /.notdef /.notdef /.notdef
/.notdef /.notdef /space /exclam /quotedbl
/numbersign /dollar /percent /ampersand /quotesingle
/parenleft /parenright /asterisk /plus /comma
/hyphen /period /slash /zero /one
/two /three /four /five /six
/seven /eight /nine /colon /semicolon
/less /equal /greater /question /at
/A /B /C /D /E
/F /G /H /I /J
/K /L /M /N /O
/P /Q /R /S /T
/U /V /W /X /Y
/Z /bracketleft /backslash /bracketright /asciicircum
/underscore /quoteleft /a /b /c
/d /e /f /g /h
/i /j /k /l /m
/n /o /p /q /r
/s /t /u /v /w
/x /y /z /braceleft /bar
/braceright /asciitilde /bullet /Euro /bullet
/quotesinglbase /florin /quotedblbase /ellipsis /dagger
/daggerdbl /circumflex /perthousand /Scaron /guilsinglleft
/OE /bullet /Zcaron /bullet /bullet
/quoteleft /quoteright /quotedblleft /quotedblright /bullet
/endash /emdash /asciitilde /trademark /scaron
/guilsinglright /oe /bullet /zcaron /Ydieresis
/space /exclamdown /cent /sterling /currency
/yen /brokenbar /section /dieresis /copyright
/ordfeminine /guillemotleft /logicalnot /sfthyphen /registered
/macron /degree /plusminus /twosuperior /threesuperior
/acute /mu /paragraph /middot /cedilla
/onesuperior /ordmasculine /guillemotright /onequarter /onehalf
/threequarters /questiondown /Agrave /Aacute /Acircumflex
/Atilde /Adieresis /Aring /AE /Ccedilla
/Egrave /Eacute /Ecircumflex /Edieresis /Igrave
/Iacute /Icircumflex /Idieresis /Eth /Ntilde
/Ograve /Oacute /Ocircumflex /Otilde /Odieresis
/multiply /Oslash /Ugrave /Uacute /Ucircumflex
/Udieresis /Yacute /Thorn /germandbls /agrave
/aacute /acircumflex /atilde /adieresis /aring
/ae /ccedilla /egrave /eacute /ecircumflex
/edieresis /igrave /iacute /icircumflex /idieresis
/eth /ntilde /ograve /oacute /ocircumflex
/otilde /odieresis /divide /oslash /ugrave
/uacute /ucircumflex /udieresis /yacute /thorn
/ydieresis
] def
%%EndResource
%FOPBeginFontReencode
/Courier-Oblique findfont
dup length dict begin
  {1 index /FID ne {def} {pop pop} ifelse} forall
  /Encoding WinAnsiEncoding def
  currentdict
end
/Courier-Oblique exch definefont pop
/Courier-BoldOblique findfont
dup length dict begin
  {1 index /FID ne {def} {pop pop} ifelse} forall
  /Encoding WinAnsiEncoding def
  currentdict
end
/Courier-BoldOblique exch definefont pop
/Courier-Bold findfont
dup length dict begin
  {1 index /FID ne {def} {pop pop} ifelse} forall
  /Encoding WinAnsiEncoding def
  currentdict
end
/Courier-Bold exch definefont pop
/Helvetica findfont
dup length dict begin
  {1 index /FID ne {def} {pop pop} ifelse} forall
  /Encoding WinAnsiEncoding def
  currentdict
end
/Helvetica exch definefont pop
/Helvetica-Oblique findfont
dup length dict begin
  {1 index /FID ne {def} {pop pop} ifelse} forall
  /Encoding WinAnsiEncoding def
  currentdict
end
/Helvetica-Oblique exch definefont pop
/Helvetica-Bold findfont
dup length dict begin
  {1 index /FID ne {def} {pop pop} ifelse} forall
  /Encoding WinAnsiEncoding def
  currentdict
end
/Helvetica-Bold exch definefont pop
/Helvetica-BoldOblique findfont
dup length dict begin
  {1 index /FID ne {def} {pop pop} ifelse} forall
  /Encoding WinAnsiEncoding def
  currentdict
end
/Helvetica-BoldOblique exch definefont pop
/Times-Roman findfont
dup length dict begin
  {1 index /FID ne {def} {pop pop} ifelse} forall
  /Encoding WinAnsiEncoding def
  currentdict
end
/Times-Roman exch definefont pop
/Times-Italic findfont
dup length dict begin
  {1 index /FID ne {def} {pop pop} ifelse} forall
  /Encoding WinAnsiEncoding def
  currentdict
end
/Times-Italic exch definefont pop
/Times-Bold findfont
dup length dict begin
  {1 index /FID ne {def} {pop pop} ifelse} forall
  /Encoding WinAnsiEncoding def
  currentdict
end
/Times-Bold exch definefont pop
/Times-BoldItalic findfont
dup length dict begin
  {1 index /FID ne {def} {pop pop} ifelse} forall
  /Encoding WinAnsiEncoding def
  currentdict
end
/Times-BoldItalic exch definefont pop
/Courier findfont
dup length dict begin
  {1 index /FID ne {def} {pop pop} ifelse} forall
  /Encoding WinAnsiEncoding def
  currentdict
end
/Courier exch definefont pop
%FOPEndFontReencode
%%EndProlog
%%Page: 1 1
%%PageBoundingBox: 0 0 456 330
%%BeginPageSetup
N
   19     8 M
  439     8 L
  439   319 L
   19   319 L
cp
clip
[1 0 0 -1 0 330] CT
%%EndPageSetup
GS
[0.8 0 0 0.8 0 -0.40002] CT
1 GC
N
0 0 570 413 re
f
GR
GS
[0.8 0 0 0.8 0 -0.40002] CT
1 GC
N
0 0 570 413 re
f
GR
GS
[0.8 0 0 0.8 0 -0.40002] CT
1 GC
N
74 368 M
516 368 L
516 31 L
74 31 L
cp
f
GR
GS
[0.8 0 0 0.8 0 -0.40002] CT
0.149 GC
2 setlinecap
1 LJ
0.625 LW
N
74 368 M
516 368 L
S
GR
GS
[0.8 0 0 0.8 0 -0.40002] CT
0.149 GC
2 setlinecap
1 LJ
0.625 LW
N
74 31 M
516 31 L
S
GR
GS
[0.8 0 0 0.8 0 -0.40002] CT
0.149 GC
2 setlinecap
1 LJ
0.625 LW
N
<<<<<<< HEAD
95.62 368 M
95.62 363.58 L
=======
94.229 374 M
94.229 369.66 L
>>>>>>> f4de00b5db4de07fdb797f1545578c2683f6c040
S
GR
GS
[0.8 0 0 0.8 0 -0.40002] CT
0.149 GC
2 setlinecap
1 LJ
0.625 LW
N
<<<<<<< HEAD
201.233 368 M
201.233 363.58 L
=======
197.931 374 M
197.931 369.66 L
>>>>>>> f4de00b5db4de07fdb797f1545578c2683f6c040
S
GR
GS
[0.8 0 0 0.8 0 -0.40002] CT
0.149 GC
2 setlinecap
1 LJ
0.625 LW
N
<<<<<<< HEAD
283.153 368 M
283.153 363.58 L
=======
278.368 374 M
278.368 369.66 L
>>>>>>> f4de00b5db4de07fdb797f1545578c2683f6c040
S
GR
GS
[0.8 0 0 0.8 0 -0.40002] CT
0.149 GC
2 setlinecap
1 LJ
0.625 LW
N
<<<<<<< HEAD
350.087 368 M
350.087 363.58 L
=======
344.09 374 M
344.09 369.66 L
>>>>>>> f4de00b5db4de07fdb797f1545578c2683f6c040
S
GR
GS
[0.8 0 0 0.8 0 -0.40002] CT
0.149 GC
2 setlinecap
1 LJ
0.625 LW
N
<<<<<<< HEAD
406.678 368 M
406.678 363.58 L
=======
399.657 374 M
399.657 369.66 L
>>>>>>> f4de00b5db4de07fdb797f1545578c2683f6c040
S
GR
GS
[0.8 0 0 0.8 0 -0.40002] CT
0.149 GC
2 setlinecap
1 LJ
0.625 LW
N
<<<<<<< HEAD
455.7 368 M
455.7 363.58 L
=======
447.792 374 M
447.792 369.66 L
>>>>>>> f4de00b5db4de07fdb797f1545578c2683f6c040
S
GR
GS
[0.8 0 0 0.8 0 -0.40002] CT
0.149 GC
2 setlinecap
1 LJ
0.625 LW
N
<<<<<<< HEAD
498.94 368 M
498.94 363.58 L
=======
490.249 374 M
490.249 369.66 L
>>>>>>> f4de00b5db4de07fdb797f1545578c2683f6c040
S
GR
GS
[0.8 0 0 0.8 0 -0.40002] CT
0.149 GC
2 setlinecap
1 LJ
0.625 LW
N
<<<<<<< HEAD
95.62 31 M
95.62 35.42 L
=======
94.229 31 M
94.229 35.34 L
>>>>>>> f4de00b5db4de07fdb797f1545578c2683f6c040
S
GR
GS
[0.8 0 0 0.8 0 -0.40002] CT
0.149 GC
2 setlinecap
1 LJ
0.625 LW
N
<<<<<<< HEAD
201.233 31 M
201.233 35.42 L
=======
197.931 31 M
197.931 35.34 L
>>>>>>> f4de00b5db4de07fdb797f1545578c2683f6c040
S
GR
GS
[0.8 0 0 0.8 0 -0.40002] CT
0.149 GC
2 setlinecap
1 LJ
0.625 LW
N
<<<<<<< HEAD
283.153 31 M
283.153 35.42 L
=======
278.368 31 M
278.368 35.34 L
>>>>>>> f4de00b5db4de07fdb797f1545578c2683f6c040
S
GR
GS
[0.8 0 0 0.8 0 -0.40002] CT
0.149 GC
2 setlinecap
1 LJ
0.625 LW
N
<<<<<<< HEAD
350.087 31 M
350.087 35.42 L
=======
344.09 31 M
344.09 35.34 L
>>>>>>> f4de00b5db4de07fdb797f1545578c2683f6c040
S
GR
GS
[0.8 0 0 0.8 0 -0.40002] CT
0.149 GC
2 setlinecap
1 LJ
0.625 LW
N
<<<<<<< HEAD
406.678 31 M
406.678 35.42 L
=======
399.657 31 M
399.657 35.34 L
>>>>>>> f4de00b5db4de07fdb797f1545578c2683f6c040
S
GR
GS
[0.8 0 0 0.8 0 -0.40002] CT
0.149 GC
2 setlinecap
1 LJ
0.625 LW
N
<<<<<<< HEAD
455.7 31 M
455.7 35.42 L
=======
447.792 31 M
447.792 35.34 L
>>>>>>> f4de00b5db4de07fdb797f1545578c2683f6c040
S
GR
GS
[0.8 0 0 0.8 0 -0.40002] CT
0.149 GC
2 setlinecap
1 LJ
0.625 LW
N
<<<<<<< HEAD
498.94 31 M
498.94 35.42 L
=======
490.249 31 M
490.249 35.34 L
>>>>>>> f4de00b5db4de07fdb797f1545578c2683f6c040
S
GR
GS
[0.8 0 0 0.8 0 -0.40002] CT
0.149 GC
2 setlinecap
1 LJ
0.625 LW
N
<<<<<<< HEAD
119.313 368 M
119.313 365.79 L
=======
117.493 374 M
117.493 371.83 L
>>>>>>> f4de00b5db4de07fdb797f1545578c2683f6c040
S
GR
GS
[0.8 0 0 0.8 0 -0.40002] CT
0.149 GC
2 setlinecap
1 LJ
0.625 LW
N
<<<<<<< HEAD
141.57 368 M
141.57 365.79 L
=======
139.347 374 M
139.347 371.83 L
>>>>>>> f4de00b5db4de07fdb797f1545578c2683f6c040
S
GR
GS
[0.8 0 0 0.8 0 -0.40002] CT
0.149 GC
2 setlinecap
1 LJ
0.625 LW
N
<<<<<<< HEAD
162.554 368 M
162.554 365.79 L
=======
159.951 374 M
159.951 371.83 L
>>>>>>> f4de00b5db4de07fdb797f1545578c2683f6c040
S
GR
GS
[0.8 0 0 0.8 0 -0.40002] CT
0.149 GC
2 setlinecap
1 LJ
0.625 LW
N
<<<<<<< HEAD
182.403 368 M
182.403 365.79 L
=======
179.441 374 M
179.441 371.83 L
>>>>>>> f4de00b5db4de07fdb797f1545578c2683f6c040
S
GR
GS
[0.8 0 0 0.8 0 -0.40002] CT
0.149 GC
2 setlinecap
1 LJ
0.625 LW
N
<<<<<<< HEAD
219.145 368 M
219.145 365.79 L
=======
215.518 374 M
215.518 371.83 L
>>>>>>> f4de00b5db4de07fdb797f1545578c2683f6c040
S
GR
GS
[0.8 0 0 0.8 0 -0.40002] CT
0.149 GC
2 setlinecap
1 LJ
0.625 LW
N
<<<<<<< HEAD
236.223 368 M
236.223 365.79 L
=======
232.287 374 M
232.287 371.83 L
>>>>>>> f4de00b5db4de07fdb797f1545578c2683f6c040
S
GR
GS
[0.8 0 0 0.8 0 -0.40002] CT
0.149 GC
2 setlinecap
1 LJ
0.625 LW
N
<<<<<<< HEAD
252.542 368 M
252.542 365.79 L
=======
248.311 374 M
248.311 371.83 L
>>>>>>> f4de00b5db4de07fdb797f1545578c2683f6c040
S
GR
GS
[0.8 0 0 0.8 0 -0.40002] CT
0.149 GC
2 setlinecap
1 LJ
0.625 LW
N
<<<<<<< HEAD
268.167 368 M
268.167 365.79 L
=======
263.653 374 M
263.653 371.83 L
>>>>>>> f4de00b5db4de07fdb797f1545578c2683f6c040
S
GR
GS
[0.8 0 0 0.8 0 -0.40002] CT
0.149 GC
2 setlinecap
1 LJ
0.625 LW
N
<<<<<<< HEAD
297.552 368 M
297.552 365.79 L
=======
292.506 374 M
292.506 371.83 L
>>>>>>> f4de00b5db4de07fdb797f1545578c2683f6c040
S
GR
GS
[0.8 0 0 0.8 0 -0.40002] CT
0.149 GC
2 setlinecap
1 LJ
0.625 LW
N
<<<<<<< HEAD
311.407 368 M
311.407 365.79 L
=======
306.11 374 M
306.11 371.83 L
>>>>>>> f4de00b5db4de07fdb797f1545578c2683f6c040
S
GR
GS
[0.8 0 0 0.8 0 -0.40002] CT
0.149 GC
2 setlinecap
1 LJ
0.625 LW
N
<<<<<<< HEAD
324.758 368 M
324.758 365.79 L
=======
319.22 374 M
319.22 371.83 L
>>>>>>> f4de00b5db4de07fdb797f1545578c2683f6c040
S
GR
GS
[0.8 0 0 0.8 0 -0.40002] CT
0.149 GC
2 setlinecap
1 LJ
0.625 LW
N
<<<<<<< HEAD
337.641 368 M
337.641 365.79 L
=======
331.869 374 M
331.869 371.83 L
>>>>>>> f4de00b5db4de07fdb797f1545578c2683f6c040
S
GR
GS
[0.8 0 0 0.8 0 -0.40002] CT
0.149 GC
2 setlinecap
1 LJ
0.625 LW
N
<<<<<<< HEAD
362.125 368 M
362.125 365.79 L
=======
355.91 374 M
355.91 371.83 L
>>>>>>> f4de00b5db4de07fdb797f1545578c2683f6c040
S
GR
GS
[0.8 0 0 0.8 0 -0.40002] CT
0.149 GC
2 setlinecap
1 LJ
0.625 LW
N
<<<<<<< HEAD
373.78 368 M
373.78 365.79 L
=======
367.354 374 M
367.354 371.83 L
>>>>>>> f4de00b5db4de07fdb797f1545578c2683f6c040
S
GR
GS
[0.8 0 0 0.8 0 -0.40002] CT
0.149 GC
2 setlinecap
1 LJ
0.625 LW
N
<<<<<<< HEAD
385.077 368 M
385.077 365.79 L
=======
378.447 374 M
378.447 371.83 L
>>>>>>> f4de00b5db4de07fdb797f1545578c2683f6c040
S
GR
GS
[0.8 0 0 0.8 0 -0.40002] CT
0.149 GC
2 setlinecap
1 LJ
0.625 LW
N
<<<<<<< HEAD
396.037 368 M
396.037 365.79 L
=======
389.208 374 M
389.208 371.83 L
>>>>>>> f4de00b5db4de07fdb797f1545578c2683f6c040
S
GR
GS
[0.8 0 0 0.8 0 -0.40002] CT
0.149 GC
2 setlinecap
1 LJ
0.625 LW
N
<<<<<<< HEAD
417.02 368 M
417.02 365.79 L
=======
409.812 374 M
409.812 371.83 L
>>>>>>> f4de00b5db4de07fdb797f1545578c2683f6c040
S
GR
GS
[0.8 0 0 0.8 0 -0.40002] CT
0.149 GC
2 setlinecap
1 LJ
0.625 LW
N
<<<<<<< HEAD
427.079 368 M
427.079 365.79 L
=======
419.688 374 M
419.688 371.83 L
>>>>>>> f4de00b5db4de07fdb797f1545578c2683f6c040
S
GR
GS
[0.8 0 0 0.8 0 -0.40002] CT
0.149 GC
2 setlinecap
1 LJ
0.625 LW
N
<<<<<<< HEAD
436.869 368 M
436.869 365.79 L
=======
429.302 374 M
429.302 371.83 L
>>>>>>> f4de00b5db4de07fdb797f1545578c2683f6c040
S
GR
GS
[0.8 0 0 0.8 0 -0.40002] CT
0.149 GC
2 setlinecap
1 LJ
0.625 LW
N
<<<<<<< HEAD
446.406 368 M
446.406 365.79 L
=======
438.665 374 M
438.665 371.83 L
>>>>>>> f4de00b5db4de07fdb797f1545578c2683f6c040
S
GR
GS
[0.8 0 0 0.8 0 -0.40002] CT
0.149 GC
2 setlinecap
1 LJ
0.625 LW
N
<<<<<<< HEAD
464.765 368 M
464.765 365.79 L
=======
456.693 374 M
456.693 371.83 L
>>>>>>> f4de00b5db4de07fdb797f1545578c2683f6c040
S
GR
GS
[0.8 0 0 0.8 0 -0.40002] CT
0.149 GC
2 setlinecap
1 LJ
0.625 LW
N
<<<<<<< HEAD
473.612 368 M
473.612 365.79 L
=======
465.379 374 M
465.379 371.83 L
>>>>>>> f4de00b5db4de07fdb797f1545578c2683f6c040
S
GR
GS
[0.8 0 0 0.8 0 -0.40002] CT
0.149 GC
2 setlinecap
1 LJ
0.625 LW
N
<<<<<<< HEAD
482.25 368 M
482.25 365.79 L
=======
473.861 374 M
473.861 371.83 L
>>>>>>> f4de00b5db4de07fdb797f1545578c2683f6c040
S
GR
GS
[0.8 0 0 0.8 0 -0.40002] CT
0.149 GC
2 setlinecap
1 LJ
0.625 LW
N
<<<<<<< HEAD
490.69 368 M
490.69 365.79 L
=======
482.148 374 M
482.148 371.83 L
>>>>>>> f4de00b5db4de07fdb797f1545578c2683f6c040
S
GR
GS
[0.8 0 0 0.8 0 -0.40002] CT
0.149 GC
2 setlinecap
1 LJ
0.625 LW
N
<<<<<<< HEAD
507.009 368 M
507.009 365.79 L
=======
498.172 374 M
498.172 371.83 L
>>>>>>> f4de00b5db4de07fdb797f1545578c2683f6c040
S
GR
GS
[0.8 0 0 0.8 0 -0.40002] CT
0.149 GC
2 setlinecap
1 LJ
0.625 LW
N
<<<<<<< HEAD
514.905 368 M
514.905 365.79 L
=======
505.924 374 M
505.924 371.83 L
>>>>>>> f4de00b5db4de07fdb797f1545578c2683f6c040
S
GR
GS
[0.8 0 0 0.8 0 -0.40002] CT
0.149 GC
2 setlinecap
1 LJ
0.625 LW
N
<<<<<<< HEAD
119.313 31 M
119.313 33.21 L
=======
117.493 31 M
117.493 33.17 L
>>>>>>> f4de00b5db4de07fdb797f1545578c2683f6c040
S
GR
GS
[0.8 0 0 0.8 0 -0.40002] CT
0.149 GC
2 setlinecap
1 LJ
0.625 LW
N
<<<<<<< HEAD
141.57 31 M
141.57 33.21 L
=======
139.347 31 M
139.347 33.17 L
>>>>>>> f4de00b5db4de07fdb797f1545578c2683f6c040
S
GR
GS
[0.8 0 0 0.8 0 -0.40002] CT
0.149 GC
2 setlinecap
1 LJ
0.625 LW
N
<<<<<<< HEAD
162.554 31 M
162.554 33.21 L
=======
159.951 31 M
159.951 33.17 L
>>>>>>> f4de00b5db4de07fdb797f1545578c2683f6c040
S
GR
GS
[0.8 0 0 0.8 0 -0.40002] CT
0.149 GC
2 setlinecap
1 LJ
0.625 LW
N
<<<<<<< HEAD
182.403 31 M
182.403 33.21 L
=======
179.441 31 M
179.441 33.17 L
>>>>>>> f4de00b5db4de07fdb797f1545578c2683f6c040
S
GR
GS
[0.8 0 0 0.8 0 -0.40002] CT
0.149 GC
2 setlinecap
1 LJ
0.625 LW
N
<<<<<<< HEAD
219.145 31 M
219.145 33.21 L
=======
215.518 31 M
215.518 33.17 L
>>>>>>> f4de00b5db4de07fdb797f1545578c2683f6c040
S
GR
GS
[0.8 0 0 0.8 0 -0.40002] CT
0.149 GC
2 setlinecap
1 LJ
0.625 LW
N
<<<<<<< HEAD
236.223 31 M
236.223 33.21 L
=======
232.287 31 M
232.287 33.17 L
>>>>>>> f4de00b5db4de07fdb797f1545578c2683f6c040
S
GR
GS
[0.8 0 0 0.8 0 -0.40002] CT
0.149 GC
2 setlinecap
1 LJ
0.625 LW
N
<<<<<<< HEAD
252.542 31 M
252.542 33.21 L
=======
248.311 31 M
248.311 33.17 L
>>>>>>> f4de00b5db4de07fdb797f1545578c2683f6c040
S
GR
GS
[0.8 0 0 0.8 0 -0.40002] CT
0.149 GC
2 setlinecap
1 LJ
0.625 LW
N
<<<<<<< HEAD
268.167 31 M
268.167 33.21 L
=======
263.653 31 M
263.653 33.17 L
>>>>>>> f4de00b5db4de07fdb797f1545578c2683f6c040
S
GR
GS
[0.8 0 0 0.8 0 -0.40002] CT
0.149 GC
2 setlinecap
1 LJ
0.625 LW
N
<<<<<<< HEAD
297.552 31 M
297.552 33.21 L
=======
292.506 31 M
292.506 33.17 L
>>>>>>> f4de00b5db4de07fdb797f1545578c2683f6c040
S
GR
GS
[0.8 0 0 0.8 0 -0.40002] CT
0.149 GC
2 setlinecap
1 LJ
0.625 LW
N
<<<<<<< HEAD
311.407 31 M
311.407 33.21 L
=======
306.11 31 M
306.11 33.17 L
>>>>>>> f4de00b5db4de07fdb797f1545578c2683f6c040
S
GR
GS
[0.8 0 0 0.8 0 -0.40002] CT
0.149 GC
2 setlinecap
1 LJ
0.625 LW
N
<<<<<<< HEAD
324.758 31 M
324.758 33.21 L
=======
319.22 31 M
319.22 33.17 L
>>>>>>> f4de00b5db4de07fdb797f1545578c2683f6c040
S
GR
GS
[0.8 0 0 0.8 0 -0.40002] CT
0.149 GC
2 setlinecap
1 LJ
0.625 LW
N
<<<<<<< HEAD
337.641 31 M
337.641 33.21 L
=======
331.869 31 M
331.869 33.17 L
>>>>>>> f4de00b5db4de07fdb797f1545578c2683f6c040
S
GR
GS
[0.8 0 0 0.8 0 -0.40002] CT
0.149 GC
2 setlinecap
1 LJ
0.625 LW
N
<<<<<<< HEAD
362.125 31 M
362.125 33.21 L
=======
355.91 31 M
355.91 33.17 L
>>>>>>> f4de00b5db4de07fdb797f1545578c2683f6c040
S
GR
GS
[0.8 0 0 0.8 0 -0.40002] CT
0.149 GC
2 setlinecap
1 LJ
0.625 LW
N
<<<<<<< HEAD
373.78 31 M
373.78 33.21 L
=======
367.354 31 M
367.354 33.17 L
>>>>>>> f4de00b5db4de07fdb797f1545578c2683f6c040
S
GR
GS
[0.8 0 0 0.8 0 -0.40002] CT
0.149 GC
2 setlinecap
1 LJ
0.625 LW
N
<<<<<<< HEAD
385.077 31 M
385.077 33.21 L
=======
378.447 31 M
378.447 33.17 L
>>>>>>> f4de00b5db4de07fdb797f1545578c2683f6c040
S
GR
GS
[0.8 0 0 0.8 0 -0.40002] CT
0.149 GC
2 setlinecap
1 LJ
0.625 LW
N
<<<<<<< HEAD
396.037 31 M
396.037 33.21 L
=======
389.208 31 M
389.208 33.17 L
>>>>>>> f4de00b5db4de07fdb797f1545578c2683f6c040
S
GR
GS
[0.8 0 0 0.8 0 -0.40002] CT
0.149 GC
2 setlinecap
1 LJ
0.625 LW
N
<<<<<<< HEAD
417.02 31 M
417.02 33.21 L
=======
409.812 31 M
409.812 33.17 L
>>>>>>> f4de00b5db4de07fdb797f1545578c2683f6c040
S
GR
GS
[0.8 0 0 0.8 0 -0.40002] CT
0.149 GC
2 setlinecap
1 LJ
0.625 LW
N
<<<<<<< HEAD
427.079 31 M
427.079 33.21 L
=======
419.688 31 M
419.688 33.17 L
>>>>>>> f4de00b5db4de07fdb797f1545578c2683f6c040
S
GR
GS
[0.8 0 0 0.8 0 -0.40002] CT
0.149 GC
2 setlinecap
1 LJ
0.625 LW
N
<<<<<<< HEAD
436.869 31 M
436.869 33.21 L
=======
429.302 31 M
429.302 33.17 L
>>>>>>> f4de00b5db4de07fdb797f1545578c2683f6c040
S
GR
GS
[0.8 0 0 0.8 0 -0.40002] CT
0.149 GC
2 setlinecap
1 LJ
0.625 LW
N
<<<<<<< HEAD
446.406 31 M
446.406 33.21 L
S
GR
GS
[0.8 0 0 0.8 0 -0.40002] CT
=======
438.665 31 M
438.665 33.17 L
S
GR
GS
[0.75 0 0 0.75 0 0] CT
0.149 GC
2 setlinecap
1 LJ
0.667 LW
N
456.693 31 M
456.693 33.17 L
S
GR
GS
[0.75 0 0 0.75 0 0] CT
0.149 GC
2 setlinecap
1 LJ
0.667 LW
N
465.379 31 M
465.379 33.17 L
S
GR
GS
[0.75 0 0 0.75 0 0] CT
0.149 GC
2 setlinecap
1 LJ
0.667 LW
N
473.861 31 M
473.861 33.17 L
S
GR
GS
[0.75 0 0 0.75 0 0] CT
0.149 GC
2 setlinecap
1 LJ
0.667 LW
N
482.148 31 M
482.148 33.17 L
S
GR
GS
[0.75 0 0 0.75 0 0] CT
0.149 GC
2 setlinecap
1 LJ
0.667 LW
N
498.172 31 M
498.172 33.17 L
S
GR
GS
[0.75 0 0 0.75 0 0] CT
0.149 GC
2 setlinecap
1 LJ
0.667 LW
N
505.924 31 M
505.924 33.17 L
S
GR
GS
[0.75 0 0 0.75 70.67161 284.50001] CT
0.149 GC
/Helvetica 13.333 F
GS
[1 0 0 1 0 0] CT
-15 13 moveto 
1 -1 scale
(0.15) t 
GR
GR
GS
[0.75 0 0 0.75 148.44788 284.50001] CT
>>>>>>> f4de00b5db4de07fdb797f1545578c2683f6c040
0.149 GC
2 setlinecap
1 LJ
0.625 LW
N
464.765 31 M
464.765 33.21 L
S
GR
GS
[0.8 0 0 0.8 0 -0.40002] CT
0.149 GC
2 setlinecap
1 LJ
0.625 LW
N
473.612 31 M
473.612 33.21 L
S
GR
GS
[0.8 0 0 0.8 0 -0.40002] CT
0.149 GC
2 setlinecap
1 LJ
0.625 LW
N
482.25 31 M
482.25 33.21 L
S
GR
GS
[0.8 0 0 0.8 0 -0.40002] CT
0.149 GC
2 setlinecap
1 LJ
0.625 LW
N
490.69 31 M
490.69 33.21 L
S
GR
GS
[0.8 0 0 0.8 0 -0.40002] CT
0.149 GC
2 setlinecap
1 LJ
0.625 LW
N
507.009 31 M
507.009 33.21 L
S
GR
GS
[0.8 0 0 0.8 0 -0.40002] CT
0.149 GC
2 setlinecap
1 LJ
0.625 LW
N
514.905 31 M
514.905 33.21 L
S
GR
GS
[0.8 0 0 0.8 76.49611 298] CT
0.149 GC
/Helvetica 12.5 F
GS
[1 0 0 1 0 0] CT
-14 12 moveto 
1 -1 scale
(0.15) t 
GR
GR
GS
[0.8 0 0 0.8 160.98669 298] CT
0.149 GC
/Helvetica 12.5 F
GS
[1 0 0 1 0 0] CT
-10 12 moveto 
1 -1 scale
(0.2) t 
GR
GR
GS
<<<<<<< HEAD
[0.8 0 0 0.8 226.52271 298] CT
=======
[0.75 0 0 0.75 208.77585 284.50001] CT
>>>>>>> f4de00b5db4de07fdb797f1545578c2683f6c040
0.149 GC
/Helvetica 12.5 F
GS
[1 0 0 1 0 0] CT
-14 12 moveto 
1 -1 scale
(0.25) t 
GR
GR
GS
<<<<<<< HEAD
[0.8 0 0 0.8 280.06951 298] CT
=======
[0.75 0 0 0.75 258.06738 284.50001] CT
>>>>>>> f4de00b5db4de07fdb797f1545578c2683f6c040
0.149 GC
/Helvetica 12.5 F
GS
[1 0 0 1 0 0] CT
-10 12 moveto 
1 -1 scale
(0.3) t 
GR
GR
GS
<<<<<<< HEAD
[0.8 0 0 0.8 325.3427 298] CT
=======
[0.75 0 0 0.75 299.74278 284.50001] CT
>>>>>>> f4de00b5db4de07fdb797f1545578c2683f6c040
0.149 GC
/Helvetica 12.5 F
GS
[1 0 0 1 0 0] CT
-14 12 moveto 
1 -1 scale
(0.35) t 
GR
GR
GS
<<<<<<< HEAD
[0.8 0 0 0.8 364.56011 298] CT
=======
[0.75 0 0 0.75 335.84365 284.50001] CT
>>>>>>> f4de00b5db4de07fdb797f1545578c2683f6c040
0.149 GC
/Helvetica 12.5 F
GS
[1 0 0 1 0 0] CT
-10 12 moveto 
1 -1 scale
(0.4) t 
GR
GR
GS
<<<<<<< HEAD
[0.8 0 0 0.8 399.15232 298] CT
=======
[0.75 0 0 0.75 367.68688 284.50001] CT
>>>>>>> f4de00b5db4de07fdb797f1545578c2683f6c040
0.149 GC
/Helvetica 12.5 F
GS
[1 0 0 1 0 0] CT
-14 12 moveto 
1 -1 scale
(0.45) t 
GR
GR
GS
[0.8 0 0 0.8 236.00017 311] CT
0.149 GC
/Helvetica 13.75 F
GS
[1 0 0 1 0 0] CT
-44.5 13 moveto 
1 -1 scale
(meshwidth h) t 
GR
GR
GS
[0.8 0 0 0.8 0 -0.40002] CT
0.149 GC
2 setlinecap
1 LJ
0.625 LW
N
74 368 M
74 31 L
S
GR
GS
[0.8 0 0 0.8 0 -0.40002] CT
0.149 GC
2 setlinecap
1 LJ
0.625 LW
N
516 368 M
516 31 L
S
GR
GS
[0.8 0 0 0.8 0 -0.40002] CT
0.149 GC
2 setlinecap
1 LJ
0.625 LW
N
<<<<<<< HEAD
74 362.669 M
78.42 362.669 L
=======
73 368.574 M
77.34 368.574 L
>>>>>>> f4de00b5db4de07fdb797f1545578c2683f6c040
S
GR
GS
[0.8 0 0 0.8 0 -0.40002] CT
0.149 GC
2 setlinecap
1 LJ
0.625 LW
N
<<<<<<< HEAD
74 196.834 M
78.42 196.834 L
=======
73 199.787 M
77.34 199.787 L
>>>>>>> f4de00b5db4de07fdb797f1545578c2683f6c040
S
GR
GS
[0.8 0 0 0.8 0 -0.40002] CT
0.149 GC
2 setlinecap
1 LJ
0.625 LW
N
74 31 M
78.42 31 L
S
GR
GS
[0.8 0 0 0.8 0 -0.40002] CT
0.149 GC
2 setlinecap
1 LJ
0.625 LW
N
<<<<<<< HEAD
516 362.669 M
511.58 362.669 L
=======
507 368.574 M
502.66 368.574 L
>>>>>>> f4de00b5db4de07fdb797f1545578c2683f6c040
S
GR
GS
[0.8 0 0 0.8 0 -0.40002] CT
0.149 GC
2 setlinecap
1 LJ
0.625 LW
N
<<<<<<< HEAD
516 196.834 M
511.58 196.834 L
=======
507 199.787 M
502.66 199.787 L
>>>>>>> f4de00b5db4de07fdb797f1545578c2683f6c040
S
GR
GS
[0.8 0 0 0.8 0 -0.40002] CT
0.149 GC
2 setlinecap
1 LJ
0.625 LW
N
516 31 M
511.58 31 L
S
GR
GS
[0.8 0 0 0.8 0 -0.40002] CT
0.149 GC
2 setlinecap
1 LJ
0.625 LW
N
<<<<<<< HEAD
74 362.669 M
76.21 362.669 L
=======
73 368.574 M
75.17 368.574 L
>>>>>>> f4de00b5db4de07fdb797f1545578c2683f6c040
S
GR
GS
[0.8 0 0 0.8 0 -0.40002] CT
0.149 GC
2 setlinecap
1 LJ
0.625 LW
N
<<<<<<< HEAD
74 312.748 M
76.21 312.748 L
=======
73 317.764 M
75.17 317.764 L
>>>>>>> f4de00b5db4de07fdb797f1545578c2683f6c040
S
GR
GS
[0.8 0 0 0.8 0 -0.40002] CT
0.149 GC
2 setlinecap
1 LJ
0.625 LW
N
<<<<<<< HEAD
74 283.546 M
76.21 283.546 L
=======
73 288.042 M
75.17 288.042 L
>>>>>>> f4de00b5db4de07fdb797f1545578c2683f6c040
S
GR
GS
[0.8 0 0 0.8 0 -0.40002] CT
0.149 GC
2 setlinecap
1 LJ
0.625 LW
N
<<<<<<< HEAD
74 262.826 M
76.21 262.826 L
=======
73 266.954 M
75.17 266.954 L
>>>>>>> f4de00b5db4de07fdb797f1545578c2683f6c040
S
GR
GS
[0.8 0 0 0.8 0 -0.40002] CT
0.149 GC
2 setlinecap
1 LJ
0.625 LW
N
<<<<<<< HEAD
74 246.755 M
76.21 246.755 L
=======
73 250.597 M
75.17 250.597 L
>>>>>>> f4de00b5db4de07fdb797f1545578c2683f6c040
S
GR
GS
[0.8 0 0 0.8 0 -0.40002] CT
0.149 GC
2 setlinecap
1 LJ
0.625 LW
N
<<<<<<< HEAD
74 233.624 M
76.21 233.624 L
=======
73 237.232 M
75.17 237.232 L
>>>>>>> f4de00b5db4de07fdb797f1545578c2683f6c040
S
GR
GS
[0.8 0 0 0.8 0 -0.40002] CT
0.149 GC
2 setlinecap
1 LJ
0.625 LW
N
<<<<<<< HEAD
74 222.522 M
76.21 222.522 L
=======
73 225.932 M
75.17 225.932 L
>>>>>>> f4de00b5db4de07fdb797f1545578c2683f6c040
S
GR
GS
[0.8 0 0 0.8 0 -0.40002] CT
0.149 GC
2 setlinecap
1 LJ
0.625 LW
N
<<<<<<< HEAD
74 212.905 M
76.21 212.905 L
=======
73 216.144 M
75.17 216.144 L
>>>>>>> f4de00b5db4de07fdb797f1545578c2683f6c040
S
GR
GS
[0.8 0 0 0.8 0 -0.40002] CT
0.149 GC
2 setlinecap
1 LJ
0.625 LW
N
<<<<<<< HEAD
74 204.422 M
76.21 204.422 L
=======
73 207.51 M
75.17 207.51 L
>>>>>>> f4de00b5db4de07fdb797f1545578c2683f6c040
S
GR
GS
[0.8 0 0 0.8 0 -0.40002] CT
0.149 GC
2 setlinecap
1 LJ
0.625 LW
N
<<<<<<< HEAD
74 196.834 M
76.21 196.834 L
=======
73 199.787 M
75.17 199.787 L
>>>>>>> f4de00b5db4de07fdb797f1545578c2683f6c040
S
GR
GS
[0.8 0 0 0.8 0 -0.40002] CT
0.149 GC
2 setlinecap
1 LJ
0.625 LW
N
<<<<<<< HEAD
74 146.913 M
76.21 146.913 L
=======
73 148.977 M
75.17 148.977 L
>>>>>>> f4de00b5db4de07fdb797f1545578c2683f6c040
S
GR
GS
[0.8 0 0 0.8 0 -0.40002] CT
0.149 GC
2 setlinecap
1 LJ
0.625 LW
N
<<<<<<< HEAD
74 117.711 M
76.21 117.711 L
=======
73 119.255 M
75.17 119.255 L
>>>>>>> f4de00b5db4de07fdb797f1545578c2683f6c040
S
GR
GS
[0.8 0 0 0.8 0 -0.40002] CT
0.149 GC
2 setlinecap
1 LJ
0.625 LW
N
<<<<<<< HEAD
74 96.992 M
76.21 96.992 L
=======
73 98.167 M
75.17 98.167 L
>>>>>>> f4de00b5db4de07fdb797f1545578c2683f6c040
S
GR
GS
[0.8 0 0 0.8 0 -0.40002] CT
0.149 GC
2 setlinecap
1 LJ
0.625 LW
N
<<<<<<< HEAD
74 80.921 M
76.21 80.921 L
=======
73 81.81 M
75.17 81.81 L
>>>>>>> f4de00b5db4de07fdb797f1545578c2683f6c040
S
GR
GS
[0.8 0 0 0.8 0 -0.40002] CT
0.149 GC
2 setlinecap
1 LJ
0.625 LW
N
<<<<<<< HEAD
74 67.79 M
76.21 67.79 L
=======
73 68.445 M
75.17 68.445 L
>>>>>>> f4de00b5db4de07fdb797f1545578c2683f6c040
S
GR
GS
[0.8 0 0 0.8 0 -0.40002] CT
0.149 GC
2 setlinecap
1 LJ
0.625 LW
N
<<<<<<< HEAD
74 56.688 M
76.21 56.688 L
=======
73 57.145 M
75.17 57.145 L
>>>>>>> f4de00b5db4de07fdb797f1545578c2683f6c040
S
GR
GS
[0.8 0 0 0.8 0 -0.40002] CT
0.149 GC
2 setlinecap
1 LJ
0.625 LW
N
<<<<<<< HEAD
74 47.071 M
76.21 47.071 L
=======
73 47.357 M
75.17 47.357 L
>>>>>>> f4de00b5db4de07fdb797f1545578c2683f6c040
S
GR
GS
[0.8 0 0 0.8 0 -0.40002] CT
0.149 GC
2 setlinecap
1 LJ
0.625 LW
N
<<<<<<< HEAD
74 38.588 M
76.21 38.588 L
=======
73 38.723 M
75.17 38.723 L
>>>>>>> f4de00b5db4de07fdb797f1545578c2683f6c040
S
GR
GS
[0.8 0 0 0.8 0 -0.40002] CT
0.149 GC
2 setlinecap
1 LJ
0.625 LW
N
74 31 M
76.21 31 L
S
GR
GS
[0.8 0 0 0.8 0 -0.40002] CT
0.149 GC
2 setlinecap
1 LJ
0.625 LW
N
<<<<<<< HEAD
516 362.669 M
513.79 362.669 L
=======
507 368.574 M
504.83 368.574 L
>>>>>>> f4de00b5db4de07fdb797f1545578c2683f6c040
S
GR
GS
[0.8 0 0 0.8 0 -0.40002] CT
0.149 GC
2 setlinecap
1 LJ
0.625 LW
N
<<<<<<< HEAD
516 312.748 M
513.79 312.748 L
=======
507 317.764 M
504.83 317.764 L
>>>>>>> f4de00b5db4de07fdb797f1545578c2683f6c040
S
GR
GS
[0.8 0 0 0.8 0 -0.40002] CT
0.149 GC
2 setlinecap
1 LJ
0.625 LW
N
<<<<<<< HEAD
516 283.546 M
513.79 283.546 L
=======
507 288.042 M
504.83 288.042 L
>>>>>>> f4de00b5db4de07fdb797f1545578c2683f6c040
S
GR
GS
[0.8 0 0 0.8 0 -0.40002] CT
0.149 GC
2 setlinecap
1 LJ
0.625 LW
N
<<<<<<< HEAD
516 262.826 M
513.79 262.826 L
=======
507 266.954 M
504.83 266.954 L
>>>>>>> f4de00b5db4de07fdb797f1545578c2683f6c040
S
GR
GS
[0.8 0 0 0.8 0 -0.40002] CT
0.149 GC
2 setlinecap
1 LJ
0.625 LW
N
<<<<<<< HEAD
516 246.755 M
513.79 246.755 L
=======
507 250.597 M
504.83 250.597 L
>>>>>>> f4de00b5db4de07fdb797f1545578c2683f6c040
S
GR
GS
[0.8 0 0 0.8 0 -0.40002] CT
0.149 GC
2 setlinecap
1 LJ
0.625 LW
N
<<<<<<< HEAD
516 233.624 M
513.79 233.624 L
=======
507 237.232 M
504.83 237.232 L
>>>>>>> f4de00b5db4de07fdb797f1545578c2683f6c040
S
GR
GS
[0.8 0 0 0.8 0 -0.40002] CT
0.149 GC
2 setlinecap
1 LJ
0.625 LW
N
<<<<<<< HEAD
516 222.522 M
513.79 222.522 L
=======
507 225.932 M
504.83 225.932 L
>>>>>>> f4de00b5db4de07fdb797f1545578c2683f6c040
S
GR
GS
[0.8 0 0 0.8 0 -0.40002] CT
0.149 GC
2 setlinecap
1 LJ
0.625 LW
N
<<<<<<< HEAD
516 212.905 M
513.79 212.905 L
=======
507 216.144 M
504.83 216.144 L
>>>>>>> f4de00b5db4de07fdb797f1545578c2683f6c040
S
GR
GS
[0.8 0 0 0.8 0 -0.40002] CT
0.149 GC
2 setlinecap
1 LJ
0.625 LW
N
<<<<<<< HEAD
516 204.422 M
513.79 204.422 L
=======
507 207.51 M
504.83 207.51 L
>>>>>>> f4de00b5db4de07fdb797f1545578c2683f6c040
S
GR
GS
[0.8 0 0 0.8 0 -0.40002] CT
0.149 GC
2 setlinecap
1 LJ
0.625 LW
N
<<<<<<< HEAD
516 196.834 M
513.79 196.834 L
=======
507 199.787 M
504.83 199.787 L
>>>>>>> f4de00b5db4de07fdb797f1545578c2683f6c040
S
GR
GS
[0.8 0 0 0.8 0 -0.40002] CT
0.149 GC
2 setlinecap
1 LJ
0.625 LW
N
<<<<<<< HEAD
516 146.913 M
513.79 146.913 L
=======
507 148.977 M
504.83 148.977 L
>>>>>>> f4de00b5db4de07fdb797f1545578c2683f6c040
S
GR
GS
[0.8 0 0 0.8 0 -0.40002] CT
0.149 GC
2 setlinecap
1 LJ
0.625 LW
N
<<<<<<< HEAD
516 117.711 M
513.79 117.711 L
=======
507 119.255 M
504.83 119.255 L
>>>>>>> f4de00b5db4de07fdb797f1545578c2683f6c040
S
GR
GS
[0.8 0 0 0.8 0 -0.40002] CT
0.149 GC
2 setlinecap
1 LJ
0.625 LW
N
<<<<<<< HEAD
516 96.992 M
513.79 96.992 L
=======
507 98.167 M
504.83 98.167 L
>>>>>>> f4de00b5db4de07fdb797f1545578c2683f6c040
S
GR
GS
[0.8 0 0 0.8 0 -0.40002] CT
0.149 GC
2 setlinecap
1 LJ
0.625 LW
N
<<<<<<< HEAD
516 80.921 M
513.79 80.921 L
=======
507 81.81 M
504.83 81.81 L
>>>>>>> f4de00b5db4de07fdb797f1545578c2683f6c040
S
GR
GS
[0.8 0 0 0.8 0 -0.40002] CT
0.149 GC
2 setlinecap
1 LJ
0.625 LW
N
<<<<<<< HEAD
516 67.79 M
513.79 67.79 L
=======
507 68.445 M
504.83 68.445 L
>>>>>>> f4de00b5db4de07fdb797f1545578c2683f6c040
S
GR
GS
[0.8 0 0 0.8 0 -0.40002] CT
0.149 GC
2 setlinecap
1 LJ
0.625 LW
N
<<<<<<< HEAD
516 56.688 M
513.79 56.688 L
=======
507 57.145 M
504.83 57.145 L
>>>>>>> f4de00b5db4de07fdb797f1545578c2683f6c040
S
GR
GS
[0.8 0 0 0.8 0 -0.40002] CT
0.149 GC
2 setlinecap
1 LJ
0.625 LW
N
<<<<<<< HEAD
516 47.071 M
513.79 47.071 L
=======
507 47.357 M
504.83 47.357 L
>>>>>>> f4de00b5db4de07fdb797f1545578c2683f6c040
S
GR
GS
[0.8 0 0 0.8 0 -0.40002] CT
0.149 GC
2 setlinecap
1 LJ
0.625 LW
N
<<<<<<< HEAD
516 38.588 M
513.79 38.588 L
=======
507 38.723 M
504.83 38.723 L
>>>>>>> f4de00b5db4de07fdb797f1545578c2683f6c040
S
GR
GS
[0.8 0 0 0.8 0 -0.40002] CT
0.149 GC
2 setlinecap
1 LJ
0.625 LW
N
516 31 M
513.79 31 L
S
GR
GS
<<<<<<< HEAD
[0.8 0 0 0.8 34.4 295.6] CT
=======
[0.75 0 0 0.75 30 281.25] CT
>>>>>>> f4de00b5db4de07fdb797f1545578c2683f6c040
0.149 GC
/Helvetica 12.5 F
GS
[1 0 0 1 0 0] CT
0 0 moveto 
1 -1 scale
(10) t 
GR
GR
GS
<<<<<<< HEAD
[0.8 0 0 0.8 47.2 290.8] CT
=======
[0.75 0 0 0.75 42.75 276.75] CT
>>>>>>> f4de00b5db4de07fdb797f1545578c2683f6c040
0.149 GC
/Helvetica 10 F
GS
[1 0 0 1 0 0] CT
0 0 moveto 
1 -1 scale
(-2) t 
GR
GR
GS
<<<<<<< HEAD
[0.8 0 0 0.8 34.4 162.79999] CT
=======
[0.75 0 0 0.75 30 154.5] CT
>>>>>>> f4de00b5db4de07fdb797f1545578c2683f6c040
0.149 GC
/Helvetica 12.5 F
GS
[1 0 0 1 0 0] CT
0 0 moveto 
1 -1 scale
(10) t 
GR
GR
GS
<<<<<<< HEAD
[0.8 0 0 0.8 47.2 157.99999] CT
=======
[0.75 0 0 0.75 42.75 150] CT
>>>>>>> f4de00b5db4de07fdb797f1545578c2683f6c040
0.149 GC
/Helvetica 10 F
GS
[1 0 0 1 0 0] CT
0 0 moveto 
1 -1 scale
(-1) t 
GR
GR
GS
[0.8 0 0 0.8 36.8 29.99998] CT
0.149 GC
/Helvetica 12.5 F
GS
[1 0 0 1 0 0] CT
0 0 moveto 
1 -1 scale
(10) t 
GR
GR
GS
[0.8 0 0 0.8 49.6 25.19998] CT
0.149 GC
/Helvetica 10 F
GS
[1 0 0 1 0 0] CT
0 0 moveto 
1 -1 scale
(0) t 
GR
GR
GS
[0 -0.8 0.8 0 31.4 159.19985] CT
0.149 GC
/Helvetica 13.75 F
GS
[1 0 0 1 0 0] CT
-68.5 -4 moveto 
1 -1 scale
(Error in total torque) t 
GR
GR
GS
[0.8 0 0 0.8 0 -0.40002] CT
0 0.447 0.741 RC
1 LJ
2.5 LW
N
<<<<<<< HEAD
516 59.26 M
410.387 139.06 L
328.467 180.387 L
261.533 229.89 L
155.92 282.001 L
74 368 L
S
GR
GS
[0.8 0 0 0.8 412.8 47.00787] CT
=======
507 59.763 M
403.298 140.983 L
322.861 183.047 L
257.139 233.431 L
153.437 286.47 L
73 374 L
S
GR
GS
[0.75 0 0 0.75 380.25 44.82226] CT
>>>>>>> f4de00b5db4de07fdb797f1545578c2683f6c040
0 0.447 0.741 RC
10.0 ML
2.5 LW
N
0 -7 M
0 7 L
-7 0 M
7 0 L
S
GR
GS
<<<<<<< HEAD
[0.8 0 0 0.8 328.3094 110.84762] CT
=======
[0.75 0 0 0.75 302.47373 105.73759] CT
>>>>>>> f4de00b5db4de07fdb797f1545578c2683f6c040
0 0.447 0.741 RC
10.0 ML
2.5 LW
N
0 -7 M
0 7 L
-7 0 M
7 0 L
S
GR
GS
<<<<<<< HEAD
[0.8 0 0 0.8 262.77339 143.90973] CT
=======
[0.75 0 0 0.75 242.14577 137.28517] CT
>>>>>>> f4de00b5db4de07fdb797f1545578c2683f6c040
0 0.447 0.741 RC
10.0 ML
2.5 LW
N
0 -7 M
0 7 L
-7 0 M
7 0 L
S
GR
GS
<<<<<<< HEAD
[0.8 0 0 0.8 209.22659 183.51179] CT
=======
[0.75 0 0 0.75 192.85423 175.07311] CT
>>>>>>> f4de00b5db4de07fdb797f1545578c2683f6c040
0 0.447 0.741 RC
10.0 ML
2.5 LW
N
0 -7 M
0 7 L
-7 0 M
7 0 L
S
GR
GS
<<<<<<< HEAD
[0.8 0 0 0.8 124.736 225.2008] CT
=======
[0.75 0 0 0.75 115.07796 214.85241] CT
0 0.447 0.741 RC
10.0 ML
2.667 LW
N
0 -7 M
0 7 L
-7 0 M
7 0 L
S
GR
GS
[0.75 0 0 0.75 54.75 280.5] CT
>>>>>>> f4de00b5db4de07fdb797f1545578c2683f6c040
0 0.447 0.741 RC
10.0 ML
2.5 LW
N
0 -7 M
0 7 L
-7 0 M
7 0 L
S
GR
GS
[0.8 0 0 0.8 59.2 294] CT
0 0.447 0.741 RC
10.0 ML
2.5 LW
N
0 -7 M
0 7 L
-7 0 M
7 0 L
S
GR
GS
[0.8 0 0 0.8 0 -0.40002] CT
0.851 0.325 0.098 RC
1 LJ
2.5 LW
N
<<<<<<< HEAD
516 122.16 M
410.387 124.826 L
328.467 103.053 L
261.533 93.196 L
155.92 93.955 L
74 97.534 L
S
GR
GS
[0.8 0 0 0.8 412.8 97.32813] CT
=======
507 123.783 M
403.298 126.497 L
322.861 104.336 L
257.139 94.304 L
153.437 95.075 L
73 98.719 L
S
GR
GS
[0.75 0 0 0.75 380.25 92.83741] CT
>>>>>>> f4de00b5db4de07fdb797f1545578c2683f6c040
0.851 0.325 0.098 RC
10.0 ML
2.5 LW
N
0 -8.331 M
-7.215 4.166 L
7.215 4.166 L
cp
S
GR
GS
<<<<<<< HEAD
[0.8 0 0 0.8 328.3094 99.46106] CT
=======
[0.75 0 0 0.75 302.47373 94.87263] CT
>>>>>>> f4de00b5db4de07fdb797f1545578c2683f6c040
0.851 0.325 0.098 RC
10.0 ML
2.5 LW
N
0 -8.331 M
-7.215 4.166 L
7.215 4.166 L
cp
S
GR
GS
<<<<<<< HEAD
[0.8 0 0 0.8 262.77339 82.04222] CT
=======
[0.75 0 0 0.75 242.14577 78.25172] CT
>>>>>>> f4de00b5db4de07fdb797f1545578c2683f6c040
0.851 0.325 0.098 RC
10.0 ML
2.5 LW
N
0 -8.331 M
-7.215 4.166 L
7.215 4.166 L
cp
S
GR
GS
<<<<<<< HEAD
[0.8 0 0 0.8 209.22659 74.15694] CT
=======
[0.75 0 0 0.75 192.85423 70.72766] CT
>>>>>>> f4de00b5db4de07fdb797f1545578c2683f6c040
0.851 0.325 0.098 RC
10.0 ML
2.5 LW
N
0 -8.331 M
-7.215 4.166 L
7.215 4.166 L
cp
S
GR
GS
<<<<<<< HEAD
[0.8 0 0 0.8 124.736 74.76361] CT
=======
[0.75 0 0 0.75 115.07796 71.30654] CT
0.851 0.325 0.098 RC
10.0 ML
2.667 LW
N
0 -8.887 M
-7.696 4.443 L
7.696 4.443 L
cp
S
GR
GS
[0.75 0 0 0.75 54.75 74.03907] CT
>>>>>>> f4de00b5db4de07fdb797f1545578c2683f6c040
0.851 0.325 0.098 RC
10.0 ML
2.5 LW
N
0 -8.331 M
-7.215 4.166 L
7.215 4.166 L
cp
S
GR
GS
[0.8 0 0 0.8 59.2 77.62733] CT
0.851 0.325 0.098 RC
10.0 ML
2.5 LW
N
0 -8.331 M
-7.215 4.166 L
7.215 4.166 L
cp
S
GR
GS
[0.8 0 0 0.8 0 -0.40002] CT
[10 6] 0 setdash
2 LJ
0.625 LW
N
<<<<<<< HEAD
516 60.192 M
410.387 130.417 L
328.467 184.888 L
261.533 229.393 L
155.92 299.618 L
74 354.089 L
=======
507 60.712 M
403.298 132.187 L
322.861 187.627 L
257.139 232.926 L
153.437 304.401 L
73 359.842 L
>>>>>>> f4de00b5db4de07fdb797f1545578c2683f6c040
S
GR
GS
[0.8 0 0 0.8 0 -0.40002] CT
[10 6] 0 setdash
2 LJ
0.625 LW
N
<<<<<<< HEAD
516 122.112 M
410.387 114.448 L
328.467 108.503 L
261.533 103.645 L
155.92 95.981 L
74 90.036 L
=======
507 123.735 M
403.298 115.934 L
322.861 109.883 L
257.139 104.939 L
153.437 97.138 L
73 91.087 L
>>>>>>> f4de00b5db4de07fdb797f1545578c2683f6c040
S
GR
GS
[0.8 0 0 0.8 0 -0.40002] CT
1 GC
N
506 358 M
506 325 L
433 325 L
433 358 L
cp
f
GR
GS
[0.8 0 0 0.8 381.75781 266.91076] CT
/Helvetica 11.25 F
GS
[1 0 0 1 0 0] CT
0 4 moveto 
1 -1 scale
(BEM) t 
GR
GR
GS
[0.8 0 0 0.8 0 -0.40002] CT
0 0.447 0.741 RC
1 LJ
2.5 LW
N
436.973 334.138 M
474.218 334.138 L
S
GR
GS
[0.8 0 0 0.8 364.4762 266.91076] CT
0 0.447 0.741 RC
10.0 ML
2.5 LW
N
0 -6 M
0 6 L
-6 0 M
6 0 L
S
GR
GS
[0.8 0 0 0.8 381.75781 278.68923] CT
/Helvetica 11.25 F
GS
[1 0 0 1 0 0] CT
0 4 moveto 
1 -1 scale
(MST) t 
GR
GR
GS
[0.8 0 0 0.8 0 -0.40002] CT
0.851 0.325 0.098 RC
1 LJ
2.5 LW
N
436.973 348.862 M
474.218 348.862 L
S
GR
GS
[0.8 0 0 0.8 364.4762 278.68923] CT
0.851 0.325 0.098 RC
10.0 ML
2.5 LW
N
0 -7.498 M
-6.493 3.749 L
6.493 3.749 L
cp
S
GR
GS
[0.8 0 0 0.8 0 -0.40002] CT
0.149 GC
10.0 ML
0.625 LW
N
433 358 M
433 325 L
506 325 L
506 358 L
cp
S
GR
%%Trailer
%%Pages: 1
%%EOF
