%!PS-Adobe-3.0 EPSF-3.0
%%Creator: (MATLAB, The Mathworks, Inc. Version 9.13.0.2105380 \(R2022b\) Update 2. Operating System: Linux)
%%Title: ./PMCFSP_forcesNtorques_getMeshCuboid5_forces.eps
<<<<<<< HEAD
%%CreationDate: 2024-01-22T01:20:05
%%Pages: (atend)
%%BoundingBox:    18     9   413   317
=======
%%CreationDate: 2024-01-22T00:32:26
%%Pages: (atend)
%%BoundingBox:    15     6   388   298
>>>>>>> f4de00b5db4de07fdb797f1545578c2683f6c040
%%LanguageLevel: 3
%%EndComments
%%BeginProlog
%%BeginResource: procset (Apache XML Graphics Std ProcSet) 1.2 0
%%Version: 1.2 0
%%Copyright: (Copyright 2001-2003,2010 The Apache Software Foundation. License terms: http://www.apache.org/licenses/LICENSE-2.0)
/bd{bind def}bind def
/ld{load def}bd
/GR/grestore ld
/GS/gsave ld
/RM/rmoveto ld
/C/curveto ld
/t/show ld
/L/lineto ld
/ML/setmiterlimit ld
/CT/concat ld
/f/fill ld
/N/newpath ld
/S/stroke ld
/CC/setcmykcolor ld
/A/ashow ld
/cp/closepath ld
/RC/setrgbcolor ld
/LJ/setlinejoin ld
/GC/setgray ld
/LW/setlinewidth ld
/M/moveto ld
/re {4 2 roll M
1 index 0 rlineto
0 exch rlineto
neg 0 rlineto
cp } bd
/_ctm matrix def
/_tm matrix def
/BT { _ctm currentmatrix pop matrix _tm copy pop 0 0 moveto } bd
/ET { _ctm setmatrix } bd
/iTm { _ctm setmatrix _tm concat } bd
/Tm { _tm astore pop iTm 0 0 moveto } bd
/ux 0.0 def
/uy 0.0 def
/F {
  /Tp exch def
  /Tf exch def
  Tf findfont Tp scalefont setfont
  /cf Tf def  /cs Tp def
} bd
/ULS {currentpoint /uy exch def /ux exch def} bd
/ULE {
  /Tcx currentpoint pop def
  gsave
  newpath
  cf findfont cs scalefont dup
  /FontMatrix get 0 get /Ts exch def /FontInfo get dup
  /UnderlinePosition get Ts mul /To exch def
  /UnderlineThickness get Ts mul /Tt exch def
  ux uy To add moveto  Tcx uy To add lineto
  Tt setlinewidth stroke
  grestore
} bd
/OLE {
  /Tcx currentpoint pop def
  gsave
  newpath
  cf findfont cs scalefont dup
  /FontMatrix get 0 get /Ts exch def /FontInfo get dup
  /UnderlinePosition get Ts mul /To exch def
  /UnderlineThickness get Ts mul /Tt exch def
  ux uy To add cs add moveto Tcx uy To add cs add lineto
  Tt setlinewidth stroke
  grestore
} bd
/SOE {
  /Tcx currentpoint pop def
  gsave
  newpath
  cf findfont cs scalefont dup
  /FontMatrix get 0 get /Ts exch def /FontInfo get dup
  /UnderlinePosition get Ts mul /To exch def
  /UnderlineThickness get Ts mul /Tt exch def
  ux uy To add cs 10 mul 26 idiv add moveto Tcx uy To add cs 10 mul 26 idiv add lineto
  Tt setlinewidth stroke
  grestore
} bd
/QT {
/Y22 exch store
/X22 exch store
/Y21 exch store
/X21 exch store
currentpoint
/Y21 load 2 mul add 3 div exch
/X21 load 2 mul add 3 div exch
/X21 load 2 mul /X22 load add 3 div
/Y21 load 2 mul /Y22 load add 3 div
/X22 load /Y22 load curveto
} bd
/SSPD {
dup length /d exch dict def
{
/v exch def
/k exch def
currentpagedevice k known {
/cpdv currentpagedevice k get def
v cpdv ne {
/upd false def
/nullv v type /nulltype eq def
/nullcpdv cpdv type /nulltype eq def
nullv nullcpdv or
{
/upd true def
} {
/sametype v type cpdv type eq def
sametype {
v type /arraytype eq {
/vlen v length def
/cpdvlen cpdv length def
vlen cpdvlen eq {
0 1 vlen 1 sub {
/i exch def
/obj v i get def
/cpdobj cpdv i get def
obj cpdobj ne {
/upd true def
exit
} if
} for
} {
/upd true def
} ifelse
} {
v type /dicttype eq {
v {
/dv exch def
/dk exch def
/cpddv cpdv dk get def
dv cpddv ne {
/upd true def
exit
} if
} forall
} {
/upd true def
} ifelse
} ifelse
} if
} ifelse
upd true eq {
d k v put
} if
} if
} if
} forall
d length 0 gt {
d setpagedevice
} if
} bd
/RE { % /NewFontName [NewEncodingArray] /FontName RE -
  findfont dup length dict begin
  {
    1 index /FID ne
    {def} {pop pop} ifelse
  } forall
  /Encoding exch def
  /FontName 1 index def
  currentdict definefont pop
  end
} bind def
%%EndResource
%%BeginResource: procset (Apache XML Graphics EPS ProcSet) 1.0 0
%%Version: 1.0 0
%%Copyright: (Copyright 2002-2003 The Apache Software Foundation. License terms: http://www.apache.org/licenses/LICENSE-2.0)
/BeginEPSF { %def
/b4_Inc_state save def         % Save state for cleanup
/dict_count countdictstack def % Count objects on dict stack
/op_count count 1 sub def      % Count objects on operand stack
userdict begin                 % Push userdict on dict stack
/showpage { } def              % Redefine showpage, { } = null proc
0 setgray 0 setlinecap         % Prepare graphics state
1 setlinewidth 0 setlinejoin
10 setmiterlimit [ ] 0 setdash newpath
/languagelevel where           % If level not equal to 1 then
{pop languagelevel             % set strokeadjust and
1 ne                           % overprint to their defaults.
{false setstrokeadjust false setoverprint
} if
} if
} bd
/EndEPSF { %def
count op_count sub {pop} repeat            % Clean up stacks
countdictstack dict_count sub {end} repeat
b4_Inc_state restore
} bd
%%EndResource
%FOPBeginFontDict
%%IncludeResource: font Courier-Oblique
%%IncludeResource: font Courier-BoldOblique
%%IncludeResource: font Courier-Bold
%%IncludeResource: font ZapfDingbats
%%IncludeResource: font Symbol
%%IncludeResource: font Helvetica
%%IncludeResource: font Helvetica-Oblique
%%IncludeResource: font Helvetica-Bold
%%IncludeResource: font Helvetica-BoldOblique
%%IncludeResource: font Times-Roman
%%IncludeResource: font Times-Italic
%%IncludeResource: font Times-Bold
%%IncludeResource: font Times-BoldItalic
%%IncludeResource: font Courier
%FOPEndFontDict
%%BeginResource: encoding WinAnsiEncoding
/WinAnsiEncoding [
/.notdef /.notdef /.notdef /.notdef /.notdef
/.notdef /.notdef /.notdef /.notdef /.notdef
/.notdef /.notdef /.notdef /.notdef /.notdef
/.notdef /.notdef /.notdef /.notdef /.notdef
/.notdef /.notdef /.notdef /.notdef /.notdef
/.notdef /.notdef /.notdef /.notdef /.notdef
/.notdef /.notdef /space /exclam /quotedbl
/numbersign /dollar /percent /ampersand /quotesingle
/parenleft /parenright /asterisk /plus /comma
/hyphen /period /slash /zero /one
/two /three /four /five /six
/seven /eight /nine /colon /semicolon
/less /equal /greater /question /at
/A /B /C /D /E
/F /G /H /I /J
/K /L /M /N /O
/P /Q /R /S /T
/U /V /W /X /Y
/Z /bracketleft /backslash /bracketright /asciicircum
/underscore /quoteleft /a /b /c
/d /e /f /g /h
/i /j /k /l /m
/n /o /p /q /r
/s /t /u /v /w
/x /y /z /braceleft /bar
/braceright /asciitilde /bullet /Euro /bullet
/quotesinglbase /florin /quotedblbase /ellipsis /dagger
/daggerdbl /circumflex /perthousand /Scaron /guilsinglleft
/OE /bullet /Zcaron /bullet /bullet
/quoteleft /quoteright /quotedblleft /quotedblright /bullet
/endash /emdash /asciitilde /trademark /scaron
/guilsinglright /oe /bullet /zcaron /Ydieresis
/space /exclamdown /cent /sterling /currency
/yen /brokenbar /section /dieresis /copyright
/ordfeminine /guillemotleft /logicalnot /sfthyphen /registered
/macron /degree /plusminus /twosuperior /threesuperior
/acute /mu /paragraph /middot /cedilla
/onesuperior /ordmasculine /guillemotright /onequarter /onehalf
/threequarters /questiondown /Agrave /Aacute /Acircumflex
/Atilde /Adieresis /Aring /AE /Ccedilla
/Egrave /Eacute /Ecircumflex /Edieresis /Igrave
/Iacute /Icircumflex /Idieresis /Eth /Ntilde
/Ograve /Oacute /Ocircumflex /Otilde /Odieresis
/multiply /Oslash /Ugrave /Uacute /Ucircumflex
/Udieresis /Yacute /Thorn /germandbls /agrave
/aacute /acircumflex /atilde /adieresis /aring
/ae /ccedilla /egrave /eacute /ecircumflex
/edieresis /igrave /iacute /icircumflex /idieresis
/eth /ntilde /ograve /oacute /ocircumflex
/otilde /odieresis /divide /oslash /ugrave
/uacute /ucircumflex /udieresis /yacute /thorn
/ydieresis
] def
%%EndResource
%FOPBeginFontReencode
/Courier-Oblique findfont
dup length dict begin
  {1 index /FID ne {def} {pop pop} ifelse} forall
  /Encoding WinAnsiEncoding def
  currentdict
end
/Courier-Oblique exch definefont pop
/Courier-BoldOblique findfont
dup length dict begin
  {1 index /FID ne {def} {pop pop} ifelse} forall
  /Encoding WinAnsiEncoding def
  currentdict
end
/Courier-BoldOblique exch definefont pop
/Courier-Bold findfont
dup length dict begin
  {1 index /FID ne {def} {pop pop} ifelse} forall
  /Encoding WinAnsiEncoding def
  currentdict
end
/Courier-Bold exch definefont pop
/Helvetica findfont
dup length dict begin
  {1 index /FID ne {def} {pop pop} ifelse} forall
  /Encoding WinAnsiEncoding def
  currentdict
end
/Helvetica exch definefont pop
/Helvetica-Oblique findfont
dup length dict begin
  {1 index /FID ne {def} {pop pop} ifelse} forall
  /Encoding WinAnsiEncoding def
  currentdict
end
/Helvetica-Oblique exch definefont pop
/Helvetica-Bold findfont
dup length dict begin
  {1 index /FID ne {def} {pop pop} ifelse} forall
  /Encoding WinAnsiEncoding def
  currentdict
end
/Helvetica-Bold exch definefont pop
/Helvetica-BoldOblique findfont
dup length dict begin
  {1 index /FID ne {def} {pop pop} ifelse} forall
  /Encoding WinAnsiEncoding def
  currentdict
end
/Helvetica-BoldOblique exch definefont pop
/Times-Roman findfont
dup length dict begin
  {1 index /FID ne {def} {pop pop} ifelse} forall
  /Encoding WinAnsiEncoding def
  currentdict
end
/Times-Roman exch definefont pop
/Times-Italic findfont
dup length dict begin
  {1 index /FID ne {def} {pop pop} ifelse} forall
  /Encoding WinAnsiEncoding def
  currentdict
end
/Times-Italic exch definefont pop
/Times-Bold findfont
dup length dict begin
  {1 index /FID ne {def} {pop pop} ifelse} forall
  /Encoding WinAnsiEncoding def
  currentdict
end
/Times-Bold exch definefont pop
/Times-BoldItalic findfont
dup length dict begin
  {1 index /FID ne {def} {pop pop} ifelse} forall
  /Encoding WinAnsiEncoding def
  currentdict
end
/Times-BoldItalic exch definefont pop
/Courier findfont
dup length dict begin
  {1 index /FID ne {def} {pop pop} ifelse} forall
  /Encoding WinAnsiEncoding def
  currentdict
end
/Courier exch definefont pop
%FOPEndFontReencode
%%EndProlog
%%Page: 1 1
<<<<<<< HEAD
%%PageBoundingBox: 0 0 448 336
%%BeginPageSetup
N
   18     9 M
  431     9 L
  431   326 L
   18   326 L
cp
clip
[1 0 0 -1 0 336] CT
%%EndPageSetup
GS
[0.8 0 0 0.8 0 0] CT
=======
%%PageBoundingBox: 0 0 420 315
%%BeginPageSetup
N
   15     6 M
  403     6 L
  403   304 L
   15   304 L
cp
clip
[1 0 0 -1 0 315] CT
%%EndPageSetup
GS
[0.75 0 0 0.75 0 0] CT
>>>>>>> f4de00b5db4de07fdb797f1545578c2683f6c040
1 GC
N
0 0 560 420 re
f
GR
GS
<<<<<<< HEAD
[0.8 0 0 0.8 0 0] CT
=======
[0.75 0 0 0.75 0 0] CT
>>>>>>> f4de00b5db4de07fdb797f1545578c2683f6c040
1 GC
N
0 0 560 420 re
f
GR
GS
<<<<<<< HEAD
[0.8 0 0 0.8 0 0] CT
=======
[0.75 0 0 0.75 0 0] CT
>>>>>>> f4de00b5db4de07fdb797f1545578c2683f6c040
1 GC
N
73 374 M
507 374 L
507 31 L
73 31 L
cp
f
GR
GS
<<<<<<< HEAD
[0.8 0 0 0.8 0 0] CT
=======
[0.75 0 0 0.75 0 0] CT
>>>>>>> f4de00b5db4de07fdb797f1545578c2683f6c040
0.149 GC
2 setlinecap
1 LJ
0.625 LW
N
73 374 M
507 374 L
S
GR
GS
<<<<<<< HEAD
[0.8 0 0 0.8 0 0] CT
=======
[0.75 0 0 0.75 0 0] CT
>>>>>>> f4de00b5db4de07fdb797f1545578c2683f6c040
0.149 GC
2 setlinecap
1 LJ
0.625 LW
N
73 31 M
507 31 L
S
GR
GS
<<<<<<< HEAD
[0.8 0 0 0.8 0 0] CT
=======
[0.75 0 0 0.75 0 0] CT
>>>>>>> f4de00b5db4de07fdb797f1545578c2683f6c040
0.149 GC
2 setlinecap
1 LJ
0.625 LW
N
217.678 374 M
217.678 369.66 L
S
GR
GS
<<<<<<< HEAD
[0.8 0 0 0.8 0 0] CT
=======
[0.75 0 0 0.75 0 0] CT
>>>>>>> f4de00b5db4de07fdb797f1545578c2683f6c040
0.149 GC
2 setlinecap
1 LJ
0.625 LW
N
322.952 374 M
322.952 369.66 L
S
GR
GS
<<<<<<< HEAD
[0.8 0 0 0.8 0 0] CT
=======
[0.75 0 0 0.75 0 0] CT
>>>>>>> f4de00b5db4de07fdb797f1545578c2683f6c040
0.149 GC
2 setlinecap
1 LJ
0.625 LW
N
404.608 374 M
404.608 369.66 L
S
GR
GS
<<<<<<< HEAD
[0.8 0 0 0.8 0 0] CT
=======
[0.75 0 0 0.75 0 0] CT
>>>>>>> f4de00b5db4de07fdb797f1545578c2683f6c040
0.149 GC
2 setlinecap
1 LJ
0.625 LW
N
471.326 374 M
471.326 369.66 L
S
GR
GS
<<<<<<< HEAD
[0.8 0 0 0.8 0 0] CT
=======
[0.75 0 0 0.75 0 0] CT
>>>>>>> f4de00b5db4de07fdb797f1545578c2683f6c040
0.149 GC
2 setlinecap
1 LJ
0.625 LW
N
217.678 31 M
217.678 35.34 L
S
GR
GS
<<<<<<< HEAD
[0.8 0 0 0.8 0 0] CT
=======
[0.75 0 0 0.75 0 0] CT
>>>>>>> f4de00b5db4de07fdb797f1545578c2683f6c040
0.149 GC
2 setlinecap
1 LJ
0.625 LW
N
322.952 31 M
322.952 35.34 L
S
GR
GS
<<<<<<< HEAD
[0.8 0 0 0.8 0 0] CT
=======
[0.75 0 0 0.75 0 0] CT
>>>>>>> f4de00b5db4de07fdb797f1545578c2683f6c040
0.149 GC
2 setlinecap
1 LJ
0.625 LW
N
404.608 31 M
404.608 35.34 L
S
GR
GS
<<<<<<< HEAD
[0.8 0 0 0.8 0 0] CT
=======
[0.75 0 0 0.75 0 0] CT
>>>>>>> f4de00b5db4de07fdb797f1545578c2683f6c040
0.149 GC
2 setlinecap
1 LJ
0.625 LW
N
471.326 31 M
471.326 35.34 L
S
GR
GS
<<<<<<< HEAD
[0.8 0 0 0.8 0 0] CT
=======
[0.75 0 0 0.75 0 0] CT
>>>>>>> f4de00b5db4de07fdb797f1545578c2683f6c040
0.149 GC
2 setlinecap
1 LJ
0.625 LW
N
104.181 374 M
104.181 371.83 L
S
GR
GS
<<<<<<< HEAD
[0.8 0 0 0.8 0 0] CT
=======
[0.75 0 0 0.75 0 0] CT
>>>>>>> f4de00b5db4de07fdb797f1545578c2683f6c040
0.149 GC
2 setlinecap
1 LJ
0.625 LW
N
136.022 374 M
136.022 371.83 L
S
GR
GS
<<<<<<< HEAD
[0.8 0 0 0.8 0 0] CT
=======
[0.75 0 0 0.75 0 0] CT
>>>>>>> f4de00b5db4de07fdb797f1545578c2683f6c040
0.149 GC
2 setlinecap
1 LJ
0.625 LW
N
165.312 374 M
165.312 371.83 L
S
GR
GS
<<<<<<< HEAD
[0.8 0 0 0.8 0 0] CT
=======
[0.75 0 0 0.75 0 0] CT
>>>>>>> f4de00b5db4de07fdb797f1545578c2683f6c040
0.149 GC
2 setlinecap
1 LJ
0.625 LW
N
192.431 374 M
192.431 371.83 L
S
GR
GS
<<<<<<< HEAD
[0.8 0 0 0.8 0 0] CT
=======
[0.75 0 0 0.75 0 0] CT
>>>>>>> f4de00b5db4de07fdb797f1545578c2683f6c040
0.149 GC
2 setlinecap
1 LJ
0.625 LW
N
241.295 374 M
241.295 371.83 L
S
GR
GS
<<<<<<< HEAD
[0.8 0 0 0.8 0 0] CT
=======
[0.75 0 0 0.75 0 0] CT
>>>>>>> f4de00b5db4de07fdb797f1545578c2683f6c040
0.149 GC
2 setlinecap
1 LJ
0.625 LW
N
263.48 374 M
263.48 371.83 L
S
GR
GS
<<<<<<< HEAD
[0.8 0 0 0.8 0 0] CT
=======
[0.75 0 0 0.75 0 0] CT
>>>>>>> f4de00b5db4de07fdb797f1545578c2683f6c040
0.149 GC
2 setlinecap
1 LJ
0.625 LW
N
284.396 374 M
284.396 371.83 L
S
GR
GS
<<<<<<< HEAD
[0.8 0 0 0.8 0 0] CT
=======
[0.75 0 0 0.75 0 0] CT
>>>>>>> f4de00b5db4de07fdb797f1545578c2683f6c040
0.149 GC
2 setlinecap
1 LJ
0.625 LW
N
304.181 374 M
304.181 371.83 L
S
GR
GS
<<<<<<< HEAD
[0.8 0 0 0.8 0 0] CT
=======
[0.75 0 0 0.75 0 0] CT
>>>>>>> f4de00b5db4de07fdb797f1545578c2683f6c040
0.149 GC
2 setlinecap
1 LJ
0.625 LW
N
340.806 374 M
340.806 371.83 L
S
GR
GS
<<<<<<< HEAD
[0.8 0 0 0.8 0 0] CT
=======
[0.75 0 0 0.75 0 0] CT
>>>>>>> f4de00b5db4de07fdb797f1545578c2683f6c040
0.149 GC
2 setlinecap
1 LJ
0.625 LW
N
357.829 374 M
357.829 371.83 L
S
GR
GS
<<<<<<< HEAD
[0.8 0 0 0.8 0 0] CT
=======
[0.75 0 0 0.75 0 0] CT
>>>>>>> f4de00b5db4de07fdb797f1545578c2683f6c040
0.149 GC
2 setlinecap
1 LJ
0.625 LW
N
374.096 374 M
374.096 371.83 L
S
GR
GS
<<<<<<< HEAD
[0.8 0 0 0.8 0 0] CT
=======
[0.75 0 0 0.75 0 0] CT
>>>>>>> f4de00b5db4de07fdb797f1545578c2683f6c040
0.149 GC
2 setlinecap
1 LJ
0.625 LW
N
389.67 374 M
389.67 371.83 L
S
GR
GS
<<<<<<< HEAD
[0.8 0 0 0.8 0 0] CT
=======
[0.75 0 0 0.75 0 0] CT
>>>>>>> f4de00b5db4de07fdb797f1545578c2683f6c040
0.149 GC
2 setlinecap
1 LJ
0.625 LW
N
418.96 374 M
418.96 371.83 L
S
GR
GS
<<<<<<< HEAD
[0.8 0 0 0.8 0 0] CT
=======
[0.75 0 0 0.75 0 0] CT
>>>>>>> f4de00b5db4de07fdb797f1545578c2683f6c040
0.149 GC
2 setlinecap
1 LJ
0.625 LW
N
432.771 374 M
432.771 371.83 L
S
GR
GS
<<<<<<< HEAD
[0.8 0 0 0.8 0 0] CT
=======
[0.75 0 0 0.75 0 0] CT
>>>>>>> f4de00b5db4de07fdb797f1545578c2683f6c040
0.149 GC
2 setlinecap
1 LJ
0.625 LW
N
446.079 374 M
446.079 371.83 L
S
GR
GS
<<<<<<< HEAD
[0.8 0 0 0.8 0 0] CT
=======
[0.75 0 0 0.75 0 0] CT
>>>>>>> f4de00b5db4de07fdb797f1545578c2683f6c040
0.149 GC
2 setlinecap
1 LJ
0.625 LW
N
458.92 374 M
458.92 371.83 L
S
GR
GS
<<<<<<< HEAD
[0.8 0 0 0.8 0 0] CT
=======
[0.75 0 0 0.75 0 0] CT
>>>>>>> f4de00b5db4de07fdb797f1545578c2683f6c040
0.149 GC
2 setlinecap
1 LJ
0.625 LW
N
483.325 374 M
483.325 371.83 L
S
GR
GS
<<<<<<< HEAD
[0.8 0 0 0.8 0 0] CT
=======
[0.75 0 0 0.75 0 0] CT
>>>>>>> f4de00b5db4de07fdb797f1545578c2683f6c040
0.149 GC
2 setlinecap
1 LJ
0.625 LW
N
494.943 374 M
494.943 371.83 L
S
GR
GS
<<<<<<< HEAD
[0.8 0 0 0.8 0 0] CT
=======
[0.75 0 0 0.75 0 0] CT
>>>>>>> f4de00b5db4de07fdb797f1545578c2683f6c040
0.149 GC
2 setlinecap
1 LJ
0.625 LW
N
506.204 374 M
506.204 371.83 L
S
GR
GS
<<<<<<< HEAD
[0.8 0 0 0.8 0 0] CT
=======
[0.75 0 0 0.75 0 0] CT
>>>>>>> f4de00b5db4de07fdb797f1545578c2683f6c040
0.149 GC
2 setlinecap
1 LJ
0.625 LW
N
104.181 31 M
104.181 33.17 L
S
GR
GS
<<<<<<< HEAD
[0.8 0 0 0.8 0 0] CT
=======
[0.75 0 0 0.75 0 0] CT
>>>>>>> f4de00b5db4de07fdb797f1545578c2683f6c040
0.149 GC
2 setlinecap
1 LJ
0.625 LW
N
136.022 31 M
136.022 33.17 L
S
GR
GS
<<<<<<< HEAD
[0.8 0 0 0.8 0 0] CT
=======
[0.75 0 0 0.75 0 0] CT
>>>>>>> f4de00b5db4de07fdb797f1545578c2683f6c040
0.149 GC
2 setlinecap
1 LJ
0.625 LW
N
165.312 31 M
165.312 33.17 L
S
GR
GS
<<<<<<< HEAD
[0.8 0 0 0.8 0 0] CT
=======
[0.75 0 0 0.75 0 0] CT
>>>>>>> f4de00b5db4de07fdb797f1545578c2683f6c040
0.149 GC
2 setlinecap
1 LJ
0.625 LW
N
192.431 31 M
192.431 33.17 L
S
GR
GS
<<<<<<< HEAD
[0.8 0 0 0.8 0 0] CT
=======
[0.75 0 0 0.75 0 0] CT
>>>>>>> f4de00b5db4de07fdb797f1545578c2683f6c040
0.149 GC
2 setlinecap
1 LJ
0.625 LW
N
241.295 31 M
241.295 33.17 L
S
GR
GS
<<<<<<< HEAD
[0.8 0 0 0.8 0 0] CT
=======
[0.75 0 0 0.75 0 0] CT
>>>>>>> f4de00b5db4de07fdb797f1545578c2683f6c040
0.149 GC
2 setlinecap
1 LJ
0.625 LW
N
263.48 31 M
263.48 33.17 L
S
GR
GS
<<<<<<< HEAD
[0.8 0 0 0.8 0 0] CT
=======
[0.75 0 0 0.75 0 0] CT
>>>>>>> f4de00b5db4de07fdb797f1545578c2683f6c040
0.149 GC
2 setlinecap
1 LJ
0.625 LW
N
284.396 31 M
284.396 33.17 L
S
GR
GS
<<<<<<< HEAD
[0.8 0 0 0.8 0 0] CT
=======
[0.75 0 0 0.75 0 0] CT
>>>>>>> f4de00b5db4de07fdb797f1545578c2683f6c040
0.149 GC
2 setlinecap
1 LJ
0.625 LW
N
304.181 31 M
304.181 33.17 L
S
GR
GS
<<<<<<< HEAD
[0.8 0 0 0.8 0 0] CT
=======
[0.75 0 0 0.75 0 0] CT
>>>>>>> f4de00b5db4de07fdb797f1545578c2683f6c040
0.149 GC
2 setlinecap
1 LJ
0.625 LW
N
340.806 31 M
340.806 33.17 L
S
GR
GS
<<<<<<< HEAD
[0.8 0 0 0.8 0 0] CT
=======
[0.75 0 0 0.75 0 0] CT
>>>>>>> f4de00b5db4de07fdb797f1545578c2683f6c040
0.149 GC
2 setlinecap
1 LJ
0.625 LW
N
357.829 31 M
357.829 33.17 L
S
GR
GS
<<<<<<< HEAD
[0.8 0 0 0.8 0 0] CT
=======
[0.75 0 0 0.75 0 0] CT
>>>>>>> f4de00b5db4de07fdb797f1545578c2683f6c040
0.149 GC
2 setlinecap
1 LJ
0.625 LW
N
374.096 31 M
374.096 33.17 L
S
GR
GS
<<<<<<< HEAD
[0.8 0 0 0.8 0 0] CT
=======
[0.75 0 0 0.75 0 0] CT
>>>>>>> f4de00b5db4de07fdb797f1545578c2683f6c040
0.149 GC
2 setlinecap
1 LJ
0.625 LW
N
389.67 31 M
389.67 33.17 L
S
GR
GS
<<<<<<< HEAD
[0.8 0 0 0.8 0 0] CT
=======
[0.75 0 0 0.75 0 0] CT
>>>>>>> f4de00b5db4de07fdb797f1545578c2683f6c040
0.149 GC
2 setlinecap
1 LJ
0.625 LW
N
418.96 31 M
418.96 33.17 L
S
GR
GS
<<<<<<< HEAD
[0.8 0 0 0.8 0 0] CT
=======
[0.75 0 0 0.75 0 0] CT
>>>>>>> f4de00b5db4de07fdb797f1545578c2683f6c040
0.149 GC
2 setlinecap
1 LJ
0.625 LW
N
432.771 31 M
432.771 33.17 L
S
GR
GS
<<<<<<< HEAD
[0.8 0 0 0.8 0 0] CT
=======
[0.75 0 0 0.75 0 0] CT
>>>>>>> f4de00b5db4de07fdb797f1545578c2683f6c040
0.149 GC
2 setlinecap
1 LJ
0.625 LW
N
446.079 31 M
446.079 33.17 L
S
GR
GS
<<<<<<< HEAD
[0.8 0 0 0.8 0 0] CT
=======
[0.75 0 0 0.75 0 0] CT
>>>>>>> f4de00b5db4de07fdb797f1545578c2683f6c040
0.149 GC
2 setlinecap
1 LJ
0.625 LW
N
458.92 31 M
458.92 33.17 L
S
GR
GS
<<<<<<< HEAD
[0.8 0 0 0.8 0 0] CT
=======
[0.75 0 0 0.75 0 0] CT
>>>>>>> f4de00b5db4de07fdb797f1545578c2683f6c040
0.149 GC
2 setlinecap
1 LJ
0.625 LW
N
483.325 31 M
483.325 33.17 L
S
GR
GS
<<<<<<< HEAD
[0.8 0 0 0.8 0 0] CT
=======
[0.75 0 0 0.75 0 0] CT
>>>>>>> f4de00b5db4de07fdb797f1545578c2683f6c040
0.149 GC
2 setlinecap
1 LJ
0.625 LW
N
494.943 31 M
494.943 33.17 L
S
GR
GS
<<<<<<< HEAD
[0.8 0 0 0.8 0 0] CT
=======
[0.75 0 0 0.75 0 0] CT
>>>>>>> f4de00b5db4de07fdb797f1545578c2683f6c040
0.149 GC
2 setlinecap
1 LJ
0.625 LW
N
506.204 31 M
506.204 33.17 L
S
GR
GS
<<<<<<< HEAD
[0.8 0 0 0.8 174.1425 303.2] CT
0.149 GC
/Helvetica 12.5 F
GS
[1 0 0 1 0 0] CT
-14 12 moveto 
=======
[0.75 0 0 0.75 163.2586 284.50001] CT
0.149 GC
/Helvetica 13.333 F
GS
[1 0 0 1 0 0] CT
-15 13 moveto 
>>>>>>> f4de00b5db4de07fdb797f1545578c2683f6c040
1 -1 scale
(0.15) t 
GR
GR
GS
<<<<<<< HEAD
[0.8 0 0 0.8 258.36125 303.2] CT
=======
[0.75 0 0 0.75 242.21368 284.50001] CT
>>>>>>> f4de00b5db4de07fdb797f1545578c2683f6c040
0.149 GC
/Helvetica 12.5 F
GS
[1 0 0 1 0 0] CT
-10 12 moveto 
1 -1 scale
(0.2) t 
GR
GR
GS
<<<<<<< HEAD
[0.8 0 0 0.8 323.6864 303.2] CT
=======
[0.75 0 0 0.75 303.456 284.50001] CT
>>>>>>> f4de00b5db4de07fdb797f1545578c2683f6c040
0.149 GC
/Helvetica 12.5 F
GS
[1 0 0 1 0 0] CT
-14 12 moveto 
1 -1 scale
(0.25) t 
GR
GR
GS
<<<<<<< HEAD
[0.8 0 0 0.8 377.06094 303.2] CT
=======
[0.75 0 0 0.75 353.49463 284.50001] CT
>>>>>>> f4de00b5db4de07fdb797f1545578c2683f6c040
0.149 GC
/Helvetica 12.5 F
GS
[1 0 0 1 0 0] CT
-10 12 moveto 
1 -1 scale
(0.3) t 
GR
GR
GS
<<<<<<< HEAD
[0.8 0 0 0.8 232.00017 316.2] CT
=======
[0.75 0 0 0.75 217.50016 298.24999] CT
>>>>>>> f4de00b5db4de07fdb797f1545578c2683f6c040
0.149 GC
/Helvetica 13.75 F
GS
[1 0 0 1 0 0] CT
-44.5 13 moveto 
1 -1 scale
(meshwidth h) t 
GR
GR
GS
<<<<<<< HEAD
[0.8 0 0 0.8 0 0] CT
=======
[0.75 0 0 0.75 0 0] CT
>>>>>>> f4de00b5db4de07fdb797f1545578c2683f6c040
0.149 GC
2 setlinecap
1 LJ
0.625 LW
N
73 374 M
73 31 L
S
GR
GS
<<<<<<< HEAD
[0.8 0 0 0.8 0 0] CT
=======
[0.75 0 0 0.75 0 0] CT
>>>>>>> f4de00b5db4de07fdb797f1545578c2683f6c040
0.149 GC
2 setlinecap
1 LJ
0.625 LW
N
507 374 M
507 31 L
S
GR
GS
<<<<<<< HEAD
[0.8 0 0 0.8 0 0] CT
=======
[0.75 0 0 0.75 0 0] CT
>>>>>>> f4de00b5db4de07fdb797f1545578c2683f6c040
0.149 GC
2 setlinecap
1 LJ
0.625 LW
N
73 374 M
77.34 374 L
S
GR
GS
<<<<<<< HEAD
[0.8 0 0 0.8 0 0] CT
=======
[0.75 0 0 0.75 0 0] CT
>>>>>>> f4de00b5db4de07fdb797f1545578c2683f6c040
0.149 GC
2 setlinecap
1 LJ
0.625 LW
N
73 288.25 M
77.34 288.25 L
S
GR
GS
<<<<<<< HEAD
[0.8 0 0 0.8 0 0] CT
=======
[0.75 0 0 0.75 0 0] CT
>>>>>>> f4de00b5db4de07fdb797f1545578c2683f6c040
0.149 GC
2 setlinecap
1 LJ
0.625 LW
N
73 202.5 M
77.34 202.5 L
S
GR
GS
<<<<<<< HEAD
[0.8 0 0 0.8 0 0] CT
=======
[0.75 0 0 0.75 0 0] CT
>>>>>>> f4de00b5db4de07fdb797f1545578c2683f6c040
0.149 GC
2 setlinecap
1 LJ
0.625 LW
N
73 116.75 M
77.34 116.75 L
S
GR
GS
<<<<<<< HEAD
[0.8 0 0 0.8 0 0] CT
=======
[0.75 0 0 0.75 0 0] CT
>>>>>>> f4de00b5db4de07fdb797f1545578c2683f6c040
0.149 GC
2 setlinecap
1 LJ
0.625 LW
N
73 31 M
77.34 31 L
S
GR
GS
<<<<<<< HEAD
[0.8 0 0 0.8 0 0] CT
=======
[0.75 0 0 0.75 0 0] CT
>>>>>>> f4de00b5db4de07fdb797f1545578c2683f6c040
0.149 GC
2 setlinecap
1 LJ
0.625 LW
N
507 374 M
502.66 374 L
S
GR
GS
<<<<<<< HEAD
[0.8 0 0 0.8 0 0] CT
=======
[0.75 0 0 0.75 0 0] CT
>>>>>>> f4de00b5db4de07fdb797f1545578c2683f6c040
0.149 GC
2 setlinecap
1 LJ
0.625 LW
N
507 288.25 M
502.66 288.25 L
S
GR
GS
<<<<<<< HEAD
[0.8 0 0 0.8 0 0] CT
=======
[0.75 0 0 0.75 0 0] CT
>>>>>>> f4de00b5db4de07fdb797f1545578c2683f6c040
0.149 GC
2 setlinecap
1 LJ
0.625 LW
N
507 202.5 M
502.66 202.5 L
S
GR
GS
<<<<<<< HEAD
[0.8 0 0 0.8 0 0] CT
=======
[0.75 0 0 0.75 0 0] CT
>>>>>>> f4de00b5db4de07fdb797f1545578c2683f6c040
0.149 GC
2 setlinecap
1 LJ
0.625 LW
N
507 116.75 M
502.66 116.75 L
S
GR
GS
<<<<<<< HEAD
[0.8 0 0 0.8 0 0] CT
=======
[0.75 0 0 0.75 0 0] CT
>>>>>>> f4de00b5db4de07fdb797f1545578c2683f6c040
0.149 GC
2 setlinecap
1 LJ
0.625 LW
N
507 31 M
502.66 31 L
S
GR
GS
<<<<<<< HEAD
[0.8 0 0 0.8 0 0] CT
=======
[0.75 0 0 0.75 0 0] CT
>>>>>>> f4de00b5db4de07fdb797f1545578c2683f6c040
0.149 GC
2 setlinecap
1 LJ
0.625 LW
N
73 374 M
75.17 374 L
S
GR
GS
<<<<<<< HEAD
[0.8 0 0 0.8 0 0] CT
=======
[0.75 0 0 0.75 0 0] CT
>>>>>>> f4de00b5db4de07fdb797f1545578c2683f6c040
0.149 GC
2 setlinecap
1 LJ
0.625 LW
N
73 348.187 M
75.17 348.187 L
S
GR
GS
<<<<<<< HEAD
[0.8 0 0 0.8 0 0] CT
=======
[0.75 0 0 0.75 0 0] CT
>>>>>>> f4de00b5db4de07fdb797f1545578c2683f6c040
0.149 GC
2 setlinecap
1 LJ
0.625 LW
N
73 333.087 M
75.17 333.087 L
S
GR
GS
<<<<<<< HEAD
[0.8 0 0 0.8 0 0] CT
=======
[0.75 0 0 0.75 0 0] CT
>>>>>>> f4de00b5db4de07fdb797f1545578c2683f6c040
0.149 GC
2 setlinecap
1 LJ
0.625 LW
N
73 322.373 M
75.17 322.373 L
S
GR
GS
<<<<<<< HEAD
[0.8 0 0 0.8 0 0] CT
=======
[0.75 0 0 0.75 0 0] CT
>>>>>>> f4de00b5db4de07fdb797f1545578c2683f6c040
0.149 GC
2 setlinecap
1 LJ
0.625 LW
N
73 314.063 M
75.17 314.063 L
S
GR
GS
<<<<<<< HEAD
[0.8 0 0 0.8 0 0] CT
=======
[0.75 0 0 0.75 0 0] CT
>>>>>>> f4de00b5db4de07fdb797f1545578c2683f6c040
0.149 GC
2 setlinecap
1 LJ
0.625 LW
N
73 307.274 M
75.17 307.274 L
S
GR
GS
<<<<<<< HEAD
[0.8 0 0 0.8 0 0] CT
=======
[0.75 0 0 0.75 0 0] CT
>>>>>>> f4de00b5db4de07fdb797f1545578c2683f6c040
0.149 GC
2 setlinecap
1 LJ
0.625 LW
N
73 301.533 M
75.17 301.533 L
S
GR
GS
<<<<<<< HEAD
[0.8 0 0 0.8 0 0] CT
=======
[0.75 0 0 0.75 0 0] CT
>>>>>>> f4de00b5db4de07fdb797f1545578c2683f6c040
0.149 GC
2 setlinecap
1 LJ
0.625 LW
N
73 296.56 M
75.17 296.56 L
S
GR
GS
<<<<<<< HEAD
[0.8 0 0 0.8 0 0] CT
=======
[0.75 0 0 0.75 0 0] CT
>>>>>>> f4de00b5db4de07fdb797f1545578c2683f6c040
0.149 GC
2 setlinecap
1 LJ
0.625 LW
N
73 292.174 M
75.17 292.174 L
S
GR
GS
<<<<<<< HEAD
[0.8 0 0 0.8 0 0] CT
=======
[0.75 0 0 0.75 0 0] CT
>>>>>>> f4de00b5db4de07fdb797f1545578c2683f6c040
0.149 GC
2 setlinecap
1 LJ
0.625 LW
N
73 288.25 M
75.17 288.25 L
S
GR
GS
<<<<<<< HEAD
[0.8 0 0 0.8 0 0] CT
=======
[0.75 0 0 0.75 0 0] CT
>>>>>>> f4de00b5db4de07fdb797f1545578c2683f6c040
0.149 GC
2 setlinecap
1 LJ
0.625 LW
N
73 262.437 M
75.17 262.437 L
S
GR
GS
<<<<<<< HEAD
[0.8 0 0 0.8 0 0] CT
=======
[0.75 0 0 0.75 0 0] CT
>>>>>>> f4de00b5db4de07fdb797f1545578c2683f6c040
0.149 GC
2 setlinecap
1 LJ
0.625 LW
N
73 247.337 M
75.17 247.337 L
S
GR
GS
<<<<<<< HEAD
[0.8 0 0 0.8 0 0] CT
=======
[0.75 0 0 0.75 0 0] CT
>>>>>>> f4de00b5db4de07fdb797f1545578c2683f6c040
0.149 GC
2 setlinecap
1 LJ
0.625 LW
N
73 236.623 M
75.17 236.623 L
S
GR
GS
<<<<<<< HEAD
[0.8 0 0 0.8 0 0] CT
=======
[0.75 0 0 0.75 0 0] CT
>>>>>>> f4de00b5db4de07fdb797f1545578c2683f6c040
0.149 GC
2 setlinecap
1 LJ
0.625 LW
N
73 228.313 M
75.17 228.313 L
S
GR
GS
<<<<<<< HEAD
[0.8 0 0 0.8 0 0] CT
=======
[0.75 0 0 0.75 0 0] CT
>>>>>>> f4de00b5db4de07fdb797f1545578c2683f6c040
0.149 GC
2 setlinecap
1 LJ
0.625 LW
N
73 221.524 M
75.17 221.524 L
S
GR
GS
<<<<<<< HEAD
[0.8 0 0 0.8 0 0] CT
=======
[0.75 0 0 0.75 0 0] CT
>>>>>>> f4de00b5db4de07fdb797f1545578c2683f6c040
0.149 GC
2 setlinecap
1 LJ
0.625 LW
N
73 215.783 M
75.17 215.783 L
S
GR
GS
<<<<<<< HEAD
[0.8 0 0 0.8 0 0] CT
=======
[0.75 0 0 0.75 0 0] CT
>>>>>>> f4de00b5db4de07fdb797f1545578c2683f6c040
0.149 GC
2 setlinecap
1 LJ
0.625 LW
N
73 210.81 M
75.17 210.81 L
S
GR
GS
<<<<<<< HEAD
[0.8 0 0 0.8 0 0] CT
=======
[0.75 0 0 0.75 0 0] CT
>>>>>>> f4de00b5db4de07fdb797f1545578c2683f6c040
0.149 GC
2 setlinecap
1 LJ
0.625 LW
N
73 206.424 M
75.17 206.424 L
S
GR
GS
<<<<<<< HEAD
[0.8 0 0 0.8 0 0] CT
=======
[0.75 0 0 0.75 0 0] CT
>>>>>>> f4de00b5db4de07fdb797f1545578c2683f6c040
0.149 GC
2 setlinecap
1 LJ
0.625 LW
N
73 202.5 M
75.17 202.5 L
S
GR
GS
<<<<<<< HEAD
[0.8 0 0 0.8 0 0] CT
=======
[0.75 0 0 0.75 0 0] CT
>>>>>>> f4de00b5db4de07fdb797f1545578c2683f6c040
0.149 GC
2 setlinecap
1 LJ
0.625 LW
N
73 202.5 M
75.17 202.5 L
S
GR
GS
<<<<<<< HEAD
[0.8 0 0 0.8 0 0] CT
=======
[0.75 0 0 0.75 0 0] CT
>>>>>>> f4de00b5db4de07fdb797f1545578c2683f6c040
0.149 GC
2 setlinecap
1 LJ
0.625 LW
N
73 176.687 M
75.17 176.687 L
S
GR
GS
<<<<<<< HEAD
[0.8 0 0 0.8 0 0] CT
=======
[0.75 0 0 0.75 0 0] CT
>>>>>>> f4de00b5db4de07fdb797f1545578c2683f6c040
0.149 GC
2 setlinecap
1 LJ
0.625 LW
N
73 161.587 M
75.17 161.587 L
S
GR
GS
<<<<<<< HEAD
[0.8 0 0 0.8 0 0] CT
=======
[0.75 0 0 0.75 0 0] CT
>>>>>>> f4de00b5db4de07fdb797f1545578c2683f6c040
0.149 GC
2 setlinecap
1 LJ
0.625 LW
N
73 150.873 M
75.17 150.873 L
S
GR
GS
<<<<<<< HEAD
[0.8 0 0 0.8 0 0] CT
=======
[0.75 0 0 0.75 0 0] CT
>>>>>>> f4de00b5db4de07fdb797f1545578c2683f6c040
0.149 GC
2 setlinecap
1 LJ
0.625 LW
N
73 142.563 M
75.17 142.563 L
S
GR
GS
<<<<<<< HEAD
[0.8 0 0 0.8 0 0] CT
=======
[0.75 0 0 0.75 0 0] CT
>>>>>>> f4de00b5db4de07fdb797f1545578c2683f6c040
0.149 GC
2 setlinecap
1 LJ
0.625 LW
N
73 135.774 M
75.17 135.774 L
S
GR
GS
<<<<<<< HEAD
[0.8 0 0 0.8 0 0] CT
=======
[0.75 0 0 0.75 0 0] CT
>>>>>>> f4de00b5db4de07fdb797f1545578c2683f6c040
0.149 GC
2 setlinecap
1 LJ
0.625 LW
N
73 130.033 M
75.17 130.033 L
S
GR
GS
<<<<<<< HEAD
[0.8 0 0 0.8 0 0] CT
=======
[0.75 0 0 0.75 0 0] CT
>>>>>>> f4de00b5db4de07fdb797f1545578c2683f6c040
0.149 GC
2 setlinecap
1 LJ
0.625 LW
N
73 125.06 M
75.17 125.06 L
S
GR
GS
<<<<<<< HEAD
[0.8 0 0 0.8 0 0] CT
=======
[0.75 0 0 0.75 0 0] CT
>>>>>>> f4de00b5db4de07fdb797f1545578c2683f6c040
0.149 GC
2 setlinecap
1 LJ
0.625 LW
N
73 120.674 M
75.17 120.674 L
S
GR
GS
<<<<<<< HEAD
[0.8 0 0 0.8 0 0] CT
=======
[0.75 0 0 0.75 0 0] CT
>>>>>>> f4de00b5db4de07fdb797f1545578c2683f6c040
0.149 GC
2 setlinecap
1 LJ
0.625 LW
N
73 116.75 M
75.17 116.75 L
S
GR
GS
<<<<<<< HEAD
[0.8 0 0 0.8 0 0] CT
=======
[0.75 0 0 0.75 0 0] CT
>>>>>>> f4de00b5db4de07fdb797f1545578c2683f6c040
0.149 GC
2 setlinecap
1 LJ
0.625 LW
N
73 90.937 M
75.17 90.937 L
S
GR
GS
<<<<<<< HEAD
[0.8 0 0 0.8 0 0] CT
=======
[0.75 0 0 0.75 0 0] CT
>>>>>>> f4de00b5db4de07fdb797f1545578c2683f6c040
0.149 GC
2 setlinecap
1 LJ
0.625 LW
N
73 75.837 M
75.17 75.837 L
S
GR
GS
<<<<<<< HEAD
[0.8 0 0 0.8 0 0] CT
=======
[0.75 0 0 0.75 0 0] CT
>>>>>>> f4de00b5db4de07fdb797f1545578c2683f6c040
0.149 GC
2 setlinecap
1 LJ
0.625 LW
N
73 65.123 M
75.17 65.123 L
S
GR
GS
<<<<<<< HEAD
[0.8 0 0 0.8 0 0] CT
=======
[0.75 0 0 0.75 0 0] CT
>>>>>>> f4de00b5db4de07fdb797f1545578c2683f6c040
0.149 GC
2 setlinecap
1 LJ
0.625 LW
N
73 56.813 M
75.17 56.813 L
S
GR
GS
<<<<<<< HEAD
[0.8 0 0 0.8 0 0] CT
=======
[0.75 0 0 0.75 0 0] CT
>>>>>>> f4de00b5db4de07fdb797f1545578c2683f6c040
0.149 GC
2 setlinecap
1 LJ
0.625 LW
N
73 50.024 M
75.17 50.024 L
S
GR
GS
<<<<<<< HEAD
[0.8 0 0 0.8 0 0] CT
=======
[0.75 0 0 0.75 0 0] CT
>>>>>>> f4de00b5db4de07fdb797f1545578c2683f6c040
0.149 GC
2 setlinecap
1 LJ
0.625 LW
N
73 44.283 M
75.17 44.283 L
S
GR
GS
<<<<<<< HEAD
[0.8 0 0 0.8 0 0] CT
=======
[0.75 0 0 0.75 0 0] CT
>>>>>>> f4de00b5db4de07fdb797f1545578c2683f6c040
0.149 GC
2 setlinecap
1 LJ
0.625 LW
N
73 39.31 M
75.17 39.31 L
S
GR
GS
<<<<<<< HEAD
[0.8 0 0 0.8 0 0] CT
=======
[0.75 0 0 0.75 0 0] CT
>>>>>>> f4de00b5db4de07fdb797f1545578c2683f6c040
0.149 GC
2 setlinecap
1 LJ
0.625 LW
N
73 34.924 M
75.17 34.924 L
S
GR
GS
<<<<<<< HEAD
[0.8 0 0 0.8 0 0] CT
=======
[0.75 0 0 0.75 0 0] CT
>>>>>>> f4de00b5db4de07fdb797f1545578c2683f6c040
0.149 GC
2 setlinecap
1 LJ
0.625 LW
N
73 31 M
75.17 31 L
S
GR
GS
<<<<<<< HEAD
[0.8 0 0 0.8 0 0] CT
=======
[0.75 0 0 0.75 0 0] CT
>>>>>>> f4de00b5db4de07fdb797f1545578c2683f6c040
0.149 GC
2 setlinecap
1 LJ
0.625 LW
N
507 374 M
504.83 374 L
S
GR
GS
<<<<<<< HEAD
[0.8 0 0 0.8 0 0] CT
=======
[0.75 0 0 0.75 0 0] CT
>>>>>>> f4de00b5db4de07fdb797f1545578c2683f6c040
0.149 GC
2 setlinecap
1 LJ
0.625 LW
N
507 348.187 M
504.83 348.187 L
S
GR
GS
<<<<<<< HEAD
[0.8 0 0 0.8 0 0] CT
=======
[0.75 0 0 0.75 0 0] CT
>>>>>>> f4de00b5db4de07fdb797f1545578c2683f6c040
0.149 GC
2 setlinecap
1 LJ
0.625 LW
N
507 333.087 M
504.83 333.087 L
S
GR
GS
<<<<<<< HEAD
[0.8 0 0 0.8 0 0] CT
=======
[0.75 0 0 0.75 0 0] CT
>>>>>>> f4de00b5db4de07fdb797f1545578c2683f6c040
0.149 GC
2 setlinecap
1 LJ
0.625 LW
N
507 322.373 M
504.83 322.373 L
S
GR
GS
<<<<<<< HEAD
[0.8 0 0 0.8 0 0] CT
=======
[0.75 0 0 0.75 0 0] CT
>>>>>>> f4de00b5db4de07fdb797f1545578c2683f6c040
0.149 GC
2 setlinecap
1 LJ
0.625 LW
N
507 314.063 M
504.83 314.063 L
S
GR
GS
<<<<<<< HEAD
[0.8 0 0 0.8 0 0] CT
=======
[0.75 0 0 0.75 0 0] CT
>>>>>>> f4de00b5db4de07fdb797f1545578c2683f6c040
0.149 GC
2 setlinecap
1 LJ
0.625 LW
N
507 307.274 M
504.83 307.274 L
S
GR
GS
<<<<<<< HEAD
[0.8 0 0 0.8 0 0] CT
=======
[0.75 0 0 0.75 0 0] CT
>>>>>>> f4de00b5db4de07fdb797f1545578c2683f6c040
0.149 GC
2 setlinecap
1 LJ
0.625 LW
N
507 301.533 M
504.83 301.533 L
S
GR
GS
<<<<<<< HEAD
[0.8 0 0 0.8 0 0] CT
=======
[0.75 0 0 0.75 0 0] CT
>>>>>>> f4de00b5db4de07fdb797f1545578c2683f6c040
0.149 GC
2 setlinecap
1 LJ
0.625 LW
N
507 296.56 M
504.83 296.56 L
S
GR
GS
<<<<<<< HEAD
[0.8 0 0 0.8 0 0] CT
=======
[0.75 0 0 0.75 0 0] CT
>>>>>>> f4de00b5db4de07fdb797f1545578c2683f6c040
0.149 GC
2 setlinecap
1 LJ
0.625 LW
N
507 292.174 M
504.83 292.174 L
S
GR
GS
<<<<<<< HEAD
[0.8 0 0 0.8 0 0] CT
=======
[0.75 0 0 0.75 0 0] CT
>>>>>>> f4de00b5db4de07fdb797f1545578c2683f6c040
0.149 GC
2 setlinecap
1 LJ
0.625 LW
N
507 288.25 M
504.83 288.25 L
S
GR
GS
<<<<<<< HEAD
[0.8 0 0 0.8 0 0] CT
=======
[0.75 0 0 0.75 0 0] CT
>>>>>>> f4de00b5db4de07fdb797f1545578c2683f6c040
0.149 GC
2 setlinecap
1 LJ
0.625 LW
N
507 262.437 M
504.83 262.437 L
S
GR
GS
<<<<<<< HEAD
[0.8 0 0 0.8 0 0] CT
=======
[0.75 0 0 0.75 0 0] CT
>>>>>>> f4de00b5db4de07fdb797f1545578c2683f6c040
0.149 GC
2 setlinecap
1 LJ
0.625 LW
N
507 247.337 M
504.83 247.337 L
S
GR
GS
<<<<<<< HEAD
[0.8 0 0 0.8 0 0] CT
=======
[0.75 0 0 0.75 0 0] CT
>>>>>>> f4de00b5db4de07fdb797f1545578c2683f6c040
0.149 GC
2 setlinecap
1 LJ
0.625 LW
N
507 236.623 M
504.83 236.623 L
S
GR
GS
<<<<<<< HEAD
[0.8 0 0 0.8 0 0] CT
=======
[0.75 0 0 0.75 0 0] CT
>>>>>>> f4de00b5db4de07fdb797f1545578c2683f6c040
0.149 GC
2 setlinecap
1 LJ
0.625 LW
N
507 228.313 M
504.83 228.313 L
S
GR
GS
<<<<<<< HEAD
[0.8 0 0 0.8 0 0] CT
=======
[0.75 0 0 0.75 0 0] CT
>>>>>>> f4de00b5db4de07fdb797f1545578c2683f6c040
0.149 GC
2 setlinecap
1 LJ
0.625 LW
N
507 221.524 M
504.83 221.524 L
S
GR
GS
<<<<<<< HEAD
[0.8 0 0 0.8 0 0] CT
=======
[0.75 0 0 0.75 0 0] CT
>>>>>>> f4de00b5db4de07fdb797f1545578c2683f6c040
0.149 GC
2 setlinecap
1 LJ
0.625 LW
N
507 215.783 M
504.83 215.783 L
S
GR
GS
<<<<<<< HEAD
[0.8 0 0 0.8 0 0] CT
=======
[0.75 0 0 0.75 0 0] CT
>>>>>>> f4de00b5db4de07fdb797f1545578c2683f6c040
0.149 GC
2 setlinecap
1 LJ
0.625 LW
N
507 210.81 M
504.83 210.81 L
S
GR
GS
<<<<<<< HEAD
[0.8 0 0 0.8 0 0] CT
=======
[0.75 0 0 0.75 0 0] CT
>>>>>>> f4de00b5db4de07fdb797f1545578c2683f6c040
0.149 GC
2 setlinecap
1 LJ
0.625 LW
N
507 206.424 M
504.83 206.424 L
S
GR
GS
<<<<<<< HEAD
[0.8 0 0 0.8 0 0] CT
=======
[0.75 0 0 0.75 0 0] CT
>>>>>>> f4de00b5db4de07fdb797f1545578c2683f6c040
0.149 GC
2 setlinecap
1 LJ
0.625 LW
N
507 202.5 M
504.83 202.5 L
S
GR
GS
<<<<<<< HEAD
[0.8 0 0 0.8 0 0] CT
=======
[0.75 0 0 0.75 0 0] CT
>>>>>>> f4de00b5db4de07fdb797f1545578c2683f6c040
0.149 GC
2 setlinecap
1 LJ
0.625 LW
N
507 202.5 M
504.83 202.5 L
S
GR
GS
<<<<<<< HEAD
[0.8 0 0 0.8 0 0] CT
=======
[0.75 0 0 0.75 0 0] CT
>>>>>>> f4de00b5db4de07fdb797f1545578c2683f6c040
0.149 GC
2 setlinecap
1 LJ
0.625 LW
N
507 176.687 M
504.83 176.687 L
S
GR
GS
<<<<<<< HEAD
[0.8 0 0 0.8 0 0] CT
=======
[0.75 0 0 0.75 0 0] CT
>>>>>>> f4de00b5db4de07fdb797f1545578c2683f6c040
0.149 GC
2 setlinecap
1 LJ
0.625 LW
N
507 161.587 M
504.83 161.587 L
S
GR
GS
<<<<<<< HEAD
[0.8 0 0 0.8 0 0] CT
=======
[0.75 0 0 0.75 0 0] CT
>>>>>>> f4de00b5db4de07fdb797f1545578c2683f6c040
0.149 GC
2 setlinecap
1 LJ
0.625 LW
N
507 150.873 M
504.83 150.873 L
S
GR
GS
<<<<<<< HEAD
[0.8 0 0 0.8 0 0] CT
=======
[0.75 0 0 0.75 0 0] CT
>>>>>>> f4de00b5db4de07fdb797f1545578c2683f6c040
0.149 GC
2 setlinecap
1 LJ
0.625 LW
N
507 142.563 M
504.83 142.563 L
S
GR
GS
<<<<<<< HEAD
[0.8 0 0 0.8 0 0] CT
=======
[0.75 0 0 0.75 0 0] CT
>>>>>>> f4de00b5db4de07fdb797f1545578c2683f6c040
0.149 GC
2 setlinecap
1 LJ
0.625 LW
N
507 135.774 M
504.83 135.774 L
S
GR
GS
<<<<<<< HEAD
[0.8 0 0 0.8 0 0] CT
=======
[0.75 0 0 0.75 0 0] CT
>>>>>>> f4de00b5db4de07fdb797f1545578c2683f6c040
0.149 GC
2 setlinecap
1 LJ
0.625 LW
N
507 130.033 M
504.83 130.033 L
S
GR
GS
<<<<<<< HEAD
[0.8 0 0 0.8 0 0] CT
=======
[0.75 0 0 0.75 0 0] CT
>>>>>>> f4de00b5db4de07fdb797f1545578c2683f6c040
0.149 GC
2 setlinecap
1 LJ
0.625 LW
N
507 125.06 M
504.83 125.06 L
S
GR
GS
<<<<<<< HEAD
[0.8 0 0 0.8 0 0] CT
=======
[0.75 0 0 0.75 0 0] CT
>>>>>>> f4de00b5db4de07fdb797f1545578c2683f6c040
0.149 GC
2 setlinecap
1 LJ
0.625 LW
N
507 120.674 M
504.83 120.674 L
S
GR
GS
<<<<<<< HEAD
[0.8 0 0 0.8 0 0] CT
=======
[0.75 0 0 0.75 0 0] CT
>>>>>>> f4de00b5db4de07fdb797f1545578c2683f6c040
0.149 GC
2 setlinecap
1 LJ
0.625 LW
N
507 116.75 M
504.83 116.75 L
S
GR
GS
<<<<<<< HEAD
[0.8 0 0 0.8 0 0] CT
=======
[0.75 0 0 0.75 0 0] CT
>>>>>>> f4de00b5db4de07fdb797f1545578c2683f6c040
0.149 GC
2 setlinecap
1 LJ
0.625 LW
N
507 90.937 M
504.83 90.937 L
S
GR
GS
<<<<<<< HEAD
[0.8 0 0 0.8 0 0] CT
=======
[0.75 0 0 0.75 0 0] CT
>>>>>>> f4de00b5db4de07fdb797f1545578c2683f6c040
0.149 GC
2 setlinecap
1 LJ
0.625 LW
N
507 75.837 M
504.83 75.837 L
S
GR
GS
<<<<<<< HEAD
[0.8 0 0 0.8 0 0] CT
=======
[0.75 0 0 0.75 0 0] CT
>>>>>>> f4de00b5db4de07fdb797f1545578c2683f6c040
0.149 GC
2 setlinecap
1 LJ
0.625 LW
N
507 65.123 M
504.83 65.123 L
S
GR
GS
<<<<<<< HEAD
[0.8 0 0 0.8 0 0] CT
=======
[0.75 0 0 0.75 0 0] CT
>>>>>>> f4de00b5db4de07fdb797f1545578c2683f6c040
0.149 GC
2 setlinecap
1 LJ
0.625 LW
N
507 56.813 M
504.83 56.813 L
S
GR
GS
<<<<<<< HEAD
[0.8 0 0 0.8 0 0] CT
=======
[0.75 0 0 0.75 0 0] CT
>>>>>>> f4de00b5db4de07fdb797f1545578c2683f6c040
0.149 GC
2 setlinecap
1 LJ
0.625 LW
N
507 50.024 M
504.83 50.024 L
S
GR
GS
<<<<<<< HEAD
[0.8 0 0 0.8 0 0] CT
=======
[0.75 0 0 0.75 0 0] CT
>>>>>>> f4de00b5db4de07fdb797f1545578c2683f6c040
0.149 GC
2 setlinecap
1 LJ
0.625 LW
N
507 44.283 M
504.83 44.283 L
S
GR
GS
<<<<<<< HEAD
[0.8 0 0 0.8 0 0] CT
=======
[0.75 0 0 0.75 0 0] CT
>>>>>>> f4de00b5db4de07fdb797f1545578c2683f6c040
0.149 GC
2 setlinecap
1 LJ
0.625 LW
N
507 39.31 M
504.83 39.31 L
S
GR
GS
<<<<<<< HEAD
[0.8 0 0 0.8 0 0] CT
=======
[0.75 0 0 0.75 0 0] CT
>>>>>>> f4de00b5db4de07fdb797f1545578c2683f6c040
0.149 GC
2 setlinecap
1 LJ
0.625 LW
N
507 34.924 M
504.83 34.924 L
S
GR
GS
<<<<<<< HEAD
[0.8 0 0 0.8 0 0] CT
=======
[0.75 0 0 0.75 0 0] CT
>>>>>>> f4de00b5db4de07fdb797f1545578c2683f6c040
0.149 GC
2 setlinecap
1 LJ
0.625 LW
N
507 31 M
504.83 31 L
S
GR
GS
<<<<<<< HEAD
[0.8 0 0 0.8 33.6 304.8] CT
=======
[0.75 0 0 0.75 30 285] CT
>>>>>>> f4de00b5db4de07fdb797f1545578c2683f6c040
0.149 GC
/Helvetica 12.5 F
GS
[1 0 0 1 0 0] CT
0 0 moveto 
1 -1 scale
(10) t 
GR
GR
GS
<<<<<<< HEAD
[0.8 0 0 0.8 46.4 300] CT
=======
[0.75 0 0 0.75 42.75 280.5] CT
>>>>>>> f4de00b5db4de07fdb797f1545578c2683f6c040
0.149 GC
/Helvetica 10 F
GS
[1 0 0 1 0 0] CT
0 0 moveto 
1 -1 scale
(-6) t 
GR
GR
GS
<<<<<<< HEAD
[0.8 0 0 0.8 33.6 236] CT
=======
[0.75 0 0 0.75 30 220.5] CT
>>>>>>> f4de00b5db4de07fdb797f1545578c2683f6c040
0.149 GC
/Helvetica 12.5 F
GS
[1 0 0 1 0 0] CT
0 0 moveto 
1 -1 scale
(10) t 
GR
GR
GS
<<<<<<< HEAD
[0.8 0 0 0.8 46.4 231.2] CT
=======
[0.75 0 0 0.75 42.75 216] CT
>>>>>>> f4de00b5db4de07fdb797f1545578c2683f6c040
0.149 GC
/Helvetica 10 F
GS
[1 0 0 1 0 0] CT
0 0 moveto 
1 -1 scale
(-5) t 
GR
GR
GS
<<<<<<< HEAD
[0.8 0 0 0.8 33.6 168] CT
=======
[0.75 0 0 0.75 30 156.75] CT
>>>>>>> f4de00b5db4de07fdb797f1545578c2683f6c040
0.149 GC
/Helvetica 12.5 F
GS
[1 0 0 1 0 0] CT
0 0 moveto 
1 -1 scale
(10) t 
GR
GR
GS
<<<<<<< HEAD
[0.8 0 0 0.8 46.4 163.2] CT
=======
[0.75 0 0 0.75 42.75 152.25] CT
>>>>>>> f4de00b5db4de07fdb797f1545578c2683f6c040
0.149 GC
/Helvetica 10 F
GS
[1 0 0 1 0 0] CT
0 0 moveto 
1 -1 scale
(-4) t 
GR
GR
GS
<<<<<<< HEAD
[0.8 0 0 0.8 33.6 99.2] CT
=======
[0.75 0 0 0.75 30 92.25] CT
>>>>>>> f4de00b5db4de07fdb797f1545578c2683f6c040
0.149 GC
/Helvetica 12.5 F
GS
[1 0 0 1 0 0] CT
0 0 moveto 
1 -1 scale
(10) t 
GR
GR
GS
<<<<<<< HEAD
[0.8 0 0 0.8 46.4 94.4] CT
=======
[0.75 0 0 0.75 42.75 87.75] CT
>>>>>>> f4de00b5db4de07fdb797f1545578c2683f6c040
0.149 GC
/Helvetica 10 F
GS
[1 0 0 1 0 0] CT
0 0 moveto 
1 -1 scale
(-3) t 
GR
GR
GS
<<<<<<< HEAD
[0.8 0 0 0.8 33.6 30.4] CT
=======
[0.75 0 0 0.75 30 27.75] CT
>>>>>>> f4de00b5db4de07fdb797f1545578c2683f6c040
0.149 GC
/Helvetica 12.5 F
GS
[1 0 0 1 0 0] CT
0 0 moveto 
1 -1 scale
(10) t 
GR
GR
GS
<<<<<<< HEAD
[0.8 0 0 0.8 46.4 25.6] CT
=======
[0.75 0 0 0.75 42.75 23.25] CT
>>>>>>> f4de00b5db4de07fdb797f1545578c2683f6c040
0.149 GC
/Helvetica 10 F
GS
[1 0 0 1 0 0] CT
0 0 moveto 
1 -1 scale
(-2) t 
GR
GR
GS
<<<<<<< HEAD
[0 -0.8 0.8 0 30.6 161.99987] CT
=======
[0 -0.75 0.75 0 26.75 151.87487] CT
>>>>>>> f4de00b5db4de07fdb797f1545578c2683f6c040
0.149 GC
/Helvetica 13.75 F
GS
[1 0 0 1 0 0] CT
-63.5 -4 moveto 
1 -1 scale
(Error in total force) t 
GR
GR
GS
<<<<<<< HEAD
[0.8 0 0 0.8 0 0] CT
=======
[0.75 0 0 0.75 0 0] CT
>>>>>>> f4de00b5db4de07fdb797f1545578c2683f6c040
0 0.447 0.741 RC
1 LJ
2.5 LW
N
507 94.528 M
401.37 121.626 L
366.412 150.31 L
265.16 178.956 L
138.336 211.177 L
73 252.893 L
S
GR
GS
<<<<<<< HEAD
[0.8 0 0 0.8 405.6 75.62239] CT
=======
[0.75 0 0 0.75 380.25 70.89599] CT
>>>>>>> f4de00b5db4de07fdb797f1545578c2683f6c040
0 0.447 0.741 RC
10.0 ML
2.5 LW
N
0 -7 M
0 7 L
-7 0 M
7 0 L
S
GR
GS
<<<<<<< HEAD
[0.8 0 0 0.8 321.09563 97.30082] CT
=======
[0.75 0 0 0.75 301.02715 91.21952] CT
>>>>>>> f4de00b5db4de07fdb797f1545578c2683f6c040
0 0.447 0.741 RC
10.0 ML
2.5 LW
N
0 -7 M
0 7 L
-7 0 M
7 0 L
S
GR
GS
<<<<<<< HEAD
[0.8 0 0 0.8 293.12998 120.24797] CT
=======
[0.75 0 0 0.75 274.80936 112.73248] CT
>>>>>>> f4de00b5db4de07fdb797f1545578c2683f6c040
0 0.447 0.741 RC
10.0 ML
2.5 LW
N
0 -7 M
0 7 L
-7 0 M
7 0 L
S
GR
GS
<<<<<<< HEAD
[0.8 0 0 0.8 212.12837 143.16451] CT
=======
[0.75 0 0 0.75 198.87035 134.21673] CT
>>>>>>> f4de00b5db4de07fdb797f1545578c2683f6c040
0 0.447 0.741 RC
10.0 ML
2.5 LW
N
0 -7 M
0 7 L
-7 0 M
7 0 L
S
GR
GS
<<<<<<< HEAD
[0.8 0 0 0.8 110.66917 168.94155] CT
=======
[0.75 0 0 0.75 103.75234 158.38271] CT
>>>>>>> f4de00b5db4de07fdb797f1545578c2683f6c040
0 0.447 0.741 RC
10.0 ML
2.5 LW
N
0 -7 M
0 7 L
-7 0 M
7 0 L
S
GR
GS
<<<<<<< HEAD
[0.8 0 0 0.8 58.4 202.31442] CT
=======
[0.75 0 0 0.75 54.75 189.66977] CT
>>>>>>> f4de00b5db4de07fdb797f1545578c2683f6c040
0 0.447 0.741 RC
10.0 ML
2.5 LW
N
0 -7 M
0 7 L
-7 0 M
7 0 L
S
GR
GS
<<<<<<< HEAD
[0.8 0 0 0.8 0 0] CT
=======
[0.75 0 0 0.75 0 0] CT
>>>>>>> f4de00b5db4de07fdb797f1545578c2683f6c040
0.851 0.325 0.098 RC
1 LJ
2.5 LW
N
507 99.829 M
401.37 127.562 L
366.412 160.931 L
265.16 193.529 L
138.336 233.017 L
73 371.953 L
S
GR
GS
<<<<<<< HEAD
[0.8 0 0 0.8 405.6 79.86287] CT
=======
[0.75 0 0 0.75 380.25 74.87144] CT
>>>>>>> f4de00b5db4de07fdb797f1545578c2683f6c040
0.851 0.325 0.098 RC
10.0 ML
2.5 LW
N
0 -8.331 M
-7.215 4.166 L
7.215 4.166 L
cp
S
GR
GS
<<<<<<< HEAD
[0.8 0 0 0.8 321.09563 102.04979] CT
=======
[0.75 0 0 0.75 301.02715 95.67168] CT
>>>>>>> f4de00b5db4de07fdb797f1545578c2683f6c040
0.851 0.325 0.098 RC
10.0 ML
2.5 LW
N
0 -8.331 M
-7.215 4.166 L
7.215 4.166 L
cp
S
GR
GS
<<<<<<< HEAD
[0.8 0 0 0.8 293.12998 128.74468] CT
=======
[0.75 0 0 0.75 274.80936 120.69814] CT
>>>>>>> f4de00b5db4de07fdb797f1545578c2683f6c040
0.851 0.325 0.098 RC
10.0 ML
2.5 LW
N
0 -8.331 M
-7.215 4.166 L
7.215 4.166 L
cp
S
GR
GS
<<<<<<< HEAD
[0.8 0 0 0.8 212.12837 154.82338] CT
=======
[0.75 0 0 0.75 198.87035 145.14692] CT
>>>>>>> f4de00b5db4de07fdb797f1545578c2683f6c040
0.851 0.325 0.098 RC
10.0 ML
2.5 LW
N
0 -8.331 M
-7.215 4.166 L
7.215 4.166 L
cp
S
GR
GS
<<<<<<< HEAD
[0.8 0 0 0.8 110.66917 186.41375] CT
=======
[0.75 0 0 0.75 103.75234 174.76289] CT
>>>>>>> f4de00b5db4de07fdb797f1545578c2683f6c040
0.851 0.325 0.098 RC
10.0 ML
2.5 LW
N
0 -8.331 M
-7.215 4.166 L
7.215 4.166 L
cp
S
GR
GS
<<<<<<< HEAD
[0.8 0 0 0.8 58.4 297.56277] CT
=======
[0.75 0 0 0.75 54.75 278.9651] CT
>>>>>>> f4de00b5db4de07fdb797f1545578c2683f6c040
0.851 0.325 0.098 RC
10.0 ML
2.5 LW
N
0 -8.331 M
-7.215 4.166 L
7.215 4.166 L
cp
S
GR
GS
<<<<<<< HEAD
[0.8 0 0 0.8 0 0] CT
=======
[0.75 0 0 0.75 0 0] CT
>>>>>>> f4de00b5db4de07fdb797f1545578c2683f6c040
[10 6] 0 setdash
2 LJ
0.625 LW
N
507 92.8 M
401.37 129.847 L
366.412 142.108 L
265.16 177.619 L
138.336 222.1 L
73 245.015 L
S
GR
GS
<<<<<<< HEAD
[0.8 0 0 0.8 0 0] CT
=======
[0.75 0 0 0.75 0 0] CT
>>>>>>> f4de00b5db4de07fdb797f1545578c2683f6c040
[10 6] 0 setdash
2 LJ
0.625 LW
N
507 79.304 M
401.37 137.491 L
366.412 156.747 L
265.16 212.522 L
138.336 282.384 L
73 318.374 L
S
GR
GS
<<<<<<< HEAD
[0.8 0 0 0.8 0 0] CT
1 GC
N
497 364 M
497 331 L
424 331 L
424 364 L
=======
[0.75 0 0 0.75 0 0] CT
1 GC
N
496 363 M
496 329 L
418 329 L
418 363 L
>>>>>>> f4de00b5db4de07fdb797f1545578c2683f6c040
cp
f
GR
GS
<<<<<<< HEAD
[0.8 0 0 0.8 374.55781 272.11077] CT
/Helvetica 11.25 F
=======
[0.75 0 0 0.75 348.75 253.77173] CT
/Helvetica 12 F
>>>>>>> f4de00b5db4de07fdb797f1545578c2683f6c040
GS
[1 0 0 1 0 0] CT
0 4 moveto 
1 -1 scale
(BEM) t 
GR
GR
GS
<<<<<<< HEAD
[0.8 0 0 0.8 0 0] CT
=======
[0.75 0 0 0.75 0 0] CT
>>>>>>> f4de00b5db4de07fdb797f1545578c2683f6c040
0 0.447 0.741 RC
1 LJ
2.5 LW
N
<<<<<<< HEAD
427.973 340.138 M
465.218 340.138 L
S
GR
GS
[0.8 0 0 0.8 357.2762 272.11077] CT
=======
422 338.362 M
462 338.362 L
S
GR
GS
[0.75 0 0 0.75 331.5 253.77173] CT
>>>>>>> f4de00b5db4de07fdb797f1545578c2683f6c040
0 0.447 0.741 RC
10.0 ML
2.5 LW
N
0 -6 M
0 6 L
-6 0 M
6 0 L
S
GR
GS
<<<<<<< HEAD
[0.8 0 0 0.8 374.55781 283.88923] CT
/Helvetica 11.25 F
=======
[0.75 0 0 0.75 348.75 265.22827] CT
/Helvetica 12 F
>>>>>>> f4de00b5db4de07fdb797f1545578c2683f6c040
GS
[1 0 0 1 0 0] CT
0 4 moveto 
1 -1 scale
(MST) t 
GR
GR
GS
<<<<<<< HEAD
[0.8 0 0 0.8 0 0] CT
=======
[0.75 0 0 0.75 0 0] CT
>>>>>>> f4de00b5db4de07fdb797f1545578c2683f6c040
0.851 0.325 0.098 RC
1 LJ
2.5 LW
N
<<<<<<< HEAD
427.973 354.862 M
465.218 354.862 L
S
GR
GS
[0.8 0 0 0.8 357.2762 283.88923] CT
=======
422 353.638 M
462 353.638 L
S
GR
GS
[0.75 0 0 0.75 331.5 265.22827] CT
>>>>>>> f4de00b5db4de07fdb797f1545578c2683f6c040
0.851 0.325 0.098 RC
10.0 ML
2.5 LW
N
0 -7.498 M
-6.493 3.749 L
6.493 3.749 L
cp
S
GR
GS
<<<<<<< HEAD
[0.8 0 0 0.8 0 0] CT
=======
[0.75 0 0 0.75 0 0] CT
>>>>>>> f4de00b5db4de07fdb797f1545578c2683f6c040
0.149 GC
10.0 ML
0.625 LW
N
<<<<<<< HEAD
424 364 M
424 331 L
497 331 L
497 364 L
=======
418 363 M
418 329 L
496 329 L
496 363 L
>>>>>>> f4de00b5db4de07fdb797f1545578c2683f6c040
cp
S
GR
%%Trailer
%%Pages: 1
%%EOF
