%!PS-Adobe-3.0 EPSF-3.0
%%Creator: (MATLAB, The Mathworks, Inc. Version 9.13.0.2105380 \(R2022b\) Update 2. Operating System: Linux)
%%Title: ./PMCFSP_dualnorm_getMeshSphere.eps
%%CreationDate: 2024-01-22T01:13:52
%%Pages: (atend)
%%BoundingBox:    18     9   413   317
%%LanguageLevel: 2
%%EndComments
%%BeginProlog
%%BeginResource: procset (Apache XML Graphics Std ProcSet) 1.2 0
%%Version: 1.2 0
%%Copyright: (Copyright 2001-2003,2010 The Apache Software Foundation. License terms: http://www.apache.org/licenses/LICENSE-2.0)
/bd{bind def}bind def
/ld{load def}bd
/GR/grestore ld
/GS/gsave ld
/RM/rmoveto ld
/C/curveto ld
/t/show ld
/L/lineto ld
/ML/setmiterlimit ld
/CT/concat ld
/f/fill ld
/N/newpath ld
/S/stroke ld
/CC/setcmykcolor ld
/A/ashow ld
/cp/closepath ld
/RC/setrgbcolor ld
/LJ/setlinejoin ld
/GC/setgray ld
/LW/setlinewidth ld
/M/moveto ld
/re {4 2 roll M
1 index 0 rlineto
0 exch rlineto
neg 0 rlineto
cp } bd
/_ctm matrix def
/_tm matrix def
/BT { _ctm currentmatrix pop matrix _tm copy pop 0 0 moveto } bd
/ET { _ctm setmatrix } bd
/iTm { _ctm setmatrix _tm concat } bd
/Tm { _tm astore pop iTm 0 0 moveto } bd
/ux 0.0 def
/uy 0.0 def
/F {
  /Tp exch def
  /Tf exch def
  Tf findfont Tp scalefont setfont
  /cf Tf def  /cs Tp def
} bd
/ULS {currentpoint /uy exch def /ux exch def} bd
/ULE {
  /Tcx currentpoint pop def
  gsave
  newpath
  cf findfont cs scalefont dup
  /FontMatrix get 0 get /Ts exch def /FontInfo get dup
  /UnderlinePosition get Ts mul /To exch def
  /UnderlineThickness get Ts mul /Tt exch def
  ux uy To add moveto  Tcx uy To add lineto
  Tt setlinewidth stroke
  grestore
} bd
/OLE {
  /Tcx currentpoint pop def
  gsave
  newpath
  cf findfont cs scalefont dup
  /FontMatrix get 0 get /Ts exch def /FontInfo get dup
  /UnderlinePosition get Ts mul /To exch def
  /UnderlineThickness get Ts mul /Tt exch def
  ux uy To add cs add moveto Tcx uy To add cs add lineto
  Tt setlinewidth stroke
  grestore
} bd
/SOE {
  /Tcx currentpoint pop def
  gsave
  newpath
  cf findfont cs scalefont dup
  /FontMatrix get 0 get /Ts exch def /FontInfo get dup
  /UnderlinePosition get Ts mul /To exch def
  /UnderlineThickness get Ts mul /Tt exch def
  ux uy To add cs 10 mul 26 idiv add moveto Tcx uy To add cs 10 mul 26 idiv add lineto
  Tt setlinewidth stroke
  grestore
} bd
/QT {
/Y22 exch store
/X22 exch store
/Y21 exch store
/X21 exch store
currentpoint
/Y21 load 2 mul add 3 div exch
/X21 load 2 mul add 3 div exch
/X21 load 2 mul /X22 load add 3 div
/Y21 load 2 mul /Y22 load add 3 div
/X22 load /Y22 load curveto
} bd
/SSPD {
dup length /d exch dict def
{
/v exch def
/k exch def
currentpagedevice k known {
/cpdv currentpagedevice k get def
v cpdv ne {
/upd false def
/nullv v type /nulltype eq def
/nullcpdv cpdv type /nulltype eq def
nullv nullcpdv or
{
/upd true def
} {
/sametype v type cpdv type eq def
sametype {
v type /arraytype eq {
/vlen v length def
/cpdvlen cpdv length def
vlen cpdvlen eq {
0 1 vlen 1 sub {
/i exch def
/obj v i get def
/cpdobj cpdv i get def
obj cpdobj ne {
/upd true def
exit
} if
} for
} {
/upd true def
} ifelse
} {
v type /dicttype eq {
v {
/dv exch def
/dk exch def
/cpddv cpdv dk get def
dv cpddv ne {
/upd true def
exit
} if
} forall
} {
/upd true def
} ifelse
} ifelse
} if
} ifelse
upd true eq {
d k v put
} if
} if
} if
} forall
d length 0 gt {
d setpagedevice
} if
} bd
/RE { % /NewFontName [NewEncodingArray] /FontName RE -
  findfont dup length dict begin
  {
    1 index /FID ne
    {def} {pop pop} ifelse
  } forall
  /Encoding exch def
  /FontName 1 index def
  currentdict definefont pop
  end
} bind def
%%EndResource
%%BeginResource: procset (Apache XML Graphics EPS ProcSet) 1.0 0
%%Version: 1.0 0
%%Copyright: (Copyright 2002-2003 The Apache Software Foundation. License terms: http://www.apache.org/licenses/LICENSE-2.0)
/BeginEPSF { %def
/b4_Inc_state save def         % Save state for cleanup
/dict_count countdictstack def % Count objects on dict stack
/op_count count 1 sub def      % Count objects on operand stack
userdict begin                 % Push userdict on dict stack
/showpage { } def              % Redefine showpage, { } = null proc
0 setgray 0 setlinecap         % Prepare graphics state
1 setlinewidth 0 setlinejoin
10 setmiterlimit [ ] 0 setdash newpath
/languagelevel where           % If level not equal to 1 then
{pop languagelevel             % set strokeadjust and
1 ne                           % overprint to their defaults.
{false setstrokeadjust false setoverprint
} if
} if
} bd
/EndEPSF { %def
count op_count sub {pop} repeat            % Clean up stacks
countdictstack dict_count sub {end} repeat
b4_Inc_state restore
} bd
%%EndResource
%FOPBeginFontDict
%%IncludeResource: font Courier-Oblique
%%IncludeResource: font Courier-BoldOblique
%%IncludeResource: font Courier-Bold
%%IncludeResource: font ZapfDingbats
%%IncludeResource: font Symbol
%%IncludeResource: font Helvetica
%%IncludeResource: font Helvetica-Oblique
%%IncludeResource: font Helvetica-Bold
%%IncludeResource: font Helvetica-BoldOblique
%%IncludeResource: font Times-Roman
%%IncludeResource: font Times-Italic
%%IncludeResource: font Times-Bold
%%IncludeResource: font Times-BoldItalic
%%IncludeResource: font Courier
%FOPEndFontDict
%%BeginResource: encoding WinAnsiEncoding
/WinAnsiEncoding [
/.notdef /.notdef /.notdef /.notdef /.notdef
/.notdef /.notdef /.notdef /.notdef /.notdef
/.notdef /.notdef /.notdef /.notdef /.notdef
/.notdef /.notdef /.notdef /.notdef /.notdef
/.notdef /.notdef /.notdef /.notdef /.notdef
/.notdef /.notdef /.notdef /.notdef /.notdef
/.notdef /.notdef /space /exclam /quotedbl
/numbersign /dollar /percent /ampersand /quotesingle
/parenleft /parenright /asterisk /plus /comma
/hyphen /period /slash /zero /one
/two /three /four /five /six
/seven /eight /nine /colon /semicolon
/less /equal /greater /question /at
/A /B /C /D /E
/F /G /H /I /J
/K /L /M /N /O
/P /Q /R /S /T
/U /V /W /X /Y
/Z /bracketleft /backslash /bracketright /asciicircum
/underscore /quoteleft /a /b /c
/d /e /f /g /h
/i /j /k /l /m
/n /o /p /q /r
/s /t /u /v /w
/x /y /z /braceleft /bar
/braceright /asciitilde /bullet /Euro /bullet
/quotesinglbase /florin /quotedblbase /ellipsis /dagger
/daggerdbl /circumflex /perthousand /Scaron /guilsinglleft
/OE /bullet /Zcaron /bullet /bullet
/quoteleft /quoteright /quotedblleft /quotedblright /bullet
/endash /emdash /asciitilde /trademark /scaron
/guilsinglright /oe /bullet /zcaron /Ydieresis
/space /exclamdown /cent /sterling /currency
/yen /brokenbar /section /dieresis /copyright
/ordfeminine /guillemotleft /logicalnot /sfthyphen /registered
/macron /degree /plusminus /twosuperior /threesuperior
/acute /mu /paragraph /middot /cedilla
/onesuperior /ordmasculine /guillemotright /onequarter /onehalf
/threequarters /questiondown /Agrave /Aacute /Acircumflex
/Atilde /Adieresis /Aring /AE /Ccedilla
/Egrave /Eacute /Ecircumflex /Edieresis /Igrave
/Iacute /Icircumflex /Idieresis /Eth /Ntilde
/Ograve /Oacute /Ocircumflex /Otilde /Odieresis
/multiply /Oslash /Ugrave /Uacute /Ucircumflex
/Udieresis /Yacute /Thorn /germandbls /agrave
/aacute /acircumflex /atilde /adieresis /aring
/ae /ccedilla /egrave /eacute /ecircumflex
/edieresis /igrave /iacute /icircumflex /idieresis
/eth /ntilde /ograve /oacute /ocircumflex
/otilde /odieresis /divide /oslash /ugrave
/uacute /ucircumflex /udieresis /yacute /thorn
/ydieresis
] def
%%EndResource
%FOPBeginFontReencode
/Courier-Oblique findfont
dup length dict begin
  {1 index /FID ne {def} {pop pop} ifelse} forall
  /Encoding WinAnsiEncoding def
  currentdict
end
/Courier-Oblique exch definefont pop
/Courier-BoldOblique findfont
dup length dict begin
  {1 index /FID ne {def} {pop pop} ifelse} forall
  /Encoding WinAnsiEncoding def
  currentdict
end
/Courier-BoldOblique exch definefont pop
/Courier-Bold findfont
dup length dict begin
  {1 index /FID ne {def} {pop pop} ifelse} forall
  /Encoding WinAnsiEncoding def
  currentdict
end
/Courier-Bold exch definefont pop
/Helvetica findfont
dup length dict begin
  {1 index /FID ne {def} {pop pop} ifelse} forall
  /Encoding WinAnsiEncoding def
  currentdict
end
/Helvetica exch definefont pop
/Helvetica-Oblique findfont
dup length dict begin
  {1 index /FID ne {def} {pop pop} ifelse} forall
  /Encoding WinAnsiEncoding def
  currentdict
end
/Helvetica-Oblique exch definefont pop
/Helvetica-Bold findfont
dup length dict begin
  {1 index /FID ne {def} {pop pop} ifelse} forall
  /Encoding WinAnsiEncoding def
  currentdict
end
/Helvetica-Bold exch definefont pop
/Helvetica-BoldOblique findfont
dup length dict begin
  {1 index /FID ne {def} {pop pop} ifelse} forall
  /Encoding WinAnsiEncoding def
  currentdict
end
/Helvetica-BoldOblique exch definefont pop
/Times-Roman findfont
dup length dict begin
  {1 index /FID ne {def} {pop pop} ifelse} forall
  /Encoding WinAnsiEncoding def
  currentdict
end
/Times-Roman exch definefont pop
/Times-Italic findfont
dup length dict begin
  {1 index /FID ne {def} {pop pop} ifelse} forall
  /Encoding WinAnsiEncoding def
  currentdict
end
/Times-Italic exch definefont pop
/Times-Bold findfont
dup length dict begin
  {1 index /FID ne {def} {pop pop} ifelse} forall
  /Encoding WinAnsiEncoding def
  currentdict
end
/Times-Bold exch definefont pop
/Times-BoldItalic findfont
dup length dict begin
  {1 index /FID ne {def} {pop pop} ifelse} forall
  /Encoding WinAnsiEncoding def
  currentdict
end
/Times-BoldItalic exch definefont pop
/Courier findfont
dup length dict begin
  {1 index /FID ne {def} {pop pop} ifelse} forall
  /Encoding WinAnsiEncoding def
  currentdict
end
/Courier exch definefont pop
%FOPEndFontReencode
%%EndProlog
%%Page: 1 1
%%PageBoundingBox: 0 0 448 336
%%BeginPageSetup
N
   18     9 M
  431     9 L
  431   326 L
   18   326 L
cp
clip
[1 0 0 -1 0 336] CT
%%EndPageSetup
GS
[0.8 0 0 0.8 0 0] CT
1 GC
N
0 0 560 420 re
f
GR
GS
[0.8 0 0 0.8 0 0] CT
1 GC
N
0 0 560 420 re
f
GR
GS
[0.8 0 0 0.8 0 0] CT
1 GC
N
73 374 M
507 374 L
507 31 L
73 31 L
cp
f
GR
GS
[0.8 0 0 0.8 0 0] CT
0.149 GC
2 setlinecap
1 LJ
0.625 LW
N
73 374 M
507 374 L
S
GR
GS
[0.8 0 0 0.8 0 0] CT
0.149 GC
2 setlinecap
1 LJ
0.625 LW
N
73 31 M
507 31 L
S
GR
GS
[0.8 0 0 0.8 0 0] CT
0.149 GC
2 setlinecap
1 LJ
0.625 LW
N
197.508 374 M
197.508 369.66 L
S
GR
GS
[0.8 0 0 0.8 0 0] CT
0.149 GC
2 setlinecap
1 LJ
0.625 LW
N
282.92 374 M
282.92 369.66 L
S
GR
GS
[0.8 0 0 0.8 0 0] CT
0.149 GC
2 setlinecap
1 LJ
0.625 LW
N
343.521 374 M
343.521 369.66 L
S
GR
GS
[0.8 0 0 0.8 0 0] CT
0.149 GC
2 setlinecap
1 LJ
0.625 LW
N
390.527 374 M
390.527 369.66 L
S
GR
GS
[0.8 0 0 0.8 0 0] CT
0.149 GC
2 setlinecap
1 LJ
0.625 LW
N
428.933 374 M
428.933 369.66 L
S
GR
GS
[0.8 0 0 0.8 0 0] CT
0.149 GC
2 setlinecap
1 LJ
0.625 LW
N
461.405 374 M
461.405 369.66 L
S
GR
GS
[0.8 0 0 0.8 0 0] CT
0.149 GC
2 setlinecap
1 LJ
0.625 LW
N
489.534 374 M
489.534 369.66 L
S
GR
GS
[0.8 0 0 0.8 0 0] CT
0.149 GC
2 setlinecap
1 LJ
0.625 LW
N
197.508 31 M
197.508 35.34 L
S
GR
GS
[0.8 0 0 0.8 0 0] CT
0.149 GC
2 setlinecap
1 LJ
0.625 LW
N
282.92 31 M
282.92 35.34 L
S
GR
GS
[0.8 0 0 0.8 0 0] CT
0.149 GC
2 setlinecap
1 LJ
0.625 LW
N
343.521 31 M
343.521 35.34 L
S
GR
GS
[0.8 0 0 0.8 0 0] CT
0.149 GC
2 setlinecap
1 LJ
0.625 LW
N
390.527 31 M
390.527 35.34 L
S
GR
GS
[0.8 0 0 0.8 0 0] CT
0.149 GC
2 setlinecap
1 LJ
0.625 LW
N
428.933 31 M
428.933 35.34 L
S
GR
GS
[0.8 0 0 0.8 0 0] CT
0.149 GC
2 setlinecap
1 LJ
0.625 LW
N
461.405 31 M
461.405 35.34 L
S
GR
GS
[0.8 0 0 0.8 0 0] CT
0.149 GC
2 setlinecap
1 LJ
0.625 LW
N
489.534 31 M
489.534 35.34 L
S
GR
GS
[0.8 0 0 0.8 0 0] CT
0.149 GC
2 setlinecap
1 LJ
0.625 LW
N
89.901 374 M
89.901 371.83 L
S
GR
GS
[0.8 0 0 0.8 0 0] CT
0.149 GC
2 setlinecap
1 LJ
0.625 LW
N
122.373 374 M
122.373 371.83 L
S
GR
GS
[0.8 0 0 0.8 0 0] CT
0.149 GC
2 setlinecap
1 LJ
0.625 LW
N
150.502 374 M
150.502 371.83 L
S
GR
GS
[0.8 0 0 0.8 0 0] CT
0.149 GC
2 setlinecap
1 LJ
0.625 LW
N
175.313 374 M
175.313 371.83 L
S
GR
GS
[0.8 0 0 0.8 0 0] CT
0.149 GC
2 setlinecap
1 LJ
0.625 LW
N
217.585 374 M
217.585 371.83 L
S
GR
GS
[0.8 0 0 0.8 0 0] CT
0.149 GC
2 setlinecap
1 LJ
0.625 LW
N
235.914 374 M
235.914 371.83 L
S
GR
GS
[0.8 0 0 0.8 0 0] CT
0.149 GC
2 setlinecap
1 LJ
0.625 LW
N
252.775 374 M
252.775 371.83 L
S
GR
GS
[0.8 0 0 0.8 0 0] CT
0.149 GC
2 setlinecap
1 LJ
0.625 LW
N
268.386 374 M
268.386 371.83 L
S
GR
GS
[0.8 0 0 0.8 0 0] CT
0.149 GC
2 setlinecap
1 LJ
0.625 LW
N
296.515 374 M
296.515 371.83 L
S
GR
GS
[0.8 0 0 0.8 0 0] CT
0.149 GC
2 setlinecap
1 LJ
0.625 LW
N
309.286 374 M
309.286 371.83 L
S
GR
GS
[0.8 0 0 0.8 0 0] CT
0.149 GC
2 setlinecap
1 LJ
0.625 LW
N
321.327 374 M
321.327 371.83 L
S
GR
GS
[0.8 0 0 0.8 0 0] CT
0.149 GC
2 setlinecap
1 LJ
0.625 LW
N
332.716 374 M
332.716 371.83 L
S
GR
GS
[0.8 0 0 0.8 0 0] CT
0.149 GC
2 setlinecap
1 LJ
0.625 LW
N
353.799 374 M
353.799 371.83 L
S
GR
GS
[0.8 0 0 0.8 0 0] CT
0.149 GC
2 setlinecap
1 LJ
0.625 LW
N
363.598 374 M
363.598 371.83 L
S
GR
GS
[0.8 0 0 0.8 0 0] CT
0.149 GC
2 setlinecap
1 LJ
0.625 LW
N
372.962 374 M
372.962 371.83 L
S
GR
GS
[0.8 0 0 0.8 0 0] CT
0.149 GC
2 setlinecap
1 LJ
0.625 LW
N
381.927 374 M
381.927 371.83 L
S
GR
GS
[0.8 0 0 0.8 0 0] CT
0.149 GC
2 setlinecap
1 LJ
0.625 LW
N
398.789 374 M
398.789 371.83 L
S
GR
GS
[0.8 0 0 0.8 0 0] CT
0.149 GC
2 setlinecap
1 LJ
0.625 LW
N
406.739 374 M
406.739 371.83 L
S
GR
GS
[0.8 0 0 0.8 0 0] CT
0.149 GC
2 setlinecap
1 LJ
0.625 LW
N
414.4 374 M
414.4 371.83 L
S
GR
GS
[0.8 0 0 0.8 0 0] CT
0.149 GC
2 setlinecap
1 LJ
0.625 LW
N
421.792 374 M
421.792 371.83 L
S
GR
GS
[0.8 0 0 0.8 0 0] CT
0.149 GC
2 setlinecap
1 LJ
0.625 LW
N
435.84 374 M
435.84 371.83 L
S
GR
GS
[0.8 0 0 0.8 0 0] CT
0.149 GC
2 setlinecap
1 LJ
0.625 LW
N
442.528 374 M
442.528 371.83 L
S
GR
GS
[0.8 0 0 0.8 0 0] CT
0.149 GC
2 setlinecap
1 LJ
0.625 LW
N
449.011 374 M
449.011 371.83 L
S
GR
GS
[0.8 0 0 0.8 0 0] CT
0.149 GC
2 setlinecap
1 LJ
0.625 LW
N
455.299 374 M
455.299 371.83 L
S
GR
GS
[0.8 0 0 0.8 0 0] CT
0.149 GC
2 setlinecap
1 LJ
0.625 LW
N
467.34 374 M
467.34 371.83 L
S
GR
GS
[0.8 0 0 0.8 0 0] CT
0.149 GC
2 setlinecap
1 LJ
0.625 LW
N
473.111 374 M
473.111 371.83 L
S
GR
GS
[0.8 0 0 0.8 0 0] CT
0.149 GC
2 setlinecap
1 LJ
0.625 LW
N
478.729 374 M
478.729 371.83 L
S
GR
GS
[0.8 0 0 0.8 0 0] CT
0.149 GC
2 setlinecap
1 LJ
0.625 LW
N
484.201 374 M
484.201 371.83 L
S
GR
GS
[0.8 0 0 0.8 0 0] CT
0.149 GC
2 setlinecap
1 LJ
0.625 LW
N
494.736 374 M
494.736 371.83 L
S
GR
GS
[0.8 0 0 0.8 0 0] CT
0.149 GC
2 setlinecap
1 LJ
0.625 LW
N
499.812 374 M
499.812 371.83 L
S
GR
GS
[0.8 0 0 0.8 0 0] CT
0.149 GC
2 setlinecap
1 LJ
0.625 LW
N
504.769 374 M
504.769 371.83 L
S
GR
GS
[0.8 0 0 0.8 0 0] CT
0.149 GC
2 setlinecap
1 LJ
0.625 LW
N
89.901 31 M
89.901 33.17 L
S
GR
GS
[0.8 0 0 0.8 0 0] CT
0.149 GC
2 setlinecap
1 LJ
0.625 LW
N
122.373 31 M
122.373 33.17 L
S
GR
GS
[0.8 0 0 0.8 0 0] CT
0.149 GC
2 setlinecap
1 LJ
0.625 LW
N
150.502 31 M
150.502 33.17 L
S
GR
GS
[0.8 0 0 0.8 0 0] CT
0.149 GC
2 setlinecap
1 LJ
0.625 LW
N
175.313 31 M
175.313 33.17 L
S
GR
GS
[0.8 0 0 0.8 0 0] CT
0.149 GC
2 setlinecap
1 LJ
0.625 LW
N
217.585 31 M
217.585 33.17 L
S
GR
GS
[0.8 0 0 0.8 0 0] CT
0.149 GC
2 setlinecap
1 LJ
0.625 LW
N
235.914 31 M
235.914 33.17 L
S
GR
GS
[0.8 0 0 0.8 0 0] CT
0.149 GC
2 setlinecap
1 LJ
0.625 LW
N
252.775 31 M
252.775 33.17 L
S
GR
GS
[0.8 0 0 0.8 0 0] CT
0.149 GC
2 setlinecap
1 LJ
0.625 LW
N
268.386 31 M
268.386 33.17 L
S
GR
GS
[0.8 0 0 0.8 0 0] CT
0.149 GC
2 setlinecap
1 LJ
0.625 LW
N
296.515 31 M
296.515 33.17 L
S
GR
GS
[0.8 0 0 0.8 0 0] CT
0.149 GC
2 setlinecap
1 LJ
0.625 LW
N
309.286 31 M
309.286 33.17 L
S
GR
GS
[0.8 0 0 0.8 0 0] CT
0.149 GC
2 setlinecap
1 LJ
0.625 LW
N
321.327 31 M
321.327 33.17 L
S
GR
GS
[0.8 0 0 0.8 0 0] CT
0.149 GC
2 setlinecap
1 LJ
0.625 LW
N
332.716 31 M
332.716 33.17 L
S
GR
GS
[0.8 0 0 0.8 0 0] CT
0.149 GC
2 setlinecap
1 LJ
0.625 LW
N
353.799 31 M
353.799 33.17 L
S
GR
GS
[0.8 0 0 0.8 0 0] CT
0.149 GC
2 setlinecap
1 LJ
0.625 LW
N
363.598 31 M
363.598 33.17 L
S
GR
GS
[0.8 0 0 0.8 0 0] CT
0.149 GC
2 setlinecap
1 LJ
0.625 LW
N
372.962 31 M
372.962 33.17 L
S
GR
GS
[0.8 0 0 0.8 0 0] CT
0.149 GC
2 setlinecap
1 LJ
0.625 LW
N
381.927 31 M
381.927 33.17 L
S
GR
GS
[0.8 0 0 0.8 0 0] CT
0.149 GC
2 setlinecap
1 LJ
0.625 LW
N
398.789 31 M
398.789 33.17 L
S
GR
GS
[0.8 0 0 0.8 0 0] CT
0.149 GC
2 setlinecap
1 LJ
0.625 LW
N
406.739 31 M
406.739 33.17 L
S
GR
GS
[0.8 0 0 0.8 0 0] CT
0.149 GC
2 setlinecap
1 LJ
0.625 LW
N
414.4 31 M
414.4 33.17 L
S
GR
GS
[0.8 0 0 0.8 0 0] CT
0.149 GC
2 setlinecap
1 LJ
0.625 LW
N
421.792 31 M
421.792 33.17 L
S
GR
GS
[0.8 0 0 0.8 0 0] CT
0.149 GC
2 setlinecap
1 LJ
0.625 LW
N
435.84 31 M
435.84 33.17 L
S
GR
GS
[0.8 0 0 0.8 0 0] CT
0.149 GC
2 setlinecap
1 LJ
0.625 LW
N
442.528 31 M
442.528 33.17 L
S
GR
GS
[0.8 0 0 0.8 0 0] CT
0.149 GC
2 setlinecap
1 LJ
0.625 LW
N
449.011 31 M
449.011 33.17 L
S
GR
GS
[0.8 0 0 0.8 0 0] CT
0.149 GC
2 setlinecap
1 LJ
0.625 LW
N
455.299 31 M
455.299 33.17 L
S
GR
GS
[0.8 0 0 0.8 0 0] CT
0.149 GC
2 setlinecap
1 LJ
0.625 LW
N
467.34 31 M
467.34 33.17 L
S
GR
GS
[0.8 0 0 0.8 0 0] CT
0.149 GC
2 setlinecap
1 LJ
0.625 LW
N
473.111 31 M
473.111 33.17 L
S
GR
GS
[0.8 0 0 0.8 0 0] CT
0.149 GC
2 setlinecap
1 LJ
0.625 LW
N
478.729 31 M
478.729 33.17 L
S
GR
GS
[0.8 0 0 0.8 0 0] CT
0.149 GC
2 setlinecap
1 LJ
0.625 LW
N
484.201 31 M
484.201 33.17 L
S
GR
GS
[0.8 0 0 0.8 0 0] CT
0.149 GC
2 setlinecap
1 LJ
0.625 LW
N
494.736 31 M
494.736 33.17 L
S
GR
GS
[0.8 0 0 0.8 0 0] CT
0.149 GC
2 setlinecap
1 LJ
0.625 LW
N
499.812 31 M
499.812 33.17 L
S
GR
GS
[0.8 0 0 0.8 0 0] CT
0.149 GC
2 setlinecap
1 LJ
0.625 LW
N
504.769 31 M
504.769 33.17 L
S
GR
GS
[0.8 0 0 0.8 158.00621 303.2] CT
0.149 GC
/Helvetica 12.5 F
GS
[1 0 0 1 0 0] CT
-10 12 moveto 
1 -1 scale
(0.1) t 
GR
GR
GS
[0.8 0 0 0.8 226.33599 303.2] CT
0.149 GC
/Helvetica 12.5 F
GS
[1 0 0 1 0 0] CT
-14 12 moveto 
1 -1 scale
(0.15) t 
GR
GR
GS
[0.8 0 0 0.8 274.81677 303.2] CT
0.149 GC
/Helvetica 12.5 F
GS
[1 0 0 1 0 0] CT
-10 12 moveto 
1 -1 scale
(0.2) t 
GR
GR
GS
[0.8 0 0 0.8 312.42134 303.2] CT
0.149 GC
/Helvetica 12.5 F
GS
[1 0 0 1 0 0] CT
-14 12 moveto 
1 -1 scale
(0.25) t 
GR
GR
GS
[0.8 0 0 0.8 343.14656 303.2] CT
0.149 GC
/Helvetica 12.5 F
GS
[1 0 0 1 0 0] CT
-10 12 moveto 
1 -1 scale
(0.3) t 
GR
GR
GS
[0.8 0 0 0.8 369.12434 303.2] CT
0.149 GC
/Helvetica 12.5 F
GS
[1 0 0 1 0 0] CT
-14 12 moveto 
1 -1 scale
(0.35) t 
GR
GR
GS
[0.8 0 0 0.8 391.62732 303.2] CT
0.149 GC
/Helvetica 12.5 F
GS
[1 0 0 1 0 0] CT
-10 12 moveto 
1 -1 scale
(0.4) t 
GR
GR
GS
[0.8 0 0 0.8 232.00017 316.2] CT
0.149 GC
/Helvetica 13.75 F
GS
[1 0 0 1 0 0] CT
-38 13 moveto 
1 -1 scale
(meshwidth) t 
GR
GR
GS
[0.8 0 0 0.8 0 0] CT
0.149 GC
2 setlinecap
1 LJ
0.625 LW
N
73 374 M
73 31 L
S
GR
GS
[0.8 0 0 0.8 0 0] CT
0.149 GC
2 setlinecap
1 LJ
0.625 LW
N
507 374 M
507 31 L
S
GR
GS
[0.8 0 0 0.8 0 0] CT
0.149 GC
2 setlinecap
1 LJ
0.625 LW
N
73 360.389 M
77.34 360.389 L
S
GR
GS
[0.8 0 0 0.8 0 0] CT
0.149 GC
2 setlinecap
1 LJ
0.625 LW
N
73 250.593 M
77.34 250.593 L
S
GR
GS
[0.8 0 0 0.8 0 0] CT
0.149 GC
2 setlinecap
1 LJ
0.625 LW
N
73 140.796 M
77.34 140.796 L
S
GR
GS
[0.8 0 0 0.8 0 0] CT
0.149 GC
2 setlinecap
1 LJ
0.625 LW
N
73 31 M
77.34 31 L
S
GR
GS
[0.8 0 0 0.8 0 0] CT
0.149 GC
2 setlinecap
1 LJ
0.625 LW
N
507 360.389 M
502.66 360.389 L
S
GR
GS
[0.8 0 0 0.8 0 0] CT
0.149 GC
2 setlinecap
1 LJ
0.625 LW
N
507 250.593 M
502.66 250.593 L
S
GR
GS
[0.8 0 0 0.8 0 0] CT
0.149 GC
2 setlinecap
1 LJ
0.625 LW
N
507 140.796 M
502.66 140.796 L
S
GR
GS
[0.8 0 0 0.8 0 0] CT
0.149 GC
2 setlinecap
1 LJ
0.625 LW
N
507 31 M
502.66 31 L
S
GR
GS
[0.8 0 0 0.8 0 0] CT
0.149 GC
2 setlinecap
1 LJ
0.625 LW
N
73 371.029 M
75.17 371.029 L
S
GR
GS
[0.8 0 0 0.8 0 0] CT
0.149 GC
2 setlinecap
1 LJ
0.625 LW
N
73 365.413 M
75.17 365.413 L
S
GR
GS
[0.8 0 0 0.8 0 0] CT
0.149 GC
2 setlinecap
1 LJ
0.625 LW
N
73 360.389 M
75.17 360.389 L
S
GR
GS
[0.8 0 0 0.8 0 0] CT
0.149 GC
2 setlinecap
1 LJ
0.625 LW
N
73 327.337 M
75.17 327.337 L
S
GR
GS
[0.8 0 0 0.8 0 0] CT
0.149 GC
2 setlinecap
1 LJ
0.625 LW
N
73 308.003 M
75.17 308.003 L
S
GR
GS
[0.8 0 0 0.8 0 0] CT
0.149 GC
2 setlinecap
1 LJ
0.625 LW
N
73 294.285 M
75.17 294.285 L
S
GR
GS
[0.8 0 0 0.8 0 0] CT
0.149 GC
2 setlinecap
1 LJ
0.625 LW
N
73 283.645 M
75.17 283.645 L
S
GR
GS
[0.8 0 0 0.8 0 0] CT
0.149 GC
2 setlinecap
1 LJ
0.625 LW
N
73 274.951 M
75.17 274.951 L
S
GR
GS
[0.8 0 0 0.8 0 0] CT
0.149 GC
2 setlinecap
1 LJ
0.625 LW
N
73 267.6 M
75.17 267.6 L
S
GR
GS
[0.8 0 0 0.8 0 0] CT
0.149 GC
2 setlinecap
1 LJ
0.625 LW
N
73 261.233 M
75.17 261.233 L
S
GR
GS
[0.8 0 0 0.8 0 0] CT
0.149 GC
2 setlinecap
1 LJ
0.625 LW
N
73 255.617 M
75.17 255.617 L
S
GR
GS
[0.8 0 0 0.8 0 0] CT
0.149 GC
2 setlinecap
1 LJ
0.625 LW
N
73 250.593 M
75.17 250.593 L
S
GR
GS
[0.8 0 0 0.8 0 0] CT
0.149 GC
2 setlinecap
1 LJ
0.625 LW
N
73 217.541 M
75.17 217.541 L
S
GR
GS
[0.8 0 0 0.8 0 0] CT
0.149 GC
2 setlinecap
1 LJ
0.625 LW
N
73 198.206 M
75.17 198.206 L
S
GR
GS
[0.8 0 0 0.8 0 0] CT
0.149 GC
2 setlinecap
1 LJ
0.625 LW
N
73 184.489 M
75.17 184.489 L
S
GR
GS
[0.8 0 0 0.8 0 0] CT
0.149 GC
2 setlinecap
1 LJ
0.625 LW
N
73 173.848 M
75.17 173.848 L
S
GR
GS
[0.8 0 0 0.8 0 0] CT
0.149 GC
2 setlinecap
1 LJ
0.625 LW
N
73 165.154 M
75.17 165.154 L
S
GR
GS
[0.8 0 0 0.8 0 0] CT
0.149 GC
2 setlinecap
1 LJ
0.625 LW
N
73 157.804 M
75.17 157.804 L
S
GR
GS
[0.8 0 0 0.8 0 0] CT
0.149 GC
2 setlinecap
1 LJ
0.625 LW
N
73 151.437 M
75.17 151.437 L
S
GR
GS
[0.8 0 0 0.8 0 0] CT
0.149 GC
2 setlinecap
1 LJ
0.625 LW
N
73 145.82 M
75.17 145.82 L
S
GR
GS
[0.8 0 0 0.8 0 0] CT
0.149 GC
2 setlinecap
1 LJ
0.625 LW
N
73 140.796 M
75.17 140.796 L
S
GR
GS
[0.8 0 0 0.8 0 0] CT
0.149 GC
2 setlinecap
1 LJ
0.625 LW
N
73 107.744 M
75.17 107.744 L
S
GR
GS
[0.8 0 0 0.8 0 0] CT
0.149 GC
2 setlinecap
1 LJ
0.625 LW
N
73 88.41 M
75.17 88.41 L
S
GR
GS
[0.8 0 0 0.8 0 0] CT
0.149 GC
2 setlinecap
1 LJ
0.625 LW
N
73 74.692 M
75.17 74.692 L
S
GR
GS
[0.8 0 0 0.8 0 0] CT
0.149 GC
2 setlinecap
1 LJ
0.625 LW
N
73 64.052 M
75.17 64.052 L
S
GR
GS
[0.8 0 0 0.8 0 0] CT
0.149 GC
2 setlinecap
1 LJ
0.625 LW
N
73 55.358 M
75.17 55.358 L
S
GR
GS
[0.8 0 0 0.8 0 0] CT
0.149 GC
2 setlinecap
1 LJ
0.625 LW
N
73 48.008 M
75.17 48.008 L
S
GR
GS
[0.8 0 0 0.8 0 0] CT
0.149 GC
2 setlinecap
1 LJ
0.625 LW
N
73 41.64 M
75.17 41.64 L
S
GR
GS
[0.8 0 0 0.8 0 0] CT
0.149 GC
2 setlinecap
1 LJ
0.625 LW
N
73 36.024 M
75.17 36.024 L
S
GR
GS
[0.8 0 0 0.8 0 0] CT
0.149 GC
2 setlinecap
1 LJ
0.625 LW
N
73 31 M
75.17 31 L
S
GR
GS
[0.8 0 0 0.8 0 0] CT
0.149 GC
2 setlinecap
1 LJ
0.625 LW
N
507 371.029 M
504.83 371.029 L
S
GR
GS
[0.8 0 0 0.8 0 0] CT
0.149 GC
2 setlinecap
1 LJ
0.625 LW
N
507 365.413 M
504.83 365.413 L
S
GR
GS
[0.8 0 0 0.8 0 0] CT
0.149 GC
2 setlinecap
1 LJ
0.625 LW
N
507 360.389 M
504.83 360.389 L
S
GR
GS
[0.8 0 0 0.8 0 0] CT
0.149 GC
2 setlinecap
1 LJ
0.625 LW
N
507 327.337 M
504.83 327.337 L
S
GR
GS
[0.8 0 0 0.8 0 0] CT
0.149 GC
2 setlinecap
1 LJ
0.625 LW
N
507 308.003 M
504.83 308.003 L
S
GR
GS
[0.8 0 0 0.8 0 0] CT
0.149 GC
2 setlinecap
1 LJ
0.625 LW
N
507 294.285 M
504.83 294.285 L
S
GR
GS
[0.8 0 0 0.8 0 0] CT
0.149 GC
2 setlinecap
1 LJ
0.625 LW
N
507 283.645 M
504.83 283.645 L
S
GR
GS
[0.8 0 0 0.8 0 0] CT
0.149 GC
2 setlinecap
1 LJ
0.625 LW
N
507 274.951 M
504.83 274.951 L
S
GR
GS
[0.8 0 0 0.8 0 0] CT
0.149 GC
2 setlinecap
1 LJ
0.625 LW
N
507 267.6 M
504.83 267.6 L
S
GR
GS
[0.8 0 0 0.8 0 0] CT
0.149 GC
2 setlinecap
1 LJ
0.625 LW
N
507 261.233 M
504.83 261.233 L
S
GR
GS
[0.8 0 0 0.8 0 0] CT
0.149 GC
2 setlinecap
1 LJ
0.625 LW
N
507 255.617 M
504.83 255.617 L
S
GR
GS
[0.8 0 0 0.8 0 0] CT
0.149 GC
2 setlinecap
1 LJ
0.625 LW
N
507 250.593 M
504.83 250.593 L
S
GR
GS
[0.8 0 0 0.8 0 0] CT
0.149 GC
2 setlinecap
1 LJ
0.625 LW
N
507 217.541 M
504.83 217.541 L
S
GR
GS
[0.8 0 0 0.8 0 0] CT
0.149 GC
2 setlinecap
1 LJ
0.625 LW
N
507 198.206 M
504.83 198.206 L
S
GR
GS
[0.8 0 0 0.8 0 0] CT
0.149 GC
2 setlinecap
1 LJ
0.625 LW
N
507 184.489 M
504.83 184.489 L
S
GR
GS
[0.8 0 0 0.8 0 0] CT
0.149 GC
2 setlinecap
1 LJ
0.625 LW
N
507 173.848 M
504.83 173.848 L
S
GR
GS
[0.8 0 0 0.8 0 0] CT
0.149 GC
2 setlinecap
1 LJ
0.625 LW
N
507 165.154 M
504.83 165.154 L
S
GR
GS
[0.8 0 0 0.8 0 0] CT
0.149 GC
2 setlinecap
1 LJ
0.625 LW
N
507 157.804 M
504.83 157.804 L
S
GR
GS
[0.8 0 0 0.8 0 0] CT
0.149 GC
2 setlinecap
1 LJ
0.625 LW
N
507 151.437 M
504.83 151.437 L
S
GR
GS
[0.8 0 0 0.8 0 0] CT
0.149 GC
2 setlinecap
1 LJ
0.625 LW
N
507 145.82 M
504.83 145.82 L
S
GR
GS
[0.8 0 0 0.8 0 0] CT
0.149 GC
2 setlinecap
1 LJ
0.625 LW
N
507 140.796 M
504.83 140.796 L
S
GR
GS
[0.8 0 0 0.8 0 0] CT
0.149 GC
2 setlinecap
1 LJ
0.625 LW
N
507 107.744 M
504.83 107.744 L
S
GR
GS
[0.8 0 0 0.8 0 0] CT
0.149 GC
2 setlinecap
1 LJ
0.625 LW
N
507 88.41 M
504.83 88.41 L
S
GR
GS
[0.8 0 0 0.8 0 0] CT
0.149 GC
2 setlinecap
1 LJ
0.625 LW
N
507 74.692 M
504.83 74.692 L
S
GR
GS
[0.8 0 0 0.8 0 0] CT
0.149 GC
2 setlinecap
1 LJ
0.625 LW
N
507 64.052 M
504.83 64.052 L
S
GR
GS
[0.8 0 0 0.8 0 0] CT
0.149 GC
2 setlinecap
1 LJ
0.625 LW
N
507 55.358 M
504.83 55.358 L
S
GR
GS
[0.8 0 0 0.8 0 0] CT
0.149 GC
2 setlinecap
1 LJ
0.625 LW
N
507 48.008 M
504.83 48.008 L
S
GR
GS
[0.8 0 0 0.8 0 0] CT
0.149 GC
2 setlinecap
1 LJ
0.625 LW
N
507 41.64 M
504.83 41.64 L
S
GR
GS
[0.8 0 0 0.8 0 0] CT
0.149 GC
2 setlinecap
1 LJ
0.625 LW
N
507 36.024 M
504.83 36.024 L
S
GR
GS
[0.8 0 0 0.8 0 0] CT
0.149 GC
2 setlinecap
1 LJ
0.625 LW
N
507 31 M
504.83 31 L
S
GR
GS
[0.8 0 0 0.8 33.6 293.6] CT
0.149 GC
/Helvetica 12.5 F
GS
[1 0 0 1 0 0] CT
0 0 moveto 
1 -1 scale
(10) t 
GR
GR
GS
[0.8 0 0 0.8 46.4 288.8] CT
0.149 GC
/Helvetica 10 F
GS
[1 0 0 1 0 0] CT
0 0 moveto 
1 -1 scale
(-3) t 
GR
GR
GS
[0.8 0 0 0.8 33.6 206.4] CT
0.149 GC
/Helvetica 12.5 F
GS
[1 0 0 1 0 0] CT
0 0 moveto 
1 -1 scale
(10) t 
GR
GR
GS
[0.8 0 0 0.8 46.4 201.6] CT
0.149 GC
/Helvetica 10 F
GS
[1 0 0 1 0 0] CT
0 0 moveto 
1 -1 scale
(-2) t 
GR
GR
GS
[0.8 0 0 0.8 33.6 118.4] CT
0.149 GC
/Helvetica 12.5 F
GS
[1 0 0 1 0 0] CT
0 0 moveto 
1 -1 scale
(10) t 
GR
GR
GS
[0.8 0 0 0.8 46.4 113.6] CT
0.149 GC
/Helvetica 10 F
GS
[1 0 0 1 0 0] CT
0 0 moveto 
1 -1 scale
(-1) t 
GR
GR
GS
[0.8 0 0 0.8 36 30.4] CT
0.149 GC
/Helvetica 12.5 F
GS
[1 0 0 1 0 0] CT
0 0 moveto 
1 -1 scale
(10) t 
GR
GR
GS
[0.8 0 0 0.8 48.8 25.6] CT
0.149 GC
/Helvetica 10 F
GS
[1 0 0 1 0 0] CT
0 0 moveto 
1 -1 scale
(0) t 
GR
GR
GS
[0 -0.8 0.8 0 30.6 161.99987] CT
0.149 GC
/Helvetica 13.75 F
GS
[1 0 0 1 0 0] CT
-54.5 -4 moveto 
1 -1 scale
(dual norm error) t 
GR
GR
GS
[0.8 0 0 0.8 0 0] CT
0 0.447 0.741 RC
1 LJ
2.5 LW
N
507 103.812 M
436.154 139.976 L
364.145 175.225 L
291.609 206.859 L
218.838 243.257 L
145.949 296.212 L
73 374 L
S
GR
GS
[0.8 0 0 0.8 405.6 83.04979] CT
0 0.447 0.741 RC
10.0 ML
2.5 LW
N
0 -7 M
0 7 L
-7 0 M
7 0 L
-4.419 -4.419 M
4.419 4.419 L
-4.419 4.419 M
4.419 -4.419 L
S
GR
GS
[0.8 0 0 0.8 348.92336 111.98076] CT
0 0.447 0.741 RC
10.0 ML
2.5 LW
N
0 -7 M
0 7 L
-7 0 M
7 0 L
-4.419 -4.419 M
4.419 4.419 L
-4.419 4.419 M
4.419 -4.419 L
S
GR
GS
[0.8 0 0 0.8 291.31577 140.17975] CT
0 0.447 0.741 RC
10.0 ML
2.5 LW
N
0 -7 M
0 7 L
-7 0 M
7 0 L
-4.419 -4.419 M
4.419 4.419 L
-4.419 4.419 M
4.419 -4.419 L
S
GR
GS
[0.8 0 0 0.8 233.28738 165.48712] CT
0 0.447 0.741 RC
10.0 ML
2.5 LW
N
0 -7 M
0 7 L
-7 0 M
7 0 L
-4.419 -4.419 M
4.419 4.419 L
-4.419 4.419 M
4.419 -4.419 L
S
GR
GS
[0.8 0 0 0.8 175.07015 194.60585] CT
0 0.447 0.741 RC
10.0 ML
2.5 LW
N
0 -7 M
0 7 L
-7 0 M
7 0 L
-4.419 -4.419 M
4.419 4.419 L
-4.419 4.419 M
4.419 -4.419 L
S
GR
GS
[0.8 0 0 0.8 116.7595 236.96982] CT
0 0.447 0.741 RC
10.0 ML
2.5 LW
N
0 -7 M
0 7 L
-7 0 M
7 0 L
-4.419 -4.419 M
4.419 4.419 L
-4.419 4.419 M
4.419 -4.419 L
S
GR
GS
[0.8 0 0 0.8 58.4 299.2] CT
0 0.447 0.741 RC
10.0 ML
2.5 LW
N
0 -7 M
0 7 L
-7 0 M
7 0 L
-4.419 -4.419 M
4.419 4.419 L
-4.419 4.419 M
4.419 -4.419 L
S
GR
GS
[0.8 0 0 0.8 0 0] CT
0.851 0.325 0.098 RC
1 LJ
2.5 LW
N
507 111.993 M
436.154 147.52 L
364.145 182.585 L
291.609 217.932 L
218.838 257.061 L
145.949 311.698 L
S
GR
GS
[0.8 0 0 0.8 405.6 89.59461] CT
0.851 0.325 0.098 RC
10.0 ML
2.5 LW
N
0 -7 M
0 7 L
-7 0 M
7 0 L
S
GR
GS
[0.8 0 0 0.8 348.92336 118.0163] CT
0.851 0.325 0.098 RC
10.0 ML
2.5 LW
N
0 -7 M
0 7 L
-7 0 M
7 0 L
S
GR
GS
[0.8 0 0 0.8 291.31577 146.06794] CT
0.851 0.325 0.098 RC
10.0 ML
2.5 LW
N
0 -7 M
0 7 L
-7 0 M
7 0 L
S
GR
GS
[0.8 0 0 0.8 233.28738 174.34592] CT
0.851 0.325 0.098 RC
10.0 ML
2.5 LW
N
0 -7 M
0 7 L
-7 0 M
7 0 L
S
GR
GS
[0.8 0 0 0.8 175.07015 205.64851] CT
0.851 0.325 0.098 RC
10.0 ML
2.5 LW
N
0 -7 M
0 7 L
-7 0 M
7 0 L
S
GR
GS
[0.8 0 0 0.8 116.7595 249.3582] CT
0.851 0.325 0.098 RC
10.0 ML
2.5 LW
N
0 -7 M
0 7 L
-7 0 M
7 0 L
S
GR
GS
[0.8 0 0 0.8 0 0] CT
0.702 GC
[10 6] 0 setdash
2 LJ
0.625 LW
N
507 92.94 M
436.154 134.575 L
364.145 176.894 L
291.609 219.522 L
218.838 262.289 L
145.949 305.125 L
73 347.996 L
S
GR
GS
[0.8 0 0 0.8 0 0] CT
0.702 GC
[10 6] 0 setdash
2 LJ
0.625 LW
N
507 107.978 M
436.154 146.145 L
364.145 184.939 L
291.609 224.017 L
218.838 263.222 L
145.949 302.489 L
S
GR
GS
[0.8 0 0 0.8 0 0] CT
1 GC
N
497 364 M
497 331 L
384 331 L
384 364 L
cp
f
GR
GS
[0.8 0 0 0.8 342.64316 272.11077] CT
/Helvetica 11.25 F
GS
[1 0 0 1 0 0] CT
0 4 moveto 
1 -1 scale
(Vol: 2.5962) t 
GR
GR
GS
[0.8 0 0 0.8 0 0] CT
0 0.447 0.741 RC
1 LJ
2.5 LW
N
387.982 340.138 M
425.317 340.138 L
S
GR
GS
[0.8 0 0 0.8 325.31982 272.11077] CT
0 0.447 0.741 RC
10.0 ML
2.5 LW
N
0 -6 M
0 6 L
-6 0 M
6 0 L
-3.977 -3.977 M
3.977 3.977 L
-3.977 3.977 M
3.977 -3.977 L
S
GR
GS
[0.8 0 0 0.8 342.64316 283.88923] CT
/Helvetica 11.25 F
GS
[1 0 0 1 0 0] CT
0 4 moveto 
1 -1 scale
(BEM: 2.38) t 
GR
GR
GS
[0.8 0 0 0.8 0 0] CT
0.851 0.325 0.098 RC
1 LJ
2.5 LW
N
387.982 354.862 M
425.317 354.862 L
S
GR
GS
[0.8 0 0 0.8 325.31982 283.88923] CT
0.851 0.325 0.098 RC
10.0 ML
2.5 LW
N
0 -6 M
0 6 L
-6 0 M
6 0 L
S
GR
GS
[0.8 0 0 0.8 0 0] CT
0.149 GC
10.0 ML
0.625 LW
N
384 364 M
384 331 L
497 331 L
497 364 L
cp
S
GR
%%Trailer
%%Pages: 1
%%EOF
