%!PS-Adobe-3.0 EPSF-3.0
%%Creator: (MATLAB, The Mathworks, Inc. Version 9.13.0.2105380 \(R2022b\) Update 2. Operating System: Linux)
%%Title: ./PMCFSP_forcesNtorques_getMeshCuboid5_torques.eps
<<<<<<< HEAD
%%CreationDate: 2024-01-22T01:20:05
=======
%%CreationDate: 2024-01-22T00:32:26
>>>>>>> f4de00b5db4de07fdb797f1545578c2683f6c040
%%Pages: (atend)
%%BoundingBox:    19     8   420   311
%%LanguageLevel: 3
%%EndComments
%%BeginProlog
%%BeginResource: procset (Apache XML Graphics Std ProcSet) 1.2 0
%%Version: 1.2 0
%%Copyright: (Copyright 2001-2003,2010 The Apache Software Foundation. License terms: http://www.apache.org/licenses/LICENSE-2.0)
/bd{bind def}bind def
/ld{load def}bd
/GR/grestore ld
/GS/gsave ld
/RM/rmoveto ld
/C/curveto ld
/t/show ld
/L/lineto ld
/ML/setmiterlimit ld
/CT/concat ld
/f/fill ld
/N/newpath ld
/S/stroke ld
/CC/setcmykcolor ld
/A/ashow ld
/cp/closepath ld
/RC/setrgbcolor ld
/LJ/setlinejoin ld
/GC/setgray ld
/LW/setlinewidth ld
/M/moveto ld
/re {4 2 roll M
1 index 0 rlineto
0 exch rlineto
neg 0 rlineto
cp } bd
/_ctm matrix def
/_tm matrix def
/BT { _ctm currentmatrix pop matrix _tm copy pop 0 0 moveto } bd
/ET { _ctm setmatrix } bd
/iTm { _ctm setmatrix _tm concat } bd
/Tm { _tm astore pop iTm 0 0 moveto } bd
/ux 0.0 def
/uy 0.0 def
/F {
  /Tp exch def
  /Tf exch def
  Tf findfont Tp scalefont setfont
  /cf Tf def  /cs Tp def
} bd
/ULS {currentpoint /uy exch def /ux exch def} bd
/ULE {
  /Tcx currentpoint pop def
  gsave
  newpath
  cf findfont cs scalefont dup
  /FontMatrix get 0 get /Ts exch def /FontInfo get dup
  /UnderlinePosition get Ts mul /To exch def
  /UnderlineThickness get Ts mul /Tt exch def
  ux uy To add moveto  Tcx uy To add lineto
  Tt setlinewidth stroke
  grestore
} bd
/OLE {
  /Tcx currentpoint pop def
  gsave
  newpath
  cf findfont cs scalefont dup
  /FontMatrix get 0 get /Ts exch def /FontInfo get dup
  /UnderlinePosition get Ts mul /To exch def
  /UnderlineThickness get Ts mul /Tt exch def
  ux uy To add cs add moveto Tcx uy To add cs add lineto
  Tt setlinewidth stroke
  grestore
} bd
/SOE {
  /Tcx currentpoint pop def
  gsave
  newpath
  cf findfont cs scalefont dup
  /FontMatrix get 0 get /Ts exch def /FontInfo get dup
  /UnderlinePosition get Ts mul /To exch def
  /UnderlineThickness get Ts mul /Tt exch def
  ux uy To add cs 10 mul 26 idiv add moveto Tcx uy To add cs 10 mul 26 idiv add lineto
  Tt setlinewidth stroke
  grestore
} bd
/QT {
/Y22 exch store
/X22 exch store
/Y21 exch store
/X21 exch store
currentpoint
/Y21 load 2 mul add 3 div exch
/X21 load 2 mul add 3 div exch
/X21 load 2 mul /X22 load add 3 div
/Y21 load 2 mul /Y22 load add 3 div
/X22 load /Y22 load curveto
} bd
/SSPD {
dup length /d exch dict def
{
/v exch def
/k exch def
currentpagedevice k known {
/cpdv currentpagedevice k get def
v cpdv ne {
/upd false def
/nullv v type /nulltype eq def
/nullcpdv cpdv type /nulltype eq def
nullv nullcpdv or
{
/upd true def
} {
/sametype v type cpdv type eq def
sametype {
v type /arraytype eq {
/vlen v length def
/cpdvlen cpdv length def
vlen cpdvlen eq {
0 1 vlen 1 sub {
/i exch def
/obj v i get def
/cpdobj cpdv i get def
obj cpdobj ne {
/upd true def
exit
} if
} for
} {
/upd true def
} ifelse
} {
v type /dicttype eq {
v {
/dv exch def
/dk exch def
/cpddv cpdv dk get def
dv cpddv ne {
/upd true def
exit
} if
} forall
} {
/upd true def
} ifelse
} ifelse
} if
} ifelse
upd true eq {
d k v put
} if
} if
} if
} forall
d length 0 gt {
d setpagedevice
} if
} bd
/RE { % /NewFontName [NewEncodingArray] /FontName RE -
  findfont dup length dict begin
  {
    1 index /FID ne
    {def} {pop pop} ifelse
  } forall
  /Encoding exch def
  /FontName 1 index def
  currentdict definefont pop
  end
} bind def
%%EndResource
%%BeginResource: procset (Apache XML Graphics EPS ProcSet) 1.0 0
%%Version: 1.0 0
%%Copyright: (Copyright 2002-2003 The Apache Software Foundation. License terms: http://www.apache.org/licenses/LICENSE-2.0)
/BeginEPSF { %def
/b4_Inc_state save def         % Save state for cleanup
/dict_count countdictstack def % Count objects on dict stack
/op_count count 1 sub def      % Count objects on operand stack
userdict begin                 % Push userdict on dict stack
/showpage { } def              % Redefine showpage, { } = null proc
0 setgray 0 setlinecap         % Prepare graphics state
1 setlinewidth 0 setlinejoin
10 setmiterlimit [ ] 0 setdash newpath
/languagelevel where           % If level not equal to 1 then
{pop languagelevel             % set strokeadjust and
1 ne                           % overprint to their defaults.
{false setstrokeadjust false setoverprint
} if
} if
} bd
/EndEPSF { %def
count op_count sub {pop} repeat            % Clean up stacks
countdictstack dict_count sub {end} repeat
b4_Inc_state restore
} bd
%%EndResource
%FOPBeginFontDict
%%IncludeResource: font Courier-Oblique
%%IncludeResource: font Courier-BoldOblique
%%IncludeResource: font Courier-Bold
%%IncludeResource: font ZapfDingbats
%%IncludeResource: font Symbol
%%IncludeResource: font Helvetica
%%IncludeResource: font Helvetica-Oblique
%%IncludeResource: font Helvetica-Bold
%%IncludeResource: font Helvetica-BoldOblique
%%IncludeResource: font Times-Roman
%%IncludeResource: font Times-Italic
%%IncludeResource: font Times-Bold
%%IncludeResource: font Times-BoldItalic
%%IncludeResource: font Courier
%FOPEndFontDict
%%BeginResource: encoding WinAnsiEncoding
/WinAnsiEncoding [
/.notdef /.notdef /.notdef /.notdef /.notdef
/.notdef /.notdef /.notdef /.notdef /.notdef
/.notdef /.notdef /.notdef /.notdef /.notdef
/.notdef /.notdef /.notdef /.notdef /.notdef
/.notdef /.notdef /.notdef /.notdef /.notdef
/.notdef /.notdef /.notdef /.notdef /.notdef
/.notdef /.notdef /space /exclam /quotedbl
/numbersign /dollar /percent /ampersand /quotesingle
/parenleft /parenright /asterisk /plus /comma
/hyphen /period /slash /zero /one
/two /three /four /five /six
/seven /eight /nine /colon /semicolon
/less /equal /greater /question /at
/A /B /C /D /E
/F /G /H /I /J
/K /L /M /N /O
/P /Q /R /S /T
/U /V /W /X /Y
/Z /bracketleft /backslash /bracketright /asciicircum
/underscore /quoteleft /a /b /c
/d /e /f /g /h
/i /j /k /l /m
/n /o /p /q /r
/s /t /u /v /w
/x /y /z /braceleft /bar
/braceright /asciitilde /bullet /Euro /bullet
/quotesinglbase /florin /quotedblbase /ellipsis /dagger
/daggerdbl /circumflex /perthousand /Scaron /guilsinglleft
/OE /bullet /Zcaron /bullet /bullet
/quoteleft /quoteright /quotedblleft /quotedblright /bullet
/endash /emdash /asciitilde /trademark /scaron
/guilsinglright /oe /bullet /zcaron /Ydieresis
/space /exclamdown /cent /sterling /currency
/yen /brokenbar /section /dieresis /copyright
/ordfeminine /guillemotleft /logicalnot /sfthyphen /registered
/macron /degree /plusminus /twosuperior /threesuperior
/acute /mu /paragraph /middot /cedilla
/onesuperior /ordmasculine /guillemotright /onequarter /onehalf
/threequarters /questiondown /Agrave /Aacute /Acircumflex
/Atilde /Adieresis /Aring /AE /Ccedilla
/Egrave /Eacute /Ecircumflex /Edieresis /Igrave
/Iacute /Icircumflex /Idieresis /Eth /Ntilde
/Ograve /Oacute /Ocircumflex /Otilde /Odieresis
/multiply /Oslash /Ugrave /Uacute /Ucircumflex
/Udieresis /Yacute /Thorn /germandbls /agrave
/aacute /acircumflex /atilde /adieresis /aring
/ae /ccedilla /egrave /eacute /ecircumflex
/edieresis /igrave /iacute /icircumflex /idieresis
/eth /ntilde /ograve /oacute /ocircumflex
/otilde /odieresis /divide /oslash /ugrave
/uacute /ucircumflex /udieresis /yacute /thorn
/ydieresis
] def
%%EndResource
%FOPBeginFontReencode
/Courier-Oblique findfont
dup length dict begin
  {1 index /FID ne {def} {pop pop} ifelse} forall
  /Encoding WinAnsiEncoding def
  currentdict
end
/Courier-Oblique exch definefont pop
/Courier-BoldOblique findfont
dup length dict begin
  {1 index /FID ne {def} {pop pop} ifelse} forall
  /Encoding WinAnsiEncoding def
  currentdict
end
/Courier-BoldOblique exch definefont pop
/Courier-Bold findfont
dup length dict begin
  {1 index /FID ne {def} {pop pop} ifelse} forall
  /Encoding WinAnsiEncoding def
  currentdict
end
/Courier-Bold exch definefont pop
/Helvetica findfont
dup length dict begin
  {1 index /FID ne {def} {pop pop} ifelse} forall
  /Encoding WinAnsiEncoding def
  currentdict
end
/Helvetica exch definefont pop
/Helvetica-Oblique findfont
dup length dict begin
  {1 index /FID ne {def} {pop pop} ifelse} forall
  /Encoding WinAnsiEncoding def
  currentdict
end
/Helvetica-Oblique exch definefont pop
/Helvetica-Bold findfont
dup length dict begin
  {1 index /FID ne {def} {pop pop} ifelse} forall
  /Encoding WinAnsiEncoding def
  currentdict
end
/Helvetica-Bold exch definefont pop
/Helvetica-BoldOblique findfont
dup length dict begin
  {1 index /FID ne {def} {pop pop} ifelse} forall
  /Encoding WinAnsiEncoding def
  currentdict
end
/Helvetica-BoldOblique exch definefont pop
/Times-Roman findfont
dup length dict begin
  {1 index /FID ne {def} {pop pop} ifelse} forall
  /Encoding WinAnsiEncoding def
  currentdict
end
/Times-Roman exch definefont pop
/Times-Italic findfont
dup length dict begin
  {1 index /FID ne {def} {pop pop} ifelse} forall
  /Encoding WinAnsiEncoding def
  currentdict
end
/Times-Italic exch definefont pop
/Times-Bold findfont
dup length dict begin
  {1 index /FID ne {def} {pop pop} ifelse} forall
  /Encoding WinAnsiEncoding def
  currentdict
end
/Times-Bold exch definefont pop
/Times-BoldItalic findfont
dup length dict begin
  {1 index /FID ne {def} {pop pop} ifelse} forall
  /Encoding WinAnsiEncoding def
  currentdict
end
/Times-BoldItalic exch definefont pop
/Courier findfont
dup length dict begin
  {1 index /FID ne {def} {pop pop} ifelse} forall
  /Encoding WinAnsiEncoding def
  currentdict
end
/Courier exch definefont pop
%FOPEndFontReencode
%%EndProlog
%%Page: 1 1
%%PageBoundingBox: 0 0 456 330
%%BeginPageSetup
N
   19     8 M
  439     8 L
  439   319 L
   19   319 L
cp
clip
[1 0 0 -1 0 330] CT
%%EndPageSetup
GS
[0.8 0 0 0.8 0 -0.40002] CT
1 GC
N
0 0 570 413 re
f
GR
GS
[0.8 0 0 0.8 0 -0.40002] CT
1 GC
N
0 0 570 413 re
f
GR
GS
[0.8 0 0 0.8 0 -0.40002] CT
1 GC
N
74 368 M
516 368 L
516 31 L
74 31 L
cp
f
GR
GS
[0.8 0 0 0.8 0 -0.40002] CT
0.149 GC
2 setlinecap
1 LJ
0.625 LW
N
74 368 M
516 368 L
S
GR
GS
[0.8 0 0 0.8 0 -0.40002] CT
0.149 GC
2 setlinecap
1 LJ
0.625 LW
N
74 31 M
516 31 L
S
GR
GS
[0.8 0 0 0.8 0 -0.40002] CT
0.149 GC
2 setlinecap
1 LJ
0.625 LW
N
<<<<<<< HEAD
221.345 368 M
221.345 363.58 L
=======
217.678 374 M
217.678 369.66 L
>>>>>>> f4de00b5db4de07fdb797f1545578c2683f6c040
S
GR
GS
[0.8 0 0 0.8 0 -0.40002] CT
0.149 GC
2 setlinecap
1 LJ
0.625 LW
N
<<<<<<< HEAD
328.559 368 M
328.559 363.58 L
=======
322.952 374 M
322.952 369.66 L
>>>>>>> f4de00b5db4de07fdb797f1545578c2683f6c040
S
GR
GS
[0.8 0 0 0.8 0 -0.40002] CT
0.149 GC
2 setlinecap
1 LJ
0.625 LW
N
<<<<<<< HEAD
411.721 368 M
411.721 363.58 L
=======
404.608 374 M
404.608 369.66 L
>>>>>>> f4de00b5db4de07fdb797f1545578c2683f6c040
S
GR
GS
[0.8 0 0 0.8 0 -0.40002] CT
0.149 GC
2 setlinecap
1 LJ
0.625 LW
N
<<<<<<< HEAD
479.669 368 M
479.669 363.58 L
=======
471.326 374 M
471.326 369.66 L
>>>>>>> f4de00b5db4de07fdb797f1545578c2683f6c040
S
GR
GS
[0.8 0 0 0.8 0 -0.40002] CT
0.149 GC
2 setlinecap
1 LJ
0.625 LW
N
<<<<<<< HEAD
221.345 31 M
221.345 35.42 L
=======
217.678 31 M
217.678 35.34 L
>>>>>>> f4de00b5db4de07fdb797f1545578c2683f6c040
S
GR
GS
[0.8 0 0 0.8 0 -0.40002] CT
0.149 GC
2 setlinecap
1 LJ
0.625 LW
N
<<<<<<< HEAD
328.559 31 M
328.559 35.42 L
=======
322.952 31 M
322.952 35.34 L
>>>>>>> f4de00b5db4de07fdb797f1545578c2683f6c040
S
GR
GS
[0.8 0 0 0.8 0 -0.40002] CT
0.149 GC
2 setlinecap
1 LJ
0.625 LW
N
<<<<<<< HEAD
411.721 31 M
411.721 35.42 L
=======
404.608 31 M
404.608 35.34 L
>>>>>>> f4de00b5db4de07fdb797f1545578c2683f6c040
S
GR
GS
[0.8 0 0 0.8 0 -0.40002] CT
0.149 GC
2 setlinecap
1 LJ
0.625 LW
N
<<<<<<< HEAD
479.669 31 M
479.669 35.42 L
=======
471.326 31 M
471.326 35.34 L
>>>>>>> f4de00b5db4de07fdb797f1545578c2683f6c040
S
GR
GS
[0.8 0 0 0.8 0 -0.40002] CT
0.149 GC
2 setlinecap
1 LJ
0.625 LW
N
<<<<<<< HEAD
105.756 368 M
105.756 365.79 L
=======
104.181 374 M
104.181 371.83 L
>>>>>>> f4de00b5db4de07fdb797f1545578c2683f6c040
S
GR
GS
[0.8 0 0 0.8 0 -0.40002] CT
0.149 GC
2 setlinecap
1 LJ
0.625 LW
N
<<<<<<< HEAD
138.183 368 M
138.183 365.79 L
=======
136.022 374 M
136.022 371.83 L
>>>>>>> f4de00b5db4de07fdb797f1545578c2683f6c040
S
GR
GS
[0.8 0 0 0.8 0 -0.40002] CT
0.149 GC
2 setlinecap
1 LJ
0.625 LW
N
<<<<<<< HEAD
168.014 368 M
168.014 365.79 L
=======
165.312 374 M
165.312 371.83 L
>>>>>>> f4de00b5db4de07fdb797f1545578c2683f6c040
S
GR
GS
[0.8 0 0 0.8 0 -0.40002] CT
0.149 GC
2 setlinecap
1 LJ
0.625 LW
N
<<<<<<< HEAD
195.633 368 M
195.633 365.79 L
=======
192.431 374 M
192.431 371.83 L
>>>>>>> f4de00b5db4de07fdb797f1545578c2683f6c040
S
GR
GS
[0.8 0 0 0.8 0 -0.40002] CT
0.149 GC
2 setlinecap
1 LJ
0.625 LW
N
<<<<<<< HEAD
245.397 368 M
245.397 365.79 L
=======
241.295 374 M
241.295 371.83 L
>>>>>>> f4de00b5db4de07fdb797f1545578c2683f6c040
S
GR
GS
[0.8 0 0 0.8 0 -0.40002] CT
0.149 GC
2 setlinecap
1 LJ
0.625 LW
N
<<<<<<< HEAD
267.991 368 M
267.991 365.79 L
=======
263.48 374 M
263.48 371.83 L
>>>>>>> f4de00b5db4de07fdb797f1545578c2683f6c040
S
GR
GS
[0.8 0 0 0.8 0 -0.40002] CT
0.149 GC
2 setlinecap
1 LJ
0.625 LW
N
<<<<<<< HEAD
289.293 368 M
289.293 365.79 L
=======
284.396 374 M
284.396 371.83 L
>>>>>>> f4de00b5db4de07fdb797f1545578c2683f6c040
S
GR
GS
[0.8 0 0 0.8 0 -0.40002] CT
0.149 GC
2 setlinecap
1 LJ
0.625 LW
N
<<<<<<< HEAD
309.443 368 M
309.443 365.79 L
=======
304.181 374 M
304.181 371.83 L
>>>>>>> f4de00b5db4de07fdb797f1545578c2683f6c040
S
GR
GS
[0.8 0 0 0.8 0 -0.40002] CT
0.149 GC
2 setlinecap
1 LJ
0.625 LW
N
<<<<<<< HEAD
346.742 368 M
346.742 365.79 L
=======
340.806 374 M
340.806 371.83 L
>>>>>>> f4de00b5db4de07fdb797f1545578c2683f6c040
S
GR
GS
[0.8 0 0 0.8 0 -0.40002] CT
0.149 GC
2 setlinecap
1 LJ
0.625 LW
N
<<<<<<< HEAD
364.079 368 M
364.079 365.79 L
=======
357.829 374 M
357.829 371.83 L
>>>>>>> f4de00b5db4de07fdb797f1545578c2683f6c040
S
GR
GS
[0.8 0 0 0.8 0 -0.40002] CT
0.149 GC
2 setlinecap
1 LJ
0.625 LW
N
<<<<<<< HEAD
380.646 368 M
380.646 365.79 L
=======
374.096 374 M
374.096 371.83 L
>>>>>>> f4de00b5db4de07fdb797f1545578c2683f6c040
S
GR
GS
[0.8 0 0 0.8 0 -0.40002] CT
0.149 GC
2 setlinecap
1 LJ
0.625 LW
N
<<<<<<< HEAD
396.507 368 M
396.507 365.79 L
=======
389.67 374 M
389.67 371.83 L
>>>>>>> f4de00b5db4de07fdb797f1545578c2683f6c040
S
GR
GS
[0.8 0 0 0.8 0 -0.40002] CT
0.149 GC
2 setlinecap
1 LJ
0.625 LW
N
<<<<<<< HEAD
426.337 368 M
426.337 365.79 L
=======
418.96 374 M
418.96 371.83 L
>>>>>>> f4de00b5db4de07fdb797f1545578c2683f6c040
S
GR
GS
[0.8 0 0 0.8 0 -0.40002] CT
0.149 GC
2 setlinecap
1 LJ
0.625 LW
N
<<<<<<< HEAD
440.403 368 M
440.403 365.79 L
=======
432.771 374 M
432.771 371.83 L
>>>>>>> f4de00b5db4de07fdb797f1545578c2683f6c040
S
GR
GS
[0.8 0 0 0.8 0 -0.40002] CT
0.149 GC
2 setlinecap
1 LJ
0.625 LW
N
<<<<<<< HEAD
453.956 368 M
453.956 365.79 L
=======
446.079 374 M
446.079 371.83 L
>>>>>>> f4de00b5db4de07fdb797f1545578c2683f6c040
S
GR
GS
[0.8 0 0 0.8 0 -0.40002] CT
0.149 GC
2 setlinecap
1 LJ
0.625 LW
N
<<<<<<< HEAD
467.034 368 M
467.034 365.79 L
=======
458.92 374 M
458.92 371.83 L
>>>>>>> f4de00b5db4de07fdb797f1545578c2683f6c040
S
GR
GS
[0.8 0 0 0.8 0 -0.40002] CT
0.149 GC
2 setlinecap
1 LJ
0.625 LW
N
<<<<<<< HEAD
491.889 368 M
491.889 365.79 L
=======
483.325 374 M
483.325 371.83 L
>>>>>>> f4de00b5db4de07fdb797f1545578c2683f6c040
S
GR
GS
[0.8 0 0 0.8 0 -0.40002] CT
0.149 GC
2 setlinecap
1 LJ
0.625 LW
N
<<<<<<< HEAD
503.721 368 M
503.721 365.79 L
=======
494.943 374 M
494.943 371.83 L
>>>>>>> f4de00b5db4de07fdb797f1545578c2683f6c040
S
GR
GS
[0.8 0 0 0.8 0 -0.40002] CT
0.149 GC
2 setlinecap
1 LJ
0.625 LW
N
<<<<<<< HEAD
515.189 368 M
515.189 365.79 L
=======
506.204 374 M
506.204 371.83 L
>>>>>>> f4de00b5db4de07fdb797f1545578c2683f6c040
S
GR
GS
[0.8 0 0 0.8 0 -0.40002] CT
0.149 GC
2 setlinecap
1 LJ
0.625 LW
N
<<<<<<< HEAD
105.756 31 M
105.756 33.21 L
=======
104.181 31 M
104.181 33.17 L
>>>>>>> f4de00b5db4de07fdb797f1545578c2683f6c040
S
GR
GS
[0.8 0 0 0.8 0 -0.40002] CT
0.149 GC
2 setlinecap
1 LJ
0.625 LW
N
<<<<<<< HEAD
138.183 31 M
138.183 33.21 L
=======
136.022 31 M
136.022 33.17 L
>>>>>>> f4de00b5db4de07fdb797f1545578c2683f6c040
S
GR
GS
[0.8 0 0 0.8 0 -0.40002] CT
0.149 GC
2 setlinecap
1 LJ
0.625 LW
N
<<<<<<< HEAD
168.014 31 M
168.014 33.21 L
=======
165.312 31 M
165.312 33.17 L
>>>>>>> f4de00b5db4de07fdb797f1545578c2683f6c040
S
GR
GS
[0.8 0 0 0.8 0 -0.40002] CT
0.149 GC
2 setlinecap
1 LJ
0.625 LW
N
<<<<<<< HEAD
195.633 31 M
195.633 33.21 L
=======
192.431 31 M
192.431 33.17 L
>>>>>>> f4de00b5db4de07fdb797f1545578c2683f6c040
S
GR
GS
[0.8 0 0 0.8 0 -0.40002] CT
0.149 GC
2 setlinecap
1 LJ
0.625 LW
N
<<<<<<< HEAD
245.397 31 M
245.397 33.21 L
=======
241.295 31 M
241.295 33.17 L
>>>>>>> f4de00b5db4de07fdb797f1545578c2683f6c040
S
GR
GS
[0.8 0 0 0.8 0 -0.40002] CT
0.149 GC
2 setlinecap
1 LJ
0.625 LW
N
<<<<<<< HEAD
267.991 31 M
267.991 33.21 L
=======
263.48 31 M
263.48 33.17 L
>>>>>>> f4de00b5db4de07fdb797f1545578c2683f6c040
S
GR
GS
[0.8 0 0 0.8 0 -0.40002] CT
0.149 GC
2 setlinecap
1 LJ
0.625 LW
N
<<<<<<< HEAD
289.293 31 M
289.293 33.21 L
=======
284.396 31 M
284.396 33.17 L
>>>>>>> f4de00b5db4de07fdb797f1545578c2683f6c040
S
GR
GS
[0.8 0 0 0.8 0 -0.40002] CT
0.149 GC
2 setlinecap
1 LJ
0.625 LW
N
<<<<<<< HEAD
309.443 31 M
309.443 33.21 L
=======
304.181 31 M
304.181 33.17 L
>>>>>>> f4de00b5db4de07fdb797f1545578c2683f6c040
S
GR
GS
[0.8 0 0 0.8 0 -0.40002] CT
0.149 GC
2 setlinecap
1 LJ
0.625 LW
N
<<<<<<< HEAD
346.742 31 M
346.742 33.21 L
=======
340.806 31 M
340.806 33.17 L
>>>>>>> f4de00b5db4de07fdb797f1545578c2683f6c040
S
GR
GS
[0.8 0 0 0.8 0 -0.40002] CT
0.149 GC
2 setlinecap
1 LJ
0.625 LW
N
<<<<<<< HEAD
364.079 31 M
364.079 33.21 L
=======
357.829 31 M
357.829 33.17 L
>>>>>>> f4de00b5db4de07fdb797f1545578c2683f6c040
S
GR
GS
[0.8 0 0 0.8 0 -0.40002] CT
0.149 GC
2 setlinecap
1 LJ
0.625 LW
N
<<<<<<< HEAD
380.646 31 M
380.646 33.21 L
=======
374.096 31 M
374.096 33.17 L
>>>>>>> f4de00b5db4de07fdb797f1545578c2683f6c040
S
GR
GS
[0.8 0 0 0.8 0 -0.40002] CT
0.149 GC
2 setlinecap
1 LJ
0.625 LW
N
<<<<<<< HEAD
396.507 31 M
396.507 33.21 L
=======
389.67 31 M
389.67 33.17 L
>>>>>>> f4de00b5db4de07fdb797f1545578c2683f6c040
S
GR
GS
[0.8 0 0 0.8 0 -0.40002] CT
0.149 GC
2 setlinecap
1 LJ
0.625 LW
N
<<<<<<< HEAD
426.337 31 M
426.337 33.21 L
=======
418.96 31 M
418.96 33.17 L
>>>>>>> f4de00b5db4de07fdb797f1545578c2683f6c040
S
GR
GS
[0.8 0 0 0.8 0 -0.40002] CT
0.149 GC
2 setlinecap
1 LJ
0.625 LW
N
<<<<<<< HEAD
440.403 31 M
440.403 33.21 L
=======
432.771 31 M
432.771 33.17 L
>>>>>>> f4de00b5db4de07fdb797f1545578c2683f6c040
S
GR
GS
[0.8 0 0 0.8 0 -0.40002] CT
0.149 GC
2 setlinecap
1 LJ
0.625 LW
N
<<<<<<< HEAD
453.956 31 M
453.956 33.21 L
=======
446.079 31 M
446.079 33.17 L
>>>>>>> f4de00b5db4de07fdb797f1545578c2683f6c040
S
GR
GS
[0.8 0 0 0.8 0 -0.40002] CT
0.149 GC
2 setlinecap
1 LJ
0.625 LW
N
<<<<<<< HEAD
467.034 31 M
467.034 33.21 L
=======
458.92 31 M
458.92 33.17 L
>>>>>>> f4de00b5db4de07fdb797f1545578c2683f6c040
S
GR
GS
[0.8 0 0 0.8 0 -0.40002] CT
0.149 GC
2 setlinecap
1 LJ
0.625 LW
N
<<<<<<< HEAD
491.889 31 M
491.889 33.21 L
=======
483.325 31 M
483.325 33.17 L
>>>>>>> f4de00b5db4de07fdb797f1545578c2683f6c040
S
GR
GS
[0.8 0 0 0.8 0 -0.40002] CT
0.149 GC
2 setlinecap
1 LJ
0.625 LW
N
<<<<<<< HEAD
503.721 31 M
503.721 33.21 L
=======
494.943 31 M
494.943 33.17 L
>>>>>>> f4de00b5db4de07fdb797f1545578c2683f6c040
S
GR
GS
[0.8 0 0 0.8 0 -0.40002] CT
0.149 GC
2 setlinecap
1 LJ
0.625 LW
N
<<<<<<< HEAD
515.189 31 M
515.189 33.21 L
S
GR
GS
[0.8 0 0 0.8 177.076 298] CT
0.149 GC
/Helvetica 12.5 F
GS
[1 0 0 1 0 0] CT
-14 12 moveto 
=======
506.204 31 M
506.204 33.17 L
S
GR
GS
[0.75 0 0 0.75 163.2586 284.50001] CT
0.149 GC
/Helvetica 13.333 F
GS
[1 0 0 1 0 0] CT
-15 13 moveto 
>>>>>>> f4de00b5db4de07fdb797f1545578c2683f6c040
1 -1 scale
(0.15) t 
GR
GR
GS
<<<<<<< HEAD
[0.8 0 0 0.8 262.84719 298] CT
=======
[0.75 0 0 0.75 242.21368 284.50001] CT
>>>>>>> f4de00b5db4de07fdb797f1545578c2683f6c040
0.149 GC
/Helvetica 12.5 F
GS
[1 0 0 1 0 0] CT
-10 12 moveto 
1 -1 scale
(0.2) t 
GR
GR
GS
<<<<<<< HEAD
[0.8 0 0 0.8 329.37646 298] CT
=======
[0.75 0 0 0.75 303.456 284.50001] CT
>>>>>>> f4de00b5db4de07fdb797f1545578c2683f6c040
0.149 GC
/Helvetica 12.5 F
GS
[1 0 0 1 0 0] CT
-14 12 moveto 
1 -1 scale
(0.25) t 
GR
GR
GS
<<<<<<< HEAD
[0.8 0 0 0.8 383.73486 298] CT
=======
[0.75 0 0 0.75 353.49463 284.50001] CT
>>>>>>> f4de00b5db4de07fdb797f1545578c2683f6c040
0.149 GC
/Helvetica 12.5 F
GS
[1 0 0 1 0 0] CT
-10 12 moveto 
1 -1 scale
(0.3) t 
GR
GR
GS
[0.8 0 0 0.8 236.00017 311] CT
0.149 GC
/Helvetica 13.75 F
GS
[1 0 0 1 0 0] CT
-44.5 13 moveto 
1 -1 scale
(meshwidth h) t 
GR
GR
GS
[0.8 0 0 0.8 0 -0.40002] CT
0.149 GC
2 setlinecap
1 LJ
0.625 LW
N
74 368 M
74 31 L
S
GR
GS
[0.8 0 0 0.8 0 -0.40002] CT
0.149 GC
2 setlinecap
1 LJ
0.625 LW
N
516 368 M
516 31 L
S
GR
GS
[0.8 0 0 0.8 0 -0.40002] CT
0.149 GC
2 setlinecap
1 LJ
0.625 LW
N
74 368 M
78.42 368 L
S
GR
GS
[0.8 0 0 0.8 0 -0.40002] CT
0.149 GC
2 setlinecap
1 LJ
0.625 LW
N
74 300.6 M
78.42 300.6 L
S
GR
GS
[0.8 0 0 0.8 0 -0.40002] CT
0.149 GC
2 setlinecap
1 LJ
0.625 LW
N
74 233.2 M
78.42 233.2 L
S
GR
GS
[0.8 0 0 0.8 0 -0.40002] CT
0.149 GC
2 setlinecap
1 LJ
0.625 LW
N
74 165.8 M
78.42 165.8 L
S
GR
GS
[0.8 0 0 0.8 0 -0.40002] CT
0.149 GC
2 setlinecap
1 LJ
0.625 LW
N
74 98.4 M
78.42 98.4 L
S
GR
GS
[0.8 0 0 0.8 0 -0.40002] CT
0.149 GC
2 setlinecap
1 LJ
0.625 LW
N
74 31 M
78.42 31 L
S
GR
GS
[0.8 0 0 0.8 0 -0.40002] CT
0.149 GC
2 setlinecap
1 LJ
0.625 LW
N
516 368 M
511.58 368 L
S
GR
GS
[0.8 0 0 0.8 0 -0.40002] CT
0.149 GC
2 setlinecap
1 LJ
0.625 LW
N
516 300.6 M
511.58 300.6 L
S
GR
GS
[0.8 0 0 0.8 0 -0.40002] CT
0.149 GC
2 setlinecap
1 LJ
0.625 LW
N
516 233.2 M
511.58 233.2 L
S
GR
GS
[0.8 0 0 0.8 0 -0.40002] CT
0.149 GC
2 setlinecap
1 LJ
0.625 LW
N
516 165.8 M
511.58 165.8 L
S
GR
GS
[0.8 0 0 0.8 0 -0.40002] CT
0.149 GC
2 setlinecap
1 LJ
0.625 LW
N
516 98.4 M
511.58 98.4 L
S
GR
GS
[0.8 0 0 0.8 0 -0.40002] CT
0.149 GC
2 setlinecap
1 LJ
0.625 LW
N
516 31 M
511.58 31 L
S
GR
GS
[0.8 0 0 0.8 0 -0.40002] CT
0.149 GC
2 setlinecap
1 LJ
0.625 LW
N
74 368 M
76.21 368 L
S
GR
GS
[0.8 0 0 0.8 0 -0.40002] CT
0.149 GC
2 setlinecap
1 LJ
0.625 LW
N
74 347.711 M
76.21 347.711 L
S
GR
GS
[0.8 0 0 0.8 0 -0.40002] CT
0.149 GC
2 setlinecap
1 LJ
0.625 LW
N
74 335.842 M
76.21 335.842 L
S
GR
GS
[0.8 0 0 0.8 0 -0.40002] CT
0.149 GC
2 setlinecap
1 LJ
0.625 LW
N
74 327.421 M
76.21 327.421 L
S
GR
GS
[0.8 0 0 0.8 0 -0.40002] CT
0.149 GC
2 setlinecap
1 LJ
0.625 LW
N
74 320.889 M
76.21 320.889 L
S
GR
GS
[0.8 0 0 0.8 0 -0.40002] CT
0.149 GC
2 setlinecap
1 LJ
0.625 LW
N
74 315.553 M
76.21 315.553 L
S
GR
GS
[0.8 0 0 0.8 0 -0.40002] CT
0.149 GC
2 setlinecap
1 LJ
0.625 LW
N
74 311.04 M
76.21 311.04 L
S
GR
GS
[0.8 0 0 0.8 0 -0.40002] CT
0.149 GC
2 setlinecap
1 LJ
0.625 LW
N
74 307.132 M
76.21 307.132 L
S
GR
GS
[0.8 0 0 0.8 0 -0.40002] CT
0.149 GC
2 setlinecap
1 LJ
0.625 LW
N
74 303.684 M
76.21 303.684 L
S
GR
GS
[0.8 0 0 0.8 0 -0.40002] CT
0.149 GC
2 setlinecap
1 LJ
0.625 LW
N
74 300.6 M
76.21 300.6 L
S
GR
GS
[0.8 0 0 0.8 0 -0.40002] CT
0.149 GC
2 setlinecap
1 LJ
0.625 LW
N
74 300.6 M
76.21 300.6 L
S
GR
GS
[0.8 0 0 0.8 0 -0.40002] CT
0.149 GC
2 setlinecap
1 LJ
0.625 LW
N
74 280.311 M
76.21 280.311 L
S
GR
GS
[0.8 0 0 0.8 0 -0.40002] CT
0.149 GC
2 setlinecap
1 LJ
0.625 LW
N
74 268.442 M
76.21 268.442 L
S
GR
GS
[0.8 0 0 0.8 0 -0.40002] CT
0.149 GC
2 setlinecap
1 LJ
0.625 LW
N
74 260.021 M
76.21 260.021 L
S
GR
GS
[0.8 0 0 0.8 0 -0.40002] CT
0.149 GC
2 setlinecap
1 LJ
0.625 LW
N
74 253.489 M
76.21 253.489 L
S
GR
GS
[0.8 0 0 0.8 0 -0.40002] CT
0.149 GC
2 setlinecap
1 LJ
0.625 LW
N
74 248.153 M
76.21 248.153 L
S
GR
GS
[0.8 0 0 0.8 0 -0.40002] CT
0.149 GC
2 setlinecap
1 LJ
0.625 LW
N
74 243.64 M
76.21 243.64 L
S
GR
GS
[0.8 0 0 0.8 0 -0.40002] CT
0.149 GC
2 setlinecap
1 LJ
0.625 LW
N
74 239.732 M
76.21 239.732 L
S
GR
GS
[0.8 0 0 0.8 0 -0.40002] CT
0.149 GC
2 setlinecap
1 LJ
0.625 LW
N
74 236.284 M
76.21 236.284 L
S
GR
GS
[0.8 0 0 0.8 0 -0.40002] CT
0.149 GC
2 setlinecap
1 LJ
0.625 LW
N
74 233.2 M
76.21 233.2 L
S
GR
GS
[0.8 0 0 0.8 0 -0.40002] CT
0.149 GC
2 setlinecap
1 LJ
0.625 LW
N
74 212.911 M
76.21 212.911 L
S
GR
GS
[0.8 0 0 0.8 0 -0.40002] CT
0.149 GC
2 setlinecap
1 LJ
0.625 LW
N
74 201.042 M
76.21 201.042 L
S
GR
GS
[0.8 0 0 0.8 0 -0.40002] CT
0.149 GC
2 setlinecap
1 LJ
0.625 LW
N
74 192.621 M
76.21 192.621 L
S
GR
GS
[0.8 0 0 0.8 0 -0.40002] CT
0.149 GC
2 setlinecap
1 LJ
0.625 LW
N
74 186.089 M
76.21 186.089 L
S
GR
GS
[0.8 0 0 0.8 0 -0.40002] CT
0.149 GC
2 setlinecap
1 LJ
0.625 LW
N
74 180.753 M
76.21 180.753 L
S
GR
GS
[0.8 0 0 0.8 0 -0.40002] CT
0.149 GC
2 setlinecap
1 LJ
0.625 LW
N
74 176.24 M
76.21 176.24 L
S
GR
GS
[0.8 0 0 0.8 0 -0.40002] CT
0.149 GC
2 setlinecap
1 LJ
0.625 LW
N
74 172.332 M
76.21 172.332 L
S
GR
GS
[0.8 0 0 0.8 0 -0.40002] CT
0.149 GC
2 setlinecap
1 LJ
0.625 LW
N
74 168.884 M
76.21 168.884 L
S
GR
GS
[0.8 0 0 0.8 0 -0.40002] CT
0.149 GC
2 setlinecap
1 LJ
0.625 LW
N
74 165.8 M
76.21 165.8 L
S
GR
GS
[0.8 0 0 0.8 0 -0.40002] CT
0.149 GC
2 setlinecap
1 LJ
0.625 LW
N
74 145.511 M
76.21 145.511 L
S
GR
GS
[0.8 0 0 0.8 0 -0.40002] CT
0.149 GC
2 setlinecap
1 LJ
0.625 LW
N
74 133.642 M
76.21 133.642 L
S
GR
GS
[0.8 0 0 0.8 0 -0.40002] CT
0.149 GC
2 setlinecap
1 LJ
0.625 LW
N
74 125.221 M
76.21 125.221 L
S
GR
GS
[0.8 0 0 0.8 0 -0.40002] CT
0.149 GC
2 setlinecap
1 LJ
0.625 LW
N
74 118.689 M
76.21 118.689 L
S
GR
GS
[0.8 0 0 0.8 0 -0.40002] CT
0.149 GC
2 setlinecap
1 LJ
0.625 LW
N
74 113.353 M
76.21 113.353 L
S
GR
GS
[0.8 0 0 0.8 0 -0.40002] CT
0.149 GC
2 setlinecap
1 LJ
0.625 LW
N
74 108.84 M
76.21 108.84 L
S
GR
GS
[0.8 0 0 0.8 0 -0.40002] CT
0.149 GC
2 setlinecap
1 LJ
0.625 LW
N
74 104.932 M
76.21 104.932 L
S
GR
GS
[0.8 0 0 0.8 0 -0.40002] CT
0.149 GC
2 setlinecap
1 LJ
0.625 LW
N
74 101.484 M
76.21 101.484 L
S
GR
GS
[0.8 0 0 0.8 0 -0.40002] CT
0.149 GC
2 setlinecap
1 LJ
0.625 LW
N
74 98.4 M
76.21 98.4 L
S
GR
GS
[0.8 0 0 0.8 0 -0.40002] CT
0.149 GC
2 setlinecap
1 LJ
0.625 LW
N
74 78.111 M
76.21 78.111 L
S
GR
GS
[0.8 0 0 0.8 0 -0.40002] CT
0.149 GC
2 setlinecap
1 LJ
0.625 LW
N
74 66.242 M
76.21 66.242 L
S
GR
GS
[0.8 0 0 0.8 0 -0.40002] CT
0.149 GC
2 setlinecap
1 LJ
0.625 LW
N
74 57.821 M
76.21 57.821 L
S
GR
GS
[0.8 0 0 0.8 0 -0.40002] CT
0.149 GC
2 setlinecap
1 LJ
0.625 LW
N
74 51.289 M
76.21 51.289 L
S
GR
GS
[0.8 0 0 0.8 0 -0.40002] CT
0.149 GC
2 setlinecap
1 LJ
0.625 LW
N
74 45.953 M
76.21 45.953 L
S
GR
GS
[0.8 0 0 0.8 0 -0.40002] CT
0.149 GC
2 setlinecap
1 LJ
0.625 LW
N
74 41.44 M
76.21 41.44 L
S
GR
GS
[0.8 0 0 0.8 0 -0.40002] CT
0.149 GC
2 setlinecap
1 LJ
0.625 LW
N
74 37.532 M
76.21 37.532 L
S
GR
GS
[0.8 0 0 0.8 0 -0.40002] CT
0.149 GC
2 setlinecap
1 LJ
0.625 LW
N
74 34.084 M
76.21 34.084 L
S
GR
GS
[0.8 0 0 0.8 0 -0.40002] CT
0.149 GC
2 setlinecap
1 LJ
0.625 LW
N
74 31 M
76.21 31 L
S
GR
GS
[0.8 0 0 0.8 0 -0.40002] CT
0.149 GC
2 setlinecap
1 LJ
0.625 LW
N
516 368 M
513.79 368 L
S
GR
GS
[0.8 0 0 0.8 0 -0.40002] CT
0.149 GC
2 setlinecap
1 LJ
0.625 LW
N
516 347.711 M
513.79 347.711 L
S
GR
GS
[0.8 0 0 0.8 0 -0.40002] CT
0.149 GC
2 setlinecap
1 LJ
0.625 LW
N
516 335.842 M
513.79 335.842 L
S
GR
GS
[0.8 0 0 0.8 0 -0.40002] CT
0.149 GC
2 setlinecap
1 LJ
0.625 LW
N
516 327.421 M
513.79 327.421 L
S
GR
GS
[0.8 0 0 0.8 0 -0.40002] CT
0.149 GC
2 setlinecap
1 LJ
0.625 LW
N
516 320.889 M
513.79 320.889 L
S
GR
GS
[0.8 0 0 0.8 0 -0.40002] CT
0.149 GC
2 setlinecap
1 LJ
0.625 LW
N
516 315.553 M
513.79 315.553 L
S
GR
GS
[0.8 0 0 0.8 0 -0.40002] CT
0.149 GC
2 setlinecap
1 LJ
0.625 LW
N
516 311.04 M
513.79 311.04 L
S
GR
GS
[0.8 0 0 0.8 0 -0.40002] CT
0.149 GC
2 setlinecap
1 LJ
0.625 LW
N
516 307.132 M
513.79 307.132 L
S
GR
GS
[0.8 0 0 0.8 0 -0.40002] CT
0.149 GC
2 setlinecap
1 LJ
0.625 LW
N
516 303.684 M
513.79 303.684 L
S
GR
GS
[0.8 0 0 0.8 0 -0.40002] CT
0.149 GC
2 setlinecap
1 LJ
0.625 LW
N
516 300.6 M
513.79 300.6 L
S
GR
GS
[0.8 0 0 0.8 0 -0.40002] CT
0.149 GC
2 setlinecap
1 LJ
0.625 LW
N
516 300.6 M
513.79 300.6 L
S
GR
GS
[0.8 0 0 0.8 0 -0.40002] CT
0.149 GC
2 setlinecap
1 LJ
0.625 LW
N
516 280.311 M
513.79 280.311 L
S
GR
GS
[0.8 0 0 0.8 0 -0.40002] CT
0.149 GC
2 setlinecap
1 LJ
0.625 LW
N
516 268.442 M
513.79 268.442 L
S
GR
GS
[0.8 0 0 0.8 0 -0.40002] CT
0.149 GC
2 setlinecap
1 LJ
0.625 LW
N
516 260.021 M
513.79 260.021 L
S
GR
GS
[0.8 0 0 0.8 0 -0.40002] CT
0.149 GC
2 setlinecap
1 LJ
0.625 LW
N
516 253.489 M
513.79 253.489 L
S
GR
GS
[0.8 0 0 0.8 0 -0.40002] CT
0.149 GC
2 setlinecap
1 LJ
0.625 LW
N
516 248.153 M
513.79 248.153 L
S
GR
GS
[0.8 0 0 0.8 0 -0.40002] CT
0.149 GC
2 setlinecap
1 LJ
0.625 LW
N
516 243.64 M
513.79 243.64 L
S
GR
GS
[0.8 0 0 0.8 0 -0.40002] CT
0.149 GC
2 setlinecap
1 LJ
0.625 LW
N
516 239.732 M
513.79 239.732 L
S
GR
GS
[0.8 0 0 0.8 0 -0.40002] CT
0.149 GC
2 setlinecap
1 LJ
0.625 LW
N
516 236.284 M
513.79 236.284 L
S
GR
GS
[0.8 0 0 0.8 0 -0.40002] CT
0.149 GC
2 setlinecap
1 LJ
0.625 LW
N
516 233.2 M
513.79 233.2 L
S
GR
GS
[0.8 0 0 0.8 0 -0.40002] CT
0.149 GC
2 setlinecap
1 LJ
0.625 LW
N
516 212.911 M
513.79 212.911 L
S
GR
GS
[0.8 0 0 0.8 0 -0.40002] CT
0.149 GC
2 setlinecap
1 LJ
0.625 LW
N
516 201.042 M
513.79 201.042 L
S
GR
GS
[0.8 0 0 0.8 0 -0.40002] CT
0.149 GC
2 setlinecap
1 LJ
0.625 LW
N
516 192.621 M
513.79 192.621 L
S
GR
GS
[0.8 0 0 0.8 0 -0.40002] CT
0.149 GC
2 setlinecap
1 LJ
0.625 LW
N
516 186.089 M
513.79 186.089 L
S
GR
GS
[0.8 0 0 0.8 0 -0.40002] CT
0.149 GC
2 setlinecap
1 LJ
0.625 LW
N
516 180.753 M
513.79 180.753 L
S
GR
GS
[0.8 0 0 0.8 0 -0.40002] CT
0.149 GC
2 setlinecap
1 LJ
0.625 LW
N
516 176.24 M
513.79 176.24 L
S
GR
GS
[0.8 0 0 0.8 0 -0.40002] CT
0.149 GC
2 setlinecap
1 LJ
0.625 LW
N
516 172.332 M
513.79 172.332 L
S
GR
GS
[0.8 0 0 0.8 0 -0.40002] CT
0.149 GC
2 setlinecap
1 LJ
0.625 LW
N
516 168.884 M
513.79 168.884 L
S
GR
GS
[0.8 0 0 0.8 0 -0.40002] CT
0.149 GC
2 setlinecap
1 LJ
0.625 LW
N
516 165.8 M
513.79 165.8 L
S
GR
GS
[0.8 0 0 0.8 0 -0.40002] CT
0.149 GC
2 setlinecap
1 LJ
0.625 LW
N
516 145.511 M
513.79 145.511 L
S
GR
GS
[0.8 0 0 0.8 0 -0.40002] CT
0.149 GC
2 setlinecap
1 LJ
0.625 LW
N
516 133.642 M
513.79 133.642 L
S
GR
GS
[0.8 0 0 0.8 0 -0.40002] CT
0.149 GC
2 setlinecap
1 LJ
0.625 LW
N
516 125.221 M
513.79 125.221 L
S
GR
GS
[0.8 0 0 0.8 0 -0.40002] CT
0.149 GC
2 setlinecap
1 LJ
0.625 LW
N
516 118.689 M
513.79 118.689 L
S
GR
GS
[0.8 0 0 0.8 0 -0.40002] CT
0.149 GC
2 setlinecap
1 LJ
0.625 LW
N
516 113.353 M
513.79 113.353 L
S
GR
GS
[0.8 0 0 0.8 0 -0.40002] CT
0.149 GC
2 setlinecap
1 LJ
0.625 LW
N
516 108.84 M
513.79 108.84 L
S
GR
GS
[0.8 0 0 0.8 0 -0.40002] CT
0.149 GC
2 setlinecap
1 LJ
0.625 LW
N
516 104.932 M
513.79 104.932 L
S
GR
GS
[0.8 0 0 0.8 0 -0.40002] CT
0.149 GC
2 setlinecap
1 LJ
0.625 LW
N
516 101.484 M
513.79 101.484 L
S
GR
GS
[0.8 0 0 0.8 0 -0.40002] CT
0.149 GC
2 setlinecap
1 LJ
0.625 LW
N
516 98.4 M
513.79 98.4 L
S
GR
GS
[0.8 0 0 0.8 0 -0.40002] CT
0.149 GC
2 setlinecap
1 LJ
0.625 LW
N
516 78.111 M
513.79 78.111 L
S
GR
GS
[0.8 0 0 0.8 0 -0.40002] CT
0.149 GC
2 setlinecap
1 LJ
0.625 LW
N
516 66.242 M
513.79 66.242 L
S
GR
GS
[0.8 0 0 0.8 0 -0.40002] CT
0.149 GC
2 setlinecap
1 LJ
0.625 LW
N
516 57.821 M
513.79 57.821 L
S
GR
GS
[0.8 0 0 0.8 0 -0.40002] CT
0.149 GC
2 setlinecap
1 LJ
0.625 LW
N
516 51.289 M
513.79 51.289 L
S
GR
GS
[0.8 0 0 0.8 0 -0.40002] CT
0.149 GC
2 setlinecap
1 LJ
0.625 LW
N
516 45.953 M
513.79 45.953 L
S
GR
GS
[0.8 0 0 0.8 0 -0.40002] CT
0.149 GC
2 setlinecap
1 LJ
0.625 LW
N
516 41.44 M
513.79 41.44 L
S
GR
GS
[0.8 0 0 0.8 0 -0.40002] CT
0.149 GC
2 setlinecap
1 LJ
0.625 LW
N
516 37.532 M
513.79 37.532 L
S
GR
GS
[0.8 0 0 0.8 0 -0.40002] CT
0.149 GC
2 setlinecap
1 LJ
0.625 LW
N
516 34.084 M
513.79 34.084 L
S
GR
GS
[0.8 0 0 0.8 0 -0.40002] CT
0.149 GC
2 setlinecap
1 LJ
0.625 LW
N
516 31 M
513.79 31 L
S
GR
GS
[0.8 0 0 0.8 34.4 299.6] CT
0.149 GC
/Helvetica 12.5 F
GS
[1 0 0 1 0 0] CT
0 0 moveto 
1 -1 scale
(10) t 
GR
GR
GS
[0.8 0 0 0.8 47.2 294.8] CT
0.149 GC
/Helvetica 10 F
GS
[1 0 0 1 0 0] CT
0 0 moveto 
1 -1 scale
(-5) t 
GR
GR
GS
[0.8 0 0 0.8 34.4 245.99999] CT
0.149 GC
/Helvetica 12.5 F
GS
[1 0 0 1 0 0] CT
0 0 moveto 
1 -1 scale
(10) t 
GR
GR
GS
[0.8 0 0 0.8 47.2 241.19999] CT
0.149 GC
/Helvetica 10 F
GS
[1 0 0 1 0 0] CT
0 0 moveto 
1 -1 scale
(-4) t 
GR
GR
GS
[0.8 0 0 0.8 34.4 191.59999] CT
0.149 GC
/Helvetica 12.5 F
GS
[1 0 0 1 0 0] CT
0 0 moveto 
1 -1 scale
(10) t 
GR
GR
GS
[0.8 0 0 0.8 47.2 186.79999] CT
0.149 GC
/Helvetica 10 F
GS
[1 0 0 1 0 0] CT
0 0 moveto 
1 -1 scale
(-3) t 
GR
GR
GS
[0.8 0 0 0.8 34.4 137.99999] CT
0.149 GC
/Helvetica 12.5 F
GS
[1 0 0 1 0 0] CT
0 0 moveto 
1 -1 scale
(10) t 
GR
GR
GS
[0.8 0 0 0.8 47.2 133.19999] CT
0.149 GC
/Helvetica 10 F
GS
[1 0 0 1 0 0] CT
0 0 moveto 
1 -1 scale
(-2) t 
GR
GR
GS
[0.8 0 0 0.8 34.4 83.59998] CT
0.149 GC
/Helvetica 12.5 F
GS
[1 0 0 1 0 0] CT
0 0 moveto 
1 -1 scale
(10) t 
GR
GR
GS
[0.8 0 0 0.8 47.2 78.79998] CT
0.149 GC
/Helvetica 10 F
GS
[1 0 0 1 0 0] CT
0 0 moveto 
1 -1 scale
(-1) t 
GR
GR
GS
[0.8 0 0 0.8 36.8 29.99998] CT
0.149 GC
/Helvetica 12.5 F
GS
[1 0 0 1 0 0] CT
0 0 moveto 
1 -1 scale
(10) t 
GR
GR
GS
[0.8 0 0 0.8 49.6 25.19998] CT
0.149 GC
/Helvetica 10 F
GS
[1 0 0 1 0 0] CT
0 0 moveto 
1 -1 scale
(0) t 
GR
GR
GS
[0 -0.8 0.8 0 31.4 159.19985] CT
0.149 GC
/Helvetica 13.75 F
GS
[1 0 0 1 0 0] CT
-68.5 -4 moveto 
1 -1 scale
(Error in total torque) t 
GR
GR
GS
[0.8 0 0 0.8 0 -0.40002] CT
0 0.447 0.741 RC
1 LJ
2.5 LW
N
<<<<<<< HEAD
516 178.719 M
408.422 201.063 L
372.821 223.387 L
269.703 245.585 L
140.541 270.495 L
74 303.998 L
S
GR
GS
[0.8 0 0 0.8 412.8 142.57489] CT
=======
507 181.349 M
401.37 204.091 L
366.412 226.812 L
265.16 249.405 L
138.336 274.759 L
73 308.858 L
S
GR
GS
[0.75 0 0 0.75 380.25 136.01147] CT
>>>>>>> f4de00b5db4de07fdb797f1545578c2683f6c040
0 0.447 0.741 RC
10.0 ML
2.5 LW
N
0 -7 M
0 7 L
-7 0 M
7 0 L
S
GR
GS
<<<<<<< HEAD
[0.8 0 0 0.8 326.73794 160.45041] CT
=======
[0.75 0 0 0.75 301.02715 153.06815] CT
>>>>>>> f4de00b5db4de07fdb797f1545578c2683f6c040
0 0.447 0.741 RC
10.0 ML
2.5 LW
N
0 -7 M
0 7 L
-7 0 M
7 0 L
S
GR
GS
<<<<<<< HEAD
[0.8 0 0 0.8 298.25681 178.30962] CT
=======
[0.75 0 0 0.75 274.80936 170.10925] CT
>>>>>>> f4de00b5db4de07fdb797f1545578c2683f6c040
0 0.447 0.741 RC
10.0 ML
2.5 LW
N
0 -7 M
0 7 L
-7 0 M
7 0 L
S
GR
GS
<<<<<<< HEAD
[0.8 0 0 0.8 215.76208 196.06797] CT
=======
[0.75 0 0 0.75 198.87035 187.0541] CT
>>>>>>> f4de00b5db4de07fdb797f1545578c2683f6c040
0 0.447 0.741 RC
10.0 ML
2.5 LW
N
0 -7 M
0 7 L
-7 0 M
7 0 L
S
GR
GS
<<<<<<< HEAD
[0.8 0 0 0.8 112.43265 215.99565] CT
=======
[0.75 0 0 0.75 103.75234 206.06891] CT
>>>>>>> f4de00b5db4de07fdb797f1545578c2683f6c040
0 0.447 0.741 RC
10.0 ML
2.5 LW
N
0 -7 M
0 7 L
-7 0 M
7 0 L
S
GR
GS
<<<<<<< HEAD
[0.8 0 0 0.8 59.2 242.79831] CT
0 0.447 0.741 RC
10.0 ML
2.5 LW
=======
[0.75 0 0 0.75 54.75 231.6438] CT
0 0.447 0.741 RC
10.0 ML
2.667 LW
>>>>>>> f4de00b5db4de07fdb797f1545578c2683f6c040
N
0 -7 M
0 7 L
-7 0 M
7 0 L
S
GR
GS
<<<<<<< HEAD
[0.8 0 0 0.8 0 -0.40002] CT
=======
[0.75 0 0 0.75 0 0] CT
>>>>>>> f4de00b5db4de07fdb797f1545578c2683f6c040
0.851 0.325 0.098 RC
1 LJ
2.5 LW
N
<<<<<<< HEAD
516 37.279 M
408.422 51.136 L
372.821 54.905 L
269.703 68.432 L
140.541 83.613 L
74 91.221 L
S
GR
GS
[0.8 0 0 0.8 412.8 29.42294] CT
=======
507 37.39 M
401.37 51.494 L
366.412 55.33 L
265.16 69.098 L
138.336 84.55 L
73 92.293 L
S
GR
GS
[0.75 0 0 0.75 380.25 28.04287] CT
>>>>>>> f4de00b5db4de07fdb797f1545578c2683f6c040
0.851 0.325 0.098 RC
10.0 ML
2.5 LW
N
0 -8.331 M
-7.215 4.166 L
7.215 4.166 L
cp
S
GR
GS
<<<<<<< HEAD
[0.8 0 0 0.8 326.73794 40.50854] CT
=======
[0.75 0 0 0.75 301.02715 38.62065] CT
>>>>>>> f4de00b5db4de07fdb797f1545578c2683f6c040
0.851 0.325 0.098 RC
10.0 ML
2.5 LW
N
0 -8.331 M
-7.215 4.166 L
7.215 4.166 L
cp
S
GR
GS
<<<<<<< HEAD
[0.8 0 0 0.8 298.25681 43.52361] CT
=======
[0.75 0 0 0.75 274.80936 41.4976] CT
>>>>>>> f4de00b5db4de07fdb797f1545578c2683f6c040
0.851 0.325 0.098 RC
10.0 ML
2.5 LW
N
0 -8.331 M
-7.215 4.166 L
7.215 4.166 L
cp
S
GR
GS
<<<<<<< HEAD
[0.8 0 0 0.8 215.76208 54.34549] CT
=======
[0.75 0 0 0.75 198.87035 51.82375] CT
>>>>>>> f4de00b5db4de07fdb797f1545578c2683f6c040
0.851 0.325 0.098 RC
10.0 ML
2.5 LW
N
0 -8.331 M
-7.215 4.166 L
7.215 4.166 L
cp
S
GR
GS
<<<<<<< HEAD
[0.8 0 0 0.8 112.43265 66.49042] CT
=======
[0.75 0 0 0.75 103.75234 63.41233] CT
>>>>>>> f4de00b5db4de07fdb797f1545578c2683f6c040
0.851 0.325 0.098 RC
10.0 ML
2.5 LW
N
0 -8.331 M
-7.215 4.166 L
7.215 4.166 L
cp
S
GR
GS
<<<<<<< HEAD
[0.8 0 0 0.8 59.2 72.57674] CT
0.851 0.325 0.098 RC
10.0 ML
2.5 LW
N
0 -8.331 M
-7.215 4.166 L
7.215 4.166 L
=======
[0.75 0 0 0.75 54.75 69.21985] CT
0.851 0.325 0.098 RC
10.0 ML
2.667 LW
N
0 -8.887 M
-7.696 4.443 L
7.696 4.443 L
>>>>>>> f4de00b5db4de07fdb797f1545578c2683f6c040
cp
S
GR
GS
<<<<<<< HEAD
[0.8 0 0 0.8 0 -0.40002] CT
=======
[0.75 0 0 0.75 0 0] CT
>>>>>>> f4de00b5db4de07fdb797f1545578c2683f6c040
[10 6] 0 setdash
2 LJ
0.625 LW
N
<<<<<<< HEAD
516 177.862 M
408.422 207.002 L
372.821 216.646 L
269.703 244.579 L
140.541 279.566 L
74 297.591 L
=======
507 180.477 M
401.37 210.136 L
366.412 219.951 L
265.16 248.381 L
138.336 283.992 L
73 302.337 L
>>>>>>> f4de00b5db4de07fdb797f1545578c2683f6c040
S
GR
GS
[0.8 0 0 0.8 0 -0.40002] CT
[10 6] 0 setdash
2 LJ
0.625 LW
N
<<<<<<< HEAD
516 37.667 M
408.422 50.809 L
372.821 55.158 L
269.703 67.755 L
140.541 83.534 L
74 91.663 L
=======
507 37.785 M
401.37 51.161 L
366.412 55.588 L
265.16 68.41 L
138.336 84.469 L
73 92.743 L
>>>>>>> f4de00b5db4de07fdb797f1545578c2683f6c040
S
GR
GS
[0.8 0 0 0.8 0 -0.40002] CT
1 GC
N
506 358 M
506 325 L
433 325 L
433 358 L
cp
f
GR
GS
[0.8 0 0 0.8 381.75781 266.91076] CT
/Helvetica 11.25 F
GS
[1 0 0 1 0 0] CT
0 4 moveto 
1 -1 scale
(BEM) t 
GR
GR
GS
[0.8 0 0 0.8 0 -0.40002] CT
0 0.447 0.741 RC
1 LJ
2.5 LW
N
436.973 334.138 M
474.218 334.138 L
S
GR
GS
[0.8 0 0 0.8 364.4762 266.91076] CT
0 0.447 0.741 RC
10.0 ML
2.5 LW
N
0 -6 M
0 6 L
-6 0 M
6 0 L
S
GR
GS
[0.8 0 0 0.8 381.75781 278.68923] CT
/Helvetica 11.25 F
GS
[1 0 0 1 0 0] CT
0 4 moveto 
1 -1 scale
(MST) t 
GR
GR
GS
[0.8 0 0 0.8 0 -0.40002] CT
0.851 0.325 0.098 RC
1 LJ
2.5 LW
N
436.973 348.862 M
474.218 348.862 L
S
GR
GS
[0.8 0 0 0.8 364.4762 278.68923] CT
0.851 0.325 0.098 RC
10.0 ML
2.5 LW
N
0 -7.498 M
-6.493 3.749 L
6.493 3.749 L
cp
S
GR
GS
[0.8 0 0 0.8 0 -0.40002] CT
0.149 GC
10.0 ML
0.625 LW
N
433 358 M
433 325 L
506 325 L
506 358 L
cp
S
GR
%%Trailer
%%Pages: 1
%%EOF
