%!PS-Adobe-3.0 EPSF-3.0
%%Creator: (MATLAB, The Mathworks, Inc. Version 9.13.0.2105380 \(R2022b\) Update 2. Operating System: Linux)
%%Title: ./PMCFSP_forcesNtorques_getMeshSphere_torques.eps
<<<<<<< HEAD
%%CreationDate: 2024-01-22T01:20:03
=======
%%CreationDate: 2024-01-22T00:32:24
>>>>>>> f4de00b5db4de07fdb797f1545578c2683f6c040
%%Pages: (atend)
%%BoundingBox:    19     8   420   311
%%LanguageLevel: 3
%%EndComments
%%BeginProlog
%%BeginResource: procset (Apache XML Graphics Std ProcSet) 1.2 0
%%Version: 1.2 0
%%Copyright: (Copyright 2001-2003,2010 The Apache Software Foundation. License terms: http://www.apache.org/licenses/LICENSE-2.0)
/bd{bind def}bind def
/ld{load def}bd
/GR/grestore ld
/GS/gsave ld
/RM/rmoveto ld
/C/curveto ld
/t/show ld
/L/lineto ld
/ML/setmiterlimit ld
/CT/concat ld
/f/fill ld
/N/newpath ld
/S/stroke ld
/CC/setcmykcolor ld
/A/ashow ld
/cp/closepath ld
/RC/setrgbcolor ld
/LJ/setlinejoin ld
/GC/setgray ld
/LW/setlinewidth ld
/M/moveto ld
/re {4 2 roll M
1 index 0 rlineto
0 exch rlineto
neg 0 rlineto
cp } bd
/_ctm matrix def
/_tm matrix def
/BT { _ctm currentmatrix pop matrix _tm copy pop 0 0 moveto } bd
/ET { _ctm setmatrix } bd
/iTm { _ctm setmatrix _tm concat } bd
/Tm { _tm astore pop iTm 0 0 moveto } bd
/ux 0.0 def
/uy 0.0 def
/F {
  /Tp exch def
  /Tf exch def
  Tf findfont Tp scalefont setfont
  /cf Tf def  /cs Tp def
} bd
/ULS {currentpoint /uy exch def /ux exch def} bd
/ULE {
  /Tcx currentpoint pop def
  gsave
  newpath
  cf findfont cs scalefont dup
  /FontMatrix get 0 get /Ts exch def /FontInfo get dup
  /UnderlinePosition get Ts mul /To exch def
  /UnderlineThickness get Ts mul /Tt exch def
  ux uy To add moveto  Tcx uy To add lineto
  Tt setlinewidth stroke
  grestore
} bd
/OLE {
  /Tcx currentpoint pop def
  gsave
  newpath
  cf findfont cs scalefont dup
  /FontMatrix get 0 get /Ts exch def /FontInfo get dup
  /UnderlinePosition get Ts mul /To exch def
  /UnderlineThickness get Ts mul /Tt exch def
  ux uy To add cs add moveto Tcx uy To add cs add lineto
  Tt setlinewidth stroke
  grestore
} bd
/SOE {
  /Tcx currentpoint pop def
  gsave
  newpath
  cf findfont cs scalefont dup
  /FontMatrix get 0 get /Ts exch def /FontInfo get dup
  /UnderlinePosition get Ts mul /To exch def
  /UnderlineThickness get Ts mul /Tt exch def
  ux uy To add cs 10 mul 26 idiv add moveto Tcx uy To add cs 10 mul 26 idiv add lineto
  Tt setlinewidth stroke
  grestore
} bd
/QT {
/Y22 exch store
/X22 exch store
/Y21 exch store
/X21 exch store
currentpoint
/Y21 load 2 mul add 3 div exch
/X21 load 2 mul add 3 div exch
/X21 load 2 mul /X22 load add 3 div
/Y21 load 2 mul /Y22 load add 3 div
/X22 load /Y22 load curveto
} bd
/SSPD {
dup length /d exch dict def
{
/v exch def
/k exch def
currentpagedevice k known {
/cpdv currentpagedevice k get def
v cpdv ne {
/upd false def
/nullv v type /nulltype eq def
/nullcpdv cpdv type /nulltype eq def
nullv nullcpdv or
{
/upd true def
} {
/sametype v type cpdv type eq def
sametype {
v type /arraytype eq {
/vlen v length def
/cpdvlen cpdv length def
vlen cpdvlen eq {
0 1 vlen 1 sub {
/i exch def
/obj v i get def
/cpdobj cpdv i get def
obj cpdobj ne {
/upd true def
exit
} if
} for
} {
/upd true def
} ifelse
} {
v type /dicttype eq {
v {
/dv exch def
/dk exch def
/cpddv cpdv dk get def
dv cpddv ne {
/upd true def
exit
} if
} forall
} {
/upd true def
} ifelse
} ifelse
} if
} ifelse
upd true eq {
d k v put
} if
} if
} if
} forall
d length 0 gt {
d setpagedevice
} if
} bd
/RE { % /NewFontName [NewEncodingArray] /FontName RE -
  findfont dup length dict begin
  {
    1 index /FID ne
    {def} {pop pop} ifelse
  } forall
  /Encoding exch def
  /FontName 1 index def
  currentdict definefont pop
  end
} bind def
%%EndResource
%%BeginResource: procset (Apache XML Graphics EPS ProcSet) 1.0 0
%%Version: 1.0 0
%%Copyright: (Copyright 2002-2003 The Apache Software Foundation. License terms: http://www.apache.org/licenses/LICENSE-2.0)
/BeginEPSF { %def
/b4_Inc_state save def         % Save state for cleanup
/dict_count countdictstack def % Count objects on dict stack
/op_count count 1 sub def      % Count objects on operand stack
userdict begin                 % Push userdict on dict stack
/showpage { } def              % Redefine showpage, { } = null proc
0 setgray 0 setlinecap         % Prepare graphics state
1 setlinewidth 0 setlinejoin
10 setmiterlimit [ ] 0 setdash newpath
/languagelevel where           % If level not equal to 1 then
{pop languagelevel             % set strokeadjust and
1 ne                           % overprint to their defaults.
{false setstrokeadjust false setoverprint
} if
} if
} bd
/EndEPSF { %def
count op_count sub {pop} repeat            % Clean up stacks
countdictstack dict_count sub {end} repeat
b4_Inc_state restore
} bd
%%EndResource
%FOPBeginFontDict
%%IncludeResource: font Courier-Oblique
%%IncludeResource: font Courier-BoldOblique
%%IncludeResource: font Courier-Bold
%%IncludeResource: font ZapfDingbats
%%IncludeResource: font Symbol
%%IncludeResource: font Helvetica
%%IncludeResource: font Helvetica-Oblique
%%IncludeResource: font Helvetica-Bold
%%IncludeResource: font Helvetica-BoldOblique
%%IncludeResource: font Times-Roman
%%IncludeResource: font Times-Italic
%%IncludeResource: font Times-Bold
%%IncludeResource: font Times-BoldItalic
%%IncludeResource: font Courier
%FOPEndFontDict
%%BeginResource: encoding WinAnsiEncoding
/WinAnsiEncoding [
/.notdef /.notdef /.notdef /.notdef /.notdef
/.notdef /.notdef /.notdef /.notdef /.notdef
/.notdef /.notdef /.notdef /.notdef /.notdef
/.notdef /.notdef /.notdef /.notdef /.notdef
/.notdef /.notdef /.notdef /.notdef /.notdef
/.notdef /.notdef /.notdef /.notdef /.notdef
/.notdef /.notdef /space /exclam /quotedbl
/numbersign /dollar /percent /ampersand /quotesingle
/parenleft /parenright /asterisk /plus /comma
/hyphen /period /slash /zero /one
/two /three /four /five /six
/seven /eight /nine /colon /semicolon
/less /equal /greater /question /at
/A /B /C /D /E
/F /G /H /I /J
/K /L /M /N /O
/P /Q /R /S /T
/U /V /W /X /Y
/Z /bracketleft /backslash /bracketright /asciicircum
/underscore /quoteleft /a /b /c
/d /e /f /g /h
/i /j /k /l /m
/n /o /p /q /r
/s /t /u /v /w
/x /y /z /braceleft /bar
/braceright /asciitilde /bullet /Euro /bullet
/quotesinglbase /florin /quotedblbase /ellipsis /dagger
/daggerdbl /circumflex /perthousand /Scaron /guilsinglleft
/OE /bullet /Zcaron /bullet /bullet
/quoteleft /quoteright /quotedblleft /quotedblright /bullet
/endash /emdash /asciitilde /trademark /scaron
/guilsinglright /oe /bullet /zcaron /Ydieresis
/space /exclamdown /cent /sterling /currency
/yen /brokenbar /section /dieresis /copyright
/ordfeminine /guillemotleft /logicalnot /sfthyphen /registered
/macron /degree /plusminus /twosuperior /threesuperior
/acute /mu /paragraph /middot /cedilla
/onesuperior /ordmasculine /guillemotright /onequarter /onehalf
/threequarters /questiondown /Agrave /Aacute /Acircumflex
/Atilde /Adieresis /Aring /AE /Ccedilla
/Egrave /Eacute /Ecircumflex /Edieresis /Igrave
/Iacute /Icircumflex /Idieresis /Eth /Ntilde
/Ograve /Oacute /Ocircumflex /Otilde /Odieresis
/multiply /Oslash /Ugrave /Uacute /Ucircumflex
/Udieresis /Yacute /Thorn /germandbls /agrave
/aacute /acircumflex /atilde /adieresis /aring
/ae /ccedilla /egrave /eacute /ecircumflex
/edieresis /igrave /iacute /icircumflex /idieresis
/eth /ntilde /ograve /oacute /ocircumflex
/otilde /odieresis /divide /oslash /ugrave
/uacute /ucircumflex /udieresis /yacute /thorn
/ydieresis
] def
%%EndResource
%FOPBeginFontReencode
/Courier-Oblique findfont
dup length dict begin
  {1 index /FID ne {def} {pop pop} ifelse} forall
  /Encoding WinAnsiEncoding def
  currentdict
end
/Courier-Oblique exch definefont pop
/Courier-BoldOblique findfont
dup length dict begin
  {1 index /FID ne {def} {pop pop} ifelse} forall
  /Encoding WinAnsiEncoding def
  currentdict
end
/Courier-BoldOblique exch definefont pop
/Courier-Bold findfont
dup length dict begin
  {1 index /FID ne {def} {pop pop} ifelse} forall
  /Encoding WinAnsiEncoding def
  currentdict
end
/Courier-Bold exch definefont pop
/Helvetica findfont
dup length dict begin
  {1 index /FID ne {def} {pop pop} ifelse} forall
  /Encoding WinAnsiEncoding def
  currentdict
end
/Helvetica exch definefont pop
/Helvetica-Oblique findfont
dup length dict begin
  {1 index /FID ne {def} {pop pop} ifelse} forall
  /Encoding WinAnsiEncoding def
  currentdict
end
/Helvetica-Oblique exch definefont pop
/Helvetica-Bold findfont
dup length dict begin
  {1 index /FID ne {def} {pop pop} ifelse} forall
  /Encoding WinAnsiEncoding def
  currentdict
end
/Helvetica-Bold exch definefont pop
/Helvetica-BoldOblique findfont
dup length dict begin
  {1 index /FID ne {def} {pop pop} ifelse} forall
  /Encoding WinAnsiEncoding def
  currentdict
end
/Helvetica-BoldOblique exch definefont pop
/Times-Roman findfont
dup length dict begin
  {1 index /FID ne {def} {pop pop} ifelse} forall
  /Encoding WinAnsiEncoding def
  currentdict
end
/Times-Roman exch definefont pop
/Times-Italic findfont
dup length dict begin
  {1 index /FID ne {def} {pop pop} ifelse} forall
  /Encoding WinAnsiEncoding def
  currentdict
end
/Times-Italic exch definefont pop
/Times-Bold findfont
dup length dict begin
  {1 index /FID ne {def} {pop pop} ifelse} forall
  /Encoding WinAnsiEncoding def
  currentdict
end
/Times-Bold exch definefont pop
/Times-BoldItalic findfont
dup length dict begin
  {1 index /FID ne {def} {pop pop} ifelse} forall
  /Encoding WinAnsiEncoding def
  currentdict
end
/Times-BoldItalic exch definefont pop
/Courier findfont
dup length dict begin
  {1 index /FID ne {def} {pop pop} ifelse} forall
  /Encoding WinAnsiEncoding def
  currentdict
end
/Courier exch definefont pop
%FOPEndFontReencode
%%EndProlog
%%Page: 1 1
%%PageBoundingBox: 0 0 456 330
%%BeginPageSetup
N
   19     8 M
  439     8 L
  439   319 L
   19   319 L
cp
clip
[1 0 0 -1 0 330] CT
%%EndPageSetup
GS
[0.8 0 0 0.8 0 -0.40002] CT
1 GC
N
0 0 570 413 re
f
GR
GS
[0.8 0 0 0.8 0 -0.40002] CT
1 GC
N
0 0 570 413 re
f
GR
GS
[0.8 0 0 0.8 0 -0.40002] CT
1 GC
N
74 368 M
516 368 L
516 31 L
74 31 L
cp
f
GR
GS
[0.8 0 0 0.8 0 -0.40002] CT
0.149 GC
2 setlinecap
1 LJ
0.625 LW
N
74 368 M
516 368 L
S
GR
GS
[0.8 0 0 0.8 0 -0.40002] CT
0.149 GC
2 setlinecap
1 LJ
0.625 LW
N
74 31 M
516 31 L
S
GR
GS
[0.8 0 0 0.8 0 -0.40002] CT
0.149 GC
2 setlinecap
1 LJ
0.625 LW
N
<<<<<<< HEAD
137.118 368 M
137.118 363.58 L
=======
134.976 374 M
134.976 369.66 L
>>>>>>> f4de00b5db4de07fdb797f1545578c2683f6c040
S
GR
GS
[0.8 0 0 0.8 0 -0.40002] CT
0.149 GC
2 setlinecap
1 LJ
0.625 LW
N
<<<<<<< HEAD
241.68 368 M
241.68 363.58 L
=======
237.645 374 M
237.645 369.66 L
>>>>>>> f4de00b5db4de07fdb797f1545578c2683f6c040
S
GR
GS
[0.8 0 0 0.8 0 -0.40002] CT
0.149 GC
2 setlinecap
1 LJ
0.625 LW
N
<<<<<<< HEAD
315.868 368 M
315.868 363.58 L
=======
310.49 374 M
310.49 369.66 L
>>>>>>> f4de00b5db4de07fdb797f1545578c2683f6c040
S
GR
GS
[0.8 0 0 0.8 0 -0.40002] CT
0.149 GC
2 setlinecap
1 LJ
0.625 LW
N
<<<<<<< HEAD
373.413 368 M
373.413 363.58 L
=======
366.994 374 M
366.994 369.66 L
>>>>>>> f4de00b5db4de07fdb797f1545578c2683f6c040
S
GR
GS
[0.8 0 0 0.8 0 -0.40002] CT
0.149 GC
2 setlinecap
1 LJ
0.625 LW
N
<<<<<<< HEAD
420.43 368 M
420.43 363.58 L
=======
413.16 374 M
413.16 369.66 L
>>>>>>> f4de00b5db4de07fdb797f1545578c2683f6c040
S
GR
GS
[0.8 0 0 0.8 0 -0.40002] CT
0.149 GC
2 setlinecap
1 LJ
0.625 LW
N
<<<<<<< HEAD
460.183 368 M
460.183 363.58 L
=======
452.193 374 M
452.193 369.66 L
>>>>>>> f4de00b5db4de07fdb797f1545578c2683f6c040
S
GR
GS
[0.8 0 0 0.8 0 -0.40002] CT
0.149 GC
2 setlinecap
1 LJ
0.625 LW
N
<<<<<<< HEAD
494.618 368 M
494.618 363.58 L
=======
486.005 374 M
486.005 369.66 L
>>>>>>> f4de00b5db4de07fdb797f1545578c2683f6c040
S
GR
GS
[0.8 0 0 0.8 0 -0.40002] CT
0.149 GC
2 setlinecap
1 LJ
0.625 LW
N
<<<<<<< HEAD
137.118 31 M
137.118 35.42 L
=======
134.976 31 M
134.976 35.34 L
>>>>>>> f4de00b5db4de07fdb797f1545578c2683f6c040
S
GR
GS
[0.8 0 0 0.8 0 -0.40002] CT
0.149 GC
2 setlinecap
1 LJ
0.625 LW
N
<<<<<<< HEAD
241.68 31 M
241.68 35.42 L
=======
237.645 31 M
237.645 35.34 L
>>>>>>> f4de00b5db4de07fdb797f1545578c2683f6c040
S
GR
GS
[0.8 0 0 0.8 0 -0.40002] CT
0.149 GC
2 setlinecap
1 LJ
0.625 LW
N
<<<<<<< HEAD
315.868 31 M
315.868 35.42 L
=======
310.49 31 M
310.49 35.34 L
>>>>>>> f4de00b5db4de07fdb797f1545578c2683f6c040
S
GR
GS
[0.8 0 0 0.8 0 -0.40002] CT
0.149 GC
2 setlinecap
1 LJ
0.625 LW
N
<<<<<<< HEAD
373.413 31 M
373.413 35.42 L
=======
366.994 31 M
366.994 35.34 L
>>>>>>> f4de00b5db4de07fdb797f1545578c2683f6c040
S
GR
GS
[0.8 0 0 0.8 0 -0.40002] CT
0.149 GC
2 setlinecap
1 LJ
0.625 LW
N
<<<<<<< HEAD
420.43 31 M
420.43 35.42 L
=======
413.16 31 M
413.16 35.34 L
>>>>>>> f4de00b5db4de07fdb797f1545578c2683f6c040
S
GR
GS
[0.8 0 0 0.8 0 -0.40002] CT
0.149 GC
2 setlinecap
1 LJ
0.625 LW
N
<<<<<<< HEAD
460.183 31 M
460.183 35.42 L
=======
452.193 31 M
452.193 35.34 L
>>>>>>> f4de00b5db4de07fdb797f1545578c2683f6c040
S
GR
GS
[0.8 0 0 0.8 0 -0.40002] CT
0.149 GC
2 setlinecap
1 LJ
0.625 LW
N
<<<<<<< HEAD
494.618 31 M
494.618 35.42 L
=======
486.005 31 M
486.005 35.34 L
>>>>>>> f4de00b5db4de07fdb797f1545578c2683f6c040
S
GR
GS
[0.8 0 0 0.8 0 -0.40002] CT
0.149 GC
2 setlinecap
1 LJ
0.625 LW
N
<<<<<<< HEAD
79.573 368 M
79.573 365.79 L
=======
78.472 374 M
78.472 371.83 L
>>>>>>> f4de00b5db4de07fdb797f1545578c2683f6c040
S
GR
GS
[0.8 0 0 0.8 0 -0.40002] CT
0.149 GC
2 setlinecap
1 LJ
0.625 LW
N
<<<<<<< HEAD
109.947 368 M
109.947 365.79 L
=======
108.297 374 M
108.297 371.83 L
>>>>>>> f4de00b5db4de07fdb797f1545578c2683f6c040
S
GR
GS
[0.8 0 0 0.8 0 -0.40002] CT
0.149 GC
2 setlinecap
1 LJ
0.625 LW
N
<<<<<<< HEAD
161.697 368 M
161.697 365.79 L
=======
159.11 374 M
159.11 371.83 L
>>>>>>> f4de00b5db4de07fdb797f1545578c2683f6c040
S
GR
GS
[0.8 0 0 0.8 0 -0.40002] CT
0.149 GC
2 setlinecap
1 LJ
0.625 LW
N
<<<<<<< HEAD
184.135 368 M
184.135 365.79 L
=======
181.142 374 M
181.142 371.83 L
>>>>>>> f4de00b5db4de07fdb797f1545578c2683f6c040
S
GR
GS
[0.8 0 0 0.8 0 -0.40002] CT
0.149 GC
2 setlinecap
1 LJ
0.625 LW
N
<<<<<<< HEAD
204.777 368 M
204.777 365.79 L
=======
201.41 374 M
201.41 371.83 L
>>>>>>> f4de00b5db4de07fdb797f1545578c2683f6c040
S
GR
GS
[0.8 0 0 0.8 0 -0.40002] CT
0.149 GC
2 setlinecap
1 LJ
0.625 LW
N
<<<<<<< HEAD
223.888 368 M
223.888 365.79 L
=======
220.175 374 M
220.175 371.83 L
>>>>>>> f4de00b5db4de07fdb797f1545578c2683f6c040
S
GR
GS
[0.8 0 0 0.8 0 -0.40002] CT
0.149 GC
2 setlinecap
1 LJ
0.625 LW
N
<<<<<<< HEAD
258.323 368 M
258.323 365.79 L
=======
253.987 374 M
253.987 371.83 L
>>>>>>> f4de00b5db4de07fdb797f1545578c2683f6c040
S
GR
GS
[0.8 0 0 0.8 0 -0.40002] CT
0.149 GC
2 setlinecap
1 LJ
0.625 LW
N
<<<<<<< HEAD
273.957 368 M
273.957 365.79 L
=======
269.338 374 M
269.338 371.83 L
>>>>>>> f4de00b5db4de07fdb797f1545578c2683f6c040
S
GR
GS
[0.8 0 0 0.8 0 -0.40002] CT
0.149 GC
2 setlinecap
1 LJ
0.625 LW
N
<<<<<<< HEAD
288.698 368 M
288.698 365.79 L
=======
283.812 374 M
283.812 371.83 L
>>>>>>> f4de00b5db4de07fdb797f1545578c2683f6c040
S
GR
GS
[0.8 0 0 0.8 0 -0.40002] CT
0.149 GC
2 setlinecap
1 LJ
0.625 LW
N
<<<<<<< HEAD
302.641 368 M
302.641 365.79 L
=======
297.502 374 M
297.502 371.83 L
>>>>>>> f4de00b5db4de07fdb797f1545578c2683f6c040
S
GR
GS
[0.8 0 0 0.8 0 -0.40002] CT
0.149 GC
2 setlinecap
1 LJ
0.625 LW
N
<<<<<<< HEAD
328.45 368 M
328.45 365.79 L
=======
322.845 374 M
322.845 371.83 L
>>>>>>> f4de00b5db4de07fdb797f1545578c2683f6c040
S
GR
GS
[0.8 0 0 0.8 0 -0.40002] CT
0.149 GC
2 setlinecap
1 LJ
0.625 LW
N
<<<<<<< HEAD
340.447 368 M
340.447 365.79 L
=======
334.624 374 M
334.624 371.83 L
>>>>>>> f4de00b5db4de07fdb797f1545578c2683f6c040
S
GR
GS
[0.8 0 0 0.8 0 -0.40002] CT
0.149 GC
2 setlinecap
1 LJ
0.625 LW
N
<<<<<<< HEAD
351.91 368 M
351.91 365.79 L
=======
345.88 374 M
345.88 371.83 L
>>>>>>> f4de00b5db4de07fdb797f1545578c2683f6c040
S
GR
GS
[0.8 0 0 0.8 0 -0.40002] CT
0.149 GC
2 setlinecap
1 LJ
0.625 LW
N
<<<<<<< HEAD
362.886 368 M
362.886 365.79 L
=======
356.657 374 M
356.657 371.83 L
>>>>>>> f4de00b5db4de07fdb797f1545578c2683f6c040
S
GR
GS
[0.8 0 0 0.8 0 -0.40002] CT
0.149 GC
2 setlinecap
1 LJ
0.625 LW
N
<<<<<<< HEAD
383.527 368 M
383.527 365.79 L
=======
376.925 374 M
376.925 371.83 L
>>>>>>> f4de00b5db4de07fdb797f1545578c2683f6c040
S
GR
GS
[0.8 0 0 0.8 0 -0.40002] CT
0.149 GC
2 setlinecap
1 LJ
0.625 LW
N
<<<<<<< HEAD
393.26 368 M
393.26 365.79 L
=======
386.481 374 M
386.481 371.83 L
>>>>>>> f4de00b5db4de07fdb797f1545578c2683f6c040
S
GR
GS
[0.8 0 0 0.8 0 -0.40002] CT
0.149 GC
2 setlinecap
1 LJ
0.625 LW
N
<<<<<<< HEAD
402.638 368 M
402.638 365.79 L
=======
395.69 374 M
395.69 371.83 L
>>>>>>> f4de00b5db4de07fdb797f1545578c2683f6c040
S
GR
GS
[0.8 0 0 0.8 0 -0.40002] CT
0.149 GC
2 setlinecap
1 LJ
0.625 LW
N
<<<<<<< HEAD
411.688 368 M
411.688 365.79 L
=======
404.576 374 M
404.576 371.83 L
>>>>>>> f4de00b5db4de07fdb797f1545578c2683f6c040
S
GR
GS
[0.8 0 0 0.8 0 -0.40002] CT
0.149 GC
2 setlinecap
1 LJ
0.625 LW
N
<<<<<<< HEAD
428.886 368 M
428.886 365.79 L
=======
421.463 374 M
421.463 371.83 L
>>>>>>> f4de00b5db4de07fdb797f1545578c2683f6c040
S
GR
GS
[0.8 0 0 0.8 0 -0.40002] CT
0.149 GC
2 setlinecap
1 LJ
0.625 LW
N
<<<<<<< HEAD
437.074 368 M
437.074 365.79 L
=======
429.502 374 M
429.502 371.83 L
>>>>>>> f4de00b5db4de07fdb797f1545578c2683f6c040
S
GR
GS
[0.8 0 0 0.8 0 -0.40002] CT
0.149 GC
2 setlinecap
1 LJ
0.625 LW
N
<<<<<<< HEAD
445.009 368 M
445.009 365.79 L
=======
437.294 374 M
437.294 371.83 L
>>>>>>> f4de00b5db4de07fdb797f1545578c2683f6c040
S
GR
GS
[0.8 0 0 0.8 0 -0.40002] CT
0.149 GC
2 setlinecap
1 LJ
0.625 LW
N
<<<<<<< HEAD
452.708 368 M
452.708 365.79 L
=======
444.853 374 M
444.853 371.83 L
>>>>>>> f4de00b5db4de07fdb797f1545578c2683f6c040
S
GR
GS
[0.8 0 0 0.8 0 -0.40002] CT
0.149 GC
2 setlinecap
1 LJ
0.625 LW
N
<<<<<<< HEAD
467.448 368 M
467.448 365.79 L
=======
459.326 374 M
459.326 371.83 L
>>>>>>> f4de00b5db4de07fdb797f1545578c2683f6c040
S
GR
GS
[0.8 0 0 0.8 0 -0.40002] CT
0.149 GC
2 setlinecap
1 LJ
0.625 LW
N
<<<<<<< HEAD
474.513 368 M
474.513 365.79 L
=======
466.264 374 M
466.264 371.83 L
>>>>>>> f4de00b5db4de07fdb797f1545578c2683f6c040
S
GR
GS
[0.8 0 0 0.8 0 -0.40002] CT
0.149 GC
2 setlinecap
1 LJ
0.625 LW
N
<<<<<<< HEAD
481.391 368 M
481.391 365.79 L
=======
473.017 374 M
473.017 371.83 L
>>>>>>> f4de00b5db4de07fdb797f1545578c2683f6c040
S
GR
GS
[0.8 0 0 0.8 0 -0.40002] CT
0.149 GC
2 setlinecap
1 LJ
0.625 LW
N
<<<<<<< HEAD
488.089 368 M
488.089 365.79 L
=======
479.594 374 M
479.594 371.83 L
>>>>>>> f4de00b5db4de07fdb797f1545578c2683f6c040
S
GR
GS
[0.8 0 0 0.8 0 -0.40002] CT
0.149 GC
2 setlinecap
1 LJ
0.625 LW
N
<<<<<<< HEAD
500.986 368 M
500.986 365.79 L
=======
492.258 374 M
492.258 371.83 L
>>>>>>> f4de00b5db4de07fdb797f1545578c2683f6c040
S
GR
GS
[0.8 0 0 0.8 0 -0.40002] CT
0.149 GC
2 setlinecap
1 LJ
0.625 LW
N
<<<<<<< HEAD
507.2 368 M
507.2 365.79 L
=======
498.36 374 M
498.36 371.83 L
>>>>>>> f4de00b5db4de07fdb797f1545578c2683f6c040
S
GR
GS
[0.8 0 0 0.8 0 -0.40002] CT
0.149 GC
2 setlinecap
1 LJ
0.625 LW
N
<<<<<<< HEAD
513.268 368 M
513.268 365.79 L
=======
504.318 374 M
504.318 371.83 L
>>>>>>> f4de00b5db4de07fdb797f1545578c2683f6c040
S
GR
GS
[0.8 0 0 0.8 0 -0.40002] CT
0.149 GC
2 setlinecap
1 LJ
0.625 LW
N
<<<<<<< HEAD
79.573 31 M
79.573 33.21 L
=======
78.472 31 M
78.472 33.17 L
>>>>>>> f4de00b5db4de07fdb797f1545578c2683f6c040
S
GR
GS
[0.8 0 0 0.8 0 -0.40002] CT
0.149 GC
2 setlinecap
1 LJ
0.625 LW
N
<<<<<<< HEAD
109.947 31 M
109.947 33.21 L
=======
108.297 31 M
108.297 33.17 L
>>>>>>> f4de00b5db4de07fdb797f1545578c2683f6c040
S
GR
GS
[0.8 0 0 0.8 0 -0.40002] CT
0.149 GC
2 setlinecap
1 LJ
0.625 LW
N
<<<<<<< HEAD
161.697 31 M
161.697 33.21 L
=======
159.11 31 M
159.11 33.17 L
>>>>>>> f4de00b5db4de07fdb797f1545578c2683f6c040
S
GR
GS
[0.8 0 0 0.8 0 -0.40002] CT
0.149 GC
2 setlinecap
1 LJ
0.625 LW
N
<<<<<<< HEAD
184.135 31 M
184.135 33.21 L
=======
181.142 31 M
181.142 33.17 L
>>>>>>> f4de00b5db4de07fdb797f1545578c2683f6c040
S
GR
GS
[0.8 0 0 0.8 0 -0.40002] CT
0.149 GC
2 setlinecap
1 LJ
0.625 LW
N
<<<<<<< HEAD
204.777 31 M
204.777 33.21 L
=======
201.41 31 M
201.41 33.17 L
>>>>>>> f4de00b5db4de07fdb797f1545578c2683f6c040
S
GR
GS
[0.8 0 0 0.8 0 -0.40002] CT
0.149 GC
2 setlinecap
1 LJ
0.625 LW
N
<<<<<<< HEAD
223.888 31 M
223.888 33.21 L
=======
220.175 31 M
220.175 33.17 L
>>>>>>> f4de00b5db4de07fdb797f1545578c2683f6c040
S
GR
GS
[0.8 0 0 0.8 0 -0.40002] CT
0.149 GC
2 setlinecap
1 LJ
0.625 LW
N
<<<<<<< HEAD
258.323 31 M
258.323 33.21 L
=======
253.987 31 M
253.987 33.17 L
>>>>>>> f4de00b5db4de07fdb797f1545578c2683f6c040
S
GR
GS
[0.8 0 0 0.8 0 -0.40002] CT
0.149 GC
2 setlinecap
1 LJ
0.625 LW
N
<<<<<<< HEAD
273.957 31 M
273.957 33.21 L
=======
269.338 31 M
269.338 33.17 L
>>>>>>> f4de00b5db4de07fdb797f1545578c2683f6c040
S
GR
GS
[0.8 0 0 0.8 0 -0.40002] CT
0.149 GC
2 setlinecap
1 LJ
0.625 LW
N
<<<<<<< HEAD
288.698 31 M
288.698 33.21 L
=======
283.812 31 M
283.812 33.17 L
>>>>>>> f4de00b5db4de07fdb797f1545578c2683f6c040
S
GR
GS
[0.8 0 0 0.8 0 -0.40002] CT
0.149 GC
2 setlinecap
1 LJ
0.625 LW
N
<<<<<<< HEAD
302.641 31 M
302.641 33.21 L
=======
297.502 31 M
297.502 33.17 L
>>>>>>> f4de00b5db4de07fdb797f1545578c2683f6c040
S
GR
GS
[0.8 0 0 0.8 0 -0.40002] CT
0.149 GC
2 setlinecap
1 LJ
0.625 LW
N
<<<<<<< HEAD
328.45 31 M
328.45 33.21 L
=======
322.845 31 M
322.845 33.17 L
>>>>>>> f4de00b5db4de07fdb797f1545578c2683f6c040
S
GR
GS
[0.8 0 0 0.8 0 -0.40002] CT
0.149 GC
2 setlinecap
1 LJ
0.625 LW
N
<<<<<<< HEAD
340.447 31 M
340.447 33.21 L
=======
334.624 31 M
334.624 33.17 L
>>>>>>> f4de00b5db4de07fdb797f1545578c2683f6c040
S
GR
GS
[0.8 0 0 0.8 0 -0.40002] CT
0.149 GC
2 setlinecap
1 LJ
0.625 LW
N
<<<<<<< HEAD
351.91 31 M
351.91 33.21 L
=======
345.88 31 M
345.88 33.17 L
>>>>>>> f4de00b5db4de07fdb797f1545578c2683f6c040
S
GR
GS
[0.8 0 0 0.8 0 -0.40002] CT
0.149 GC
2 setlinecap
1 LJ
0.625 LW
N
<<<<<<< HEAD
362.886 31 M
362.886 33.21 L
=======
356.657 31 M
356.657 33.17 L
>>>>>>> f4de00b5db4de07fdb797f1545578c2683f6c040
S
GR
GS
[0.8 0 0 0.8 0 -0.40002] CT
0.149 GC
2 setlinecap
1 LJ
0.625 LW
N
<<<<<<< HEAD
383.527 31 M
383.527 33.21 L
=======
376.925 31 M
376.925 33.17 L
>>>>>>> f4de00b5db4de07fdb797f1545578c2683f6c040
S
GR
GS
[0.8 0 0 0.8 0 -0.40002] CT
0.149 GC
2 setlinecap
1 LJ
0.625 LW
N
<<<<<<< HEAD
393.26 31 M
393.26 33.21 L
=======
386.481 31 M
386.481 33.17 L
>>>>>>> f4de00b5db4de07fdb797f1545578c2683f6c040
S
GR
GS
[0.8 0 0 0.8 0 -0.40002] CT
0.149 GC
2 setlinecap
1 LJ
0.625 LW
N
<<<<<<< HEAD
402.638 31 M
402.638 33.21 L
=======
395.69 31 M
395.69 33.17 L
>>>>>>> f4de00b5db4de07fdb797f1545578c2683f6c040
S
GR
GS
[0.8 0 0 0.8 0 -0.40002] CT
0.149 GC
2 setlinecap
1 LJ
0.625 LW
N
<<<<<<< HEAD
411.688 31 M
411.688 33.21 L
=======
404.576 31 M
404.576 33.17 L
>>>>>>> f4de00b5db4de07fdb797f1545578c2683f6c040
S
GR
GS
[0.8 0 0 0.8 0 -0.40002] CT
0.149 GC
2 setlinecap
1 LJ
0.625 LW
N
<<<<<<< HEAD
428.886 31 M
428.886 33.21 L
=======
421.463 31 M
421.463 33.17 L
>>>>>>> f4de00b5db4de07fdb797f1545578c2683f6c040
S
GR
GS
[0.8 0 0 0.8 0 -0.40002] CT
0.149 GC
2 setlinecap
1 LJ
0.625 LW
N
<<<<<<< HEAD
437.074 31 M
437.074 33.21 L
=======
429.502 31 M
429.502 33.17 L
>>>>>>> f4de00b5db4de07fdb797f1545578c2683f6c040
S
GR
GS
[0.8 0 0 0.8 0 -0.40002] CT
0.149 GC
2 setlinecap
1 LJ
0.625 LW
N
<<<<<<< HEAD
445.009 31 M
445.009 33.21 L
S
GR
GS
[0.8 0 0 0.8 0 -0.40002] CT
=======
437.294 31 M
437.294 33.17 L
S
GR
GS
[0.75 0 0 0.75 0 0] CT
0.149 GC
2 setlinecap
1 LJ
0.667 LW
N
444.853 31 M
444.853 33.17 L
S
GR
GS
[0.75 0 0 0.75 0 0] CT
0.149 GC
2 setlinecap
1 LJ
0.667 LW
N
459.326 31 M
459.326 33.17 L
S
GR
GS
[0.75 0 0 0.75 0 0] CT
0.149 GC
2 setlinecap
1 LJ
0.667 LW
N
466.264 31 M
466.264 33.17 L
S
GR
GS
[0.75 0 0 0.75 0 0] CT
0.149 GC
2 setlinecap
1 LJ
0.667 LW
N
473.017 31 M
473.017 33.17 L
S
GR
GS
[0.75 0 0 0.75 0 0] CT
0.149 GC
2 setlinecap
1 LJ
0.667 LW
N
479.594 31 M
479.594 33.17 L
S
GR
GS
[0.75 0 0 0.75 0 0] CT
0.149 GC
2 setlinecap
1 LJ
0.667 LW
N
492.258 31 M
492.258 33.17 L
S
GR
GS
[0.75 0 0 0.75 0 0] CT
0.149 GC
2 setlinecap
1 LJ
0.667 LW
N
498.36 31 M
498.36 33.17 L
S
GR
GS
[0.75 0 0 0.75 0 0] CT
0.149 GC
2 setlinecap
1 LJ
0.667 LW
N
504.318 31 M
504.318 33.17 L
S
GR
GS
[0.75 0 0 0.75 101.23171 284.50001] CT
0.149 GC
/Helvetica 13.333 F
GS
[1 0 0 1 0 0] CT
-11 13 moveto 
1 -1 scale
(0.1) t 
GR
GR
GS
[0.75 0 0 0.75 178.2339 284.50001] CT
>>>>>>> f4de00b5db4de07fdb797f1545578c2683f6c040
0.149 GC
2 setlinecap
1 LJ
0.625 LW
N
452.708 31 M
452.708 33.21 L
S
GR
GS
[0.8 0 0 0.8 0 -0.40002] CT
0.149 GC
2 setlinecap
1 LJ
0.625 LW
N
467.448 31 M
467.448 33.21 L
S
GR
GS
[0.8 0 0 0.8 0 -0.40002] CT
0.149 GC
2 setlinecap
1 LJ
0.625 LW
N
474.513 31 M
474.513 33.21 L
S
GR
GS
[0.8 0 0 0.8 0 -0.40002] CT
0.149 GC
2 setlinecap
1 LJ
0.625 LW
N
481.391 31 M
481.391 33.21 L
S
GR
GS
[0.8 0 0 0.8 0 -0.40002] CT
0.149 GC
2 setlinecap
1 LJ
0.625 LW
N
488.089 31 M
488.089 33.21 L
S
GR
GS
[0.8 0 0 0.8 0 -0.40002] CT
0.149 GC
2 setlinecap
1 LJ
0.625 LW
N
500.986 31 M
500.986 33.21 L
S
GR
GS
[0.8 0 0 0.8 0 -0.40002] CT
0.149 GC
2 setlinecap
1 LJ
0.625 LW
N
507.2 31 M
507.2 33.21 L
S
GR
GS
[0.8 0 0 0.8 0 -0.40002] CT
0.149 GC
2 setlinecap
1 LJ
0.625 LW
N
513.268 31 M
513.268 33.21 L
S
GR
GS
[0.8 0 0 0.8 109.69442 298] CT
0.149 GC
/Helvetica 12.5 F
GS
[1 0 0 1 0 0] CT
-10 12 moveto 
1 -1 scale
(0.1) t 
GR
GR
GS
[0.8 0 0 0.8 193.3441 298] CT
0.149 GC
/Helvetica 12.5 F
GS
[1 0 0 1 0 0] CT
-14 12 moveto 
1 -1 scale
(0.15) t 
GR
GR
GS
<<<<<<< HEAD
[0.8 0 0 0.8 252.69451 298] CT
=======
[0.75 0 0 0.75 232.86781 284.50001] CT
>>>>>>> f4de00b5db4de07fdb797f1545578c2683f6c040
0.149 GC
/Helvetica 12.5 F
GS
[1 0 0 1 0 0] CT
-10 12 moveto 
1 -1 scale
(0.2) t 
GR
GR
GS
<<<<<<< HEAD
[0.8 0 0 0.8 298.73025 298] CT
=======
[0.75 0 0 0.75 275.24517 284.50001] CT
>>>>>>> f4de00b5db4de07fdb797f1545578c2683f6c040
0.149 GC
/Helvetica 12.5 F
GS
[1 0 0 1 0 0] CT
-14 12 moveto 
1 -1 scale
(0.25) t 
GR
GR
GS
<<<<<<< HEAD
[0.8 0 0 0.8 336.34417 298] CT
=======
[0.75 0 0 0.75 309.86998 284.50001] CT
>>>>>>> f4de00b5db4de07fdb797f1545578c2683f6c040
0.149 GC
/Helvetica 12.5 F
GS
[1 0 0 1 0 0] CT
-10 12 moveto 
1 -1 scale
(0.3) t 
GR
GR
GS
<<<<<<< HEAD
[0.8 0 0 0.8 368.14629 298] CT
=======
[0.75 0 0 0.75 339.14486 284.50001] CT
>>>>>>> f4de00b5db4de07fdb797f1545578c2683f6c040
0.149 GC
/Helvetica 12.5 F
GS
[1 0 0 1 0 0] CT
-14 12 moveto 
1 -1 scale
(0.35) t 
GR
GR
GS
<<<<<<< HEAD
[0.8 0 0 0.8 395.69456 298] CT
=======
[0.75 0 0 0.75 364.50389 284.50001] CT
>>>>>>> f4de00b5db4de07fdb797f1545578c2683f6c040
0.149 GC
/Helvetica 12.5 F
GS
[1 0 0 1 0 0] CT
-10 12 moveto 
1 -1 scale
(0.4) t 
GR
GR
GS
[0.8 0 0 0.8 236.00017 311] CT
0.149 GC
/Helvetica 13.75 F
GS
[1 0 0 1 0 0] CT
-44.5 13 moveto 
1 -1 scale
(meshwidth h) t 
GR
GR
GS
[0.8 0 0 0.8 0 -0.40002] CT
0.149 GC
2 setlinecap
1 LJ
0.625 LW
N
74 368 M
74 31 L
S
GR
GS
[0.8 0 0 0.8 0 -0.40002] CT
0.149 GC
2 setlinecap
1 LJ
0.625 LW
N
516 368 M
516 31 L
S
GR
GS
[0.8 0 0 0.8 0 -0.40002] CT
0.149 GC
2 setlinecap
1 LJ
0.625 LW
N
<<<<<<< HEAD
74 368 M
78.42 368 L
=======
73 374 M
77.34 374 L
>>>>>>> f4de00b5db4de07fdb797f1545578c2683f6c040
S
GR
GS
[0.8 0 0 0.8 0 -0.40002] CT
0.149 GC
2 setlinecap
1 LJ
0.625 LW
N
<<<<<<< HEAD
74 300.6 M
78.42 300.6 L
=======
73 305.4 M
77.34 305.4 L
>>>>>>> f4de00b5db4de07fdb797f1545578c2683f6c040
S
GR
GS
[0.8 0 0 0.8 0 -0.40002] CT
0.149 GC
2 setlinecap
1 LJ
0.625 LW
N
<<<<<<< HEAD
74 233.2 M
78.42 233.2 L
=======
73 236.8 M
77.34 236.8 L
>>>>>>> f4de00b5db4de07fdb797f1545578c2683f6c040
S
GR
GS
[0.8 0 0 0.8 0 -0.40002] CT
0.149 GC
2 setlinecap
1 LJ
0.625 LW
N
<<<<<<< HEAD
74 165.8 M
78.42 165.8 L
=======
73 168.2 M
77.34 168.2 L
S
GR
GS
[0.75 0 0 0.75 0 0] CT
0.149 GC
2 setlinecap
1 LJ
0.667 LW
N
73 99.6 M
77.34 99.6 L
>>>>>>> f4de00b5db4de07fdb797f1545578c2683f6c040
S
GR
GS
[0.8 0 0 0.8 0 -0.40002] CT
0.149 GC
2 setlinecap
1 LJ
0.625 LW
N
74 98.4 M
78.42 98.4 L
S
GR
GS
[0.8 0 0 0.8 0 -0.40002] CT
0.149 GC
2 setlinecap
1 LJ
0.625 LW
N
<<<<<<< HEAD
74 31 M
78.42 31 L
=======
507 374 M
502.66 374 L
>>>>>>> f4de00b5db4de07fdb797f1545578c2683f6c040
S
GR
GS
[0.8 0 0 0.8 0 -0.40002] CT
0.149 GC
2 setlinecap
1 LJ
0.625 LW
N
<<<<<<< HEAD
516 368 M
511.58 368 L
=======
507 305.4 M
502.66 305.4 L
>>>>>>> f4de00b5db4de07fdb797f1545578c2683f6c040
S
GR
GS
[0.8 0 0 0.8 0 -0.40002] CT
0.149 GC
2 setlinecap
1 LJ
0.625 LW
N
<<<<<<< HEAD
516 300.6 M
511.58 300.6 L
=======
507 236.8 M
502.66 236.8 L
>>>>>>> f4de00b5db4de07fdb797f1545578c2683f6c040
S
GR
GS
[0.8 0 0 0.8 0 -0.40002] CT
0.149 GC
2 setlinecap
1 LJ
0.625 LW
N
<<<<<<< HEAD
516 233.2 M
511.58 233.2 L
=======
507 168.2 M
502.66 168.2 L
S
GR
GS
[0.75 0 0 0.75 0 0] CT
0.149 GC
2 setlinecap
1 LJ
0.667 LW
N
507 99.6 M
502.66 99.6 L
>>>>>>> f4de00b5db4de07fdb797f1545578c2683f6c040
S
GR
GS
[0.8 0 0 0.8 0 -0.40002] CT
0.149 GC
2 setlinecap
1 LJ
0.625 LW
N
516 165.8 M
511.58 165.8 L
S
GR
GS
[0.8 0 0 0.8 0 -0.40002] CT
0.149 GC
2 setlinecap
1 LJ
0.625 LW
N
<<<<<<< HEAD
516 98.4 M
511.58 98.4 L
=======
73 374 M
75.17 374 L
>>>>>>> f4de00b5db4de07fdb797f1545578c2683f6c040
S
GR
GS
[0.8 0 0 0.8 0 -0.40002] CT
0.149 GC
2 setlinecap
1 LJ
0.625 LW
N
<<<<<<< HEAD
516 31 M
511.58 31 L
=======
73 353.349 M
75.17 353.349 L
>>>>>>> f4de00b5db4de07fdb797f1545578c2683f6c040
S
GR
GS
[0.8 0 0 0.8 0 -0.40002] CT
0.149 GC
2 setlinecap
1 LJ
0.625 LW
N
<<<<<<< HEAD
74 368 M
76.21 368 L
=======
73 341.269 M
75.17 341.269 L
>>>>>>> f4de00b5db4de07fdb797f1545578c2683f6c040
S
GR
GS
[0.8 0 0 0.8 0 -0.40002] CT
0.149 GC
2 setlinecap
1 LJ
0.625 LW
N
<<<<<<< HEAD
74 347.711 M
76.21 347.711 L
=======
73 332.699 M
75.17 332.699 L
>>>>>>> f4de00b5db4de07fdb797f1545578c2683f6c040
S
GR
GS
[0.8 0 0 0.8 0 -0.40002] CT
0.149 GC
2 setlinecap
1 LJ
0.625 LW
N
<<<<<<< HEAD
74 335.842 M
76.21 335.842 L
=======
73 326.051 M
75.17 326.051 L
>>>>>>> f4de00b5db4de07fdb797f1545578c2683f6c040
S
GR
GS
[0.8 0 0 0.8 0 -0.40002] CT
0.149 GC
2 setlinecap
1 LJ
0.625 LW
N
<<<<<<< HEAD
74 327.421 M
76.21 327.421 L
=======
73 320.619 M
75.17 320.619 L
>>>>>>> f4de00b5db4de07fdb797f1545578c2683f6c040
S
GR
GS
[0.8 0 0 0.8 0 -0.40002] CT
0.149 GC
2 setlinecap
1 LJ
0.625 LW
N
<<<<<<< HEAD
74 320.889 M
76.21 320.889 L
=======
73 316.026 M
75.17 316.026 L
>>>>>>> f4de00b5db4de07fdb797f1545578c2683f6c040
S
GR
GS
[0.8 0 0 0.8 0 -0.40002] CT
0.149 GC
2 setlinecap
1 LJ
0.625 LW
N
<<<<<<< HEAD
74 315.553 M
76.21 315.553 L
=======
73 312.048 M
75.17 312.048 L
>>>>>>> f4de00b5db4de07fdb797f1545578c2683f6c040
S
GR
GS
[0.8 0 0 0.8 0 -0.40002] CT
0.149 GC
2 setlinecap
1 LJ
0.625 LW
N
<<<<<<< HEAD
74 311.04 M
76.21 311.04 L
=======
73 308.539 M
75.17 308.539 L
>>>>>>> f4de00b5db4de07fdb797f1545578c2683f6c040
S
GR
GS
[0.8 0 0 0.8 0 -0.40002] CT
0.149 GC
2 setlinecap
1 LJ
0.625 LW
N
<<<<<<< HEAD
74 307.132 M
76.21 307.132 L
=======
73 305.4 M
75.17 305.4 L
>>>>>>> f4de00b5db4de07fdb797f1545578c2683f6c040
S
GR
GS
[0.8 0 0 0.8 0 -0.40002] CT
0.149 GC
2 setlinecap
1 LJ
0.625 LW
N
<<<<<<< HEAD
74 303.684 M
76.21 303.684 L
=======
73 284.749 M
75.17 284.749 L
>>>>>>> f4de00b5db4de07fdb797f1545578c2683f6c040
S
GR
GS
[0.8 0 0 0.8 0 -0.40002] CT
0.149 GC
2 setlinecap
1 LJ
0.625 LW
N
<<<<<<< HEAD
74 300.6 M
76.21 300.6 L
=======
73 272.669 M
75.17 272.669 L
>>>>>>> f4de00b5db4de07fdb797f1545578c2683f6c040
S
GR
GS
[0.8 0 0 0.8 0 -0.40002] CT
0.149 GC
2 setlinecap
1 LJ
0.625 LW
N
<<<<<<< HEAD
74 280.311 M
76.21 280.311 L
=======
73 264.099 M
75.17 264.099 L
>>>>>>> f4de00b5db4de07fdb797f1545578c2683f6c040
S
GR
GS
[0.8 0 0 0.8 0 -0.40002] CT
0.149 GC
2 setlinecap
1 LJ
0.625 LW
N
<<<<<<< HEAD
74 268.442 M
76.21 268.442 L
=======
73 257.451 M
75.17 257.451 L
>>>>>>> f4de00b5db4de07fdb797f1545578c2683f6c040
S
GR
GS
[0.8 0 0 0.8 0 -0.40002] CT
0.149 GC
2 setlinecap
1 LJ
0.625 LW
N
<<<<<<< HEAD
74 260.021 M
76.21 260.021 L
=======
73 252.019 M
75.17 252.019 L
>>>>>>> f4de00b5db4de07fdb797f1545578c2683f6c040
S
GR
GS
[0.8 0 0 0.8 0 -0.40002] CT
0.149 GC
2 setlinecap
1 LJ
0.625 LW
N
<<<<<<< HEAD
74 253.489 M
76.21 253.489 L
=======
73 247.426 M
75.17 247.426 L
>>>>>>> f4de00b5db4de07fdb797f1545578c2683f6c040
S
GR
GS
[0.8 0 0 0.8 0 -0.40002] CT
0.149 GC
2 setlinecap
1 LJ
0.625 LW
N
<<<<<<< HEAD
74 248.153 M
76.21 248.153 L
=======
73 243.448 M
75.17 243.448 L
>>>>>>> f4de00b5db4de07fdb797f1545578c2683f6c040
S
GR
GS
[0.8 0 0 0.8 0 -0.40002] CT
0.149 GC
2 setlinecap
1 LJ
0.625 LW
N
<<<<<<< HEAD
74 243.64 M
76.21 243.64 L
=======
73 239.939 M
75.17 239.939 L
>>>>>>> f4de00b5db4de07fdb797f1545578c2683f6c040
S
GR
GS
[0.8 0 0 0.8 0 -0.40002] CT
0.149 GC
2 setlinecap
1 LJ
0.625 LW
N
<<<<<<< HEAD
74 239.732 M
76.21 239.732 L
=======
73 236.8 M
75.17 236.8 L
>>>>>>> f4de00b5db4de07fdb797f1545578c2683f6c040
S
GR
GS
[0.8 0 0 0.8 0 -0.40002] CT
0.149 GC
2 setlinecap
1 LJ
0.625 LW
N
<<<<<<< HEAD
74 236.284 M
76.21 236.284 L
=======
73 216.149 M
75.17 216.149 L
>>>>>>> f4de00b5db4de07fdb797f1545578c2683f6c040
S
GR
GS
[0.8 0 0 0.8 0 -0.40002] CT
0.149 GC
2 setlinecap
1 LJ
0.625 LW
N
<<<<<<< HEAD
74 233.2 M
76.21 233.2 L
=======
73 204.069 M
75.17 204.069 L
>>>>>>> f4de00b5db4de07fdb797f1545578c2683f6c040
S
GR
GS
[0.8 0 0 0.8 0 -0.40002] CT
0.149 GC
2 setlinecap
1 LJ
0.625 LW
N
<<<<<<< HEAD
74 212.911 M
76.21 212.911 L
=======
73 195.499 M
75.17 195.499 L
>>>>>>> f4de00b5db4de07fdb797f1545578c2683f6c040
S
GR
GS
[0.8 0 0 0.8 0 -0.40002] CT
0.149 GC
2 setlinecap
1 LJ
0.625 LW
N
<<<<<<< HEAD
74 201.042 M
76.21 201.042 L
=======
73 188.851 M
75.17 188.851 L
>>>>>>> f4de00b5db4de07fdb797f1545578c2683f6c040
S
GR
GS
[0.8 0 0 0.8 0 -0.40002] CT
0.149 GC
2 setlinecap
1 LJ
0.625 LW
N
<<<<<<< HEAD
74 192.621 M
76.21 192.621 L
=======
73 183.419 M
75.17 183.419 L
>>>>>>> f4de00b5db4de07fdb797f1545578c2683f6c040
S
GR
GS
[0.8 0 0 0.8 0 -0.40002] CT
0.149 GC
2 setlinecap
1 LJ
0.625 LW
N
<<<<<<< HEAD
74 186.089 M
76.21 186.089 L
=======
73 178.826 M
75.17 178.826 L
>>>>>>> f4de00b5db4de07fdb797f1545578c2683f6c040
S
GR
GS
[0.8 0 0 0.8 0 -0.40002] CT
0.149 GC
2 setlinecap
1 LJ
0.625 LW
N
<<<<<<< HEAD
74 180.753 M
76.21 180.753 L
=======
73 174.848 M
75.17 174.848 L
>>>>>>> f4de00b5db4de07fdb797f1545578c2683f6c040
S
GR
GS
[0.8 0 0 0.8 0 -0.40002] CT
0.149 GC
2 setlinecap
1 LJ
0.625 LW
N
<<<<<<< HEAD
74 176.24 M
76.21 176.24 L
=======
73 171.339 M
75.17 171.339 L
>>>>>>> f4de00b5db4de07fdb797f1545578c2683f6c040
S
GR
GS
[0.8 0 0 0.8 0 -0.40002] CT
0.149 GC
2 setlinecap
1 LJ
0.625 LW
N
<<<<<<< HEAD
74 172.332 M
76.21 172.332 L
=======
73 168.2 M
75.17 168.2 L
>>>>>>> f4de00b5db4de07fdb797f1545578c2683f6c040
S
GR
GS
[0.8 0 0 0.8 0 -0.40002] CT
0.149 GC
2 setlinecap
1 LJ
0.625 LW
N
<<<<<<< HEAD
74 168.884 M
76.21 168.884 L
=======
73 147.549 M
75.17 147.549 L
>>>>>>> f4de00b5db4de07fdb797f1545578c2683f6c040
S
GR
GS
[0.8 0 0 0.8 0 -0.40002] CT
0.149 GC
2 setlinecap
1 LJ
0.625 LW
N
<<<<<<< HEAD
74 165.8 M
76.21 165.8 L
=======
73 135.469 M
75.17 135.469 L
>>>>>>> f4de00b5db4de07fdb797f1545578c2683f6c040
S
GR
GS
[0.8 0 0 0.8 0 -0.40002] CT
0.149 GC
2 setlinecap
1 LJ
0.625 LW
N
<<<<<<< HEAD
74 145.511 M
76.21 145.511 L
=======
73 126.899 M
75.17 126.899 L
>>>>>>> f4de00b5db4de07fdb797f1545578c2683f6c040
S
GR
GS
[0.8 0 0 0.8 0 -0.40002] CT
0.149 GC
2 setlinecap
1 LJ
0.625 LW
N
<<<<<<< HEAD
74 133.642 M
76.21 133.642 L
=======
73 120.251 M
75.17 120.251 L
>>>>>>> f4de00b5db4de07fdb797f1545578c2683f6c040
S
GR
GS
[0.8 0 0 0.8 0 -0.40002] CT
0.149 GC
2 setlinecap
1 LJ
0.625 LW
N
<<<<<<< HEAD
74 125.221 M
76.21 125.221 L
=======
73 114.819 M
75.17 114.819 L
>>>>>>> f4de00b5db4de07fdb797f1545578c2683f6c040
S
GR
GS
[0.8 0 0 0.8 0 -0.40002] CT
0.149 GC
2 setlinecap
1 LJ
0.625 LW
N
<<<<<<< HEAD
74 118.689 M
76.21 118.689 L
=======
73 110.226 M
75.17 110.226 L
>>>>>>> f4de00b5db4de07fdb797f1545578c2683f6c040
S
GR
GS
[0.8 0 0 0.8 0 -0.40002] CT
0.149 GC
2 setlinecap
1 LJ
0.625 LW
N
<<<<<<< HEAD
74 113.353 M
76.21 113.353 L
=======
73 106.248 M
75.17 106.248 L
>>>>>>> f4de00b5db4de07fdb797f1545578c2683f6c040
S
GR
GS
[0.8 0 0 0.8 0 -0.40002] CT
0.149 GC
2 setlinecap
1 LJ
0.625 LW
N
<<<<<<< HEAD
74 108.84 M
76.21 108.84 L
=======
73 102.739 M
75.17 102.739 L
>>>>>>> f4de00b5db4de07fdb797f1545578c2683f6c040
S
GR
GS
[0.8 0 0 0.8 0 -0.40002] CT
0.149 GC
2 setlinecap
1 LJ
0.625 LW
N
<<<<<<< HEAD
74 104.932 M
76.21 104.932 L
=======
73 99.6 M
75.17 99.6 L
>>>>>>> f4de00b5db4de07fdb797f1545578c2683f6c040
S
GR
GS
[0.8 0 0 0.8 0 -0.40002] CT
0.149 GC
2 setlinecap
1 LJ
0.625 LW
N
<<<<<<< HEAD
74 101.484 M
76.21 101.484 L
=======
73 78.949 M
75.17 78.949 L
S
GR
GS
[0.75 0 0 0.75 0 0] CT
0.149 GC
2 setlinecap
1 LJ
0.667 LW
N
73 66.869 M
75.17 66.869 L
S
GR
GS
[0.75 0 0 0.75 0 0] CT
0.149 GC
2 setlinecap
1 LJ
0.667 LW
N
73 58.299 M
75.17 58.299 L
S
GR
GS
[0.75 0 0 0.75 0 0] CT
0.149 GC
2 setlinecap
1 LJ
0.667 LW
N
73 51.651 M
75.17 51.651 L
S
GR
GS
[0.75 0 0 0.75 0 0] CT
0.149 GC
2 setlinecap
1 LJ
0.667 LW
N
73 46.219 M
75.17 46.219 L
S
GR
GS
[0.75 0 0 0.75 0 0] CT
0.149 GC
2 setlinecap
1 LJ
0.667 LW
N
73 41.626 M
75.17 41.626 L
S
GR
GS
[0.75 0 0 0.75 0 0] CT
0.149 GC
2 setlinecap
1 LJ
0.667 LW
N
73 37.648 M
75.17 37.648 L
S
GR
GS
[0.75 0 0 0.75 0 0] CT
0.149 GC
2 setlinecap
1 LJ
0.667 LW
N
73 34.139 M
75.17 34.139 L
>>>>>>> f4de00b5db4de07fdb797f1545578c2683f6c040
S
GR
GS
[0.8 0 0 0.8 0 -0.40002] CT
0.149 GC
2 setlinecap
1 LJ
0.625 LW
N
74 98.4 M
76.21 98.4 L
S
GR
GS
[0.8 0 0 0.8 0 -0.40002] CT
0.149 GC
2 setlinecap
1 LJ
0.625 LW
N
<<<<<<< HEAD
74 78.111 M
76.21 78.111 L
=======
507 374 M
504.83 374 L
>>>>>>> f4de00b5db4de07fdb797f1545578c2683f6c040
S
GR
GS
[0.8 0 0 0.8 0 -0.40002] CT
0.149 GC
2 setlinecap
1 LJ
0.625 LW
N
<<<<<<< HEAD
74 66.242 M
76.21 66.242 L
=======
507 353.349 M
504.83 353.349 L
>>>>>>> f4de00b5db4de07fdb797f1545578c2683f6c040
S
GR
GS
[0.8 0 0 0.8 0 -0.40002] CT
0.149 GC
2 setlinecap
1 LJ
0.625 LW
N
<<<<<<< HEAD
74 57.821 M
76.21 57.821 L
=======
507 341.269 M
504.83 341.269 L
>>>>>>> f4de00b5db4de07fdb797f1545578c2683f6c040
S
GR
GS
[0.8 0 0 0.8 0 -0.40002] CT
0.149 GC
2 setlinecap
1 LJ
0.625 LW
N
<<<<<<< HEAD
74 51.289 M
76.21 51.289 L
=======
507 332.699 M
504.83 332.699 L
>>>>>>> f4de00b5db4de07fdb797f1545578c2683f6c040
S
GR
GS
[0.8 0 0 0.8 0 -0.40002] CT
0.149 GC
2 setlinecap
1 LJ
0.625 LW
N
<<<<<<< HEAD
74 45.953 M
76.21 45.953 L
=======
507 326.051 M
504.83 326.051 L
>>>>>>> f4de00b5db4de07fdb797f1545578c2683f6c040
S
GR
GS
[0.8 0 0 0.8 0 -0.40002] CT
0.149 GC
2 setlinecap
1 LJ
0.625 LW
N
<<<<<<< HEAD
74 41.44 M
76.21 41.44 L
=======
507 320.619 M
504.83 320.619 L
>>>>>>> f4de00b5db4de07fdb797f1545578c2683f6c040
S
GR
GS
[0.8 0 0 0.8 0 -0.40002] CT
0.149 GC
2 setlinecap
1 LJ
0.625 LW
N
<<<<<<< HEAD
74 37.532 M
76.21 37.532 L
=======
507 316.026 M
504.83 316.026 L
>>>>>>> f4de00b5db4de07fdb797f1545578c2683f6c040
S
GR
GS
[0.8 0 0 0.8 0 -0.40002] CT
0.149 GC
2 setlinecap
1 LJ
0.625 LW
N
<<<<<<< HEAD
74 34.084 M
76.21 34.084 L
=======
507 312.048 M
504.83 312.048 L
>>>>>>> f4de00b5db4de07fdb797f1545578c2683f6c040
S
GR
GS
[0.8 0 0 0.8 0 -0.40002] CT
0.149 GC
2 setlinecap
1 LJ
0.625 LW
N
<<<<<<< HEAD
74 31 M
76.21 31 L
=======
507 308.539 M
504.83 308.539 L
>>>>>>> f4de00b5db4de07fdb797f1545578c2683f6c040
S
GR
GS
[0.8 0 0 0.8 0 -0.40002] CT
0.149 GC
2 setlinecap
1 LJ
0.625 LW
N
<<<<<<< HEAD
516 368 M
513.79 368 L
=======
507 305.4 M
504.83 305.4 L
>>>>>>> f4de00b5db4de07fdb797f1545578c2683f6c040
S
GR
GS
[0.8 0 0 0.8 0 -0.40002] CT
0.149 GC
2 setlinecap
1 LJ
0.625 LW
N
<<<<<<< HEAD
516 347.711 M
513.79 347.711 L
=======
507 284.749 M
504.83 284.749 L
>>>>>>> f4de00b5db4de07fdb797f1545578c2683f6c040
S
GR
GS
[0.8 0 0 0.8 0 -0.40002] CT
0.149 GC
2 setlinecap
1 LJ
0.625 LW
N
<<<<<<< HEAD
516 335.842 M
513.79 335.842 L
=======
507 272.669 M
504.83 272.669 L
>>>>>>> f4de00b5db4de07fdb797f1545578c2683f6c040
S
GR
GS
[0.8 0 0 0.8 0 -0.40002] CT
0.149 GC
2 setlinecap
1 LJ
0.625 LW
N
<<<<<<< HEAD
516 327.421 M
513.79 327.421 L
=======
507 264.099 M
504.83 264.099 L
>>>>>>> f4de00b5db4de07fdb797f1545578c2683f6c040
S
GR
GS
[0.8 0 0 0.8 0 -0.40002] CT
0.149 GC
2 setlinecap
1 LJ
0.625 LW
N
<<<<<<< HEAD
516 320.889 M
513.79 320.889 L
=======
507 257.451 M
504.83 257.451 L
>>>>>>> f4de00b5db4de07fdb797f1545578c2683f6c040
S
GR
GS
[0.8 0 0 0.8 0 -0.40002] CT
0.149 GC
2 setlinecap
1 LJ
0.625 LW
N
<<<<<<< HEAD
516 315.553 M
513.79 315.553 L
=======
507 252.019 M
504.83 252.019 L
>>>>>>> f4de00b5db4de07fdb797f1545578c2683f6c040
S
GR
GS
[0.8 0 0 0.8 0 -0.40002] CT
0.149 GC
2 setlinecap
1 LJ
0.625 LW
N
<<<<<<< HEAD
516 311.04 M
513.79 311.04 L
=======
507 247.426 M
504.83 247.426 L
>>>>>>> f4de00b5db4de07fdb797f1545578c2683f6c040
S
GR
GS
[0.8 0 0 0.8 0 -0.40002] CT
0.149 GC
2 setlinecap
1 LJ
0.625 LW
N
<<<<<<< HEAD
516 307.132 M
513.79 307.132 L
=======
507 243.448 M
504.83 243.448 L
>>>>>>> f4de00b5db4de07fdb797f1545578c2683f6c040
S
GR
GS
[0.8 0 0 0.8 0 -0.40002] CT
0.149 GC
2 setlinecap
1 LJ
0.625 LW
N
<<<<<<< HEAD
516 303.684 M
513.79 303.684 L
=======
507 239.939 M
504.83 239.939 L
>>>>>>> f4de00b5db4de07fdb797f1545578c2683f6c040
S
GR
GS
[0.8 0 0 0.8 0 -0.40002] CT
0.149 GC
2 setlinecap
1 LJ
0.625 LW
N
<<<<<<< HEAD
516 300.6 M
513.79 300.6 L
=======
507 236.8 M
504.83 236.8 L
>>>>>>> f4de00b5db4de07fdb797f1545578c2683f6c040
S
GR
GS
[0.8 0 0 0.8 0 -0.40002] CT
0.149 GC
2 setlinecap
1 LJ
0.625 LW
N
<<<<<<< HEAD
516 280.311 M
513.79 280.311 L
=======
507 216.149 M
504.83 216.149 L
>>>>>>> f4de00b5db4de07fdb797f1545578c2683f6c040
S
GR
GS
[0.8 0 0 0.8 0 -0.40002] CT
0.149 GC
2 setlinecap
1 LJ
0.625 LW
N
<<<<<<< HEAD
516 268.442 M
513.79 268.442 L
=======
507 204.069 M
504.83 204.069 L
>>>>>>> f4de00b5db4de07fdb797f1545578c2683f6c040
S
GR
GS
[0.8 0 0 0.8 0 -0.40002] CT
0.149 GC
2 setlinecap
1 LJ
0.625 LW
N
<<<<<<< HEAD
516 260.021 M
513.79 260.021 L
=======
507 195.499 M
504.83 195.499 L
>>>>>>> f4de00b5db4de07fdb797f1545578c2683f6c040
S
GR
GS
[0.8 0 0 0.8 0 -0.40002] CT
0.149 GC
2 setlinecap
1 LJ
0.625 LW
N
<<<<<<< HEAD
516 253.489 M
513.79 253.489 L
=======
507 188.851 M
504.83 188.851 L
>>>>>>> f4de00b5db4de07fdb797f1545578c2683f6c040
S
GR
GS
[0.8 0 0 0.8 0 -0.40002] CT
0.149 GC
2 setlinecap
1 LJ
0.625 LW
N
<<<<<<< HEAD
516 248.153 M
513.79 248.153 L
=======
507 183.419 M
504.83 183.419 L
>>>>>>> f4de00b5db4de07fdb797f1545578c2683f6c040
S
GR
GS
[0.8 0 0 0.8 0 -0.40002] CT
0.149 GC
2 setlinecap
1 LJ
0.625 LW
N
<<<<<<< HEAD
516 243.64 M
513.79 243.64 L
=======
507 178.826 M
504.83 178.826 L
>>>>>>> f4de00b5db4de07fdb797f1545578c2683f6c040
S
GR
GS
[0.8 0 0 0.8 0 -0.40002] CT
0.149 GC
2 setlinecap
1 LJ
0.625 LW
N
<<<<<<< HEAD
516 239.732 M
513.79 239.732 L
=======
507 174.848 M
504.83 174.848 L
>>>>>>> f4de00b5db4de07fdb797f1545578c2683f6c040
S
GR
GS
[0.8 0 0 0.8 0 -0.40002] CT
0.149 GC
2 setlinecap
1 LJ
0.625 LW
N
<<<<<<< HEAD
516 236.284 M
513.79 236.284 L
=======
507 171.339 M
504.83 171.339 L
>>>>>>> f4de00b5db4de07fdb797f1545578c2683f6c040
S
GR
GS
[0.8 0 0 0.8 0 -0.40002] CT
0.149 GC
2 setlinecap
1 LJ
0.625 LW
N
<<<<<<< HEAD
516 233.2 M
513.79 233.2 L
=======
507 168.2 M
504.83 168.2 L
>>>>>>> f4de00b5db4de07fdb797f1545578c2683f6c040
S
GR
GS
[0.8 0 0 0.8 0 -0.40002] CT
0.149 GC
2 setlinecap
1 LJ
0.625 LW
N
<<<<<<< HEAD
516 212.911 M
513.79 212.911 L
=======
507 147.549 M
504.83 147.549 L
>>>>>>> f4de00b5db4de07fdb797f1545578c2683f6c040
S
GR
GS
[0.8 0 0 0.8 0 -0.40002] CT
0.149 GC
2 setlinecap
1 LJ
0.625 LW
N
<<<<<<< HEAD
516 201.042 M
513.79 201.042 L
=======
507 135.469 M
504.83 135.469 L
>>>>>>> f4de00b5db4de07fdb797f1545578c2683f6c040
S
GR
GS
[0.8 0 0 0.8 0 -0.40002] CT
0.149 GC
2 setlinecap
1 LJ
0.625 LW
N
<<<<<<< HEAD
516 192.621 M
513.79 192.621 L
=======
507 126.899 M
504.83 126.899 L
>>>>>>> f4de00b5db4de07fdb797f1545578c2683f6c040
S
GR
GS
[0.8 0 0 0.8 0 -0.40002] CT
0.149 GC
2 setlinecap
1 LJ
0.625 LW
N
<<<<<<< HEAD
516 186.089 M
513.79 186.089 L
=======
507 120.251 M
504.83 120.251 L
>>>>>>> f4de00b5db4de07fdb797f1545578c2683f6c040
S
GR
GS
[0.8 0 0 0.8 0 -0.40002] CT
0.149 GC
2 setlinecap
1 LJ
0.625 LW
N
<<<<<<< HEAD
516 180.753 M
513.79 180.753 L
=======
507 114.819 M
504.83 114.819 L
>>>>>>> f4de00b5db4de07fdb797f1545578c2683f6c040
S
GR
GS
[0.8 0 0 0.8 0 -0.40002] CT
0.149 GC
2 setlinecap
1 LJ
0.625 LW
N
<<<<<<< HEAD
516 176.24 M
513.79 176.24 L
=======
507 110.226 M
504.83 110.226 L
>>>>>>> f4de00b5db4de07fdb797f1545578c2683f6c040
S
GR
GS
[0.8 0 0 0.8 0 -0.40002] CT
0.149 GC
2 setlinecap
1 LJ
0.625 LW
N
<<<<<<< HEAD
516 172.332 M
513.79 172.332 L
=======
507 106.248 M
504.83 106.248 L
>>>>>>> f4de00b5db4de07fdb797f1545578c2683f6c040
S
GR
GS
[0.8 0 0 0.8 0 -0.40002] CT
0.149 GC
2 setlinecap
1 LJ
0.625 LW
N
<<<<<<< HEAD
516 168.884 M
513.79 168.884 L
=======
507 102.739 M
504.83 102.739 L
>>>>>>> f4de00b5db4de07fdb797f1545578c2683f6c040
S
GR
GS
[0.8 0 0 0.8 0 -0.40002] CT
0.149 GC
2 setlinecap
1 LJ
0.625 LW
N
<<<<<<< HEAD
516 165.8 M
513.79 165.8 L
=======
507 99.6 M
504.83 99.6 L
>>>>>>> f4de00b5db4de07fdb797f1545578c2683f6c040
S
GR
GS
[0.8 0 0 0.8 0 -0.40002] CT
0.149 GC
2 setlinecap
1 LJ
0.625 LW
N
<<<<<<< HEAD
516 145.511 M
513.79 145.511 L
=======
507 78.949 M
504.83 78.949 L
S
GR
GS
[0.75 0 0 0.75 0 0] CT
0.149 GC
2 setlinecap
1 LJ
0.667 LW
N
507 66.869 M
504.83 66.869 L
S
GR
GS
[0.75 0 0 0.75 0 0] CT
0.149 GC
2 setlinecap
1 LJ
0.667 LW
N
507 58.299 M
504.83 58.299 L
S
GR
GS
[0.75 0 0 0.75 0 0] CT
0.149 GC
2 setlinecap
1 LJ
0.667 LW
N
507 51.651 M
504.83 51.651 L
S
GR
GS
[0.75 0 0 0.75 0 0] CT
0.149 GC
2 setlinecap
1 LJ
0.667 LW
N
507 46.219 M
504.83 46.219 L
S
GR
GS
[0.75 0 0 0.75 0 0] CT
0.149 GC
2 setlinecap
1 LJ
0.667 LW
N
507 41.626 M
504.83 41.626 L
S
GR
GS
[0.75 0 0 0.75 0 0] CT
0.149 GC
2 setlinecap
1 LJ
0.667 LW
N
507 37.648 M
504.83 37.648 L
S
GR
GS
[0.75 0 0 0.75 0 0] CT
0.149 GC
2 setlinecap
1 LJ
0.667 LW
N
507 34.139 M
504.83 34.139 L
>>>>>>> f4de00b5db4de07fdb797f1545578c2683f6c040
S
GR
GS
[0.8 0 0 0.8 0 -0.40002] CT
0.149 GC
2 setlinecap
1 LJ
0.625 LW
N
516 133.642 M
513.79 133.642 L
S
GR
GS
<<<<<<< HEAD
[0.8 0 0 0.8 0 -0.40002] CT
=======
[0.75 0 0 0.75 30 285] CT
>>>>>>> f4de00b5db4de07fdb797f1545578c2683f6c040
0.149 GC
2 setlinecap
1 LJ
0.625 LW
N
516 125.221 M
513.79 125.221 L
S
GR
GS
[0.8 0 0 0.8 0 -0.40002] CT
0.149 GC
2 setlinecap
1 LJ
0.625 LW
N
516 118.689 M
513.79 118.689 L
S
GR
GS
[0.8 0 0 0.8 0 -0.40002] CT
0.149 GC
2 setlinecap
1 LJ
0.625 LW
N
516 113.353 M
513.79 113.353 L
S
GR
GS
[0.8 0 0 0.8 0 -0.40002] CT
0.149 GC
2 setlinecap
1 LJ
0.625 LW
N
516 108.84 M
513.79 108.84 L
S
GR
GS
[0.8 0 0 0.8 0 -0.40002] CT
0.149 GC
2 setlinecap
1 LJ
0.625 LW
N
516 104.932 M
513.79 104.932 L
S
GR
GS
[0.8 0 0 0.8 0 -0.40002] CT
0.149 GC
2 setlinecap
1 LJ
0.625 LW
N
516 101.484 M
513.79 101.484 L
S
GR
GS
[0.8 0 0 0.8 0 -0.40002] CT
0.149 GC
2 setlinecap
1 LJ
0.625 LW
N
516 98.4 M
513.79 98.4 L
S
GR
GS
[0.8 0 0 0.8 0 -0.40002] CT
0.149 GC
2 setlinecap
1 LJ
0.625 LW
N
516 78.111 M
513.79 78.111 L
S
GR
GS
[0.8 0 0 0.8 0 -0.40002] CT
0.149 GC
2 setlinecap
1 LJ
0.625 LW
N
516 66.242 M
513.79 66.242 L
S
GR
GS
[0.8 0 0 0.8 0 -0.40002] CT
0.149 GC
2 setlinecap
1 LJ
0.625 LW
N
516 57.821 M
513.79 57.821 L
S
GR
GS
[0.8 0 0 0.8 0 -0.40002] CT
0.149 GC
2 setlinecap
1 LJ
0.625 LW
N
516 51.289 M
513.79 51.289 L
S
GR
GS
[0.8 0 0 0.8 0 -0.40002] CT
0.149 GC
2 setlinecap
1 LJ
0.625 LW
N
516 45.953 M
513.79 45.953 L
S
GR
GS
[0.8 0 0 0.8 0 -0.40002] CT
0.149 GC
2 setlinecap
1 LJ
0.625 LW
N
516 41.44 M
513.79 41.44 L
S
GR
GS
[0.8 0 0 0.8 0 -0.40002] CT
0.149 GC
2 setlinecap
1 LJ
0.625 LW
N
516 37.532 M
513.79 37.532 L
S
GR
GS
[0.8 0 0 0.8 0 -0.40002] CT
0.149 GC
2 setlinecap
1 LJ
0.625 LW
N
516 34.084 M
513.79 34.084 L
S
GR
GS
[0.8 0 0 0.8 0 -0.40002] CT
0.149 GC
2 setlinecap
1 LJ
0.625 LW
N
516 31 M
513.79 31 L
S
GR
GS
[0.8 0 0 0.8 34.4 299.6] CT
0.149 GC
/Helvetica 12.5 F
GS
[1 0 0 1 0 0] CT
0 0 moveto 
1 -1 scale
(10) t 
GR
GR
GS
<<<<<<< HEAD
[0.8 0 0 0.8 47.2 294.8] CT
=======
[0.75 0 0 0.75 42.75 280.5] CT
0.149 GC
/Helvetica 10.667 F
GS
[1 0 0 1 0 0] CT
0 0 moveto 
1 -1 scale
(-4) t 
GR
GR
GS
[0.75 0 0 0.75 30 233.25] CT
0.149 GC
/Helvetica 13.333 F
GS
[1 0 0 1 0 0] CT
0 0 moveto 
1 -1 scale
(10) t 
GR
GR
GS
[0.75 0 0 0.75 42.75 228.75] CT
>>>>>>> f4de00b5db4de07fdb797f1545578c2683f6c040
0.149 GC
/Helvetica 10 F
GS
[1 0 0 1 0 0] CT
0 0 moveto 
1 -1 scale
(-4) t 
GR
GR
GS
[0.8 0 0 0.8 34.4 245.99999] CT
0.149 GC
/Helvetica 12.5 F
GS
[1 0 0 1 0 0] CT
0 0 moveto 
1 -1 scale
(10) t 
GR
GR
GS
[0.8 0 0 0.8 47.2 241.19999] CT
0.149 GC
/Helvetica 10 F
GS
[1 0 0 1 0 0] CT
0 0 moveto 
1 -1 scale
(-3) t 
GR
GR
GS
<<<<<<< HEAD
[0.8 0 0 0.8 34.4 191.59999] CT
=======
[0.75 0 0 0.75 30 182.25] CT
>>>>>>> f4de00b5db4de07fdb797f1545578c2683f6c040
0.149 GC
/Helvetica 12.5 F
GS
[1 0 0 1 0 0] CT
0 0 moveto 
1 -1 scale
(10) t 
GR
GR
GS
<<<<<<< HEAD
[0.8 0 0 0.8 47.2 186.79999] CT
=======
[0.75 0 0 0.75 42.75 177.75] CT
>>>>>>> f4de00b5db4de07fdb797f1545578c2683f6c040
0.149 GC
/Helvetica 10 F
GS
[1 0 0 1 0 0] CT
0 0 moveto 
1 -1 scale
(-2) t 
GR
GR
GS
<<<<<<< HEAD
[0.8 0 0 0.8 34.4 137.99999] CT
=======
[0.75 0 0 0.75 30 130.5] CT
>>>>>>> f4de00b5db4de07fdb797f1545578c2683f6c040
0.149 GC
/Helvetica 12.5 F
GS
[1 0 0 1 0 0] CT
0 0 moveto 
1 -1 scale
(10) t 
GR
GR
GS
<<<<<<< HEAD
[0.8 0 0 0.8 47.2 133.19999] CT
=======
[0.75 0 0 0.75 42.75 126] CT
>>>>>>> f4de00b5db4de07fdb797f1545578c2683f6c040
0.149 GC
/Helvetica 10 F
GS
[1 0 0 1 0 0] CT
0 0 moveto 
1 -1 scale
(-1) t 
GR
GR
GS
<<<<<<< HEAD
[0.8 0 0 0.8 36.8 83.59998] CT
=======
[0.75 0 0 0.75 33 79.5] CT
>>>>>>> f4de00b5db4de07fdb797f1545578c2683f6c040
0.149 GC
/Helvetica 12.5 F
GS
[1 0 0 1 0 0] CT
0 0 moveto 
1 -1 scale
(10) t 
GR
GR
GS
<<<<<<< HEAD
[0.8 0 0 0.8 49.6 78.79998] CT
=======
[0.75 0 0 0.75 45.75 75] CT
>>>>>>> f4de00b5db4de07fdb797f1545578c2683f6c040
0.149 GC
/Helvetica 10 F
GS
[1 0 0 1 0 0] CT
0 0 moveto 
1 -1 scale
(0) t 
GR
GR
GS
[0.8 0 0 0.8 36.8 29.99998] CT
0.149 GC
/Helvetica 12.5 F
GS
[1 0 0 1 0 0] CT
0 0 moveto 
1 -1 scale
(10) t 
GR
GR
GS
[0.8 0 0 0.8 49.6 25.19998] CT
0.149 GC
/Helvetica 10 F
GS
[1 0 0 1 0 0] CT
0 0 moveto 
1 -1 scale
(1) t 
GR
GR
GS
[0 -0.8 0.8 0 31.4 159.19985] CT
0.149 GC
/Helvetica 13.75 F
GS
[1 0 0 1 0 0] CT
-68.5 -4 moveto 
1 -1 scale
(Error in total torque) t 
GR
GR
GS
[0.8 0 0 0.8 0 -0.40002] CT
0 0.447 0.741 RC
1 LJ
2.5 LW
N
<<<<<<< HEAD
516 210.486 M
429.27 222.274 L
341.116 289.197 L
252.318 288.775 L
163.23 285.941 L
74 326.04 L
S
GR
GS
[0.8 0 0 0.8 412.8 167.98883] CT
=======
507 213.682 M
421.84 225.679 L
335.281 293.793 L
248.09 293.364 L
160.615 290.48 L
73 331.293 L
S
GR
GS
[0.75 0 0 0.75 380.25 160.26124] CT
>>>>>>> f4de00b5db4de07fdb797f1545578c2683f6c040
0 0.447 0.741 RC
10.0 ML
2.5 LW
N
0 -7 M
0 7 L
-7 0 M
7 0 L
S
GR
GS
<<<<<<< HEAD
[0.8 0 0 0.8 343.41616 177.41918] CT
=======
[0.75 0 0 0.75 316.38 169.25959] CT
>>>>>>> f4de00b5db4de07fdb797f1545578c2683f6c040
0 0.447 0.741 RC
10.0 ML
2.5 LW
N
0 -7 M
0 7 L
-7 0 M
7 0 L
S
GR
GS
<<<<<<< HEAD
[0.8 0 0 0.8 272.8927 230.95719] CT
=======
[0.75 0 0 0.75 251.46089 220.34509] CT
>>>>>>> f4de00b5db4de07fdb797f1545578c2683f6c040
0 0.447 0.741 RC
10.0 ML
2.5 LW
N
0 -7 M
0 7 L
-7 0 M
7 0 L
S
GR
GS
<<<<<<< HEAD
[0.8 0 0 0.8 201.85402 230.61987] CT
=======
[0.75 0 0 0.75 186.06753 220.02322] CT
>>>>>>> f4de00b5db4de07fdb797f1545578c2683f6c040
0 0.447 0.741 RC
10.0 ML
2.5 LW
N
0 -7 M
0 7 L
-7 0 M
7 0 L
S
GR
GS
<<<<<<< HEAD
[0.8 0 0 0.8 130.58419 228.35304] CT
=======
[0.75 0 0 0.75 120.46141 217.86024] CT
0 0.447 0.741 RC
10.0 ML
2.667 LW
N
0 -7 M
0 7 L
-7 0 M
7 0 L
S
GR
GS
[0.75 0 0 0.75 54.75 248.46984] CT
>>>>>>> f4de00b5db4de07fdb797f1545578c2683f6c040
0 0.447 0.741 RC
10.0 ML
2.5 LW
N
0 -7 M
0 7 L
-7 0 M
7 0 L
S
GR
GS
[0.8 0 0 0.8 59.2 260.43215] CT
0 0.447 0.741 RC
10.0 ML
2.5 LW
N
0 -7 M
0 7 L
-7 0 M
7 0 L
S
GR
GS
[0.8 0 0 0.8 0 -0.40002] CT
0.851 0.325 0.098 RC
1 LJ
2.5 LW
N
<<<<<<< HEAD
516 98.086 M
429.27 97.877 L
341.116 183.793 L
252.318 178.167 L
163.23 251.48 L
74 269.592 L
S
GR
GS
[0.8 0 0 0.8 412.8 78.0684] CT
=======
507 99.28 M
421.84 99.067 L
335.281 186.514 L
248.09 180.787 L
160.615 255.406 L
73 273.84 L
S
GR
GS
[0.75 0 0 0.75 380.25 74.45994] CT
>>>>>>> f4de00b5db4de07fdb797f1545578c2683f6c040
0.851 0.325 0.098 RC
10.0 ML
2.5 LW
N
0 -8.331 M
-7.215 4.166 L
7.215 4.166 L
cp
S
GR
GS
<<<<<<< HEAD
[0.8 0 0 0.8 343.41616 77.90121] CT
=======
[0.75 0 0 0.75 316.38 74.30041] CT
>>>>>>> f4de00b5db4de07fdb797f1545578c2683f6c040
0.851 0.325 0.098 RC
10.0 ML
2.5 LW
N
0 -8.331 M
-7.215 4.166 L
7.215 4.166 L
cp
S
GR
GS
<<<<<<< HEAD
[0.8 0 0 0.8 272.8927 146.63464] CT
=======
[0.75 0 0 0.75 251.46089 139.88525] CT
>>>>>>> f4de00b5db4de07fdb797f1545578c2683f6c040
0.851 0.325 0.098 RC
10.0 ML
2.5 LW
N
0 -8.331 M
-7.215 4.166 L
7.215 4.166 L
cp
S
GR
GS
<<<<<<< HEAD
[0.8 0 0 0.8 201.85402 142.13321] CT
=======
[0.75 0 0 0.75 186.06753 135.59003] CT
>>>>>>> f4de00b5db4de07fdb797f1545578c2683f6c040
0.851 0.325 0.098 RC
10.0 ML
2.5 LW
N
0 -8.331 M
-7.215 4.166 L
7.215 4.166 L
cp
S
GR
GS
<<<<<<< HEAD
[0.8 0 0 0.8 130.58419 200.78428] CT
=======
[0.75 0 0 0.75 120.46141 191.55437] CT
0.851 0.325 0.098 RC
10.0 ML
2.667 LW
N
0 -8.887 M
-7.696 4.443 L
7.696 4.443 L
cp
S
GR
GS
[0.75 0 0 0.75 54.75 205.38018] CT
>>>>>>> f4de00b5db4de07fdb797f1545578c2683f6c040
0.851 0.325 0.098 RC
10.0 ML
2.5 LW
N
0 -8.331 M
-7.215 4.166 L
7.215 4.166 L
cp
S
GR
GS
[0.8 0 0 0.8 59.2 215.27384] CT
0.851 0.325 0.098 RC
10.0 ML
2.5 LW
N
0 -8.331 M
-7.215 4.166 L
7.215 4.166 L
cp
S
GR
GS
[0.8 0 0 0.8 0 -0.40002] CT
[10 6] 0 setdash
2 LJ
0.625 LW
N
<<<<<<< HEAD
516 215.914 M
429.27 237.413 L
341.116 259.266 L
252.318 281.278 L
163.23 303.362 L
74 325.481 L
=======
507 219.206 M
421.84 241.088 L
335.281 263.33 L
248.09 285.734 L
160.615 308.211 L
73 330.724 L
>>>>>>> f4de00b5db4de07fdb797f1545578c2683f6c040
S
GR
GS
[0.8 0 0 0.8 0 -0.40002] CT
[10 6] 0 setdash
2 LJ
0.625 LW
N
<<<<<<< HEAD
516 86.548 M
429.27 123.322 L
341.116 160.699 L
252.318 198.349 L
163.23 236.122 L
74 273.955 L
=======
507 87.537 M
421.84 124.965 L
335.281 163.008 L
248.09 201.328 L
160.615 239.774 L
73 278.281 L
>>>>>>> f4de00b5db4de07fdb797f1545578c2683f6c040
S
GR
GS
[0.8 0 0 0.8 0 -0.40002] CT
1 GC
N
506 358 M
506 325 L
432 325 L
432 358 L
cp
f
GR
GS
[0.8 0 0 0.8 381.44219 266.91076] CT
/Helvetica 11.25 F
GS
[1 0 0 1 0 0] CT
0 4 moveto 
1 -1 scale
(BEM) t 
GR
GR
GS
[0.8 0 0 0.8 0 -0.40002] CT
0 0.447 0.741 RC
1 LJ
2.5 LW
N
436.027 334.138 M
473.782 334.138 L
S
GR
GS
[0.8 0 0 0.8 363.9238 266.91076] CT
0 0.447 0.741 RC
10.0 ML
2.5 LW
N
0 -6 M
0 6 L
-6 0 M
6 0 L
S
GR
GS
[0.8 0 0 0.8 381.44219 278.68923] CT
/Helvetica 11.25 F
GS
[1 0 0 1 0 0] CT
0 4 moveto 
1 -1 scale
(MST) t 
GR
GR
GS
[0.8 0 0 0.8 0 -0.40002] CT
0.851 0.325 0.098 RC
1 LJ
2.5 LW
N
436.027 348.862 M
473.782 348.862 L
S
GR
GS
[0.8 0 0 0.8 363.9238 278.68923] CT
0.851 0.325 0.098 RC
10.0 ML
2.5 LW
N
0 -7.498 M
-6.493 3.749 L
6.493 3.749 L
cp
S
GR
GS
[0.8 0 0 0.8 0 -0.40002] CT
0.149 GC
10.0 ML
0.625 LW
N
432 358 M
432 325 L
506 325 L
506 358 L
cp
S
GR
%%Trailer
%%Pages: 1
%%EOF
