%!PS-Adobe-3.0 EPSF-3.0
%%Creator: (MATLAB, The Mathworks, Inc. Version 9.13.0.2105380 \(R2022b\) Update 2. Operating System: Linux)
%%Title: ./PMCFSP_forcesNtorques_getMeshSphere_forces.eps
<<<<<<< HEAD
%%CreationDate: 2024-01-22T01:20:03
%%Pages: (atend)
%%BoundingBox:    18     9   413   317
=======
%%CreationDate: 2024-01-22T00:32:23
%%Pages: (atend)
%%BoundingBox:    15     6   388   298
>>>>>>> f4de00b5db4de07fdb797f1545578c2683f6c040
%%LanguageLevel: 3
%%EndComments
%%BeginProlog
%%BeginResource: procset (Apache XML Graphics Std ProcSet) 1.2 0
%%Version: 1.2 0
%%Copyright: (Copyright 2001-2003,2010 The Apache Software Foundation. License terms: http://www.apache.org/licenses/LICENSE-2.0)
/bd{bind def}bind def
/ld{load def}bd
/GR/grestore ld
/GS/gsave ld
/RM/rmoveto ld
/C/curveto ld
/t/show ld
/L/lineto ld
/ML/setmiterlimit ld
/CT/concat ld
/f/fill ld
/N/newpath ld
/S/stroke ld
/CC/setcmykcolor ld
/A/ashow ld
/cp/closepath ld
/RC/setrgbcolor ld
/LJ/setlinejoin ld
/GC/setgray ld
/LW/setlinewidth ld
/M/moveto ld
/re {4 2 roll M
1 index 0 rlineto
0 exch rlineto
neg 0 rlineto
cp } bd
/_ctm matrix def
/_tm matrix def
/BT { _ctm currentmatrix pop matrix _tm copy pop 0 0 moveto } bd
/ET { _ctm setmatrix } bd
/iTm { _ctm setmatrix _tm concat } bd
/Tm { _tm astore pop iTm 0 0 moveto } bd
/ux 0.0 def
/uy 0.0 def
/F {
  /Tp exch def
  /Tf exch def
  Tf findfont Tp scalefont setfont
  /cf Tf def  /cs Tp def
} bd
/ULS {currentpoint /uy exch def /ux exch def} bd
/ULE {
  /Tcx currentpoint pop def
  gsave
  newpath
  cf findfont cs scalefont dup
  /FontMatrix get 0 get /Ts exch def /FontInfo get dup
  /UnderlinePosition get Ts mul /To exch def
  /UnderlineThickness get Ts mul /Tt exch def
  ux uy To add moveto  Tcx uy To add lineto
  Tt setlinewidth stroke
  grestore
} bd
/OLE {
  /Tcx currentpoint pop def
  gsave
  newpath
  cf findfont cs scalefont dup
  /FontMatrix get 0 get /Ts exch def /FontInfo get dup
  /UnderlinePosition get Ts mul /To exch def
  /UnderlineThickness get Ts mul /Tt exch def
  ux uy To add cs add moveto Tcx uy To add cs add lineto
  Tt setlinewidth stroke
  grestore
} bd
/SOE {
  /Tcx currentpoint pop def
  gsave
  newpath
  cf findfont cs scalefont dup
  /FontMatrix get 0 get /Ts exch def /FontInfo get dup
  /UnderlinePosition get Ts mul /To exch def
  /UnderlineThickness get Ts mul /Tt exch def
  ux uy To add cs 10 mul 26 idiv add moveto Tcx uy To add cs 10 mul 26 idiv add lineto
  Tt setlinewidth stroke
  grestore
} bd
/QT {
/Y22 exch store
/X22 exch store
/Y21 exch store
/X21 exch store
currentpoint
/Y21 load 2 mul add 3 div exch
/X21 load 2 mul add 3 div exch
/X21 load 2 mul /X22 load add 3 div
/Y21 load 2 mul /Y22 load add 3 div
/X22 load /Y22 load curveto
} bd
/SSPD {
dup length /d exch dict def
{
/v exch def
/k exch def
currentpagedevice k known {
/cpdv currentpagedevice k get def
v cpdv ne {
/upd false def
/nullv v type /nulltype eq def
/nullcpdv cpdv type /nulltype eq def
nullv nullcpdv or
{
/upd true def
} {
/sametype v type cpdv type eq def
sametype {
v type /arraytype eq {
/vlen v length def
/cpdvlen cpdv length def
vlen cpdvlen eq {
0 1 vlen 1 sub {
/i exch def
/obj v i get def
/cpdobj cpdv i get def
obj cpdobj ne {
/upd true def
exit
} if
} for
} {
/upd true def
} ifelse
} {
v type /dicttype eq {
v {
/dv exch def
/dk exch def
/cpddv cpdv dk get def
dv cpddv ne {
/upd true def
exit
} if
} forall
} {
/upd true def
} ifelse
} ifelse
} if
} ifelse
upd true eq {
d k v put
} if
} if
} if
} forall
d length 0 gt {
d setpagedevice
} if
} bd
/RE { % /NewFontName [NewEncodingArray] /FontName RE -
  findfont dup length dict begin
  {
    1 index /FID ne
    {def} {pop pop} ifelse
  } forall
  /Encoding exch def
  /FontName 1 index def
  currentdict definefont pop
  end
} bind def
%%EndResource
%%BeginResource: procset (Apache XML Graphics EPS ProcSet) 1.0 0
%%Version: 1.0 0
%%Copyright: (Copyright 2002-2003 The Apache Software Foundation. License terms: http://www.apache.org/licenses/LICENSE-2.0)
/BeginEPSF { %def
/b4_Inc_state save def         % Save state for cleanup
/dict_count countdictstack def % Count objects on dict stack
/op_count count 1 sub def      % Count objects on operand stack
userdict begin                 % Push userdict on dict stack
/showpage { } def              % Redefine showpage, { } = null proc
0 setgray 0 setlinecap         % Prepare graphics state
1 setlinewidth 0 setlinejoin
10 setmiterlimit [ ] 0 setdash newpath
/languagelevel where           % If level not equal to 1 then
{pop languagelevel             % set strokeadjust and
1 ne                           % overprint to their defaults.
{false setstrokeadjust false setoverprint
} if
} if
} bd
/EndEPSF { %def
count op_count sub {pop} repeat            % Clean up stacks
countdictstack dict_count sub {end} repeat
b4_Inc_state restore
} bd
%%EndResource
%FOPBeginFontDict
%%IncludeResource: font Courier-Oblique
%%IncludeResource: font Courier-BoldOblique
%%IncludeResource: font Courier-Bold
%%IncludeResource: font ZapfDingbats
%%IncludeResource: font Symbol
%%IncludeResource: font Helvetica
%%IncludeResource: font Helvetica-Oblique
%%IncludeResource: font Helvetica-Bold
%%IncludeResource: font Helvetica-BoldOblique
%%IncludeResource: font Times-Roman
%%IncludeResource: font Times-Italic
%%IncludeResource: font Times-Bold
%%IncludeResource: font Times-BoldItalic
%%IncludeResource: font Courier
%FOPEndFontDict
%%BeginResource: encoding WinAnsiEncoding
/WinAnsiEncoding [
/.notdef /.notdef /.notdef /.notdef /.notdef
/.notdef /.notdef /.notdef /.notdef /.notdef
/.notdef /.notdef /.notdef /.notdef /.notdef
/.notdef /.notdef /.notdef /.notdef /.notdef
/.notdef /.notdef /.notdef /.notdef /.notdef
/.notdef /.notdef /.notdef /.notdef /.notdef
/.notdef /.notdef /space /exclam /quotedbl
/numbersign /dollar /percent /ampersand /quotesingle
/parenleft /parenright /asterisk /plus /comma
/hyphen /period /slash /zero /one
/two /three /four /five /six
/seven /eight /nine /colon /semicolon
/less /equal /greater /question /at
/A /B /C /D /E
/F /G /H /I /J
/K /L /M /N /O
/P /Q /R /S /T
/U /V /W /X /Y
/Z /bracketleft /backslash /bracketright /asciicircum
/underscore /quoteleft /a /b /c
/d /e /f /g /h
/i /j /k /l /m
/n /o /p /q /r
/s /t /u /v /w
/x /y /z /braceleft /bar
/braceright /asciitilde /bullet /Euro /bullet
/quotesinglbase /florin /quotedblbase /ellipsis /dagger
/daggerdbl /circumflex /perthousand /Scaron /guilsinglleft
/OE /bullet /Zcaron /bullet /bullet
/quoteleft /quoteright /quotedblleft /quotedblright /bullet
/endash /emdash /asciitilde /trademark /scaron
/guilsinglright /oe /bullet /zcaron /Ydieresis
/space /exclamdown /cent /sterling /currency
/yen /brokenbar /section /dieresis /copyright
/ordfeminine /guillemotleft /logicalnot /sfthyphen /registered
/macron /degree /plusminus /twosuperior /threesuperior
/acute /mu /paragraph /middot /cedilla
/onesuperior /ordmasculine /guillemotright /onequarter /onehalf
/threequarters /questiondown /Agrave /Aacute /Acircumflex
/Atilde /Adieresis /Aring /AE /Ccedilla
/Egrave /Eacute /Ecircumflex /Edieresis /Igrave
/Iacute /Icircumflex /Idieresis /Eth /Ntilde
/Ograve /Oacute /Ocircumflex /Otilde /Odieresis
/multiply /Oslash /Ugrave /Uacute /Ucircumflex
/Udieresis /Yacute /Thorn /germandbls /agrave
/aacute /acircumflex /atilde /adieresis /aring
/ae /ccedilla /egrave /eacute /ecircumflex
/edieresis /igrave /iacute /icircumflex /idieresis
/eth /ntilde /ograve /oacute /ocircumflex
/otilde /odieresis /divide /oslash /ugrave
/uacute /ucircumflex /udieresis /yacute /thorn
/ydieresis
] def
%%EndResource
%FOPBeginFontReencode
/Courier-Oblique findfont
dup length dict begin
  {1 index /FID ne {def} {pop pop} ifelse} forall
  /Encoding WinAnsiEncoding def
  currentdict
end
/Courier-Oblique exch definefont pop
/Courier-BoldOblique findfont
dup length dict begin
  {1 index /FID ne {def} {pop pop} ifelse} forall
  /Encoding WinAnsiEncoding def
  currentdict
end
/Courier-BoldOblique exch definefont pop
/Courier-Bold findfont
dup length dict begin
  {1 index /FID ne {def} {pop pop} ifelse} forall
  /Encoding WinAnsiEncoding def
  currentdict
end
/Courier-Bold exch definefont pop
/Helvetica findfont
dup length dict begin
  {1 index /FID ne {def} {pop pop} ifelse} forall
  /Encoding WinAnsiEncoding def
  currentdict
end
/Helvetica exch definefont pop
/Helvetica-Oblique findfont
dup length dict begin
  {1 index /FID ne {def} {pop pop} ifelse} forall
  /Encoding WinAnsiEncoding def
  currentdict
end
/Helvetica-Oblique exch definefont pop
/Helvetica-Bold findfont
dup length dict begin
  {1 index /FID ne {def} {pop pop} ifelse} forall
  /Encoding WinAnsiEncoding def
  currentdict
end
/Helvetica-Bold exch definefont pop
/Helvetica-BoldOblique findfont
dup length dict begin
  {1 index /FID ne {def} {pop pop} ifelse} forall
  /Encoding WinAnsiEncoding def
  currentdict
end
/Helvetica-BoldOblique exch definefont pop
/Times-Roman findfont
dup length dict begin
  {1 index /FID ne {def} {pop pop} ifelse} forall
  /Encoding WinAnsiEncoding def
  currentdict
end
/Times-Roman exch definefont pop
/Times-Italic findfont
dup length dict begin
  {1 index /FID ne {def} {pop pop} ifelse} forall
  /Encoding WinAnsiEncoding def
  currentdict
end
/Times-Italic exch definefont pop
/Times-Bold findfont
dup length dict begin
  {1 index /FID ne {def} {pop pop} ifelse} forall
  /Encoding WinAnsiEncoding def
  currentdict
end
/Times-Bold exch definefont pop
/Times-BoldItalic findfont
dup length dict begin
  {1 index /FID ne {def} {pop pop} ifelse} forall
  /Encoding WinAnsiEncoding def
  currentdict
end
/Times-BoldItalic exch definefont pop
/Courier findfont
dup length dict begin
  {1 index /FID ne {def} {pop pop} ifelse} forall
  /Encoding WinAnsiEncoding def
  currentdict
end
/Courier exch definefont pop
%FOPEndFontReencode
%%EndProlog
%%Page: 1 1
<<<<<<< HEAD
%%PageBoundingBox: 0 0 448 336
%%BeginPageSetup
N
   18     9 M
  431     9 L
  431   326 L
   18   326 L
cp
clip
[1 0 0 -1 0 336] CT
%%EndPageSetup
GS
[0.8 0 0 0.8 0 0] CT
=======
%%PageBoundingBox: 0 0 420 315
%%BeginPageSetup
N
   15     6 M
  403     6 L
  403   304 L
   15   304 L
cp
clip
[1 0 0 -1 0 315] CT
%%EndPageSetup
GS
[0.75 0 0 0.75 0 0] CT
>>>>>>> f4de00b5db4de07fdb797f1545578c2683f6c040
1 GC
N
0 0 560 420 re
f
GR
GS
<<<<<<< HEAD
[0.8 0 0 0.8 0 0] CT
=======
[0.75 0 0 0.75 0 0] CT
>>>>>>> f4de00b5db4de07fdb797f1545578c2683f6c040
1 GC
N
0 0 560 420 re
f
GR
GS
<<<<<<< HEAD
[0.8 0 0 0.8 0 0] CT
=======
[0.75 0 0 0.75 0 0] CT
>>>>>>> f4de00b5db4de07fdb797f1545578c2683f6c040
1 GC
N
73 374 M
507 374 L
507 31 L
73 31 L
cp
f
GR
GS
<<<<<<< HEAD
[0.8 0 0 0.8 0 0] CT
=======
[0.75 0 0 0.75 0 0] CT
>>>>>>> f4de00b5db4de07fdb797f1545578c2683f6c040
0.149 GC
2 setlinecap
1 LJ
0.625 LW
N
73 374 M
507 374 L
S
GR
GS
<<<<<<< HEAD
[0.8 0 0 0.8 0 0] CT
=======
[0.75 0 0 0.75 0 0] CT
>>>>>>> f4de00b5db4de07fdb797f1545578c2683f6c040
0.149 GC
2 setlinecap
1 LJ
0.625 LW
N
73 31 M
507 31 L
S
GR
GS
<<<<<<< HEAD
[0.8 0 0 0.8 0 0] CT
=======
[0.75 0 0 0.75 0 0] CT
>>>>>>> f4de00b5db4de07fdb797f1545578c2683f6c040
0.149 GC
2 setlinecap
1 LJ
0.625 LW
N
134.976 374 M
134.976 369.66 L
S
GR
GS
<<<<<<< HEAD
[0.8 0 0 0.8 0 0] CT
=======
[0.75 0 0 0.75 0 0] CT
>>>>>>> f4de00b5db4de07fdb797f1545578c2683f6c040
0.149 GC
2 setlinecap
1 LJ
0.625 LW
N
237.645 374 M
237.645 369.66 L
S
GR
GS
<<<<<<< HEAD
[0.8 0 0 0.8 0 0] CT
=======
[0.75 0 0 0.75 0 0] CT
>>>>>>> f4de00b5db4de07fdb797f1545578c2683f6c040
0.149 GC
2 setlinecap
1 LJ
0.625 LW
N
310.49 374 M
310.49 369.66 L
S
GR
GS
<<<<<<< HEAD
[0.8 0 0 0.8 0 0] CT
=======
[0.75 0 0 0.75 0 0] CT
>>>>>>> f4de00b5db4de07fdb797f1545578c2683f6c040
0.149 GC
2 setlinecap
1 LJ
0.625 LW
N
366.994 374 M
366.994 369.66 L
S
GR
GS
<<<<<<< HEAD
[0.8 0 0 0.8 0 0] CT
=======
[0.75 0 0 0.75 0 0] CT
>>>>>>> f4de00b5db4de07fdb797f1545578c2683f6c040
0.149 GC
2 setlinecap
1 LJ
0.625 LW
N
413.16 374 M
413.16 369.66 L
S
GR
GS
<<<<<<< HEAD
[0.8 0 0 0.8 0 0] CT
=======
[0.75 0 0 0.75 0 0] CT
>>>>>>> f4de00b5db4de07fdb797f1545578c2683f6c040
0.149 GC
2 setlinecap
1 LJ
0.625 LW
N
452.193 374 M
452.193 369.66 L
S
GR
GS
<<<<<<< HEAD
[0.8 0 0 0.8 0 0] CT
=======
[0.75 0 0 0.75 0 0] CT
>>>>>>> f4de00b5db4de07fdb797f1545578c2683f6c040
0.149 GC
2 setlinecap
1 LJ
0.625 LW
N
486.005 374 M
486.005 369.66 L
S
GR
GS
<<<<<<< HEAD
[0.8 0 0 0.8 0 0] CT
=======
[0.75 0 0 0.75 0 0] CT
>>>>>>> f4de00b5db4de07fdb797f1545578c2683f6c040
0.149 GC
2 setlinecap
1 LJ
0.625 LW
N
134.976 31 M
134.976 35.34 L
S
GR
GS
<<<<<<< HEAD
[0.8 0 0 0.8 0 0] CT
=======
[0.75 0 0 0.75 0 0] CT
>>>>>>> f4de00b5db4de07fdb797f1545578c2683f6c040
0.149 GC
2 setlinecap
1 LJ
0.625 LW
N
237.645 31 M
237.645 35.34 L
S
GR
GS
<<<<<<< HEAD
[0.8 0 0 0.8 0 0] CT
=======
[0.75 0 0 0.75 0 0] CT
>>>>>>> f4de00b5db4de07fdb797f1545578c2683f6c040
0.149 GC
2 setlinecap
1 LJ
0.625 LW
N
310.49 31 M
310.49 35.34 L
S
GR
GS
<<<<<<< HEAD
[0.8 0 0 0.8 0 0] CT
=======
[0.75 0 0 0.75 0 0] CT
>>>>>>> f4de00b5db4de07fdb797f1545578c2683f6c040
0.149 GC
2 setlinecap
1 LJ
0.625 LW
N
366.994 31 M
366.994 35.34 L
S
GR
GS
<<<<<<< HEAD
[0.8 0 0 0.8 0 0] CT
=======
[0.75 0 0 0.75 0 0] CT
>>>>>>> f4de00b5db4de07fdb797f1545578c2683f6c040
0.149 GC
2 setlinecap
1 LJ
0.625 LW
N
413.16 31 M
413.16 35.34 L
S
GR
GS
<<<<<<< HEAD
[0.8 0 0 0.8 0 0] CT
=======
[0.75 0 0 0.75 0 0] CT
>>>>>>> f4de00b5db4de07fdb797f1545578c2683f6c040
0.149 GC
2 setlinecap
1 LJ
0.625 LW
N
452.193 31 M
452.193 35.34 L
S
GR
GS
<<<<<<< HEAD
[0.8 0 0 0.8 0 0] CT
=======
[0.75 0 0 0.75 0 0] CT
>>>>>>> f4de00b5db4de07fdb797f1545578c2683f6c040
0.149 GC
2 setlinecap
1 LJ
0.625 LW
N
486.005 31 M
486.005 35.34 L
S
GR
GS
<<<<<<< HEAD
[0.8 0 0 0.8 0 0] CT
=======
[0.75 0 0 0.75 0 0] CT
>>>>>>> f4de00b5db4de07fdb797f1545578c2683f6c040
0.149 GC
2 setlinecap
1 LJ
0.625 LW
N
78.472 374 M
78.472 371.83 L
S
GR
GS
<<<<<<< HEAD
[0.8 0 0 0.8 0 0] CT
=======
[0.75 0 0 0.75 0 0] CT
>>>>>>> f4de00b5db4de07fdb797f1545578c2683f6c040
0.149 GC
2 setlinecap
1 LJ
0.625 LW
N
108.297 374 M
108.297 371.83 L
S
GR
GS
<<<<<<< HEAD
[0.8 0 0 0.8 0 0] CT
=======
[0.75 0 0 0.75 0 0] CT
>>>>>>> f4de00b5db4de07fdb797f1545578c2683f6c040
0.149 GC
2 setlinecap
1 LJ
0.625 LW
N
159.11 374 M
159.11 371.83 L
S
GR
GS
<<<<<<< HEAD
[0.8 0 0 0.8 0 0] CT
=======
[0.75 0 0 0.75 0 0] CT
>>>>>>> f4de00b5db4de07fdb797f1545578c2683f6c040
0.149 GC
2 setlinecap
1 LJ
0.625 LW
N
181.142 374 M
181.142 371.83 L
S
GR
GS
<<<<<<< HEAD
[0.8 0 0 0.8 0 0] CT
=======
[0.75 0 0 0.75 0 0] CT
>>>>>>> f4de00b5db4de07fdb797f1545578c2683f6c040
0.149 GC
2 setlinecap
1 LJ
0.625 LW
N
201.41 374 M
201.41 371.83 L
S
GR
GS
<<<<<<< HEAD
[0.8 0 0 0.8 0 0] CT
=======
[0.75 0 0 0.75 0 0] CT
>>>>>>> f4de00b5db4de07fdb797f1545578c2683f6c040
0.149 GC
2 setlinecap
1 LJ
0.625 LW
N
220.175 374 M
220.175 371.83 L
S
GR
GS
<<<<<<< HEAD
[0.8 0 0 0.8 0 0] CT
=======
[0.75 0 0 0.75 0 0] CT
>>>>>>> f4de00b5db4de07fdb797f1545578c2683f6c040
0.149 GC
2 setlinecap
1 LJ
0.625 LW
N
253.987 374 M
253.987 371.83 L
S
GR
GS
<<<<<<< HEAD
[0.8 0 0 0.8 0 0] CT
=======
[0.75 0 0 0.75 0 0] CT
>>>>>>> f4de00b5db4de07fdb797f1545578c2683f6c040
0.149 GC
2 setlinecap
1 LJ
0.625 LW
N
269.338 374 M
269.338 371.83 L
S
GR
GS
<<<<<<< HEAD
[0.8 0 0 0.8 0 0] CT
=======
[0.75 0 0 0.75 0 0] CT
>>>>>>> f4de00b5db4de07fdb797f1545578c2683f6c040
0.149 GC
2 setlinecap
1 LJ
0.625 LW
N
283.812 374 M
283.812 371.83 L
S
GR
GS
<<<<<<< HEAD
[0.8 0 0 0.8 0 0] CT
=======
[0.75 0 0 0.75 0 0] CT
>>>>>>> f4de00b5db4de07fdb797f1545578c2683f6c040
0.149 GC
2 setlinecap
1 LJ
0.625 LW
N
297.502 374 M
297.502 371.83 L
S
GR
GS
<<<<<<< HEAD
[0.8 0 0 0.8 0 0] CT
=======
[0.75 0 0 0.75 0 0] CT
>>>>>>> f4de00b5db4de07fdb797f1545578c2683f6c040
0.149 GC
2 setlinecap
1 LJ
0.625 LW
N
322.845 374 M
322.845 371.83 L
S
GR
GS
<<<<<<< HEAD
[0.8 0 0 0.8 0 0] CT
=======
[0.75 0 0 0.75 0 0] CT
>>>>>>> f4de00b5db4de07fdb797f1545578c2683f6c040
0.149 GC
2 setlinecap
1 LJ
0.625 LW
N
334.624 374 M
334.624 371.83 L
S
GR
GS
<<<<<<< HEAD
[0.8 0 0 0.8 0 0] CT
=======
[0.75 0 0 0.75 0 0] CT
>>>>>>> f4de00b5db4de07fdb797f1545578c2683f6c040
0.149 GC
2 setlinecap
1 LJ
0.625 LW
N
345.88 374 M
345.88 371.83 L
S
GR
GS
<<<<<<< HEAD
[0.8 0 0 0.8 0 0] CT
=======
[0.75 0 0 0.75 0 0] CT
>>>>>>> f4de00b5db4de07fdb797f1545578c2683f6c040
0.149 GC
2 setlinecap
1 LJ
0.625 LW
N
356.657 374 M
356.657 371.83 L
S
GR
GS
<<<<<<< HEAD
[0.8 0 0 0.8 0 0] CT
=======
[0.75 0 0 0.75 0 0] CT
>>>>>>> f4de00b5db4de07fdb797f1545578c2683f6c040
0.149 GC
2 setlinecap
1 LJ
0.625 LW
N
376.925 374 M
376.925 371.83 L
S
GR
GS
<<<<<<< HEAD
[0.8 0 0 0.8 0 0] CT
=======
[0.75 0 0 0.75 0 0] CT
>>>>>>> f4de00b5db4de07fdb797f1545578c2683f6c040
0.149 GC
2 setlinecap
1 LJ
0.625 LW
N
386.481 374 M
386.481 371.83 L
S
GR
GS
<<<<<<< HEAD
[0.8 0 0 0.8 0 0] CT
=======
[0.75 0 0 0.75 0 0] CT
>>>>>>> f4de00b5db4de07fdb797f1545578c2683f6c040
0.149 GC
2 setlinecap
1 LJ
0.625 LW
N
395.69 374 M
395.69 371.83 L
S
GR
GS
<<<<<<< HEAD
[0.8 0 0 0.8 0 0] CT
=======
[0.75 0 0 0.75 0 0] CT
>>>>>>> f4de00b5db4de07fdb797f1545578c2683f6c040
0.149 GC
2 setlinecap
1 LJ
0.625 LW
N
404.576 374 M
404.576 371.83 L
S
GR
GS
<<<<<<< HEAD
[0.8 0 0 0.8 0 0] CT
=======
[0.75 0 0 0.75 0 0] CT
>>>>>>> f4de00b5db4de07fdb797f1545578c2683f6c040
0.149 GC
2 setlinecap
1 LJ
0.625 LW
N
421.463 374 M
421.463 371.83 L
S
GR
GS
<<<<<<< HEAD
[0.8 0 0 0.8 0 0] CT
=======
[0.75 0 0 0.75 0 0] CT
>>>>>>> f4de00b5db4de07fdb797f1545578c2683f6c040
0.149 GC
2 setlinecap
1 LJ
0.625 LW
N
429.502 374 M
429.502 371.83 L
S
GR
GS
<<<<<<< HEAD
[0.8 0 0 0.8 0 0] CT
=======
[0.75 0 0 0.75 0 0] CT
>>>>>>> f4de00b5db4de07fdb797f1545578c2683f6c040
0.149 GC
2 setlinecap
1 LJ
0.625 LW
N
437.294 374 M
437.294 371.83 L
S
GR
GS
<<<<<<< HEAD
[0.8 0 0 0.8 0 0] CT
=======
[0.75 0 0 0.75 0 0] CT
>>>>>>> f4de00b5db4de07fdb797f1545578c2683f6c040
0.149 GC
2 setlinecap
1 LJ
0.625 LW
N
444.853 374 M
444.853 371.83 L
S
GR
GS
<<<<<<< HEAD
[0.8 0 0 0.8 0 0] CT
=======
[0.75 0 0 0.75 0 0] CT
>>>>>>> f4de00b5db4de07fdb797f1545578c2683f6c040
0.149 GC
2 setlinecap
1 LJ
0.625 LW
N
459.326 374 M
459.326 371.83 L
S
GR
GS
<<<<<<< HEAD
[0.8 0 0 0.8 0 0] CT
=======
[0.75 0 0 0.75 0 0] CT
>>>>>>> f4de00b5db4de07fdb797f1545578c2683f6c040
0.149 GC
2 setlinecap
1 LJ
0.625 LW
N
466.264 374 M
466.264 371.83 L
S
GR
GS
<<<<<<< HEAD
[0.8 0 0 0.8 0 0] CT
=======
[0.75 0 0 0.75 0 0] CT
>>>>>>> f4de00b5db4de07fdb797f1545578c2683f6c040
0.149 GC
2 setlinecap
1 LJ
0.625 LW
N
473.017 374 M
473.017 371.83 L
S
GR
GS
<<<<<<< HEAD
[0.8 0 0 0.8 0 0] CT
=======
[0.75 0 0 0.75 0 0] CT
>>>>>>> f4de00b5db4de07fdb797f1545578c2683f6c040
0.149 GC
2 setlinecap
1 LJ
0.625 LW
N
479.594 374 M
479.594 371.83 L
S
GR
GS
<<<<<<< HEAD
[0.8 0 0 0.8 0 0] CT
=======
[0.75 0 0 0.75 0 0] CT
>>>>>>> f4de00b5db4de07fdb797f1545578c2683f6c040
0.149 GC
2 setlinecap
1 LJ
0.625 LW
N
492.258 374 M
492.258 371.83 L
S
GR
GS
<<<<<<< HEAD
[0.8 0 0 0.8 0 0] CT
=======
[0.75 0 0 0.75 0 0] CT
>>>>>>> f4de00b5db4de07fdb797f1545578c2683f6c040
0.149 GC
2 setlinecap
1 LJ
0.625 LW
N
498.36 374 M
498.36 371.83 L
S
GR
GS
<<<<<<< HEAD
[0.8 0 0 0.8 0 0] CT
=======
[0.75 0 0 0.75 0 0] CT
>>>>>>> f4de00b5db4de07fdb797f1545578c2683f6c040
0.149 GC
2 setlinecap
1 LJ
0.625 LW
N
504.318 374 M
504.318 371.83 L
S
GR
GS
<<<<<<< HEAD
[0.8 0 0 0.8 0 0] CT
=======
[0.75 0 0 0.75 0 0] CT
>>>>>>> f4de00b5db4de07fdb797f1545578c2683f6c040
0.149 GC
2 setlinecap
1 LJ
0.625 LW
N
78.472 31 M
78.472 33.17 L
S
GR
GS
<<<<<<< HEAD
[0.8 0 0 0.8 0 0] CT
=======
[0.75 0 0 0.75 0 0] CT
>>>>>>> f4de00b5db4de07fdb797f1545578c2683f6c040
0.149 GC
2 setlinecap
1 LJ
0.625 LW
N
108.297 31 M
108.297 33.17 L
S
GR
GS
<<<<<<< HEAD
[0.8 0 0 0.8 0 0] CT
=======
[0.75 0 0 0.75 0 0] CT
>>>>>>> f4de00b5db4de07fdb797f1545578c2683f6c040
0.149 GC
2 setlinecap
1 LJ
0.625 LW
N
159.11 31 M
159.11 33.17 L
S
GR
GS
<<<<<<< HEAD
[0.8 0 0 0.8 0 0] CT
=======
[0.75 0 0 0.75 0 0] CT
>>>>>>> f4de00b5db4de07fdb797f1545578c2683f6c040
0.149 GC
2 setlinecap
1 LJ
0.625 LW
N
181.142 31 M
181.142 33.17 L
S
GR
GS
<<<<<<< HEAD
[0.8 0 0 0.8 0 0] CT
=======
[0.75 0 0 0.75 0 0] CT
>>>>>>> f4de00b5db4de07fdb797f1545578c2683f6c040
0.149 GC
2 setlinecap
1 LJ
0.625 LW
N
201.41 31 M
201.41 33.17 L
S
GR
GS
<<<<<<< HEAD
[0.8 0 0 0.8 0 0] CT
=======
[0.75 0 0 0.75 0 0] CT
>>>>>>> f4de00b5db4de07fdb797f1545578c2683f6c040
0.149 GC
2 setlinecap
1 LJ
0.625 LW
N
220.175 31 M
220.175 33.17 L
S
GR
GS
<<<<<<< HEAD
[0.8 0 0 0.8 0 0] CT
=======
[0.75 0 0 0.75 0 0] CT
>>>>>>> f4de00b5db4de07fdb797f1545578c2683f6c040
0.149 GC
2 setlinecap
1 LJ
0.625 LW
N
253.987 31 M
253.987 33.17 L
S
GR
GS
<<<<<<< HEAD
[0.8 0 0 0.8 0 0] CT
=======
[0.75 0 0 0.75 0 0] CT
>>>>>>> f4de00b5db4de07fdb797f1545578c2683f6c040
0.149 GC
2 setlinecap
1 LJ
0.625 LW
N
269.338 31 M
269.338 33.17 L
S
GR
GS
<<<<<<< HEAD
[0.8 0 0 0.8 0 0] CT
=======
[0.75 0 0 0.75 0 0] CT
>>>>>>> f4de00b5db4de07fdb797f1545578c2683f6c040
0.149 GC
2 setlinecap
1 LJ
0.625 LW
N
283.812 31 M
283.812 33.17 L
S
GR
GS
<<<<<<< HEAD
[0.8 0 0 0.8 0 0] CT
=======
[0.75 0 0 0.75 0 0] CT
>>>>>>> f4de00b5db4de07fdb797f1545578c2683f6c040
0.149 GC
2 setlinecap
1 LJ
0.625 LW
N
297.502 31 M
297.502 33.17 L
S
GR
GS
<<<<<<< HEAD
[0.8 0 0 0.8 0 0] CT
=======
[0.75 0 0 0.75 0 0] CT
>>>>>>> f4de00b5db4de07fdb797f1545578c2683f6c040
0.149 GC
2 setlinecap
1 LJ
0.625 LW
N
322.845 31 M
322.845 33.17 L
S
GR
GS
<<<<<<< HEAD
[0.8 0 0 0.8 0 0] CT
=======
[0.75 0 0 0.75 0 0] CT
>>>>>>> f4de00b5db4de07fdb797f1545578c2683f6c040
0.149 GC
2 setlinecap
1 LJ
0.625 LW
N
334.624 31 M
334.624 33.17 L
S
GR
GS
<<<<<<< HEAD
[0.8 0 0 0.8 0 0] CT
=======
[0.75 0 0 0.75 0 0] CT
>>>>>>> f4de00b5db4de07fdb797f1545578c2683f6c040
0.149 GC
2 setlinecap
1 LJ
0.625 LW
N
345.88 31 M
345.88 33.17 L
S
GR
GS
<<<<<<< HEAD
[0.8 0 0 0.8 0 0] CT
=======
[0.75 0 0 0.75 0 0] CT
>>>>>>> f4de00b5db4de07fdb797f1545578c2683f6c040
0.149 GC
2 setlinecap
1 LJ
0.625 LW
N
356.657 31 M
356.657 33.17 L
S
GR
GS
<<<<<<< HEAD
[0.8 0 0 0.8 0 0] CT
=======
[0.75 0 0 0.75 0 0] CT
>>>>>>> f4de00b5db4de07fdb797f1545578c2683f6c040
0.149 GC
2 setlinecap
1 LJ
0.625 LW
N
376.925 31 M
376.925 33.17 L
S
GR
GS
<<<<<<< HEAD
[0.8 0 0 0.8 0 0] CT
=======
[0.75 0 0 0.75 0 0] CT
>>>>>>> f4de00b5db4de07fdb797f1545578c2683f6c040
0.149 GC
2 setlinecap
1 LJ
0.625 LW
N
386.481 31 M
386.481 33.17 L
S
GR
GS
<<<<<<< HEAD
[0.8 0 0 0.8 0 0] CT
=======
[0.75 0 0 0.75 0 0] CT
>>>>>>> f4de00b5db4de07fdb797f1545578c2683f6c040
0.149 GC
2 setlinecap
1 LJ
0.625 LW
N
395.69 31 M
395.69 33.17 L
S
GR
GS
<<<<<<< HEAD
[0.8 0 0 0.8 0 0] CT
=======
[0.75 0 0 0.75 0 0] CT
>>>>>>> f4de00b5db4de07fdb797f1545578c2683f6c040
0.149 GC
2 setlinecap
1 LJ
0.625 LW
N
404.576 31 M
404.576 33.17 L
S
GR
GS
<<<<<<< HEAD
[0.8 0 0 0.8 0 0] CT
=======
[0.75 0 0 0.75 0 0] CT
>>>>>>> f4de00b5db4de07fdb797f1545578c2683f6c040
0.149 GC
2 setlinecap
1 LJ
0.625 LW
N
421.463 31 M
421.463 33.17 L
S
GR
GS
<<<<<<< HEAD
[0.8 0 0 0.8 0 0] CT
=======
[0.75 0 0 0.75 0 0] CT
>>>>>>> f4de00b5db4de07fdb797f1545578c2683f6c040
0.149 GC
2 setlinecap
1 LJ
0.625 LW
N
429.502 31 M
429.502 33.17 L
S
GR
GS
<<<<<<< HEAD
[0.8 0 0 0.8 0 0] CT
=======
[0.75 0 0 0.75 0 0] CT
>>>>>>> f4de00b5db4de07fdb797f1545578c2683f6c040
0.149 GC
2 setlinecap
1 LJ
0.625 LW
N
437.294 31 M
437.294 33.17 L
S
GR
GS
<<<<<<< HEAD
[0.8 0 0 0.8 0 0] CT
=======
[0.75 0 0 0.75 0 0] CT
0.149 GC
2 setlinecap
1 LJ
0.667 LW
N
444.853 31 M
444.853 33.17 L
S
GR
GS
[0.75 0 0 0.75 0 0] CT
0.149 GC
2 setlinecap
1 LJ
0.667 LW
N
459.326 31 M
459.326 33.17 L
S
GR
GS
[0.75 0 0 0.75 0 0] CT
0.149 GC
2 setlinecap
1 LJ
0.667 LW
N
466.264 31 M
466.264 33.17 L
S
GR
GS
[0.75 0 0 0.75 0 0] CT
0.149 GC
2 setlinecap
1 LJ
0.667 LW
N
473.017 31 M
473.017 33.17 L
S
GR
GS
[0.75 0 0 0.75 0 0] CT
0.149 GC
2 setlinecap
1 LJ
0.667 LW
N
479.594 31 M
479.594 33.17 L
S
GR
GS
[0.75 0 0 0.75 0 0] CT
0.149 GC
2 setlinecap
1 LJ
0.667 LW
N
492.258 31 M
492.258 33.17 L
S
GR
GS
[0.75 0 0 0.75 0 0] CT
0.149 GC
2 setlinecap
1 LJ
0.667 LW
N
498.36 31 M
498.36 33.17 L
S
GR
GS
[0.75 0 0 0.75 0 0] CT
0.149 GC
2 setlinecap
1 LJ
0.667 LW
N
504.318 31 M
504.318 33.17 L
S
GR
GS
[0.75 0 0 0.75 101.23171 284.50001] CT
0.149 GC
/Helvetica 13.333 F
GS
[1 0 0 1 0 0] CT
-11 13 moveto 
1 -1 scale
(0.1) t 
GR
GR
GS
[0.75 0 0 0.75 178.2339 284.50001] CT
>>>>>>> f4de00b5db4de07fdb797f1545578c2683f6c040
0.149 GC
2 setlinecap
1 LJ
0.625 LW
N
444.853 31 M
444.853 33.17 L
S
GR
GS
[0.8 0 0 0.8 0 0] CT
0.149 GC
2 setlinecap
1 LJ
0.625 LW
N
459.326 31 M
459.326 33.17 L
S
GR
GS
[0.8 0 0 0.8 0 0] CT
0.149 GC
2 setlinecap
1 LJ
0.625 LW
N
466.264 31 M
466.264 33.17 L
S
GR
GS
[0.8 0 0 0.8 0 0] CT
0.149 GC
2 setlinecap
1 LJ
0.625 LW
N
473.017 31 M
473.017 33.17 L
S
GR
GS
[0.8 0 0 0.8 0 0] CT
0.149 GC
2 setlinecap
1 LJ
0.625 LW
N
479.594 31 M
479.594 33.17 L
S
GR
GS
[0.8 0 0 0.8 0 0] CT
0.149 GC
2 setlinecap
1 LJ
0.625 LW
N
492.258 31 M
492.258 33.17 L
S
GR
GS
[0.8 0 0 0.8 0 0] CT
0.149 GC
2 setlinecap
1 LJ
0.625 LW
N
498.36 31 M
498.36 33.17 L
S
GR
GS
[0.8 0 0 0.8 0 0] CT
0.149 GC
2 setlinecap
1 LJ
0.625 LW
N
504.318 31 M
504.318 33.17 L
S
GR
GS
[0.8 0 0 0.8 107.98049 303.2] CT
0.149 GC
/Helvetica 12.5 F
GS
[1 0 0 1 0 0] CT
-10 12 moveto 
1 -1 scale
(0.1) t 
GR
GR
GS
[0.8 0 0 0.8 190.11616 303.2] CT
0.149 GC
/Helvetica 12.5 F
GS
[1 0 0 1 0 0] CT
-14 12 moveto 
1 -1 scale
(0.15) t 
GR
GR
GS
<<<<<<< HEAD
[0.8 0 0 0.8 248.39233 303.2] CT
=======
[0.75 0 0 0.75 232.86781 284.50001] CT
>>>>>>> f4de00b5db4de07fdb797f1545578c2683f6c040
0.149 GC
/Helvetica 12.5 F
GS
[1 0 0 1 0 0] CT
-10 12 moveto 
1 -1 scale
(0.2) t 
GR
GR
GS
<<<<<<< HEAD
[0.8 0 0 0.8 293.59485 303.2] CT
=======
[0.75 0 0 0.75 275.24517 284.50001] CT
>>>>>>> f4de00b5db4de07fdb797f1545578c2683f6c040
0.149 GC
/Helvetica 12.5 F
GS
[1 0 0 1 0 0] CT
-14 12 moveto 
1 -1 scale
(0.25) t 
GR
GR
GS
<<<<<<< HEAD
[0.8 0 0 0.8 330.52798 303.2] CT
=======
[0.75 0 0 0.75 309.86998 284.50001] CT
>>>>>>> f4de00b5db4de07fdb797f1545578c2683f6c040
0.149 GC
/Helvetica 12.5 F
GS
[1 0 0 1 0 0] CT
-10 12 moveto 
1 -1 scale
(0.3) t 
GR
GR
GS
<<<<<<< HEAD
[0.8 0 0 0.8 361.75452 303.2] CT
=======
[0.75 0 0 0.75 339.14486 284.50001] CT
>>>>>>> f4de00b5db4de07fdb797f1545578c2683f6c040
0.149 GC
/Helvetica 12.5 F
GS
[1 0 0 1 0 0] CT
-14 12 moveto 
1 -1 scale
(0.35) t 
GR
GR
GS
<<<<<<< HEAD
[0.8 0 0 0.8 388.80415 303.2] CT
=======
[0.75 0 0 0.75 364.50389 284.50001] CT
>>>>>>> f4de00b5db4de07fdb797f1545578c2683f6c040
0.149 GC
/Helvetica 12.5 F
GS
[1 0 0 1 0 0] CT
-10 12 moveto 
1 -1 scale
(0.4) t 
GR
GR
GS
<<<<<<< HEAD
[0.8 0 0 0.8 232.00017 316.2] CT
=======
[0.75 0 0 0.75 217.50016 298.24999] CT
>>>>>>> f4de00b5db4de07fdb797f1545578c2683f6c040
0.149 GC
/Helvetica 13.75 F
GS
[1 0 0 1 0 0] CT
-44.5 13 moveto 
1 -1 scale
(meshwidth h) t 
GR
GR
GS
<<<<<<< HEAD
[0.8 0 0 0.8 0 0] CT
=======
[0.75 0 0 0.75 0 0] CT
>>>>>>> f4de00b5db4de07fdb797f1545578c2683f6c040
0.149 GC
2 setlinecap
1 LJ
0.625 LW
N
73 374 M
73 31 L
S
GR
GS
<<<<<<< HEAD
[0.8 0 0 0.8 0 0] CT
=======
[0.75 0 0 0.75 0 0] CT
>>>>>>> f4de00b5db4de07fdb797f1545578c2683f6c040
0.149 GC
2 setlinecap
1 LJ
0.625 LW
N
507 374 M
507 31 L
S
GR
GS
<<<<<<< HEAD
[0.8 0 0 0.8 0 0] CT
=======
[0.75 0 0 0.75 0 0] CT
>>>>>>> f4de00b5db4de07fdb797f1545578c2683f6c040
0.149 GC
2 setlinecap
1 LJ
0.625 LW
N
73 371.748 M
77.34 371.748 L
S
GR
GS
<<<<<<< HEAD
[0.8 0 0 0.8 0 0] CT
=======
[0.75 0 0 0.75 0 0] CT
>>>>>>> f4de00b5db4de07fdb797f1545578c2683f6c040
0.149 GC
2 setlinecap
1 LJ
0.625 LW
N
73 286.561 M
77.34 286.561 L
S
GR
GS
<<<<<<< HEAD
[0.8 0 0 0.8 0 0] CT
=======
[0.75 0 0 0.75 0 0] CT
>>>>>>> f4de00b5db4de07fdb797f1545578c2683f6c040
0.149 GC
2 setlinecap
1 LJ
0.625 LW
N
73 201.374 M
77.34 201.374 L
S
GR
GS
<<<<<<< HEAD
[0.8 0 0 0.8 0 0] CT
=======
[0.75 0 0 0.75 0 0] CT
>>>>>>> f4de00b5db4de07fdb797f1545578c2683f6c040
0.149 GC
2 setlinecap
1 LJ
0.625 LW
N
73 116.187 M
77.34 116.187 L
S
GR
GS
<<<<<<< HEAD
[0.8 0 0 0.8 0 0] CT
=======
[0.75 0 0 0.75 0 0] CT
>>>>>>> f4de00b5db4de07fdb797f1545578c2683f6c040
0.149 GC
2 setlinecap
1 LJ
0.625 LW
N
73 31 M
77.34 31 L
S
GR
GS
<<<<<<< HEAD
[0.8 0 0 0.8 0 0] CT
=======
[0.75 0 0 0.75 0 0] CT
>>>>>>> f4de00b5db4de07fdb797f1545578c2683f6c040
0.149 GC
2 setlinecap
1 LJ
0.625 LW
N
507 371.748 M
502.66 371.748 L
S
GR
GS
<<<<<<< HEAD
[0.8 0 0 0.8 0 0] CT
=======
[0.75 0 0 0.75 0 0] CT
>>>>>>> f4de00b5db4de07fdb797f1545578c2683f6c040
0.149 GC
2 setlinecap
1 LJ
0.625 LW
N
507 286.561 M
502.66 286.561 L
S
GR
GS
<<<<<<< HEAD
[0.8 0 0 0.8 0 0] CT
=======
[0.75 0 0 0.75 0 0] CT
>>>>>>> f4de00b5db4de07fdb797f1545578c2683f6c040
0.149 GC
2 setlinecap
1 LJ
0.625 LW
N
507 201.374 M
502.66 201.374 L
S
GR
GS
<<<<<<< HEAD
[0.8 0 0 0.8 0 0] CT
=======
[0.75 0 0 0.75 0 0] CT
>>>>>>> f4de00b5db4de07fdb797f1545578c2683f6c040
0.149 GC
2 setlinecap
1 LJ
0.625 LW
N
507 116.187 M
502.66 116.187 L
S
GR
GS
<<<<<<< HEAD
[0.8 0 0 0.8 0 0] CT
=======
[0.75 0 0 0.75 0 0] CT
>>>>>>> f4de00b5db4de07fdb797f1545578c2683f6c040
0.149 GC
2 setlinecap
1 LJ
0.625 LW
N
507 31 M
502.66 31 L
S
GR
GS
<<<<<<< HEAD
[0.8 0 0 0.8 0 0] CT
=======
[0.75 0 0 0.75 0 0] CT
>>>>>>> f4de00b5db4de07fdb797f1545578c2683f6c040
0.149 GC
2 setlinecap
1 LJ
0.625 LW
N
73 371.748 M
75.17 371.748 L
S
GR
GS
<<<<<<< HEAD
[0.8 0 0 0.8 0 0] CT
=======
[0.75 0 0 0.75 0 0] CT
>>>>>>> f4de00b5db4de07fdb797f1545578c2683f6c040
0.149 GC
2 setlinecap
1 LJ
0.625 LW
N
73 371.748 M
75.17 371.748 L
S
GR
GS
<<<<<<< HEAD
[0.8 0 0 0.8 0 0] CT
=======
[0.75 0 0 0.75 0 0] CT
>>>>>>> f4de00b5db4de07fdb797f1545578c2683f6c040
0.149 GC
2 setlinecap
1 LJ
0.625 LW
N
73 346.104 M
75.17 346.104 L
S
GR
GS
<<<<<<< HEAD
[0.8 0 0 0.8 0 0] CT
=======
[0.75 0 0 0.75 0 0] CT
>>>>>>> f4de00b5db4de07fdb797f1545578c2683f6c040
0.149 GC
2 setlinecap
1 LJ
0.625 LW
N
73 331.104 M
75.17 331.104 L
S
GR
GS
<<<<<<< HEAD
[0.8 0 0 0.8 0 0] CT
=======
[0.75 0 0 0.75 0 0] CT
>>>>>>> f4de00b5db4de07fdb797f1545578c2683f6c040
0.149 GC
2 setlinecap
1 LJ
0.625 LW
N
73 320.46 M
75.17 320.46 L
S
GR
GS
<<<<<<< HEAD
[0.8 0 0 0.8 0 0] CT
=======
[0.75 0 0 0.75 0 0] CT
>>>>>>> f4de00b5db4de07fdb797f1545578c2683f6c040
0.149 GC
2 setlinecap
1 LJ
0.625 LW
N
73 312.205 M
75.17 312.205 L
S
GR
GS
<<<<<<< HEAD
[0.8 0 0 0.8 0 0] CT
=======
[0.75 0 0 0.75 0 0] CT
>>>>>>> f4de00b5db4de07fdb797f1545578c2683f6c040
0.149 GC
2 setlinecap
1 LJ
0.625 LW
N
73 305.46 M
75.17 305.46 L
S
GR
GS
<<<<<<< HEAD
[0.8 0 0 0.8 0 0] CT
=======
[0.75 0 0 0.75 0 0] CT
>>>>>>> f4de00b5db4de07fdb797f1545578c2683f6c040
0.149 GC
2 setlinecap
1 LJ
0.625 LW
N
73 299.757 M
75.17 299.757 L
S
GR
GS
<<<<<<< HEAD
[0.8 0 0 0.8 0 0] CT
=======
[0.75 0 0 0.75 0 0] CT
>>>>>>> f4de00b5db4de07fdb797f1545578c2683f6c040
0.149 GC
2 setlinecap
1 LJ
0.625 LW
N
73 294.817 M
75.17 294.817 L
S
GR
GS
<<<<<<< HEAD
[0.8 0 0 0.8 0 0] CT
=======
[0.75 0 0 0.75 0 0] CT
>>>>>>> f4de00b5db4de07fdb797f1545578c2683f6c040
0.149 GC
2 setlinecap
1 LJ
0.625 LW
N
73 290.459 M
75.17 290.459 L
S
GR
GS
<<<<<<< HEAD
[0.8 0 0 0.8 0 0] CT
=======
[0.75 0 0 0.75 0 0] CT
>>>>>>> f4de00b5db4de07fdb797f1545578c2683f6c040
0.149 GC
2 setlinecap
1 LJ
0.625 LW
N
73 286.561 M
75.17 286.561 L
S
GR
GS
<<<<<<< HEAD
[0.8 0 0 0.8 0 0] CT
=======
[0.75 0 0 0.75 0 0] CT
>>>>>>> f4de00b5db4de07fdb797f1545578c2683f6c040
0.149 GC
2 setlinecap
1 LJ
0.625 LW
N
73 260.917 M
75.17 260.917 L
S
GR
GS
<<<<<<< HEAD
[0.8 0 0 0.8 0 0] CT
=======
[0.75 0 0 0.75 0 0] CT
>>>>>>> f4de00b5db4de07fdb797f1545578c2683f6c040
0.149 GC
2 setlinecap
1 LJ
0.625 LW
N
73 245.917 M
75.17 245.917 L
S
GR
GS
<<<<<<< HEAD
[0.8 0 0 0.8 0 0] CT
=======
[0.75 0 0 0.75 0 0] CT
>>>>>>> f4de00b5db4de07fdb797f1545578c2683f6c040
0.149 GC
2 setlinecap
1 LJ
0.625 LW
N
73 235.273 M
75.17 235.273 L
S
GR
GS
<<<<<<< HEAD
[0.8 0 0 0.8 0 0] CT
=======
[0.75 0 0 0.75 0 0] CT
>>>>>>> f4de00b5db4de07fdb797f1545578c2683f6c040
0.149 GC
2 setlinecap
1 LJ
0.625 LW
N
73 227.018 M
75.17 227.018 L
S
GR
GS
<<<<<<< HEAD
[0.8 0 0 0.8 0 0] CT
=======
[0.75 0 0 0.75 0 0] CT
>>>>>>> f4de00b5db4de07fdb797f1545578c2683f6c040
0.149 GC
2 setlinecap
1 LJ
0.625 LW
N
73 220.273 M
75.17 220.273 L
S
GR
GS
<<<<<<< HEAD
[0.8 0 0 0.8 0 0] CT
=======
[0.75 0 0 0.75 0 0] CT
>>>>>>> f4de00b5db4de07fdb797f1545578c2683f6c040
0.149 GC
2 setlinecap
1 LJ
0.625 LW
N
73 214.57 M
75.17 214.57 L
S
GR
GS
<<<<<<< HEAD
[0.8 0 0 0.8 0 0] CT
=======
[0.75 0 0 0.75 0 0] CT
>>>>>>> f4de00b5db4de07fdb797f1545578c2683f6c040
0.149 GC
2 setlinecap
1 LJ
0.625 LW
N
73 209.63 M
75.17 209.63 L
S
GR
GS
<<<<<<< HEAD
[0.8 0 0 0.8 0 0] CT
=======
[0.75 0 0 0.75 0 0] CT
>>>>>>> f4de00b5db4de07fdb797f1545578c2683f6c040
0.149 GC
2 setlinecap
1 LJ
0.625 LW
N
73 205.272 M
75.17 205.272 L
S
GR
GS
<<<<<<< HEAD
[0.8 0 0 0.8 0 0] CT
=======
[0.75 0 0 0.75 0 0] CT
>>>>>>> f4de00b5db4de07fdb797f1545578c2683f6c040
0.149 GC
2 setlinecap
1 LJ
0.625 LW
N
73 201.374 M
75.17 201.374 L
S
GR
GS
<<<<<<< HEAD
[0.8 0 0 0.8 0 0] CT
=======
[0.75 0 0 0.75 0 0] CT
>>>>>>> f4de00b5db4de07fdb797f1545578c2683f6c040
0.149 GC
2 setlinecap
1 LJ
0.625 LW
N
73 175.73 M
75.17 175.73 L
S
GR
GS
<<<<<<< HEAD
[0.8 0 0 0.8 0 0] CT
=======
[0.75 0 0 0.75 0 0] CT
>>>>>>> f4de00b5db4de07fdb797f1545578c2683f6c040
0.149 GC
2 setlinecap
1 LJ
0.625 LW
N
73 160.73 M
75.17 160.73 L
S
GR
GS
<<<<<<< HEAD
[0.8 0 0 0.8 0 0] CT
=======
[0.75 0 0 0.75 0 0] CT
>>>>>>> f4de00b5db4de07fdb797f1545578c2683f6c040
0.149 GC
2 setlinecap
1 LJ
0.625 LW
N
73 150.086 M
75.17 150.086 L
S
GR
GS
<<<<<<< HEAD
[0.8 0 0 0.8 0 0] CT
=======
[0.75 0 0 0.75 0 0] CT
>>>>>>> f4de00b5db4de07fdb797f1545578c2683f6c040
0.149 GC
2 setlinecap
1 LJ
0.625 LW
N
73 141.831 M
75.17 141.831 L
S
GR
GS
<<<<<<< HEAD
[0.8 0 0 0.8 0 0] CT
=======
[0.75 0 0 0.75 0 0] CT
>>>>>>> f4de00b5db4de07fdb797f1545578c2683f6c040
0.149 GC
2 setlinecap
1 LJ
0.625 LW
N
73 135.086 M
75.17 135.086 L
S
GR
GS
<<<<<<< HEAD
[0.8 0 0 0.8 0 0] CT
=======
[0.75 0 0 0.75 0 0] CT
>>>>>>> f4de00b5db4de07fdb797f1545578c2683f6c040
0.149 GC
2 setlinecap
1 LJ
0.625 LW
N
73 129.383 M
75.17 129.383 L
S
GR
GS
<<<<<<< HEAD
[0.8 0 0 0.8 0 0] CT
=======
[0.75 0 0 0.75 0 0] CT
>>>>>>> f4de00b5db4de07fdb797f1545578c2683f6c040
0.149 GC
2 setlinecap
1 LJ
0.625 LW
N
73 124.443 M
75.17 124.443 L
S
GR
GS
<<<<<<< HEAD
[0.8 0 0 0.8 0 0] CT
=======
[0.75 0 0 0.75 0 0] CT
>>>>>>> f4de00b5db4de07fdb797f1545578c2683f6c040
0.149 GC
2 setlinecap
1 LJ
0.625 LW
N
73 120.085 M
75.17 120.085 L
S
GR
GS
<<<<<<< HEAD
[0.8 0 0 0.8 0 0] CT
=======
[0.75 0 0 0.75 0 0] CT
>>>>>>> f4de00b5db4de07fdb797f1545578c2683f6c040
0.149 GC
2 setlinecap
1 LJ
0.625 LW
N
73 116.187 M
75.17 116.187 L
S
GR
GS
<<<<<<< HEAD
[0.8 0 0 0.8 0 0] CT
=======
[0.75 0 0 0.75 0 0] CT
>>>>>>> f4de00b5db4de07fdb797f1545578c2683f6c040
0.149 GC
2 setlinecap
1 LJ
0.625 LW
N
73 90.543 M
75.17 90.543 L
S
GR
GS
<<<<<<< HEAD
[0.8 0 0 0.8 0 0] CT
=======
[0.75 0 0 0.75 0 0] CT
>>>>>>> f4de00b5db4de07fdb797f1545578c2683f6c040
0.149 GC
2 setlinecap
1 LJ
0.625 LW
N
73 75.542 M
75.17 75.542 L
S
GR
GS
<<<<<<< HEAD
[0.8 0 0 0.8 0 0] CT
=======
[0.75 0 0 0.75 0 0] CT
>>>>>>> f4de00b5db4de07fdb797f1545578c2683f6c040
0.149 GC
2 setlinecap
1 LJ
0.625 LW
N
73 64.899 M
75.17 64.899 L
S
GR
GS
<<<<<<< HEAD
[0.8 0 0 0.8 0 0] CT
=======
[0.75 0 0 0.75 0 0] CT
>>>>>>> f4de00b5db4de07fdb797f1545578c2683f6c040
0.149 GC
2 setlinecap
1 LJ
0.625 LW
N
73 56.644 M
75.17 56.644 L
S
GR
GS
<<<<<<< HEAD
[0.8 0 0 0.8 0 0] CT
=======
[0.75 0 0 0.75 0 0] CT
>>>>>>> f4de00b5db4de07fdb797f1545578c2683f6c040
0.149 GC
2 setlinecap
1 LJ
0.625 LW
N
73 49.899 M
75.17 49.899 L
S
GR
GS
<<<<<<< HEAD
[0.8 0 0 0.8 0 0] CT
=======
[0.75 0 0 0.75 0 0] CT
>>>>>>> f4de00b5db4de07fdb797f1545578c2683f6c040
0.149 GC
2 setlinecap
1 LJ
0.625 LW
N
73 44.196 M
75.17 44.196 L
S
GR
GS
<<<<<<< HEAD
[0.8 0 0 0.8 0 0] CT
=======
[0.75 0 0 0.75 0 0] CT
>>>>>>> f4de00b5db4de07fdb797f1545578c2683f6c040
0.149 GC
2 setlinecap
1 LJ
0.625 LW
N
73 39.255 M
75.17 39.255 L
S
GR
GS
<<<<<<< HEAD
[0.8 0 0 0.8 0 0] CT
=======
[0.75 0 0 0.75 0 0] CT
>>>>>>> f4de00b5db4de07fdb797f1545578c2683f6c040
0.149 GC
2 setlinecap
1 LJ
0.625 LW
N
73 34.898 M
75.17 34.898 L
S
GR
GS
<<<<<<< HEAD
[0.8 0 0 0.8 0 0] CT
=======
[0.75 0 0 0.75 0 0] CT
>>>>>>> f4de00b5db4de07fdb797f1545578c2683f6c040
0.149 GC
2 setlinecap
1 LJ
0.625 LW
N
73 31 M
75.17 31 L
S
GR
GS
<<<<<<< HEAD
[0.8 0 0 0.8 0 0] CT
=======
[0.75 0 0 0.75 0 0] CT
>>>>>>> f4de00b5db4de07fdb797f1545578c2683f6c040
0.149 GC
2 setlinecap
1 LJ
0.625 LW
N
507 371.748 M
504.83 371.748 L
S
GR
GS
<<<<<<< HEAD
[0.8 0 0 0.8 0 0] CT
=======
[0.75 0 0 0.75 0 0] CT
>>>>>>> f4de00b5db4de07fdb797f1545578c2683f6c040
0.149 GC
2 setlinecap
1 LJ
0.625 LW
N
507 371.748 M
504.83 371.748 L
S
GR
GS
<<<<<<< HEAD
[0.8 0 0 0.8 0 0] CT
=======
[0.75 0 0 0.75 0 0] CT
>>>>>>> f4de00b5db4de07fdb797f1545578c2683f6c040
0.149 GC
2 setlinecap
1 LJ
0.625 LW
N
507 346.104 M
504.83 346.104 L
S
GR
GS
<<<<<<< HEAD
[0.8 0 0 0.8 0 0] CT
=======
[0.75 0 0 0.75 0 0] CT
>>>>>>> f4de00b5db4de07fdb797f1545578c2683f6c040
0.149 GC
2 setlinecap
1 LJ
0.625 LW
N
507 331.104 M
504.83 331.104 L
S
GR
GS
<<<<<<< HEAD
[0.8 0 0 0.8 0 0] CT
=======
[0.75 0 0 0.75 0 0] CT
>>>>>>> f4de00b5db4de07fdb797f1545578c2683f6c040
0.149 GC
2 setlinecap
1 LJ
0.625 LW
N
507 320.46 M
504.83 320.46 L
S
GR
GS
<<<<<<< HEAD
[0.8 0 0 0.8 0 0] CT
=======
[0.75 0 0 0.75 0 0] CT
>>>>>>> f4de00b5db4de07fdb797f1545578c2683f6c040
0.149 GC
2 setlinecap
1 LJ
0.625 LW
N
507 312.205 M
504.83 312.205 L
S
GR
GS
<<<<<<< HEAD
[0.8 0 0 0.8 0 0] CT
=======
[0.75 0 0 0.75 0 0] CT
>>>>>>> f4de00b5db4de07fdb797f1545578c2683f6c040
0.149 GC
2 setlinecap
1 LJ
0.625 LW
N
507 305.46 M
504.83 305.46 L
S
GR
GS
<<<<<<< HEAD
[0.8 0 0 0.8 0 0] CT
=======
[0.75 0 0 0.75 0 0] CT
>>>>>>> f4de00b5db4de07fdb797f1545578c2683f6c040
0.149 GC
2 setlinecap
1 LJ
0.625 LW
N
507 299.757 M
504.83 299.757 L
S
GR
GS
<<<<<<< HEAD
[0.8 0 0 0.8 0 0] CT
=======
[0.75 0 0 0.75 0 0] CT
>>>>>>> f4de00b5db4de07fdb797f1545578c2683f6c040
0.149 GC
2 setlinecap
1 LJ
0.625 LW
N
507 294.817 M
504.83 294.817 L
S
GR
GS
<<<<<<< HEAD
[0.8 0 0 0.8 0 0] CT
=======
[0.75 0 0 0.75 0 0] CT
>>>>>>> f4de00b5db4de07fdb797f1545578c2683f6c040
0.149 GC
2 setlinecap
1 LJ
0.625 LW
N
507 290.459 M
504.83 290.459 L
S
GR
GS
<<<<<<< HEAD
[0.8 0 0 0.8 0 0] CT
=======
[0.75 0 0 0.75 0 0] CT
>>>>>>> f4de00b5db4de07fdb797f1545578c2683f6c040
0.149 GC
2 setlinecap
1 LJ
0.625 LW
N
507 286.561 M
504.83 286.561 L
S
GR
GS
<<<<<<< HEAD
[0.8 0 0 0.8 0 0] CT
=======
[0.75 0 0 0.75 0 0] CT
>>>>>>> f4de00b5db4de07fdb797f1545578c2683f6c040
0.149 GC
2 setlinecap
1 LJ
0.625 LW
N
507 260.917 M
504.83 260.917 L
S
GR
GS
<<<<<<< HEAD
[0.8 0 0 0.8 0 0] CT
=======
[0.75 0 0 0.75 0 0] CT
>>>>>>> f4de00b5db4de07fdb797f1545578c2683f6c040
0.149 GC
2 setlinecap
1 LJ
0.625 LW
N
507 245.917 M
504.83 245.917 L
S
GR
GS
<<<<<<< HEAD
[0.8 0 0 0.8 0 0] CT
=======
[0.75 0 0 0.75 0 0] CT
>>>>>>> f4de00b5db4de07fdb797f1545578c2683f6c040
0.149 GC
2 setlinecap
1 LJ
0.625 LW
N
507 235.273 M
504.83 235.273 L
S
GR
GS
<<<<<<< HEAD
[0.8 0 0 0.8 0 0] CT
=======
[0.75 0 0 0.75 0 0] CT
>>>>>>> f4de00b5db4de07fdb797f1545578c2683f6c040
0.149 GC
2 setlinecap
1 LJ
0.625 LW
N
507 227.018 M
504.83 227.018 L
S
GR
GS
<<<<<<< HEAD
[0.8 0 0 0.8 0 0] CT
=======
[0.75 0 0 0.75 0 0] CT
>>>>>>> f4de00b5db4de07fdb797f1545578c2683f6c040
0.149 GC
2 setlinecap
1 LJ
0.625 LW
N
507 220.273 M
504.83 220.273 L
S
GR
GS
<<<<<<< HEAD
[0.8 0 0 0.8 0 0] CT
=======
[0.75 0 0 0.75 0 0] CT
>>>>>>> f4de00b5db4de07fdb797f1545578c2683f6c040
0.149 GC
2 setlinecap
1 LJ
0.625 LW
N
507 214.57 M
504.83 214.57 L
S
GR
GS
<<<<<<< HEAD
[0.8 0 0 0.8 0 0] CT
=======
[0.75 0 0 0.75 0 0] CT
>>>>>>> f4de00b5db4de07fdb797f1545578c2683f6c040
0.149 GC
2 setlinecap
1 LJ
0.625 LW
N
507 209.63 M
504.83 209.63 L
S
GR
GS
<<<<<<< HEAD
[0.8 0 0 0.8 0 0] CT
=======
[0.75 0 0 0.75 0 0] CT
>>>>>>> f4de00b5db4de07fdb797f1545578c2683f6c040
0.149 GC
2 setlinecap
1 LJ
0.625 LW
N
507 205.272 M
504.83 205.272 L
S
GR
GS
<<<<<<< HEAD
[0.8 0 0 0.8 0 0] CT
=======
[0.75 0 0 0.75 0 0] CT
>>>>>>> f4de00b5db4de07fdb797f1545578c2683f6c040
0.149 GC
2 setlinecap
1 LJ
0.625 LW
N
507 201.374 M
504.83 201.374 L
S
GR
GS
<<<<<<< HEAD
[0.8 0 0 0.8 0 0] CT
=======
[0.75 0 0 0.75 0 0] CT
>>>>>>> f4de00b5db4de07fdb797f1545578c2683f6c040
0.149 GC
2 setlinecap
1 LJ
0.625 LW
N
507 175.73 M
504.83 175.73 L
S
GR
GS
<<<<<<< HEAD
[0.8 0 0 0.8 0 0] CT
=======
[0.75 0 0 0.75 0 0] CT
>>>>>>> f4de00b5db4de07fdb797f1545578c2683f6c040
0.149 GC
2 setlinecap
1 LJ
0.625 LW
N
507 160.73 M
504.83 160.73 L
S
GR
GS
<<<<<<< HEAD
[0.8 0 0 0.8 0 0] CT
=======
[0.75 0 0 0.75 0 0] CT
>>>>>>> f4de00b5db4de07fdb797f1545578c2683f6c040
0.149 GC
2 setlinecap
1 LJ
0.625 LW
N
507 150.086 M
504.83 150.086 L
S
GR
GS
<<<<<<< HEAD
[0.8 0 0 0.8 0 0] CT
=======
[0.75 0 0 0.75 0 0] CT
>>>>>>> f4de00b5db4de07fdb797f1545578c2683f6c040
0.149 GC
2 setlinecap
1 LJ
0.625 LW
N
507 141.831 M
504.83 141.831 L
S
GR
GS
<<<<<<< HEAD
[0.8 0 0 0.8 0 0] CT
=======
[0.75 0 0 0.75 0 0] CT
>>>>>>> f4de00b5db4de07fdb797f1545578c2683f6c040
0.149 GC
2 setlinecap
1 LJ
0.625 LW
N
507 135.086 M
504.83 135.086 L
S
GR
GS
<<<<<<< HEAD
[0.8 0 0 0.8 0 0] CT
=======
[0.75 0 0 0.75 0 0] CT
>>>>>>> f4de00b5db4de07fdb797f1545578c2683f6c040
0.149 GC
2 setlinecap
1 LJ
0.625 LW
N
507 129.383 M
504.83 129.383 L
S
GR
GS
<<<<<<< HEAD
[0.8 0 0 0.8 0 0] CT
=======
[0.75 0 0 0.75 0 0] CT
>>>>>>> f4de00b5db4de07fdb797f1545578c2683f6c040
0.149 GC
2 setlinecap
1 LJ
0.625 LW
N
507 124.443 M
504.83 124.443 L
S
GR
GS
<<<<<<< HEAD
[0.8 0 0 0.8 0 0] CT
=======
[0.75 0 0 0.75 0 0] CT
>>>>>>> f4de00b5db4de07fdb797f1545578c2683f6c040
0.149 GC
2 setlinecap
1 LJ
0.625 LW
N
507 120.085 M
504.83 120.085 L
S
GR
GS
<<<<<<< HEAD
[0.8 0 0 0.8 0 0] CT
=======
[0.75 0 0 0.75 0 0] CT
>>>>>>> f4de00b5db4de07fdb797f1545578c2683f6c040
0.149 GC
2 setlinecap
1 LJ
0.625 LW
N
507 116.187 M
504.83 116.187 L
S
GR
GS
<<<<<<< HEAD
[0.8 0 0 0.8 0 0] CT
=======
[0.75 0 0 0.75 0 0] CT
>>>>>>> f4de00b5db4de07fdb797f1545578c2683f6c040
0.149 GC
2 setlinecap
1 LJ
0.625 LW
N
507 90.543 M
504.83 90.543 L
S
GR
GS
<<<<<<< HEAD
[0.8 0 0 0.8 0 0] CT
=======
[0.75 0 0 0.75 0 0] CT
>>>>>>> f4de00b5db4de07fdb797f1545578c2683f6c040
0.149 GC
2 setlinecap
1 LJ
0.625 LW
N
507 75.542 M
504.83 75.542 L
S
GR
GS
<<<<<<< HEAD
[0.8 0 0 0.8 0 0] CT
=======
[0.75 0 0 0.75 0 0] CT
>>>>>>> f4de00b5db4de07fdb797f1545578c2683f6c040
0.149 GC
2 setlinecap
1 LJ
0.625 LW
N
507 64.899 M
504.83 64.899 L
S
GR
GS
<<<<<<< HEAD
[0.8 0 0 0.8 0 0] CT
=======
[0.75 0 0 0.75 0 0] CT
>>>>>>> f4de00b5db4de07fdb797f1545578c2683f6c040
0.149 GC
2 setlinecap
1 LJ
0.625 LW
N
507 56.644 M
504.83 56.644 L
S
GR
GS
<<<<<<< HEAD
[0.8 0 0 0.8 0 0] CT
=======
[0.75 0 0 0.75 0 0] CT
>>>>>>> f4de00b5db4de07fdb797f1545578c2683f6c040
0.149 GC
2 setlinecap
1 LJ
0.625 LW
N
507 49.899 M
504.83 49.899 L
S
GR
GS
<<<<<<< HEAD
[0.8 0 0 0.8 0 0] CT
=======
[0.75 0 0 0.75 0 0] CT
>>>>>>> f4de00b5db4de07fdb797f1545578c2683f6c040
0.149 GC
2 setlinecap
1 LJ
0.625 LW
N
507 44.196 M
504.83 44.196 L
S
GR
GS
<<<<<<< HEAD
[0.8 0 0 0.8 0 0] CT
=======
[0.75 0 0 0.75 0 0] CT
>>>>>>> f4de00b5db4de07fdb797f1545578c2683f6c040
0.149 GC
2 setlinecap
1 LJ
0.625 LW
N
507 39.255 M
504.83 39.255 L
S
GR
GS
<<<<<<< HEAD
[0.8 0 0 0.8 0 0] CT
=======
[0.75 0 0 0.75 0 0] CT
0.149 GC
2 setlinecap
1 LJ
0.667 LW
N
507 34.898 M
504.83 34.898 L
S
GR
GS
[0.75 0 0 0.75 0 0] CT
0.149 GC
2 setlinecap
1 LJ
0.667 LW
N
507 31 M
504.83 31 L
S
GR
GS
[0.75 0 0 0.75 30 283.5] CT
>>>>>>> f4de00b5db4de07fdb797f1545578c2683f6c040
0.149 GC
2 setlinecap
1 LJ
0.625 LW
N
507 34.898 M
504.83 34.898 L
S
GR
GS
[0.8 0 0 0.8 0 0] CT
0.149 GC
2 setlinecap
1 LJ
0.625 LW
N
507 31 M
504.83 31 L
S
GR
GS
[0.8 0 0 0.8 33.6 303.2] CT
0.149 GC
/Helvetica 12.5 F
GS
[1 0 0 1 0 0] CT
0 0 moveto 
1 -1 scale
(10) t 
GR
GR
GS
<<<<<<< HEAD
[0.8 0 0 0.8 46.4 298.4] CT
=======
[0.75 0 0 0.75 42.75 279] CT
>>>>>>> f4de00b5db4de07fdb797f1545578c2683f6c040
0.149 GC
/Helvetica 10 F
GS
[1 0 0 1 0 0] CT
0 0 moveto 
1 -1 scale
(-4) t 
GR
GR
GS
<<<<<<< HEAD
[0.8 0 0 0.8 33.6 235.2] CT
=======
[0.75 0 0 0.75 30 219.75] CT
>>>>>>> f4de00b5db4de07fdb797f1545578c2683f6c040
0.149 GC
/Helvetica 12.5 F
GS
[1 0 0 1 0 0] CT
0 0 moveto 
1 -1 scale
(10) t 
GR
GR
GS
<<<<<<< HEAD
[0.8 0 0 0.8 46.4 230.4] CT
=======
[0.75 0 0 0.75 42.75 215.25] CT
>>>>>>> f4de00b5db4de07fdb797f1545578c2683f6c040
0.149 GC
/Helvetica 10 F
GS
[1 0 0 1 0 0] CT
0 0 moveto 
1 -1 scale
(-3) t 
GR
GR
GS
<<<<<<< HEAD
[0.8 0 0 0.8 33.6 166.4] CT
=======
[0.75 0 0 0.75 30 155.25] CT
>>>>>>> f4de00b5db4de07fdb797f1545578c2683f6c040
0.149 GC
/Helvetica 12.5 F
GS
[1 0 0 1 0 0] CT
0 0 moveto 
1 -1 scale
(10) t 
GR
GR
GS
<<<<<<< HEAD
[0.8 0 0 0.8 46.4 161.6] CT
=======
[0.75 0 0 0.75 42.75 150.75] CT
>>>>>>> f4de00b5db4de07fdb797f1545578c2683f6c040
0.149 GC
/Helvetica 10 F
GS
[1 0 0 1 0 0] CT
0 0 moveto 
1 -1 scale
(-2) t 
GR
GR
GS
<<<<<<< HEAD
[0.8 0 0 0.8 33.6 98.4] CT
=======
[0.75 0 0 0.75 30 91.5] CT
>>>>>>> f4de00b5db4de07fdb797f1545578c2683f6c040
0.149 GC
/Helvetica 12.5 F
GS
[1 0 0 1 0 0] CT
0 0 moveto 
1 -1 scale
(10) t 
GR
GR
GS
<<<<<<< HEAD
[0.8 0 0 0.8 46.4 93.6] CT
=======
[0.75 0 0 0.75 42.75 87] CT
>>>>>>> f4de00b5db4de07fdb797f1545578c2683f6c040
0.149 GC
/Helvetica 10 F
GS
[1 0 0 1 0 0] CT
0 0 moveto 
1 -1 scale
(-1) t 
GR
GR
GS
<<<<<<< HEAD
[0.8 0 0 0.8 36 30.4] CT
=======
[0.75 0 0 0.75 33 27.75] CT
>>>>>>> f4de00b5db4de07fdb797f1545578c2683f6c040
0.149 GC
/Helvetica 12.5 F
GS
[1 0 0 1 0 0] CT
0 0 moveto 
1 -1 scale
(10) t 
GR
GR
GS
<<<<<<< HEAD
[0.8 0 0 0.8 48.8 25.6] CT
=======
[0.75 0 0 0.75 45.75 23.25] CT
>>>>>>> f4de00b5db4de07fdb797f1545578c2683f6c040
0.149 GC
/Helvetica 10 F
GS
[1 0 0 1 0 0] CT
0 0 moveto 
1 -1 scale
(0) t 
GR
GR
GS
<<<<<<< HEAD
[0 -0.8 0.8 0 30.6 161.99987] CT
=======
[0 -0.75 0.75 0 26.75 151.87487] CT
>>>>>>> f4de00b5db4de07fdb797f1545578c2683f6c040
0.149 GC
/Helvetica 13.75 F
GS
[1 0 0 1 0 0] CT
-63.5 -4 moveto 
1 -1 scale
(Error in total force) t 
GR
GR
GS
<<<<<<< HEAD
[0.8 0 0 0.8 0 0] CT
=======
[0.75 0 0 0.75 0 0] CT
>>>>>>> f4de00b5db4de07fdb797f1545578c2683f6c040
0 0.447 0.741 RC
1 LJ
2.5 LW
N
507 191.312 M
421.84 228.376 L
335.281 327.264 L
248.09 310.383 L
160.615 321.953 L
73 369.247 L
S
GR
GS
<<<<<<< HEAD
[0.8 0 0 0.8 405.6 153.04957] CT
=======
[0.75 0 0 0.75 380.25 143.48397] CT
>>>>>>> f4de00b5db4de07fdb797f1545578c2683f6c040
0 0.447 0.741 RC
10.0 ML
2.5 LW
N
0 -7 M
0 7 L
-7 0 M
7 0 L
S
GR
GS
<<<<<<< HEAD
[0.8 0 0 0.8 337.472 182.7005] CT
=======
[0.75 0 0 0.75 316.38 171.28172] CT
>>>>>>> f4de00b5db4de07fdb797f1545578c2683f6c040
0 0.447 0.741 RC
10.0 ML
2.5 LW
N
0 -7 M
0 7 L
-7 0 M
7 0 L
S
GR
GS
<<<<<<< HEAD
[0.8 0 0 0.8 268.22495 261.81147] CT
=======
[0.75 0 0 0.75 251.46089 245.44826] CT
>>>>>>> f4de00b5db4de07fdb797f1545578c2683f6c040
0 0.447 0.741 RC
10.0 ML
2.5 LW
N
0 -7 M
0 7 L
-7 0 M
7 0 L
S
GR
GS
<<<<<<< HEAD
[0.8 0 0 0.8 198.47203 248.3063] CT
=======
[0.75 0 0 0.75 186.06753 232.78716] CT
>>>>>>> f4de00b5db4de07fdb797f1545578c2683f6c040
0 0.447 0.741 RC
10.0 ML
2.5 LW
N
0 -7 M
0 7 L
-7 0 M
7 0 L
S
GR
GS
<<<<<<< HEAD
[0.8 0 0 0.8 128.49218 257.56279] CT
=======
[0.75 0 0 0.75 120.46141 241.46512] CT
>>>>>>> f4de00b5db4de07fdb797f1545578c2683f6c040
0 0.447 0.741 RC
10.0 ML
2.5 LW
N
0 -7 M
0 7 L
-7 0 M
7 0 L
S
GR
GS
<<<<<<< HEAD
[0.8 0 0 0.8 58.4 295.39797] CT
0 0.447 0.741 RC
10.0 ML
2.5 LW
=======
[0.75 0 0 0.75 54.75 276.9356] CT
0 0.447 0.741 RC
10.0 ML
2.667 LW
>>>>>>> f4de00b5db4de07fdb797f1545578c2683f6c040
N
0 -7 M
0 7 L
-7 0 M
7 0 L
S
GR
GS
<<<<<<< HEAD
[0.8 0 0 0.8 0 0] CT
=======
[0.75 0 0 0.75 0 0] CT
>>>>>>> f4de00b5db4de07fdb797f1545578c2683f6c040
0.851 0.325 0.098 RC
1 LJ
2.5 LW
N
507 95.216 M
421.84 95.667 L
335.281 212.23 L
248.09 195.013 L
160.615 266.643 L
73 302.556 L
S
GR
GS
<<<<<<< HEAD
[0.8 0 0 0.8 405.6 76.17242] CT
=======
[0.75 0 0 0.75 380.25 71.41165] CT
>>>>>>> f4de00b5db4de07fdb797f1545578c2683f6c040
0.851 0.325 0.098 RC
10.0 ML
2.5 LW
N
0 -8.331 M
-7.215 4.166 L
7.215 4.166 L
cp
S
GR
GS
<<<<<<< HEAD
[0.8 0 0 0.8 337.472 76.53336] CT
=======
[0.75 0 0 0.75 316.38 71.75003] CT
>>>>>>> f4de00b5db4de07fdb797f1545578c2683f6c040
0.851 0.325 0.098 RC
10.0 ML
2.5 LW
N
0 -8.331 M
-7.215 4.166 L
7.215 4.166 L
cp
S
GR
GS
<<<<<<< HEAD
[0.8 0 0 0.8 268.22495 169.78433] CT
=======
[0.75 0 0 0.75 251.46089 159.17281] CT
>>>>>>> f4de00b5db4de07fdb797f1545578c2683f6c040
0.851 0.325 0.098 RC
10.0 ML
2.5 LW
N
0 -8.331 M
-7.215 4.166 L
7.215 4.166 L
cp
S
GR
GS
<<<<<<< HEAD
[0.8 0 0 0.8 198.47203 156.01007] CT
=======
[0.75 0 0 0.75 186.06753 146.25944] CT
>>>>>>> f4de00b5db4de07fdb797f1545578c2683f6c040
0.851 0.325 0.098 RC
10.0 ML
2.5 LW
N
0 -8.331 M
-7.215 4.166 L
7.215 4.166 L
cp
S
GR
GS
<<<<<<< HEAD
[0.8 0 0 0.8 128.49218 213.31411] CT
=======
[0.75 0 0 0.75 120.46141 199.98198] CT
>>>>>>> f4de00b5db4de07fdb797f1545578c2683f6c040
0.851 0.325 0.098 RC
10.0 ML
2.5 LW
N
0 -8.331 M
-7.215 4.166 L
7.215 4.166 L
cp
S
GR
GS
<<<<<<< HEAD
[0.8 0 0 0.8 58.4 242.04487] CT
0.851 0.325 0.098 RC
10.0 ML
2.5 LW
N
0 -8.331 M
-7.215 4.166 L
7.215 4.166 L
=======
[0.75 0 0 0.75 54.75 226.91707] CT
0.851 0.325 0.098 RC
10.0 ML
2.667 LW
N
0 -8.887 M
-7.696 4.443 L
7.696 4.443 L
>>>>>>> f4de00b5db4de07fdb797f1545578c2683f6c040
cp
S
GR
GS
<<<<<<< HEAD
[0.8 0 0 0.8 0 0] CT
=======
[0.75 0 0 0.75 0 0] CT
>>>>>>> f4de00b5db4de07fdb797f1545578c2683f6c040
[10 6] 0 setdash
2 LJ
0.625 LW
N
507 209.581 M
421.84 241.844 L
335.281 274.636 L
248.09 307.668 L
160.615 340.807 L
73 374 L
S
GR
GS
<<<<<<< HEAD
[0.8 0 0 0.8 0 0] CT
=======
[0.75 0 0 0.75 0 0] CT
>>>>>>> f4de00b5db4de07fdb797f1545578c2683f6c040
[10 6] 0 setdash
2 LJ
0.625 LW
N
507 85.68 M
421.84 128.599 L
335.281 172.223 L
248.09 216.165 L
160.615 260.25 L
73 304.407 L
S
GR
GS
<<<<<<< HEAD
[0.8 0 0 0.8 0 0] CT
1 GC
N
497 364 M
497 331 L
424 331 L
424 364 L
=======
[0.75 0 0 0.75 0 0] CT
1 GC
N
496 363 M
496 329 L
418 329 L
418 363 L
>>>>>>> f4de00b5db4de07fdb797f1545578c2683f6c040
cp
f
GR
GS
<<<<<<< HEAD
[0.8 0 0 0.8 374.55781 272.11077] CT
/Helvetica 11.25 F
=======
[0.75 0 0 0.75 348.75 253.77173] CT
/Helvetica 12 F
>>>>>>> f4de00b5db4de07fdb797f1545578c2683f6c040
GS
[1 0 0 1 0 0] CT
0 4 moveto 
1 -1 scale
(BEM) t 
GR
GR
GS
<<<<<<< HEAD
[0.8 0 0 0.8 0 0] CT
=======
[0.75 0 0 0.75 0 0] CT
>>>>>>> f4de00b5db4de07fdb797f1545578c2683f6c040
0 0.447 0.741 RC
1 LJ
2.5 LW
N
<<<<<<< HEAD
427.973 340.138 M
465.218 340.138 L
S
GR
GS
[0.8 0 0 0.8 357.2762 272.11077] CT
=======
422 338.362 M
462 338.362 L
S
GR
GS
[0.75 0 0 0.75 331.5 253.77173] CT
>>>>>>> f4de00b5db4de07fdb797f1545578c2683f6c040
0 0.447 0.741 RC
10.0 ML
2.5 LW
N
0 -6 M
0 6 L
-6 0 M
6 0 L
S
GR
GS
<<<<<<< HEAD
[0.8 0 0 0.8 374.55781 283.88923] CT
/Helvetica 11.25 F
=======
[0.75 0 0 0.75 348.75 265.22827] CT
/Helvetica 12 F
>>>>>>> f4de00b5db4de07fdb797f1545578c2683f6c040
GS
[1 0 0 1 0 0] CT
0 4 moveto 
1 -1 scale
(MST) t 
GR
GR
GS
<<<<<<< HEAD
[0.8 0 0 0.8 0 0] CT
=======
[0.75 0 0 0.75 0 0] CT
>>>>>>> f4de00b5db4de07fdb797f1545578c2683f6c040
0.851 0.325 0.098 RC
1 LJ
2.5 LW
N
<<<<<<< HEAD
427.973 354.862 M
465.218 354.862 L
S
GR
GS
[0.8 0 0 0.8 357.2762 283.88923] CT
=======
422 353.638 M
462 353.638 L
S
GR
GS
[0.75 0 0 0.75 331.5 265.22827] CT
>>>>>>> f4de00b5db4de07fdb797f1545578c2683f6c040
0.851 0.325 0.098 RC
10.0 ML
2.5 LW
N
0 -7.498 M
-6.493 3.749 L
6.493 3.749 L
cp
S
GR
GS
<<<<<<< HEAD
[0.8 0 0 0.8 0 0] CT
=======
[0.75 0 0 0.75 0 0] CT
>>>>>>> f4de00b5db4de07fdb797f1545578c2683f6c040
0.149 GC
10.0 ML
0.625 LW
N
<<<<<<< HEAD
424 364 M
424 331 L
497 331 L
497 364 L
=======
418 363 M
418 329 L
496 329 L
496 363 L
>>>>>>> f4de00b5db4de07fdb797f1545578c2683f6c040
cp
S
GR
%%Trailer
%%Pages: 1
%%EOF
