%!PS-Adobe-3.0 EPSF-3.0
%%Creator: (MATLAB, The Mathworks, Inc. Version 9.13.0.2105380 \(R2022b\) Update 2. Operating System: Linux)
%%Title: ./PMCFSP_dualnorm_getMeshCube.eps
%%CreationDate: 2024-01-22T01:14:16
%%Pages: (atend)
%%BoundingBox:    19     8   420   311
%%LanguageLevel: 2
%%EndComments
%%BeginProlog
%%BeginResource: procset (Apache XML Graphics Std ProcSet) 1.2 0
%%Version: 1.2 0
%%Copyright: (Copyright 2001-2003,2010 The Apache Software Foundation. License terms: http://www.apache.org/licenses/LICENSE-2.0)
/bd{bind def}bind def
/ld{load def}bd
/GR/grestore ld
/GS/gsave ld
/RM/rmoveto ld
/C/curveto ld
/t/show ld
/L/lineto ld
/ML/setmiterlimit ld
/CT/concat ld
/f/fill ld
/N/newpath ld
/S/stroke ld
/CC/setcmykcolor ld
/A/ashow ld
/cp/closepath ld
/RC/setrgbcolor ld
/LJ/setlinejoin ld
/GC/setgray ld
/LW/setlinewidth ld
/M/moveto ld
/re {4 2 roll M
1 index 0 rlineto
0 exch rlineto
neg 0 rlineto
cp } bd
/_ctm matrix def
/_tm matrix def
/BT { _ctm currentmatrix pop matrix _tm copy pop 0 0 moveto } bd
/ET { _ctm setmatrix } bd
/iTm { _ctm setmatrix _tm concat } bd
/Tm { _tm astore pop iTm 0 0 moveto } bd
/ux 0.0 def
/uy 0.0 def
/F {
  /Tp exch def
  /Tf exch def
  Tf findfont Tp scalefont setfont
  /cf Tf def  /cs Tp def
} bd
/ULS {currentpoint /uy exch def /ux exch def} bd
/ULE {
  /Tcx currentpoint pop def
  gsave
  newpath
  cf findfont cs scalefont dup
  /FontMatrix get 0 get /Ts exch def /FontInfo get dup
  /UnderlinePosition get Ts mul /To exch def
  /UnderlineThickness get Ts mul /Tt exch def
  ux uy To add moveto  Tcx uy To add lineto
  Tt setlinewidth stroke
  grestore
} bd
/OLE {
  /Tcx currentpoint pop def
  gsave
  newpath
  cf findfont cs scalefont dup
  /FontMatrix get 0 get /Ts exch def /FontInfo get dup
  /UnderlinePosition get Ts mul /To exch def
  /UnderlineThickness get Ts mul /Tt exch def
  ux uy To add cs add moveto Tcx uy To add cs add lineto
  Tt setlinewidth stroke
  grestore
} bd
/SOE {
  /Tcx currentpoint pop def
  gsave
  newpath
  cf findfont cs scalefont dup
  /FontMatrix get 0 get /Ts exch def /FontInfo get dup
  /UnderlinePosition get Ts mul /To exch def
  /UnderlineThickness get Ts mul /Tt exch def
  ux uy To add cs 10 mul 26 idiv add moveto Tcx uy To add cs 10 mul 26 idiv add lineto
  Tt setlinewidth stroke
  grestore
} bd
/QT {
/Y22 exch store
/X22 exch store
/Y21 exch store
/X21 exch store
currentpoint
/Y21 load 2 mul add 3 div exch
/X21 load 2 mul add 3 div exch
/X21 load 2 mul /X22 load add 3 div
/Y21 load 2 mul /Y22 load add 3 div
/X22 load /Y22 load curveto
} bd
/SSPD {
dup length /d exch dict def
{
/v exch def
/k exch def
currentpagedevice k known {
/cpdv currentpagedevice k get def
v cpdv ne {
/upd false def
/nullv v type /nulltype eq def
/nullcpdv cpdv type /nulltype eq def
nullv nullcpdv or
{
/upd true def
} {
/sametype v type cpdv type eq def
sametype {
v type /arraytype eq {
/vlen v length def
/cpdvlen cpdv length def
vlen cpdvlen eq {
0 1 vlen 1 sub {
/i exch def
/obj v i get def
/cpdobj cpdv i get def
obj cpdobj ne {
/upd true def
exit
} if
} for
} {
/upd true def
} ifelse
} {
v type /dicttype eq {
v {
/dv exch def
/dk exch def
/cpddv cpdv dk get def
dv cpddv ne {
/upd true def
exit
} if
} forall
} {
/upd true def
} ifelse
} ifelse
} if
} ifelse
upd true eq {
d k v put
} if
} if
} if
} forall
d length 0 gt {
d setpagedevice
} if
} bd
/RE { % /NewFontName [NewEncodingArray] /FontName RE -
  findfont dup length dict begin
  {
    1 index /FID ne
    {def} {pop pop} ifelse
  } forall
  /Encoding exch def
  /FontName 1 index def
  currentdict definefont pop
  end
} bind def
%%EndResource
%%BeginResource: procset (Apache XML Graphics EPS ProcSet) 1.0 0
%%Version: 1.0 0
%%Copyright: (Copyright 2002-2003 The Apache Software Foundation. License terms: http://www.apache.org/licenses/LICENSE-2.0)
/BeginEPSF { %def
/b4_Inc_state save def         % Save state for cleanup
/dict_count countdictstack def % Count objects on dict stack
/op_count count 1 sub def      % Count objects on operand stack
userdict begin                 % Push userdict on dict stack
/showpage { } def              % Redefine showpage, { } = null proc
0 setgray 0 setlinecap         % Prepare graphics state
1 setlinewidth 0 setlinejoin
10 setmiterlimit [ ] 0 setdash newpath
/languagelevel where           % If level not equal to 1 then
{pop languagelevel             % set strokeadjust and
1 ne                           % overprint to their defaults.
{false setstrokeadjust false setoverprint
} if
} if
} bd
/EndEPSF { %def
count op_count sub {pop} repeat            % Clean up stacks
countdictstack dict_count sub {end} repeat
b4_Inc_state restore
} bd
%%EndResource
%FOPBeginFontDict
%%IncludeResource: font Courier-Oblique
%%IncludeResource: font Courier-BoldOblique
%%IncludeResource: font Courier-Bold
%%IncludeResource: font ZapfDingbats
%%IncludeResource: font Symbol
%%IncludeResource: font Helvetica
%%IncludeResource: font Helvetica-Oblique
%%IncludeResource: font Helvetica-Bold
%%IncludeResource: font Helvetica-BoldOblique
%%IncludeResource: font Times-Roman
%%IncludeResource: font Times-Italic
%%IncludeResource: font Times-Bold
%%IncludeResource: font Times-BoldItalic
%%IncludeResource: font Courier
%FOPEndFontDict
%%BeginResource: encoding WinAnsiEncoding
/WinAnsiEncoding [
/.notdef /.notdef /.notdef /.notdef /.notdef
/.notdef /.notdef /.notdef /.notdef /.notdef
/.notdef /.notdef /.notdef /.notdef /.notdef
/.notdef /.notdef /.notdef /.notdef /.notdef
/.notdef /.notdef /.notdef /.notdef /.notdef
/.notdef /.notdef /.notdef /.notdef /.notdef
/.notdef /.notdef /space /exclam /quotedbl
/numbersign /dollar /percent /ampersand /quotesingle
/parenleft /parenright /asterisk /plus /comma
/hyphen /period /slash /zero /one
/two /three /four /five /six
/seven /eight /nine /colon /semicolon
/less /equal /greater /question /at
/A /B /C /D /E
/F /G /H /I /J
/K /L /M /N /O
/P /Q /R /S /T
/U /V /W /X /Y
/Z /bracketleft /backslash /bracketright /asciicircum
/underscore /quoteleft /a /b /c
/d /e /f /g /h
/i /j /k /l /m
/n /o /p /q /r
/s /t /u /v /w
/x /y /z /braceleft /bar
/braceright /asciitilde /bullet /Euro /bullet
/quotesinglbase /florin /quotedblbase /ellipsis /dagger
/daggerdbl /circumflex /perthousand /Scaron /guilsinglleft
/OE /bullet /Zcaron /bullet /bullet
/quoteleft /quoteright /quotedblleft /quotedblright /bullet
/endash /emdash /asciitilde /trademark /scaron
/guilsinglright /oe /bullet /zcaron /Ydieresis
/space /exclamdown /cent /sterling /currency
/yen /brokenbar /section /dieresis /copyright
/ordfeminine /guillemotleft /logicalnot /sfthyphen /registered
/macron /degree /plusminus /twosuperior /threesuperior
/acute /mu /paragraph /middot /cedilla
/onesuperior /ordmasculine /guillemotright /onequarter /onehalf
/threequarters /questiondown /Agrave /Aacute /Acircumflex
/Atilde /Adieresis /Aring /AE /Ccedilla
/Egrave /Eacute /Ecircumflex /Edieresis /Igrave
/Iacute /Icircumflex /Idieresis /Eth /Ntilde
/Ograve /Oacute /Ocircumflex /Otilde /Odieresis
/multiply /Oslash /Ugrave /Uacute /Ucircumflex
/Udieresis /Yacute /Thorn /germandbls /agrave
/aacute /acircumflex /atilde /adieresis /aring
/ae /ccedilla /egrave /eacute /ecircumflex
/edieresis /igrave /iacute /icircumflex /idieresis
/eth /ntilde /ograve /oacute /ocircumflex
/otilde /odieresis /divide /oslash /ugrave
/uacute /ucircumflex /udieresis /yacute /thorn
/ydieresis
] def
%%EndResource
%FOPBeginFontReencode
/Courier-Oblique findfont
dup length dict begin
  {1 index /FID ne {def} {pop pop} ifelse} forall
  /Encoding WinAnsiEncoding def
  currentdict
end
/Courier-Oblique exch definefont pop
/Courier-BoldOblique findfont
dup length dict begin
  {1 index /FID ne {def} {pop pop} ifelse} forall
  /Encoding WinAnsiEncoding def
  currentdict
end
/Courier-BoldOblique exch definefont pop
/Courier-Bold findfont
dup length dict begin
  {1 index /FID ne {def} {pop pop} ifelse} forall
  /Encoding WinAnsiEncoding def
  currentdict
end
/Courier-Bold exch definefont pop
/Helvetica findfont
dup length dict begin
  {1 index /FID ne {def} {pop pop} ifelse} forall
  /Encoding WinAnsiEncoding def
  currentdict
end
/Helvetica exch definefont pop
/Helvetica-Oblique findfont
dup length dict begin
  {1 index /FID ne {def} {pop pop} ifelse} forall
  /Encoding WinAnsiEncoding def
  currentdict
end
/Helvetica-Oblique exch definefont pop
/Helvetica-Bold findfont
dup length dict begin
  {1 index /FID ne {def} {pop pop} ifelse} forall
  /Encoding WinAnsiEncoding def
  currentdict
end
/Helvetica-Bold exch definefont pop
/Helvetica-BoldOblique findfont
dup length dict begin
  {1 index /FID ne {def} {pop pop} ifelse} forall
  /Encoding WinAnsiEncoding def
  currentdict
end
/Helvetica-BoldOblique exch definefont pop
/Times-Roman findfont
dup length dict begin
  {1 index /FID ne {def} {pop pop} ifelse} forall
  /Encoding WinAnsiEncoding def
  currentdict
end
/Times-Roman exch definefont pop
/Times-Italic findfont
dup length dict begin
  {1 index /FID ne {def} {pop pop} ifelse} forall
  /Encoding WinAnsiEncoding def
  currentdict
end
/Times-Italic exch definefont pop
/Times-Bold findfont
dup length dict begin
  {1 index /FID ne {def} {pop pop} ifelse} forall
  /Encoding WinAnsiEncoding def
  currentdict
end
/Times-Bold exch definefont pop
/Times-BoldItalic findfont
dup length dict begin
  {1 index /FID ne {def} {pop pop} ifelse} forall
  /Encoding WinAnsiEncoding def
  currentdict
end
/Times-BoldItalic exch definefont pop
/Courier findfont
dup length dict begin
  {1 index /FID ne {def} {pop pop} ifelse} forall
  /Encoding WinAnsiEncoding def
  currentdict
end
/Courier exch definefont pop
%FOPEndFontReencode
%%EndProlog
%%Page: 1 1
%%PageBoundingBox: 0 0 456 330
%%BeginPageSetup
N
   19     8 M
  439     8 L
  439   319 L
   19   319 L
cp
clip
[1 0 0 -1 0 330] CT
%%EndPageSetup
GS
[0.8 0 0 0.8 0 -0.40002] CT
1 GC
N
0 0 570 413 re
f
GR
GS
[0.8 0 0 0.8 0 -0.40002] CT
1 GC
N
0 0 570 413 re
f
GR
GS
[0.8 0 0 0.8 0 -0.40002] CT
1 GC
N
74 368 M
516 368 L
516 31 L
74 31 L
cp
f
GR
GS
[0.8 0 0 0.8 0 -0.40002] CT
0.149 GC
2 setlinecap
1 LJ
0.625 LW
N
74 368 M
516 368 L
S
GR
GS
[0.8 0 0 0.8 0 -0.40002] CT
0.149 GC
2 setlinecap
1 LJ
0.625 LW
N
74 31 M
516 31 L
S
GR
GS
[0.8 0 0 0.8 0 -0.40002] CT
0.149 GC
2 setlinecap
1 LJ
0.625 LW
N
170.837 368 M
170.837 363.58 L
S
GR
GS
[0.8 0 0 0.8 0 -0.40002] CT
0.149 GC
2 setlinecap
1 LJ
0.625 LW
N
257.553 368 M
257.553 363.58 L
S
GR
GS
[0.8 0 0 0.8 0 -0.40002] CT
0.149 GC
2 setlinecap
1 LJ
0.625 LW
N
324.815 368 M
324.815 363.58 L
S
GR
GS
[0.8 0 0 0.8 0 -0.40002] CT
0.149 GC
2 setlinecap
1 LJ
0.625 LW
N
379.773 368 M
379.773 363.58 L
S
GR
GS
[0.8 0 0 0.8 0 -0.40002] CT
0.149 GC
2 setlinecap
1 LJ
0.625 LW
N
426.239 368 M
426.239 363.58 L
S
GR
GS
[0.8 0 0 0.8 0 -0.40002] CT
0.149 GC
2 setlinecap
1 LJ
0.625 LW
N
466.489 368 M
466.489 363.58 L
S
GR
GS
[0.8 0 0 0.8 0 -0.40002] CT
0.149 GC
2 setlinecap
1 LJ
0.625 LW
N
501.993 368 M
501.993 363.58 L
S
GR
GS
[0.8 0 0 0.8 0 -0.40002] CT
0.149 GC
2 setlinecap
1 LJ
0.625 LW
N
170.837 31 M
170.837 35.42 L
S
GR
GS
[0.8 0 0 0.8 0 -0.40002] CT
0.149 GC
2 setlinecap
1 LJ
0.625 LW
N
257.553 31 M
257.553 35.42 L
S
GR
GS
[0.8 0 0 0.8 0 -0.40002] CT
0.149 GC
2 setlinecap
1 LJ
0.625 LW
N
324.815 31 M
324.815 35.42 L
S
GR
GS
[0.8 0 0 0.8 0 -0.40002] CT
0.149 GC
2 setlinecap
1 LJ
0.625 LW
N
379.773 31 M
379.773 35.42 L
S
GR
GS
[0.8 0 0 0.8 0 -0.40002] CT
0.149 GC
2 setlinecap
1 LJ
0.625 LW
N
426.239 31 M
426.239 35.42 L
S
GR
GS
[0.8 0 0 0.8 0 -0.40002] CT
0.149 GC
2 setlinecap
1 LJ
0.625 LW
N
466.489 31 M
466.489 35.42 L
S
GR
GS
[0.8 0 0 0.8 0 -0.40002] CT
0.149 GC
2 setlinecap
1 LJ
0.625 LW
N
501.993 31 M
501.993 35.42 L
S
GR
GS
[0.8 0 0 0.8 0 -0.40002] CT
0.149 GC
2 setlinecap
1 LJ
0.625 LW
N
77.346 368 M
77.346 365.79 L
S
GR
GS
[0.8 0 0 0.8 0 -0.40002] CT
0.149 GC
2 setlinecap
1 LJ
0.625 LW
N
103.574 368 M
103.574 365.79 L
S
GR
GS
[0.8 0 0 0.8 0 -0.40002] CT
0.149 GC
2 setlinecap
1 LJ
0.625 LW
N
127.701 368 M
127.701 365.79 L
S
GR
GS
[0.8 0 0 0.8 0 -0.40002] CT
0.149 GC
2 setlinecap
1 LJ
0.625 LW
N
150.04 368 M
150.04 365.79 L
S
GR
GS
[0.8 0 0 0.8 0 -0.40002] CT
0.149 GC
2 setlinecap
1 LJ
0.625 LW
N
190.29 368 M
190.29 365.79 L
S
GR
GS
[0.8 0 0 0.8 0 -0.40002] CT
0.149 GC
2 setlinecap
1 LJ
0.625 LW
N
208.565 368 M
208.565 365.79 L
S
GR
GS
[0.8 0 0 0.8 0 -0.40002] CT
0.149 GC
2 setlinecap
1 LJ
0.625 LW
N
225.794 368 M
225.794 365.79 L
S
GR
GS
[0.8 0 0 0.8 0 -0.40002] CT
0.149 GC
2 setlinecap
1 LJ
0.625 LW
N
242.092 368 M
242.092 365.79 L
S
GR
GS
[0.8 0 0 0.8 0 -0.40002] CT
0.149 GC
2 setlinecap
1 LJ
0.625 LW
N
272.26 368 M
272.26 365.79 L
S
GR
GS
[0.8 0 0 0.8 0 -0.40002] CT
0.149 GC
2 setlinecap
1 LJ
0.625 LW
N
286.282 368 M
286.282 365.79 L
S
GR
GS
[0.8 0 0 0.8 0 -0.40002] CT
0.149 GC
2 setlinecap
1 LJ
0.625 LW
N
299.682 368 M
299.682 365.79 L
S
GR
GS
[0.8 0 0 0.8 0 -0.40002] CT
0.149 GC
2 setlinecap
1 LJ
0.625 LW
N
312.51 368 M
312.51 365.79 L
S
GR
GS
[0.8 0 0 0.8 0 -0.40002] CT
0.149 GC
2 setlinecap
1 LJ
0.625 LW
N
336.638 368 M
336.638 365.79 L
S
GR
GS
[0.8 0 0 0.8 0 -0.40002] CT
0.149 GC
2 setlinecap
1 LJ
0.625 LW
N
348.014 368 M
348.014 365.79 L
S
GR
GS
[0.8 0 0 0.8 0 -0.40002] CT
0.149 GC
2 setlinecap
1 LJ
0.625 LW
N
358.976 368 M
358.976 365.79 L
S
GR
GS
[0.8 0 0 0.8 0 -0.40002] CT
0.149 GC
2 setlinecap
1 LJ
0.625 LW
N
369.554 368 M
369.554 365.79 L
S
GR
GS
[0.8 0 0 0.8 0 -0.40002] CT
0.149 GC
2 setlinecap
1 LJ
0.625 LW
N
389.657 368 M
389.657 365.79 L
S
GR
GS
[0.8 0 0 0.8 0 -0.40002] CT
0.149 GC
2 setlinecap
1 LJ
0.625 LW
N
399.227 368 M
399.227 365.79 L
S
GR
GS
[0.8 0 0 0.8 0 -0.40002] CT
0.149 GC
2 setlinecap
1 LJ
0.625 LW
N
408.502 368 M
408.502 365.79 L
S
GR
GS
[0.8 0 0 0.8 0 -0.40002] CT
0.149 GC
2 setlinecap
1 LJ
0.625 LW
N
417.501 368 M
417.501 365.79 L
S
GR
GS
[0.8 0 0 0.8 0 -0.40002] CT
0.149 GC
2 setlinecap
1 LJ
0.625 LW
N
434.73 368 M
434.73 365.79 L
S
GR
GS
[0.8 0 0 0.8 0 -0.40002] CT
0.149 GC
2 setlinecap
1 LJ
0.625 LW
N
442.989 368 M
442.989 365.79 L
S
GR
GS
[0.8 0 0 0.8 0 -0.40002] CT
0.149 GC
2 setlinecap
1 LJ
0.625 LW
N
451.028 368 M
451.028 365.79 L
S
GR
GS
[0.8 0 0 0.8 0 -0.40002] CT
0.149 GC
2 setlinecap
1 LJ
0.625 LW
N
458.858 368 M
458.858 365.79 L
S
GR
GS
[0.8 0 0 0.8 0 -0.40002] CT
0.149 GC
2 setlinecap
1 LJ
0.625 LW
N
473.932 368 M
473.932 365.79 L
S
GR
GS
[0.8 0 0 0.8 0 -0.40002] CT
0.149 GC
2 setlinecap
1 LJ
0.625 LW
N
481.196 368 M
481.196 365.79 L
S
GR
GS
[0.8 0 0 0.8 0 -0.40002] CT
0.149 GC
2 setlinecap
1 LJ
0.625 LW
N
488.289 368 M
488.289 365.79 L
S
GR
GS
[0.8 0 0 0.8 0 -0.40002] CT
0.149 GC
2 setlinecap
1 LJ
0.625 LW
N
495.219 368 M
495.219 365.79 L
S
GR
GS
[0.8 0 0 0.8 0 -0.40002] CT
0.149 GC
2 setlinecap
1 LJ
0.625 LW
N
508.618 368 M
508.618 365.79 L
S
GR
GS
[0.8 0 0 0.8 0 -0.40002] CT
0.149 GC
2 setlinecap
1 LJ
0.625 LW
N
515.101 368 M
515.101 365.79 L
S
GR
GS
[0.8 0 0 0.8 0 -0.40002] CT
0.149 GC
2 setlinecap
1 LJ
0.625 LW
N
77.346 31 M
77.346 33.21 L
S
GR
GS
[0.8 0 0 0.8 0 -0.40002] CT
0.149 GC
2 setlinecap
1 LJ
0.625 LW
N
103.574 31 M
103.574 33.21 L
S
GR
GS
[0.8 0 0 0.8 0 -0.40002] CT
0.149 GC
2 setlinecap
1 LJ
0.625 LW
N
127.701 31 M
127.701 33.21 L
S
GR
GS
[0.8 0 0 0.8 0 -0.40002] CT
0.149 GC
2 setlinecap
1 LJ
0.625 LW
N
150.04 31 M
150.04 33.21 L
S
GR
GS
[0.8 0 0 0.8 0 -0.40002] CT
0.149 GC
2 setlinecap
1 LJ
0.625 LW
N
190.29 31 M
190.29 33.21 L
S
GR
GS
[0.8 0 0 0.8 0 -0.40002] CT
0.149 GC
2 setlinecap
1 LJ
0.625 LW
N
208.565 31 M
208.565 33.21 L
S
GR
GS
[0.8 0 0 0.8 0 -0.40002] CT
0.149 GC
2 setlinecap
1 LJ
0.625 LW
N
225.794 31 M
225.794 33.21 L
S
GR
GS
[0.8 0 0 0.8 0 -0.40002] CT
0.149 GC
2 setlinecap
1 LJ
0.625 LW
N
242.092 31 M
242.092 33.21 L
S
GR
GS
[0.8 0 0 0.8 0 -0.40002] CT
0.149 GC
2 setlinecap
1 LJ
0.625 LW
N
272.26 31 M
272.26 33.21 L
S
GR
GS
[0.8 0 0 0.8 0 -0.40002] CT
0.149 GC
2 setlinecap
1 LJ
0.625 LW
N
286.282 31 M
286.282 33.21 L
S
GR
GS
[0.8 0 0 0.8 0 -0.40002] CT
0.149 GC
2 setlinecap
1 LJ
0.625 LW
N
299.682 31 M
299.682 33.21 L
S
GR
GS
[0.8 0 0 0.8 0 -0.40002] CT
0.149 GC
2 setlinecap
1 LJ
0.625 LW
N
312.51 31 M
312.51 33.21 L
S
GR
GS
[0.8 0 0 0.8 0 -0.40002] CT
0.149 GC
2 setlinecap
1 LJ
0.625 LW
N
336.638 31 M
336.638 33.21 L
S
GR
GS
[0.8 0 0 0.8 0 -0.40002] CT
0.149 GC
2 setlinecap
1 LJ
0.625 LW
N
348.014 31 M
348.014 33.21 L
S
GR
GS
[0.8 0 0 0.8 0 -0.40002] CT
0.149 GC
2 setlinecap
1 LJ
0.625 LW
N
358.976 31 M
358.976 33.21 L
S
GR
GS
[0.8 0 0 0.8 0 -0.40002] CT
0.149 GC
2 setlinecap
1 LJ
0.625 LW
N
369.554 31 M
369.554 33.21 L
S
GR
GS
[0.8 0 0 0.8 0 -0.40002] CT
0.149 GC
2 setlinecap
1 LJ
0.625 LW
N
389.657 31 M
389.657 33.21 L
S
GR
GS
[0.8 0 0 0.8 0 -0.40002] CT
0.149 GC
2 setlinecap
1 LJ
0.625 LW
N
399.227 31 M
399.227 33.21 L
S
GR
GS
[0.8 0 0 0.8 0 -0.40002] CT
0.149 GC
2 setlinecap
1 LJ
0.625 LW
N
408.502 31 M
408.502 33.21 L
S
GR
GS
[0.8 0 0 0.8 0 -0.40002] CT
0.149 GC
2 setlinecap
1 LJ
0.625 LW
N
417.501 31 M
417.501 33.21 L
S
GR
GS
[0.8 0 0 0.8 0 -0.40002] CT
0.149 GC
2 setlinecap
1 LJ
0.625 LW
N
434.73 31 M
434.73 33.21 L
S
GR
GS
[0.8 0 0 0.8 0 -0.40002] CT
0.149 GC
2 setlinecap
1 LJ
0.625 LW
N
442.989 31 M
442.989 33.21 L
S
GR
GS
[0.8 0 0 0.8 0 -0.40002] CT
0.149 GC
2 setlinecap
1 LJ
0.625 LW
N
451.028 31 M
451.028 33.21 L
S
GR
GS
[0.8 0 0 0.8 0 -0.40002] CT
0.149 GC
2 setlinecap
1 LJ
0.625 LW
N
458.858 31 M
458.858 33.21 L
S
GR
GS
[0.8 0 0 0.8 0 -0.40002] CT
0.149 GC
2 setlinecap
1 LJ
0.625 LW
N
473.932 31 M
473.932 33.21 L
S
GR
GS
[0.8 0 0 0.8 0 -0.40002] CT
0.149 GC
2 setlinecap
1 LJ
0.625 LW
N
481.196 31 M
481.196 33.21 L
S
GR
GS
[0.8 0 0 0.8 0 -0.40002] CT
0.149 GC
2 setlinecap
1 LJ
0.625 LW
N
488.289 31 M
488.289 33.21 L
S
GR
GS
[0.8 0 0 0.8 0 -0.40002] CT
0.149 GC
2 setlinecap
1 LJ
0.625 LW
N
495.219 31 M
495.219 33.21 L
S
GR
GS
[0.8 0 0 0.8 0 -0.40002] CT
0.149 GC
2 setlinecap
1 LJ
0.625 LW
N
508.618 31 M
508.618 33.21 L
S
GR
GS
[0.8 0 0 0.8 0 -0.40002] CT
0.149 GC
2 setlinecap
1 LJ
0.625 LW
N
515.101 31 M
515.101 33.21 L
S
GR
GS
[0.8 0 0 0.8 136.66926 298] CT
0.149 GC
/Helvetica 12.5 F
GS
[1 0 0 1 0 0] CT
-14 12 moveto 
1 -1 scale
(0.15) t 
GR
GR
GS
[0.8 0 0 0.8 206.04238 298] CT
0.149 GC
/Helvetica 12.5 F
GS
[1 0 0 1 0 0] CT
-10 12 moveto 
1 -1 scale
(0.2) t 
GR
GR
GS
[0.8 0 0 0.8 259.85237 298] CT
0.149 GC
/Helvetica 12.5 F
GS
[1 0 0 1 0 0] CT
-14 12 moveto 
1 -1 scale
(0.25) t 
GR
GR
GS
[0.8 0 0 0.8 303.81831 298] CT
0.149 GC
/Helvetica 12.5 F
GS
[1 0 0 1 0 0] CT
-10 12 moveto 
1 -1 scale
(0.3) t 
GR
GR
GS
[0.8 0 0 0.8 340.99097 298] CT
0.149 GC
/Helvetica 12.5 F
GS
[1 0 0 1 0 0] CT
-14 12 moveto 
1 -1 scale
(0.35) t 
GR
GR
GS
[0.8 0 0 0.8 373.19143 298] CT
0.149 GC
/Helvetica 12.5 F
GS
[1 0 0 1 0 0] CT
-10 12 moveto 
1 -1 scale
(0.4) t 
GR
GR
GS
[0.8 0 0 0.8 401.59421 298] CT
0.149 GC
/Helvetica 12.5 F
GS
[1 0 0 1 0 0] CT
-14 12 moveto 
1 -1 scale
(0.45) t 
GR
GR
GS
[0.8 0 0 0.8 236.00017 311] CT
0.149 GC
/Helvetica 13.75 F
GS
[1 0 0 1 0 0] CT
-38 13 moveto 
1 -1 scale
(meshwidth) t 
GR
GR
GS
[0.8 0 0 0.8 0 -0.40002] CT
0.149 GC
2 setlinecap
1 LJ
0.625 LW
N
74 368 M
74 31 L
S
GR
GS
[0.8 0 0 0.8 0 -0.40002] CT
0.149 GC
2 setlinecap
1 LJ
0.625 LW
N
516 368 M
516 31 L
S
GR
GS
[0.8 0 0 0.8 0 -0.40002] CT
0.149 GC
2 setlinecap
1 LJ
0.625 LW
N
74 368 M
78.42 368 L
S
GR
GS
[0.8 0 0 0.8 0 -0.40002] CT
0.149 GC
2 setlinecap
1 LJ
0.625 LW
N
74 255.667 M
78.42 255.667 L
S
GR
GS
[0.8 0 0 0.8 0 -0.40002] CT
0.149 GC
2 setlinecap
1 LJ
0.625 LW
N
74 143.333 M
78.42 143.333 L
S
GR
GS
[0.8 0 0 0.8 0 -0.40002] CT
0.149 GC
2 setlinecap
1 LJ
0.625 LW
N
74 31 M
78.42 31 L
S
GR
GS
[0.8 0 0 0.8 0 -0.40002] CT
0.149 GC
2 setlinecap
1 LJ
0.625 LW
N
516 368 M
511.58 368 L
S
GR
GS
[0.8 0 0 0.8 0 -0.40002] CT
0.149 GC
2 setlinecap
1 LJ
0.625 LW
N
516 255.667 M
511.58 255.667 L
S
GR
GS
[0.8 0 0 0.8 0 -0.40002] CT
0.149 GC
2 setlinecap
1 LJ
0.625 LW
N
516 143.333 M
511.58 143.333 L
S
GR
GS
[0.8 0 0 0.8 0 -0.40002] CT
0.149 GC
2 setlinecap
1 LJ
0.625 LW
N
516 31 M
511.58 31 L
S
GR
GS
[0.8 0 0 0.8 0 -0.40002] CT
0.149 GC
2 setlinecap
1 LJ
0.625 LW
N
74 368 M
76.21 368 L
S
GR
GS
[0.8 0 0 0.8 0 -0.40002] CT
0.149 GC
2 setlinecap
1 LJ
0.625 LW
N
74 334.184 M
76.21 334.184 L
S
GR
GS
[0.8 0 0 0.8 0 -0.40002] CT
0.149 GC
2 setlinecap
1 LJ
0.625 LW
N
74 314.403 M
76.21 314.403 L
S
GR
GS
[0.8 0 0 0.8 0 -0.40002] CT
0.149 GC
2 setlinecap
1 LJ
0.625 LW
N
74 300.369 M
76.21 300.369 L
S
GR
GS
[0.8 0 0 0.8 0 -0.40002] CT
0.149 GC
2 setlinecap
1 LJ
0.625 LW
N
74 289.482 M
76.21 289.482 L
S
GR
GS
[0.8 0 0 0.8 0 -0.40002] CT
0.149 GC
2 setlinecap
1 LJ
0.625 LW
N
74 280.588 M
76.21 280.588 L
S
GR
GS
[0.8 0 0 0.8 0 -0.40002] CT
0.149 GC
2 setlinecap
1 LJ
0.625 LW
N
74 273.067 M
76.21 273.067 L
S
GR
GS
[0.8 0 0 0.8 0 -0.40002] CT
0.149 GC
2 setlinecap
1 LJ
0.625 LW
N
74 266.553 M
76.21 266.553 L
S
GR
GS
[0.8 0 0 0.8 0 -0.40002] CT
0.149 GC
2 setlinecap
1 LJ
0.625 LW
N
74 260.807 M
76.21 260.807 L
S
GR
GS
[0.8 0 0 0.8 0 -0.40002] CT
0.149 GC
2 setlinecap
1 LJ
0.625 LW
N
74 255.667 M
76.21 255.667 L
S
GR
GS
[0.8 0 0 0.8 0 -0.40002] CT
0.149 GC
2 setlinecap
1 LJ
0.625 LW
N
74 221.851 M
76.21 221.851 L
S
GR
GS
[0.8 0 0 0.8 0 -0.40002] CT
0.149 GC
2 setlinecap
1 LJ
0.625 LW
N
74 202.07 M
76.21 202.07 L
S
GR
GS
[0.8 0 0 0.8 0 -0.40002] CT
0.149 GC
2 setlinecap
1 LJ
0.625 LW
N
74 188.035 M
76.21 188.035 L
S
GR
GS
[0.8 0 0 0.8 0 -0.40002] CT
0.149 GC
2 setlinecap
1 LJ
0.625 LW
N
74 177.149 M
76.21 177.149 L
S
GR
GS
[0.8 0 0 0.8 0 -0.40002] CT
0.149 GC
2 setlinecap
1 LJ
0.625 LW
N
74 168.254 M
76.21 168.254 L
S
GR
GS
[0.8 0 0 0.8 0 -0.40002] CT
0.149 GC
2 setlinecap
1 LJ
0.625 LW
N
74 160.734 M
76.21 160.734 L
S
GR
GS
[0.8 0 0 0.8 0 -0.40002] CT
0.149 GC
2 setlinecap
1 LJ
0.625 LW
N
74 154.22 M
76.21 154.22 L
S
GR
GS
[0.8 0 0 0.8 0 -0.40002] CT
0.149 GC
2 setlinecap
1 LJ
0.625 LW
N
74 148.473 M
76.21 148.473 L
S
GR
GS
[0.8 0 0 0.8 0 -0.40002] CT
0.149 GC
2 setlinecap
1 LJ
0.625 LW
N
74 143.333 M
76.21 143.333 L
S
GR
GS
[0.8 0 0 0.8 0 -0.40002] CT
0.149 GC
2 setlinecap
1 LJ
0.625 LW
N
74 109.518 M
76.21 109.518 L
S
GR
GS
[0.8 0 0 0.8 0 -0.40002] CT
0.149 GC
2 setlinecap
1 LJ
0.625 LW
N
74 89.737 M
76.21 89.737 L
S
GR
GS
[0.8 0 0 0.8 0 -0.40002] CT
0.149 GC
2 setlinecap
1 LJ
0.625 LW
N
74 75.702 M
76.21 75.702 L
S
GR
GS
[0.8 0 0 0.8 0 -0.40002] CT
0.149 GC
2 setlinecap
1 LJ
0.625 LW
N
74 64.816 M
76.21 64.816 L
S
GR
GS
[0.8 0 0 0.8 0 -0.40002] CT
0.149 GC
2 setlinecap
1 LJ
0.625 LW
N
74 55.921 M
76.21 55.921 L
S
GR
GS
[0.8 0 0 0.8 0 -0.40002] CT
0.149 GC
2 setlinecap
1 LJ
0.625 LW
N
74 48.401 M
76.21 48.401 L
S
GR
GS
[0.8 0 0 0.8 0 -0.40002] CT
0.149 GC
2 setlinecap
1 LJ
0.625 LW
N
74 41.886 M
76.21 41.886 L
S
GR
GS
[0.8 0 0 0.8 0 -0.40002] CT
0.149 GC
2 setlinecap
1 LJ
0.625 LW
N
74 36.14 M
76.21 36.14 L
S
GR
GS
[0.8 0 0 0.8 0 -0.40002] CT
0.149 GC
2 setlinecap
1 LJ
0.625 LW
N
74 31 M
76.21 31 L
S
GR
GS
[0.8 0 0 0.8 0 -0.40002] CT
0.149 GC
2 setlinecap
1 LJ
0.625 LW
N
516 368 M
513.79 368 L
S
GR
GS
[0.8 0 0 0.8 0 -0.40002] CT
0.149 GC
2 setlinecap
1 LJ
0.625 LW
N
516 334.184 M
513.79 334.184 L
S
GR
GS
[0.8 0 0 0.8 0 -0.40002] CT
0.149 GC
2 setlinecap
1 LJ
0.625 LW
N
516 314.403 M
513.79 314.403 L
S
GR
GS
[0.8 0 0 0.8 0 -0.40002] CT
0.149 GC
2 setlinecap
1 LJ
0.625 LW
N
516 300.369 M
513.79 300.369 L
S
GR
GS
[0.8 0 0 0.8 0 -0.40002] CT
0.149 GC
2 setlinecap
1 LJ
0.625 LW
N
516 289.482 M
513.79 289.482 L
S
GR
GS
[0.8 0 0 0.8 0 -0.40002] CT
0.149 GC
2 setlinecap
1 LJ
0.625 LW
N
516 280.588 M
513.79 280.588 L
S
GR
GS
[0.8 0 0 0.8 0 -0.40002] CT
0.149 GC
2 setlinecap
1 LJ
0.625 LW
N
516 273.067 M
513.79 273.067 L
S
GR
GS
[0.8 0 0 0.8 0 -0.40002] CT
0.149 GC
2 setlinecap
1 LJ
0.625 LW
N
516 266.553 M
513.79 266.553 L
S
GR
GS
[0.8 0 0 0.8 0 -0.40002] CT
0.149 GC
2 setlinecap
1 LJ
0.625 LW
N
516 260.807 M
513.79 260.807 L
S
GR
GS
[0.8 0 0 0.8 0 -0.40002] CT
0.149 GC
2 setlinecap
1 LJ
0.625 LW
N
516 255.667 M
513.79 255.667 L
S
GR
GS
[0.8 0 0 0.8 0 -0.40002] CT
0.149 GC
2 setlinecap
1 LJ
0.625 LW
N
516 221.851 M
513.79 221.851 L
S
GR
GS
[0.8 0 0 0.8 0 -0.40002] CT
0.149 GC
2 setlinecap
1 LJ
0.625 LW
N
516 202.07 M
513.79 202.07 L
S
GR
GS
[0.8 0 0 0.8 0 -0.40002] CT
0.149 GC
2 setlinecap
1 LJ
0.625 LW
N
516 188.035 M
513.79 188.035 L
S
GR
GS
[0.8 0 0 0.8 0 -0.40002] CT
0.149 GC
2 setlinecap
1 LJ
0.625 LW
N
516 177.149 M
513.79 177.149 L
S
GR
GS
[0.8 0 0 0.8 0 -0.40002] CT
0.149 GC
2 setlinecap
1 LJ
0.625 LW
N
516 168.254 M
513.79 168.254 L
S
GR
GS
[0.8 0 0 0.8 0 -0.40002] CT
0.149 GC
2 setlinecap
1 LJ
0.625 LW
N
516 160.734 M
513.79 160.734 L
S
GR
GS
[0.8 0 0 0.8 0 -0.40002] CT
0.149 GC
2 setlinecap
1 LJ
0.625 LW
N
516 154.22 M
513.79 154.22 L
S
GR
GS
[0.8 0 0 0.8 0 -0.40002] CT
0.149 GC
2 setlinecap
1 LJ
0.625 LW
N
516 148.473 M
513.79 148.473 L
S
GR
GS
[0.8 0 0 0.8 0 -0.40002] CT
0.149 GC
2 setlinecap
1 LJ
0.625 LW
N
516 143.333 M
513.79 143.333 L
S
GR
GS
[0.8 0 0 0.8 0 -0.40002] CT
0.149 GC
2 setlinecap
1 LJ
0.625 LW
N
516 109.518 M
513.79 109.518 L
S
GR
GS
[0.8 0 0 0.8 0 -0.40002] CT
0.149 GC
2 setlinecap
1 LJ
0.625 LW
N
516 89.737 M
513.79 89.737 L
S
GR
GS
[0.8 0 0 0.8 0 -0.40002] CT
0.149 GC
2 setlinecap
1 LJ
0.625 LW
N
516 75.702 M
513.79 75.702 L
S
GR
GS
[0.8 0 0 0.8 0 -0.40002] CT
0.149 GC
2 setlinecap
1 LJ
0.625 LW
N
516 64.816 M
513.79 64.816 L
S
GR
GS
[0.8 0 0 0.8 0 -0.40002] CT
0.149 GC
2 setlinecap
1 LJ
0.625 LW
N
516 55.921 M
513.79 55.921 L
S
GR
GS
[0.8 0 0 0.8 0 -0.40002] CT
0.149 GC
2 setlinecap
1 LJ
0.625 LW
N
516 48.401 M
513.79 48.401 L
S
GR
GS
[0.8 0 0 0.8 0 -0.40002] CT
0.149 GC
2 setlinecap
1 LJ
0.625 LW
N
516 41.886 M
513.79 41.886 L
S
GR
GS
[0.8 0 0 0.8 0 -0.40002] CT
0.149 GC
2 setlinecap
1 LJ
0.625 LW
N
516 36.14 M
513.79 36.14 L
S
GR
GS
[0.8 0 0 0.8 0 -0.40002] CT
0.149 GC
2 setlinecap
1 LJ
0.625 LW
N
516 31 M
513.79 31 L
S
GR
GS
[0.8 0 0 0.8 34.4 299.6] CT
0.149 GC
/Helvetica 12.5 F
GS
[1 0 0 1 0 0] CT
0 0 moveto 
1 -1 scale
(10) t 
GR
GR
GS
[0.8 0 0 0.8 47.2 294.8] CT
0.149 GC
/Helvetica 10 F
GS
[1 0 0 1 0 0] CT
0 0 moveto 
1 -1 scale
(-3) t 
GR
GR
GS
[0.8 0 0 0.8 34.4 209.99999] CT
0.149 GC
/Helvetica 12.5 F
GS
[1 0 0 1 0 0] CT
0 0 moveto 
1 -1 scale
(10) t 
GR
GR
GS
[0.8 0 0 0.8 47.2 205.19999] CT
0.149 GC
/Helvetica 10 F
GS
[1 0 0 1 0 0] CT
0 0 moveto 
1 -1 scale
(-2) t 
GR
GR
GS
[0.8 0 0 0.8 34.4 119.59998] CT
0.149 GC
/Helvetica 12.5 F
GS
[1 0 0 1 0 0] CT
0 0 moveto 
1 -1 scale
(10) t 
GR
GR
GS
[0.8 0 0 0.8 47.2 114.79998] CT
0.149 GC
/Helvetica 10 F
GS
[1 0 0 1 0 0] CT
0 0 moveto 
1 -1 scale
(-1) t 
GR
GR
GS
[0.8 0 0 0.8 36.8 29.99998] CT
0.149 GC
/Helvetica 12.5 F
GS
[1 0 0 1 0 0] CT
0 0 moveto 
1 -1 scale
(10) t 
GR
GR
GS
[0.8 0 0 0.8 49.6 25.19998] CT
0.149 GC
/Helvetica 10 F
GS
[1 0 0 1 0 0] CT
0 0 moveto 
1 -1 scale
(0) t 
GR
GR
GS
[0 -0.8 0.8 0 31.4 159.19985] CT
0.149 GC
/Helvetica 13.75 F
GS
[1 0 0 1 0 0] CT
-54.5 -4 moveto 
1 -1 scale
(dual norm error) t 
GR
GR
GS
[0.8 0 0 0.8 0 -0.40002] CT
0 0.447 0.741 RC
1 LJ
2.5 LW
N
516 53.589 M
429.284 69.363 L
362.021 81.131 L
307.064 90.58 L
220.347 105.226 L
153.085 116.506 L
74 129.689 L
S
GR
GS
[0.8 0 0 0.8 412.8 42.47124] CT
0 0.447 0.741 RC
10.0 ML
2.5 LW
N
0 -7 M
0 7 L
-7 0 M
7 0 L
-4.419 -4.419 M
4.419 4.419 L
-4.419 4.419 M
4.419 -4.419 L
S
GR
GS
[0.8 0 0 0.8 343.42688 55.09004] CT
0 0.447 0.741 RC
10.0 ML
2.5 LW
N
0 -7 M
0 7 L
-7 0 M
7 0 L
-4.419 -4.419 M
4.419 4.419 L
-4.419 4.419 M
4.419 -4.419 L
S
GR
GS
[0.8 0 0 0.8 289.61692 64.50472] CT
0 0.447 0.741 RC
10.0 ML
2.5 LW
N
0 -7 M
0 7 L
-7 0 M
7 0 L
-4.419 -4.419 M
4.419 4.419 L
-4.419 4.419 M
4.419 -4.419 L
S
GR
GS
[0.8 0 0 0.8 245.65095 72.06406] CT
0 0.447 0.741 RC
10.0 ML
2.5 LW
N
0 -7 M
0 7 L
-7 0 M
7 0 L
-4.419 -4.419 M
4.419 4.419 L
-4.419 4.419 M
4.419 -4.419 L
S
GR
GS
[0.8 0 0 0.8 176.27783 83.78082] CT
0 0.447 0.741 RC
10.0 ML
2.5 LW
N
0 -7 M
0 7 L
-7 0 M
7 0 L
-4.419 -4.419 M
4.419 4.419 L
-4.419 4.419 M
4.419 -4.419 L
S
GR
GS
[0.8 0 0 0.8 122.46786 92.80504] CT
0 0.447 0.741 RC
10.0 ML
2.5 LW
N
0 -7 M
0 7 L
-7 0 M
7 0 L
-4.419 -4.419 M
4.419 4.419 L
-4.419 4.419 M
4.419 -4.419 L
S
GR
GS
[0.8 0 0 0.8 59.2 103.35144] CT
0 0.447 0.741 RC
10.0 ML
2.5 LW
N
0 -7 M
0 7 L
-7 0 M
7 0 L
-4.419 -4.419 M
4.419 4.419 L
-4.419 4.419 M
4.419 -4.419 L
S
GR
GS
[0.8 0 0 0.8 0 -0.40002] CT
0.851 0.325 0.098 RC
1 LJ
2.5 LW
N
516 162.02 M
429.284 194.287 L
362.021 220.33 L
307.064 243.269 L
220.347 283.571 L
153.085 327.057 L
S
GR
GS
[0.8 0 0 0.8 412.8 129.2162] CT
0.851 0.325 0.098 RC
10.0 ML
2.5 LW
N
0 -7 M
0 7 L
-7 0 M
7 0 L
S
GR
GS
[0.8 0 0 0.8 343.42688 155.02959] CT
0.851 0.325 0.098 RC
10.0 ML
2.5 LW
N
0 -7 M
0 7 L
-7 0 M
7 0 L
S
GR
GS
[0.8 0 0 0.8 289.61692 175.86404] CT
0.851 0.325 0.098 RC
10.0 ML
2.5 LW
N
0 -7 M
0 7 L
-7 0 M
7 0 L
S
GR
GS
[0.8 0 0 0.8 245.65095 194.215] CT
0.851 0.325 0.098 RC
10.0 ML
2.5 LW
N
0 -7 M
0 7 L
-7 0 M
7 0 L
S
GR
GS
[0.8 0 0 0.8 176.27783 226.4569] CT
0.851 0.325 0.098 RC
10.0 ML
2.5 LW
N
0 -7 M
0 7 L
-7 0 M
7 0 L
S
GR
GS
[0.8 0 0 0.8 122.46786 261.24572] CT
0.851 0.325 0.098 RC
10.0 ML
2.5 LW
N
0 -7 M
0 7 L
-7 0 M
7 0 L
S
GR
GS
[0.8 0 0 0.8 0 -0.40002] CT
0.702 GC
[10 6] 0 setdash
2 LJ
0.625 LW
N
516 54.291 M
429.284 69.173 L
362.021 80.717 L
307.064 90.149 L
220.347 105.031 L
153.085 116.575 L
74 130.148 L
S
GR
GS
[0.8 0 0 0.8 0 -0.40002] CT
0.702 GC
[10 6] 0 setdash
2 LJ
0.625 LW
N
516 155.882 M
429.284 194.635 L
362.021 224.694 L
307.064 249.253 L
220.347 288.006 L
153.085 318.065 L
S
GR
GS
[0.8 0 0 0.8 0 -0.40002] CT
1 GC
N
506 358 M
506 325 L
386 325 L
386 358 L
cp
f
GR
GS
[0.8 0 0 0.8 344.25229 266.91076] CT
/Helvetica 11.25 F
GS
[1 0 0 1 0 0] CT
0 4 moveto 
1 -1 scale
(Vol: 1.0604) t 
GR
GR
GS
[0.8 0 0 0.8 0 -0.40002] CT
0 0.447 0.741 RC
1 LJ
2.5 LW
N
389.983 334.138 M
427.328 334.138 L
S
GR
GS
[0.8 0 0 0.8 326.92449 266.91076] CT
0 0.447 0.741 RC
10.0 ML
2.5 LW
N
0 -6 M
0 6 L
-6 0 M
6 0 L
-3.977 -3.977 M
3.977 3.977 L
-3.977 3.977 M
3.977 -3.977 L
S
GR
GS
[0.8 0 0 0.8 344.25229 278.68923] CT
/Helvetica 11.25 F
GS
[1 0 0 1 0 0] CT
0 4 moveto 
1 -1 scale
(BEM: 2.7612) t 
GR
GR
GS
[0.8 0 0 0.8 0 -0.40002] CT
0.851 0.325 0.098 RC
1 LJ
2.5 LW
N
389.983 348.862 M
427.328 348.862 L
S
GR
GS
[0.8 0 0 0.8 326.92449 278.68923] CT
0.851 0.325 0.098 RC
10.0 ML
2.5 LW
N
0 -6 M
0 6 L
-6 0 M
6 0 L
S
GR
GS
[0.8 0 0 0.8 0 -0.40002] CT
0.149 GC
10.0 ML
0.625 LW
N
386 358 M
386 325 L
506 325 L
506 358 L
cp
S
GR
%%Trailer
%%Pages: 1
%%EOF
