%!PS-Adobe-3.0 EPSF-3.0
%%Creator: (MATLAB, The Mathworks, Inc. Version 9.13.0.2105380 \(R2022b\) Update 2. Operating System: Linux)
%%Title: ./PMCFSP_dualnorm_getMeshCuboid5.eps
%%CreationDate: 2024-01-22T01:14:29
%%Pages: (atend)
%%BoundingBox:    19     8   420   311
%%LanguageLevel: 2
%%EndComments
%%BeginProlog
%%BeginResource: procset (Apache XML Graphics Std ProcSet) 1.2 0
%%Version: 1.2 0
%%Copyright: (Copyright 2001-2003,2010 The Apache Software Foundation. License terms: http://www.apache.org/licenses/LICENSE-2.0)
/bd{bind def}bind def
/ld{load def}bd
/GR/grestore ld
/GS/gsave ld
/RM/rmoveto ld
/C/curveto ld
/t/show ld
/L/lineto ld
/ML/setmiterlimit ld
/CT/concat ld
/f/fill ld
/N/newpath ld
/S/stroke ld
/CC/setcmykcolor ld
/A/ashow ld
/cp/closepath ld
/RC/setrgbcolor ld
/LJ/setlinejoin ld
/GC/setgray ld
/LW/setlinewidth ld
/M/moveto ld
/re {4 2 roll M
1 index 0 rlineto
0 exch rlineto
neg 0 rlineto
cp } bd
/_ctm matrix def
/_tm matrix def
/BT { _ctm currentmatrix pop matrix _tm copy pop 0 0 moveto } bd
/ET { _ctm setmatrix } bd
/iTm { _ctm setmatrix _tm concat } bd
/Tm { _tm astore pop iTm 0 0 moveto } bd
/ux 0.0 def
/uy 0.0 def
/F {
  /Tp exch def
  /Tf exch def
  Tf findfont Tp scalefont setfont
  /cf Tf def  /cs Tp def
} bd
/ULS {currentpoint /uy exch def /ux exch def} bd
/ULE {
  /Tcx currentpoint pop def
  gsave
  newpath
  cf findfont cs scalefont dup
  /FontMatrix get 0 get /Ts exch def /FontInfo get dup
  /UnderlinePosition get Ts mul /To exch def
  /UnderlineThickness get Ts mul /Tt exch def
  ux uy To add moveto  Tcx uy To add lineto
  Tt setlinewidth stroke
  grestore
} bd
/OLE {
  /Tcx currentpoint pop def
  gsave
  newpath
  cf findfont cs scalefont dup
  /FontMatrix get 0 get /Ts exch def /FontInfo get dup
  /UnderlinePosition get Ts mul /To exch def
  /UnderlineThickness get Ts mul /Tt exch def
  ux uy To add cs add moveto Tcx uy To add cs add lineto
  Tt setlinewidth stroke
  grestore
} bd
/SOE {
  /Tcx currentpoint pop def
  gsave
  newpath
  cf findfont cs scalefont dup
  /FontMatrix get 0 get /Ts exch def /FontInfo get dup
  /UnderlinePosition get Ts mul /To exch def
  /UnderlineThickness get Ts mul /Tt exch def
  ux uy To add cs 10 mul 26 idiv add moveto Tcx uy To add cs 10 mul 26 idiv add lineto
  Tt setlinewidth stroke
  grestore
} bd
/QT {
/Y22 exch store
/X22 exch store
/Y21 exch store
/X21 exch store
currentpoint
/Y21 load 2 mul add 3 div exch
/X21 load 2 mul add 3 div exch
/X21 load 2 mul /X22 load add 3 div
/Y21 load 2 mul /Y22 load add 3 div
/X22 load /Y22 load curveto
} bd
/SSPD {
dup length /d exch dict def
{
/v exch def
/k exch def
currentpagedevice k known {
/cpdv currentpagedevice k get def
v cpdv ne {
/upd false def
/nullv v type /nulltype eq def
/nullcpdv cpdv type /nulltype eq def
nullv nullcpdv or
{
/upd true def
} {
/sametype v type cpdv type eq def
sametype {
v type /arraytype eq {
/vlen v length def
/cpdvlen cpdv length def
vlen cpdvlen eq {
0 1 vlen 1 sub {
/i exch def
/obj v i get def
/cpdobj cpdv i get def
obj cpdobj ne {
/upd true def
exit
} if
} for
} {
/upd true def
} ifelse
} {
v type /dicttype eq {
v {
/dv exch def
/dk exch def
/cpddv cpdv dk get def
dv cpddv ne {
/upd true def
exit
} if
} forall
} {
/upd true def
} ifelse
} ifelse
} if
} ifelse
upd true eq {
d k v put
} if
} if
} if
} forall
d length 0 gt {
d setpagedevice
} if
} bd
/RE { % /NewFontName [NewEncodingArray] /FontName RE -
  findfont dup length dict begin
  {
    1 index /FID ne
    {def} {pop pop} ifelse
  } forall
  /Encoding exch def
  /FontName 1 index def
  currentdict definefont pop
  end
} bind def
%%EndResource
%%BeginResource: procset (Apache XML Graphics EPS ProcSet) 1.0 0
%%Version: 1.0 0
%%Copyright: (Copyright 2002-2003 The Apache Software Foundation. License terms: http://www.apache.org/licenses/LICENSE-2.0)
/BeginEPSF { %def
/b4_Inc_state save def         % Save state for cleanup
/dict_count countdictstack def % Count objects on dict stack
/op_count count 1 sub def      % Count objects on operand stack
userdict begin                 % Push userdict on dict stack
/showpage { } def              % Redefine showpage, { } = null proc
0 setgray 0 setlinecap         % Prepare graphics state
1 setlinewidth 0 setlinejoin
10 setmiterlimit [ ] 0 setdash newpath
/languagelevel where           % If level not equal to 1 then
{pop languagelevel             % set strokeadjust and
1 ne                           % overprint to their defaults.
{false setstrokeadjust false setoverprint
} if
} if
} bd
/EndEPSF { %def
count op_count sub {pop} repeat            % Clean up stacks
countdictstack dict_count sub {end} repeat
b4_Inc_state restore
} bd
%%EndResource
%FOPBeginFontDict
%%IncludeResource: font Courier-Oblique
%%IncludeResource: font Courier-BoldOblique
%%IncludeResource: font Courier-Bold
%%IncludeResource: font ZapfDingbats
%%IncludeResource: font Symbol
%%IncludeResource: font Helvetica
%%IncludeResource: font Helvetica-Oblique
%%IncludeResource: font Helvetica-Bold
%%IncludeResource: font Helvetica-BoldOblique
%%IncludeResource: font Times-Roman
%%IncludeResource: font Times-Italic
%%IncludeResource: font Times-Bold
%%IncludeResource: font Times-BoldItalic
%%IncludeResource: font Courier
%FOPEndFontDict
%%BeginResource: encoding WinAnsiEncoding
/WinAnsiEncoding [
/.notdef /.notdef /.notdef /.notdef /.notdef
/.notdef /.notdef /.notdef /.notdef /.notdef
/.notdef /.notdef /.notdef /.notdef /.notdef
/.notdef /.notdef /.notdef /.notdef /.notdef
/.notdef /.notdef /.notdef /.notdef /.notdef
/.notdef /.notdef /.notdef /.notdef /.notdef
/.notdef /.notdef /space /exclam /quotedbl
/numbersign /dollar /percent /ampersand /quotesingle
/parenleft /parenright /asterisk /plus /comma
/hyphen /period /slash /zero /one
/two /three /four /five /six
/seven /eight /nine /colon /semicolon
/less /equal /greater /question /at
/A /B /C /D /E
/F /G /H /I /J
/K /L /M /N /O
/P /Q /R /S /T
/U /V /W /X /Y
/Z /bracketleft /backslash /bracketright /asciicircum
/underscore /quoteleft /a /b /c
/d /e /f /g /h
/i /j /k /l /m
/n /o /p /q /r
/s /t /u /v /w
/x /y /z /braceleft /bar
/braceright /asciitilde /bullet /Euro /bullet
/quotesinglbase /florin /quotedblbase /ellipsis /dagger
/daggerdbl /circumflex /perthousand /Scaron /guilsinglleft
/OE /bullet /Zcaron /bullet /bullet
/quoteleft /quoteright /quotedblleft /quotedblright /bullet
/endash /emdash /asciitilde /trademark /scaron
/guilsinglright /oe /bullet /zcaron /Ydieresis
/space /exclamdown /cent /sterling /currency
/yen /brokenbar /section /dieresis /copyright
/ordfeminine /guillemotleft /logicalnot /sfthyphen /registered
/macron /degree /plusminus /twosuperior /threesuperior
/acute /mu /paragraph /middot /cedilla
/onesuperior /ordmasculine /guillemotright /onequarter /onehalf
/threequarters /questiondown /Agrave /Aacute /Acircumflex
/Atilde /Adieresis /Aring /AE /Ccedilla
/Egrave /Eacute /Ecircumflex /Edieresis /Igrave
/Iacute /Icircumflex /Idieresis /Eth /Ntilde
/Ograve /Oacute /Ocircumflex /Otilde /Odieresis
/multiply /Oslash /Ugrave /Uacute /Ucircumflex
/Udieresis /Yacute /Thorn /germandbls /agrave
/aacute /acircumflex /atilde /adieresis /aring
/ae /ccedilla /egrave /eacute /ecircumflex
/edieresis /igrave /iacute /icircumflex /idieresis
/eth /ntilde /ograve /oacute /ocircumflex
/otilde /odieresis /divide /oslash /ugrave
/uacute /ucircumflex /udieresis /yacute /thorn
/ydieresis
] def
%%EndResource
%FOPBeginFontReencode
/Courier-Oblique findfont
dup length dict begin
  {1 index /FID ne {def} {pop pop} ifelse} forall
  /Encoding WinAnsiEncoding def
  currentdict
end
/Courier-Oblique exch definefont pop
/Courier-BoldOblique findfont
dup length dict begin
  {1 index /FID ne {def} {pop pop} ifelse} forall
  /Encoding WinAnsiEncoding def
  currentdict
end
/Courier-BoldOblique exch definefont pop
/Courier-Bold findfont
dup length dict begin
  {1 index /FID ne {def} {pop pop} ifelse} forall
  /Encoding WinAnsiEncoding def
  currentdict
end
/Courier-Bold exch definefont pop
/Helvetica findfont
dup length dict begin
  {1 index /FID ne {def} {pop pop} ifelse} forall
  /Encoding WinAnsiEncoding def
  currentdict
end
/Helvetica exch definefont pop
/Helvetica-Oblique findfont
dup length dict begin
  {1 index /FID ne {def} {pop pop} ifelse} forall
  /Encoding WinAnsiEncoding def
  currentdict
end
/Helvetica-Oblique exch definefont pop
/Helvetica-Bold findfont
dup length dict begin
  {1 index /FID ne {def} {pop pop} ifelse} forall
  /Encoding WinAnsiEncoding def
  currentdict
end
/Helvetica-Bold exch definefont pop
/Helvetica-BoldOblique findfont
dup length dict begin
  {1 index /FID ne {def} {pop pop} ifelse} forall
  /Encoding WinAnsiEncoding def
  currentdict
end
/Helvetica-BoldOblique exch definefont pop
/Times-Roman findfont
dup length dict begin
  {1 index /FID ne {def} {pop pop} ifelse} forall
  /Encoding WinAnsiEncoding def
  currentdict
end
/Times-Roman exch definefont pop
/Times-Italic findfont
dup length dict begin
  {1 index /FID ne {def} {pop pop} ifelse} forall
  /Encoding WinAnsiEncoding def
  currentdict
end
/Times-Italic exch definefont pop
/Times-Bold findfont
dup length dict begin
  {1 index /FID ne {def} {pop pop} ifelse} forall
  /Encoding WinAnsiEncoding def
  currentdict
end
/Times-Bold exch definefont pop
/Times-BoldItalic findfont
dup length dict begin
  {1 index /FID ne {def} {pop pop} ifelse} forall
  /Encoding WinAnsiEncoding def
  currentdict
end
/Times-BoldItalic exch definefont pop
/Courier findfont
dup length dict begin
  {1 index /FID ne {def} {pop pop} ifelse} forall
  /Encoding WinAnsiEncoding def
  currentdict
end
/Courier exch definefont pop
%FOPEndFontReencode
%%EndProlog
%%Page: 1 1
%%PageBoundingBox: 0 0 456 330
%%BeginPageSetup
N
   19     8 M
  439     8 L
  439   319 L
   19   319 L
cp
clip
[1 0 0 -1 0 330] CT
%%EndPageSetup
GS
[0.8 0 0 0.8 0 -0.40002] CT
1 GC
N
0 0 570 413 re
f
GR
GS
[0.8 0 0 0.8 0 -0.40002] CT
1 GC
N
0 0 570 413 re
f
GR
GS
[0.8 0 0 0.8 0 -0.40002] CT
1 GC
N
74 368 M
516 368 L
516 31 L
74 31 L
cp
f
GR
GS
[0.8 0 0 0.8 0 -0.40002] CT
0.149 GC
2 setlinecap
1 LJ
0.625 LW
N
74 368 M
516 368 L
S
GR
GS
[0.8 0 0 0.8 0 -0.40002] CT
0.149 GC
2 setlinecap
1 LJ
0.625 LW
N
74 31 M
516 31 L
S
GR
GS
[0.8 0 0 0.8 0 -0.40002] CT
0.149 GC
2 setlinecap
1 LJ
0.625 LW
N
144.003 368 M
144.003 363.58 L
S
GR
GS
[0.8 0 0 0.8 0 -0.40002] CT
0.149 GC
2 setlinecap
1 LJ
0.625 LW
N
270.106 368 M
270.106 363.58 L
S
GR
GS
[0.8 0 0 0.8 0 -0.40002] CT
0.149 GC
2 setlinecap
1 LJ
0.625 LW
N
359.578 368 M
359.578 363.58 L
S
GR
GS
[0.8 0 0 0.8 0 -0.40002] CT
0.149 GC
2 setlinecap
1 LJ
0.625 LW
N
428.977 368 M
428.977 363.58 L
S
GR
GS
[0.8 0 0 0.8 0 -0.40002] CT
0.149 GC
2 setlinecap
1 LJ
0.625 LW
N
485.681 368 M
485.681 363.58 L
S
GR
GS
[0.8 0 0 0.8 0 -0.40002] CT
0.149 GC
2 setlinecap
1 LJ
0.625 LW
N
144.003 31 M
144.003 35.42 L
S
GR
GS
[0.8 0 0 0.8 0 -0.40002] CT
0.149 GC
2 setlinecap
1 LJ
0.625 LW
N
270.106 31 M
270.106 35.42 L
S
GR
GS
[0.8 0 0 0.8 0 -0.40002] CT
0.149 GC
2 setlinecap
1 LJ
0.625 LW
N
359.578 31 M
359.578 35.42 L
S
GR
GS
[0.8 0 0 0.8 0 -0.40002] CT
0.149 GC
2 setlinecap
1 LJ
0.625 LW
N
428.977 31 M
428.977 35.42 L
S
GR
GS
[0.8 0 0 0.8 0 -0.40002] CT
0.149 GC
2 setlinecap
1 LJ
0.625 LW
N
485.681 31 M
485.681 35.42 L
S
GR
GS
[0.8 0 0 0.8 0 -0.40002] CT
0.149 GC
2 setlinecap
1 LJ
0.625 LW
N
74.603 368 M
74.603 365.79 L
S
GR
GS
[0.8 0 0 0.8 0 -0.40002] CT
0.149 GC
2 setlinecap
1 LJ
0.625 LW
N
111.235 368 M
111.235 365.79 L
S
GR
GS
[0.8 0 0 0.8 0 -0.40002] CT
0.149 GC
2 setlinecap
1 LJ
0.625 LW
N
173.645 368 M
173.645 365.79 L
S
GR
GS
[0.8 0 0 0.8 0 -0.40002] CT
0.149 GC
2 setlinecap
1 LJ
0.625 LW
N
200.706 368 M
200.706 365.79 L
S
GR
GS
[0.8 0 0 0.8 0 -0.40002] CT
0.149 GC
2 setlinecap
1 LJ
0.625 LW
N
225.6 368 M
225.6 365.79 L
S
GR
GS
[0.8 0 0 0.8 0 -0.40002] CT
0.149 GC
2 setlinecap
1 LJ
0.625 LW
N
248.649 368 M
248.649 365.79 L
S
GR
GS
[0.8 0 0 0.8 0 -0.40002] CT
0.149 GC
2 setlinecap
1 LJ
0.625 LW
N
290.178 368 M
290.178 365.79 L
S
GR
GS
[0.8 0 0 0.8 0 -0.40002] CT
0.149 GC
2 setlinecap
1 LJ
0.625 LW
N
309.033 368 M
309.033 365.79 L
S
GR
GS
[0.8 0 0 0.8 0 -0.40002] CT
0.149 GC
2 setlinecap
1 LJ
0.625 LW
N
326.81 368 M
326.81 365.79 L
S
GR
GS
[0.8 0 0 0.8 0 -0.40002] CT
0.149 GC
2 setlinecap
1 LJ
0.625 LW
N
343.625 368 M
343.625 365.79 L
S
GR
GS
[0.8 0 0 0.8 0 -0.40002] CT
0.149 GC
2 setlinecap
1 LJ
0.625 LW
N
374.752 368 M
374.752 365.79 L
S
GR
GS
[0.8 0 0 0.8 0 -0.40002] CT
0.149 GC
2 setlinecap
1 LJ
0.625 LW
N
389.22 368 M
389.22 365.79 L
S
GR
GS
[0.8 0 0 0.8 0 -0.40002] CT
0.149 GC
2 setlinecap
1 LJ
0.625 LW
N
403.045 368 M
403.045 365.79 L
S
GR
GS
[0.8 0 0 0.8 0 -0.40002] CT
0.149 GC
2 setlinecap
1 LJ
0.625 LW
N
416.281 368 M
416.281 365.79 L
S
GR
GS
[0.8 0 0 0.8 0 -0.40002] CT
0.149 GC
2 setlinecap
1 LJ
0.625 LW
N
441.175 368 M
441.175 365.79 L
S
GR
GS
[0.8 0 0 0.8 0 -0.40002] CT
0.149 GC
2 setlinecap
1 LJ
0.625 LW
N
452.913 368 M
452.913 365.79 L
S
GR
GS
[0.8 0 0 0.8 0 -0.40002] CT
0.149 GC
2 setlinecap
1 LJ
0.625 LW
N
464.223 368 M
464.223 365.79 L
S
GR
GS
[0.8 0 0 0.8 0 -0.40002] CT
0.149 GC
2 setlinecap
1 LJ
0.625 LW
N
475.137 368 M
475.137 365.79 L
S
GR
GS
[0.8 0 0 0.8 0 -0.40002] CT
0.149 GC
2 setlinecap
1 LJ
0.625 LW
N
495.879 368 M
495.879 365.79 L
S
GR
GS
[0.8 0 0 0.8 0 -0.40002] CT
0.149 GC
2 setlinecap
1 LJ
0.625 LW
N
505.753 368 M
505.753 365.79 L
S
GR
GS
[0.8 0 0 0.8 0 -0.40002] CT
0.149 GC
2 setlinecap
1 LJ
0.625 LW
N
515.323 368 M
515.323 365.79 L
S
GR
GS
[0.8 0 0 0.8 0 -0.40002] CT
0.149 GC
2 setlinecap
1 LJ
0.625 LW
N
74.603 31 M
74.603 33.21 L
S
GR
GS
[0.8 0 0 0.8 0 -0.40002] CT
0.149 GC
2 setlinecap
1 LJ
0.625 LW
N
111.235 31 M
111.235 33.21 L
S
GR
GS
[0.8 0 0 0.8 0 -0.40002] CT
0.149 GC
2 setlinecap
1 LJ
0.625 LW
N
173.645 31 M
173.645 33.21 L
S
GR
GS
[0.8 0 0 0.8 0 -0.40002] CT
0.149 GC
2 setlinecap
1 LJ
0.625 LW
N
200.706 31 M
200.706 33.21 L
S
GR
GS
[0.8 0 0 0.8 0 -0.40002] CT
0.149 GC
2 setlinecap
1 LJ
0.625 LW
N
225.6 31 M
225.6 33.21 L
S
GR
GS
[0.8 0 0 0.8 0 -0.40002] CT
0.149 GC
2 setlinecap
1 LJ
0.625 LW
N
248.649 31 M
248.649 33.21 L
S
GR
GS
[0.8 0 0 0.8 0 -0.40002] CT
0.149 GC
2 setlinecap
1 LJ
0.625 LW
N
290.178 31 M
290.178 33.21 L
S
GR
GS
[0.8 0 0 0.8 0 -0.40002] CT
0.149 GC
2 setlinecap
1 LJ
0.625 LW
N
309.033 31 M
309.033 33.21 L
S
GR
GS
[0.8 0 0 0.8 0 -0.40002] CT
0.149 GC
2 setlinecap
1 LJ
0.625 LW
N
326.81 31 M
326.81 33.21 L
S
GR
GS
[0.8 0 0 0.8 0 -0.40002] CT
0.149 GC
2 setlinecap
1 LJ
0.625 LW
N
343.625 31 M
343.625 33.21 L
S
GR
GS
[0.8 0 0 0.8 0 -0.40002] CT
0.149 GC
2 setlinecap
1 LJ
0.625 LW
N
374.752 31 M
374.752 33.21 L
S
GR
GS
[0.8 0 0 0.8 0 -0.40002] CT
0.149 GC
2 setlinecap
1 LJ
0.625 LW
N
389.22 31 M
389.22 33.21 L
S
GR
GS
[0.8 0 0 0.8 0 -0.40002] CT
0.149 GC
2 setlinecap
1 LJ
0.625 LW
N
403.045 31 M
403.045 33.21 L
S
GR
GS
[0.8 0 0 0.8 0 -0.40002] CT
0.149 GC
2 setlinecap
1 LJ
0.625 LW
N
416.281 31 M
416.281 33.21 L
S
GR
GS
[0.8 0 0 0.8 0 -0.40002] CT
0.149 GC
2 setlinecap
1 LJ
0.625 LW
N
441.175 31 M
441.175 33.21 L
S
GR
GS
[0.8 0 0 0.8 0 -0.40002] CT
0.149 GC
2 setlinecap
1 LJ
0.625 LW
N
452.913 31 M
452.913 33.21 L
S
GR
GS
[0.8 0 0 0.8 0 -0.40002] CT
0.149 GC
2 setlinecap
1 LJ
0.625 LW
N
464.223 31 M
464.223 33.21 L
S
GR
GS
[0.8 0 0 0.8 0 -0.40002] CT
0.149 GC
2 setlinecap
1 LJ
0.625 LW
N
475.137 31 M
475.137 33.21 L
S
GR
GS
[0.8 0 0 0.8 0 -0.40002] CT
0.149 GC
2 setlinecap
1 LJ
0.625 LW
N
495.879 31 M
495.879 33.21 L
S
GR
GS
[0.8 0 0 0.8 0 -0.40002] CT
0.149 GC
2 setlinecap
1 LJ
0.625 LW
N
505.753 31 M
505.753 33.21 L
S
GR
GS
[0.8 0 0 0.8 0 -0.40002] CT
0.149 GC
2 setlinecap
1 LJ
0.625 LW
N
515.323 31 M
515.323 33.21 L
S
GR
GS
[0.8 0 0 0.8 115.20216 298] CT
0.149 GC
/Helvetica 12.5 F
GS
[1 0 0 1 0 0] CT
-10 12 moveto 
1 -1 scale
(0.1) t 
GR
GR
GS
[0.8 0 0 0.8 216.08477 298] CT
0.149 GC
/Helvetica 12.5 F
GS
[1 0 0 1 0 0] CT
-14 12 moveto 
1 -1 scale
(0.15) t 
GR
GR
GS
[0.8 0 0 0.8 287.66211 298] CT
0.149 GC
/Helvetica 12.5 F
GS
[1 0 0 1 0 0] CT
-10 12 moveto 
1 -1 scale
(0.2) t 
GR
GR
GS
[0.8 0 0 0.8 343.18181 298] CT
0.149 GC
/Helvetica 12.5 F
GS
[1 0 0 1 0 0] CT
-14 12 moveto 
1 -1 scale
(0.25) t 
GR
GR
GS
[0.8 0 0 0.8 388.5447 298] CT
0.149 GC
/Helvetica 12.5 F
GS
[1 0 0 1 0 0] CT
-10 12 moveto 
1 -1 scale
(0.3) t 
GR
GR
GS
[0.8 0 0 0.8 236.00017 311] CT
0.149 GC
/Helvetica 13.75 F
GS
[1 0 0 1 0 0] CT
-38 13 moveto 
1 -1 scale
(meshwidth) t 
GR
GR
GS
[0.8 0 0 0.8 0 -0.40002] CT
0.149 GC
2 setlinecap
1 LJ
0.625 LW
N
74 368 M
74 31 L
S
GR
GS
[0.8 0 0 0.8 0 -0.40002] CT
0.149 GC
2 setlinecap
1 LJ
0.625 LW
N
516 368 M
516 31 L
S
GR
GS
[0.8 0 0 0.8 0 -0.40002] CT
0.149 GC
2 setlinecap
1 LJ
0.625 LW
N
74 368 M
78.42 368 L
S
GR
GS
[0.8 0 0 0.8 0 -0.40002] CT
0.149 GC
2 setlinecap
1 LJ
0.625 LW
N
74 283.75 M
78.42 283.75 L
S
GR
GS
[0.8 0 0 0.8 0 -0.40002] CT
0.149 GC
2 setlinecap
1 LJ
0.625 LW
N
74 199.5 M
78.42 199.5 L
S
GR
GS
[0.8 0 0 0.8 0 -0.40002] CT
0.149 GC
2 setlinecap
1 LJ
0.625 LW
N
74 115.25 M
78.42 115.25 L
S
GR
GS
[0.8 0 0 0.8 0 -0.40002] CT
0.149 GC
2 setlinecap
1 LJ
0.625 LW
N
74 31 M
78.42 31 L
S
GR
GS
[0.8 0 0 0.8 0 -0.40002] CT
0.149 GC
2 setlinecap
1 LJ
0.625 LW
N
516 368 M
511.58 368 L
S
GR
GS
[0.8 0 0 0.8 0 -0.40002] CT
0.149 GC
2 setlinecap
1 LJ
0.625 LW
N
516 283.75 M
511.58 283.75 L
S
GR
GS
[0.8 0 0 0.8 0 -0.40002] CT
0.149 GC
2 setlinecap
1 LJ
0.625 LW
N
516 199.5 M
511.58 199.5 L
S
GR
GS
[0.8 0 0 0.8 0 -0.40002] CT
0.149 GC
2 setlinecap
1 LJ
0.625 LW
N
516 115.25 M
511.58 115.25 L
S
GR
GS
[0.8 0 0 0.8 0 -0.40002] CT
0.149 GC
2 setlinecap
1 LJ
0.625 LW
N
516 31 M
511.58 31 L
S
GR
GS
[0.8 0 0 0.8 0 -0.40002] CT
0.149 GC
2 setlinecap
1 LJ
0.625 LW
N
74 368 M
76.21 368 L
S
GR
GS
[0.8 0 0 0.8 0 -0.40002] CT
0.149 GC
2 setlinecap
1 LJ
0.625 LW
N
74 342.638 M
76.21 342.638 L
S
GR
GS
[0.8 0 0 0.8 0 -0.40002] CT
0.149 GC
2 setlinecap
1 LJ
0.625 LW
N
74 327.803 M
76.21 327.803 L
S
GR
GS
[0.8 0 0 0.8 0 -0.40002] CT
0.149 GC
2 setlinecap
1 LJ
0.625 LW
N
74 317.276 M
76.21 317.276 L
S
GR
GS
[0.8 0 0 0.8 0 -0.40002] CT
0.149 GC
2 setlinecap
1 LJ
0.625 LW
N
74 309.112 M
76.21 309.112 L
S
GR
GS
[0.8 0 0 0.8 0 -0.40002] CT
0.149 GC
2 setlinecap
1 LJ
0.625 LW
N
74 302.441 M
76.21 302.441 L
S
GR
GS
[0.8 0 0 0.8 0 -0.40002] CT
0.149 GC
2 setlinecap
1 LJ
0.625 LW
N
74 296.801 M
76.21 296.801 L
S
GR
GS
[0.8 0 0 0.8 0 -0.40002] CT
0.149 GC
2 setlinecap
1 LJ
0.625 LW
N
74 291.915 M
76.21 291.915 L
S
GR
GS
[0.8 0 0 0.8 0 -0.40002] CT
0.149 GC
2 setlinecap
1 LJ
0.625 LW
N
74 287.605 M
76.21 287.605 L
S
GR
GS
[0.8 0 0 0.8 0 -0.40002] CT
0.149 GC
2 setlinecap
1 LJ
0.625 LW
N
74 283.75 M
76.21 283.75 L
S
GR
GS
[0.8 0 0 0.8 0 -0.40002] CT
0.149 GC
2 setlinecap
1 LJ
0.625 LW
N
74 258.388 M
76.21 258.388 L
S
GR
GS
[0.8 0 0 0.8 0 -0.40002] CT
0.149 GC
2 setlinecap
1 LJ
0.625 LW
N
74 243.553 M
76.21 243.553 L
S
GR
GS
[0.8 0 0 0.8 0 -0.40002] CT
0.149 GC
2 setlinecap
1 LJ
0.625 LW
N
74 233.026 M
76.21 233.026 L
S
GR
GS
[0.8 0 0 0.8 0 -0.40002] CT
0.149 GC
2 setlinecap
1 LJ
0.625 LW
N
74 224.862 M
76.21 224.862 L
S
GR
GS
[0.8 0 0 0.8 0 -0.40002] CT
0.149 GC
2 setlinecap
1 LJ
0.625 LW
N
74 218.191 M
76.21 218.191 L
S
GR
GS
[0.8 0 0 0.8 0 -0.40002] CT
0.149 GC
2 setlinecap
1 LJ
0.625 LW
N
74 212.55 M
76.21 212.55 L
S
GR
GS
[0.8 0 0 0.8 0 -0.40002] CT
0.149 GC
2 setlinecap
1 LJ
0.625 LW
N
74 207.665 M
76.21 207.665 L
S
GR
GS
[0.8 0 0 0.8 0 -0.40002] CT
0.149 GC
2 setlinecap
1 LJ
0.625 LW
N
74 203.355 M
76.21 203.355 L
S
GR
GS
[0.8 0 0 0.8 0 -0.40002] CT
0.149 GC
2 setlinecap
1 LJ
0.625 LW
N
74 199.5 M
76.21 199.5 L
S
GR
GS
[0.8 0 0 0.8 0 -0.40002] CT
0.149 GC
2 setlinecap
1 LJ
0.625 LW
N
74 174.138 M
76.21 174.138 L
S
GR
GS
[0.8 0 0 0.8 0 -0.40002] CT
0.149 GC
2 setlinecap
1 LJ
0.625 LW
N
74 159.303 M
76.21 159.303 L
S
GR
GS
[0.8 0 0 0.8 0 -0.40002] CT
0.149 GC
2 setlinecap
1 LJ
0.625 LW
N
74 148.776 M
76.21 148.776 L
S
GR
GS
[0.8 0 0 0.8 0 -0.40002] CT
0.149 GC
2 setlinecap
1 LJ
0.625 LW
N
74 140.612 M
76.21 140.612 L
S
GR
GS
[0.8 0 0 0.8 0 -0.40002] CT
0.149 GC
2 setlinecap
1 LJ
0.625 LW
N
74 133.941 M
76.21 133.941 L
S
GR
GS
[0.8 0 0 0.8 0 -0.40002] CT
0.149 GC
2 setlinecap
1 LJ
0.625 LW
N
74 128.3 M
76.21 128.3 L
S
GR
GS
[0.8 0 0 0.8 0 -0.40002] CT
0.149 GC
2 setlinecap
1 LJ
0.625 LW
N
74 123.415 M
76.21 123.415 L
S
GR
GS
[0.8 0 0 0.8 0 -0.40002] CT
0.149 GC
2 setlinecap
1 LJ
0.625 LW
N
74 119.105 M
76.21 119.105 L
S
GR
GS
[0.8 0 0 0.8 0 -0.40002] CT
0.149 GC
2 setlinecap
1 LJ
0.625 LW
N
74 115.25 M
76.21 115.25 L
S
GR
GS
[0.8 0 0 0.8 0 -0.40002] CT
0.149 GC
2 setlinecap
1 LJ
0.625 LW
N
74 89.888 M
76.21 89.888 L
S
GR
GS
[0.8 0 0 0.8 0 -0.40002] CT
0.149 GC
2 setlinecap
1 LJ
0.625 LW
N
74 75.053 M
76.21 75.053 L
S
GR
GS
[0.8 0 0 0.8 0 -0.40002] CT
0.149 GC
2 setlinecap
1 LJ
0.625 LW
N
74 64.526 M
76.21 64.526 L
S
GR
GS
[0.8 0 0 0.8 0 -0.40002] CT
0.149 GC
2 setlinecap
1 LJ
0.625 LW
N
74 56.362 M
76.21 56.362 L
S
GR
GS
[0.8 0 0 0.8 0 -0.40002] CT
0.149 GC
2 setlinecap
1 LJ
0.625 LW
N
74 49.691 M
76.21 49.691 L
S
GR
GS
[0.8 0 0 0.8 0 -0.40002] CT
0.149 GC
2 setlinecap
1 LJ
0.625 LW
N
74 44.05 M
76.21 44.05 L
S
GR
GS
[0.8 0 0 0.8 0 -0.40002] CT
0.149 GC
2 setlinecap
1 LJ
0.625 LW
N
74 39.165 M
76.21 39.165 L
S
GR
GS
[0.8 0 0 0.8 0 -0.40002] CT
0.149 GC
2 setlinecap
1 LJ
0.625 LW
N
74 34.855 M
76.21 34.855 L
S
GR
GS
[0.8 0 0 0.8 0 -0.40002] CT
0.149 GC
2 setlinecap
1 LJ
0.625 LW
N
74 31 M
76.21 31 L
S
GR
GS
[0.8 0 0 0.8 0 -0.40002] CT
0.149 GC
2 setlinecap
1 LJ
0.625 LW
N
516 368 M
513.79 368 L
S
GR
GS
[0.8 0 0 0.8 0 -0.40002] CT
0.149 GC
2 setlinecap
1 LJ
0.625 LW
N
516 342.638 M
513.79 342.638 L
S
GR
GS
[0.8 0 0 0.8 0 -0.40002] CT
0.149 GC
2 setlinecap
1 LJ
0.625 LW
N
516 327.803 M
513.79 327.803 L
S
GR
GS
[0.8 0 0 0.8 0 -0.40002] CT
0.149 GC
2 setlinecap
1 LJ
0.625 LW
N
516 317.276 M
513.79 317.276 L
S
GR
GS
[0.8 0 0 0.8 0 -0.40002] CT
0.149 GC
2 setlinecap
1 LJ
0.625 LW
N
516 309.112 M
513.79 309.112 L
S
GR
GS
[0.8 0 0 0.8 0 -0.40002] CT
0.149 GC
2 setlinecap
1 LJ
0.625 LW
N
516 302.441 M
513.79 302.441 L
S
GR
GS
[0.8 0 0 0.8 0 -0.40002] CT
0.149 GC
2 setlinecap
1 LJ
0.625 LW
N
516 296.801 M
513.79 296.801 L
S
GR
GS
[0.8 0 0 0.8 0 -0.40002] CT
0.149 GC
2 setlinecap
1 LJ
0.625 LW
N
516 291.915 M
513.79 291.915 L
S
GR
GS
[0.8 0 0 0.8 0 -0.40002] CT
0.149 GC
2 setlinecap
1 LJ
0.625 LW
N
516 287.605 M
513.79 287.605 L
S
GR
GS
[0.8 0 0 0.8 0 -0.40002] CT
0.149 GC
2 setlinecap
1 LJ
0.625 LW
N
516 283.75 M
513.79 283.75 L
S
GR
GS
[0.8 0 0 0.8 0 -0.40002] CT
0.149 GC
2 setlinecap
1 LJ
0.625 LW
N
516 258.388 M
513.79 258.388 L
S
GR
GS
[0.8 0 0 0.8 0 -0.40002] CT
0.149 GC
2 setlinecap
1 LJ
0.625 LW
N
516 243.553 M
513.79 243.553 L
S
GR
GS
[0.8 0 0 0.8 0 -0.40002] CT
0.149 GC
2 setlinecap
1 LJ
0.625 LW
N
516 233.026 M
513.79 233.026 L
S
GR
GS
[0.8 0 0 0.8 0 -0.40002] CT
0.149 GC
2 setlinecap
1 LJ
0.625 LW
N
516 224.862 M
513.79 224.862 L
S
GR
GS
[0.8 0 0 0.8 0 -0.40002] CT
0.149 GC
2 setlinecap
1 LJ
0.625 LW
N
516 218.191 M
513.79 218.191 L
S
GR
GS
[0.8 0 0 0.8 0 -0.40002] CT
0.149 GC
2 setlinecap
1 LJ
0.625 LW
N
516 212.55 M
513.79 212.55 L
S
GR
GS
[0.8 0 0 0.8 0 -0.40002] CT
0.149 GC
2 setlinecap
1 LJ
0.625 LW
N
516 207.665 M
513.79 207.665 L
S
GR
GS
[0.8 0 0 0.8 0 -0.40002] CT
0.149 GC
2 setlinecap
1 LJ
0.625 LW
N
516 203.355 M
513.79 203.355 L
S
GR
GS
[0.8 0 0 0.8 0 -0.40002] CT
0.149 GC
2 setlinecap
1 LJ
0.625 LW
N
516 199.5 M
513.79 199.5 L
S
GR
GS
[0.8 0 0 0.8 0 -0.40002] CT
0.149 GC
2 setlinecap
1 LJ
0.625 LW
N
516 174.138 M
513.79 174.138 L
S
GR
GS
[0.8 0 0 0.8 0 -0.40002] CT
0.149 GC
2 setlinecap
1 LJ
0.625 LW
N
516 159.303 M
513.79 159.303 L
S
GR
GS
[0.8 0 0 0.8 0 -0.40002] CT
0.149 GC
2 setlinecap
1 LJ
0.625 LW
N
516 148.776 M
513.79 148.776 L
S
GR
GS
[0.8 0 0 0.8 0 -0.40002] CT
0.149 GC
2 setlinecap
1 LJ
0.625 LW
N
516 140.612 M
513.79 140.612 L
S
GR
GS
[0.8 0 0 0.8 0 -0.40002] CT
0.149 GC
2 setlinecap
1 LJ
0.625 LW
N
516 133.941 M
513.79 133.941 L
S
GR
GS
[0.8 0 0 0.8 0 -0.40002] CT
0.149 GC
2 setlinecap
1 LJ
0.625 LW
N
516 128.3 M
513.79 128.3 L
S
GR
GS
[0.8 0 0 0.8 0 -0.40002] CT
0.149 GC
2 setlinecap
1 LJ
0.625 LW
N
516 123.415 M
513.79 123.415 L
S
GR
GS
[0.8 0 0 0.8 0 -0.40002] CT
0.149 GC
2 setlinecap
1 LJ
0.625 LW
N
516 119.105 M
513.79 119.105 L
S
GR
GS
[0.8 0 0 0.8 0 -0.40002] CT
0.149 GC
2 setlinecap
1 LJ
0.625 LW
N
516 115.25 M
513.79 115.25 L
S
GR
GS
[0.8 0 0 0.8 0 -0.40002] CT
0.149 GC
2 setlinecap
1 LJ
0.625 LW
N
516 89.888 M
513.79 89.888 L
S
GR
GS
[0.8 0 0 0.8 0 -0.40002] CT
0.149 GC
2 setlinecap
1 LJ
0.625 LW
N
516 75.053 M
513.79 75.053 L
S
GR
GS
[0.8 0 0 0.8 0 -0.40002] CT
0.149 GC
2 setlinecap
1 LJ
0.625 LW
N
516 64.526 M
513.79 64.526 L
S
GR
GS
[0.8 0 0 0.8 0 -0.40002] CT
0.149 GC
2 setlinecap
1 LJ
0.625 LW
N
516 56.362 M
513.79 56.362 L
S
GR
GS
[0.8 0 0 0.8 0 -0.40002] CT
0.149 GC
2 setlinecap
1 LJ
0.625 LW
N
516 49.691 M
513.79 49.691 L
S
GR
GS
[0.8 0 0 0.8 0 -0.40002] CT
0.149 GC
2 setlinecap
1 LJ
0.625 LW
N
516 44.05 M
513.79 44.05 L
S
GR
GS
[0.8 0 0 0.8 0 -0.40002] CT
0.149 GC
2 setlinecap
1 LJ
0.625 LW
N
516 39.165 M
513.79 39.165 L
S
GR
GS
[0.8 0 0 0.8 0 -0.40002] CT
0.149 GC
2 setlinecap
1 LJ
0.625 LW
N
516 34.855 M
513.79 34.855 L
S
GR
GS
[0.8 0 0 0.8 0 -0.40002] CT
0.149 GC
2 setlinecap
1 LJ
0.625 LW
N
516 31 M
513.79 31 L
S
GR
GS
[0.8 0 0 0.8 34.4 299.6] CT
0.149 GC
/Helvetica 12.5 F
GS
[1 0 0 1 0 0] CT
0 0 moveto 
1 -1 scale
(10) t 
GR
GR
GS
[0.8 0 0 0.8 47.2 294.8] CT
0.149 GC
/Helvetica 10 F
GS
[1 0 0 1 0 0] CT
0 0 moveto 
1 -1 scale
(-4) t 
GR
GR
GS
[0.8 0 0 0.8 34.4 232.39999] CT
0.149 GC
/Helvetica 12.5 F
GS
[1 0 0 1 0 0] CT
0 0 moveto 
1 -1 scale
(10) t 
GR
GR
GS
[0.8 0 0 0.8 47.2 227.59999] CT
0.149 GC
/Helvetica 10 F
GS
[1 0 0 1 0 0] CT
0 0 moveto 
1 -1 scale
(-3) t 
GR
GR
GS
[0.8 0 0 0.8 34.4 165.19999] CT
0.149 GC
/Helvetica 12.5 F
GS
[1 0 0 1 0 0] CT
0 0 moveto 
1 -1 scale
(10) t 
GR
GR
GS
[0.8 0 0 0.8 47.2 160.39999] CT
0.149 GC
/Helvetica 10 F
GS
[1 0 0 1 0 0] CT
0 0 moveto 
1 -1 scale
(-2) t 
GR
GR
GS
[0.8 0 0 0.8 34.4 97.19998] CT
0.149 GC
/Helvetica 12.5 F
GS
[1 0 0 1 0 0] CT
0 0 moveto 
1 -1 scale
(10) t 
GR
GR
GS
[0.8 0 0 0.8 47.2 92.39998] CT
0.149 GC
/Helvetica 10 F
GS
[1 0 0 1 0 0] CT
0 0 moveto 
1 -1 scale
(-1) t 
GR
GR
GS
[0.8 0 0 0.8 36.8 29.99998] CT
0.149 GC
/Helvetica 12.5 F
GS
[1 0 0 1 0 0] CT
0 0 moveto 
1 -1 scale
(10) t 
GR
GR
GS
[0.8 0 0 0.8 49.6 25.19998] CT
0.149 GC
/Helvetica 10 F
GS
[1 0 0 1 0 0] CT
0 0 moveto 
1 -1 scale
(0) t 
GR
GR
GS
[0 -0.8 0.8 0 31.4 159.19985] CT
0.149 GC
/Helvetica 13.75 F
GS
[1 0 0 1 0 0] CT
-54.5 -4 moveto 
1 -1 scale
(dual norm error) t 
GR
GR
GS
[0.8 0 0 0.8 0 -0.40002] CT
0 0.447 0.741 RC
1 LJ
2.5 LW
N
516 76.931 M
426.225 86.625 L
396.515 91.721 L
310.461 102.326 L
202.674 114.59 L
147.144 121.9 L
74 130.539 L
S
GR
GS
[0.8 0 0 0.8 412.8 61.14488] CT
0 0.447 0.741 RC
10.0 ML
2.5 LW
N
0 -7 M
0 7 L
-7 0 M
7 0 L
-4.419 -4.419 M
4.419 4.419 L
-4.419 4.419 M
4.419 -4.419 L
S
GR
GS
[0.8 0 0 0.8 340.97991 68.89975] CT
0 0.447 0.741 RC
10.0 ML
2.5 LW
N
0 -7 M
0 7 L
-7 0 M
7 0 L
-4.419 -4.419 M
4.419 4.419 L
-4.419 4.419 M
4.419 -4.419 L
S
GR
GS
[0.8 0 0 0.8 317.21196 72.9769] CT
0 0.447 0.741 RC
10.0 ML
2.5 LW
N
0 -7 M
0 7 L
-7 0 M
7 0 L
-4.419 -4.419 M
4.419 4.419 L
-4.419 4.419 M
4.419 -4.419 L
S
GR
GS
[0.8 0 0 0.8 248.3689 81.4611] CT
0 0.447 0.741 RC
10.0 ML
2.5 LW
N
0 -7 M
0 7 L
-7 0 M
7 0 L
-4.419 -4.419 M
4.419 4.419 L
-4.419 4.419 M
4.419 -4.419 L
S
GR
GS
[0.8 0 0 0.8 162.1389 91.27194] CT
0 0.447 0.741 RC
10.0 ML
2.5 LW
N
0 -7 M
0 7 L
-7 0 M
7 0 L
-4.419 -4.419 M
4.419 4.419 L
-4.419 4.419 M
4.419 -4.419 L
S
GR
GS
[0.8 0 0 0.8 117.71545 97.11981] CT
0 0.447 0.741 RC
10.0 ML
2.5 LW
N
0 -7 M
0 7 L
-7 0 M
7 0 L
-4.419 -4.419 M
4.419 4.419 L
-4.419 4.419 M
4.419 -4.419 L
S
GR
GS
[0.8 0 0 0.8 59.2 104.03096] CT
0 0.447 0.741 RC
10.0 ML
2.5 LW
N
0 -7 M
0 7 L
-7 0 M
7 0 L
-4.419 -4.419 M
4.419 4.419 L
-4.419 4.419 M
4.419 -4.419 L
S
GR
GS
[0.8 0 0 0.8 0 -0.40002] CT
0.851 0.325 0.098 RC
1 LJ
2.5 LW
N
516 194.544 M
426.225 221.921 L
396.515 230.705 L
310.461 257.258 L
202.674 295.499 L
147.144 323.61 L
S
GR
GS
[0.8 0 0 0.8 412.8 155.23549] CT
0.851 0.325 0.098 RC
10.0 ML
2.5 LW
N
0 -7 M
0 7 L
-7 0 M
7 0 L
S
GR
GS
[0.8 0 0 0.8 340.97991 177.13706] CT
0.851 0.325 0.098 RC
10.0 ML
2.5 LW
N
0 -7 M
0 7 L
-7 0 M
7 0 L
S
GR
GS
[0.8 0 0 0.8 317.21196 184.16398] CT
0.851 0.325 0.098 RC
10.0 ML
2.5 LW
N
0 -7 M
0 7 L
-7 0 M
7 0 L
S
GR
GS
[0.8 0 0 0.8 248.3689 205.40644] CT
0.851 0.325 0.098 RC
10.0 ML
2.5 LW
N
0 -7 M
0 7 L
-7 0 M
7 0 L
S
GR
GS
[0.8 0 0 0.8 162.1389 235.99938] CT
0.851 0.325 0.098 RC
10.0 ML
2.5 LW
N
0 -7 M
0 7 L
-7 0 M
7 0 L
S
GR
GS
[0.8 0 0 0.8 117.71545 258.48779] CT
0.851 0.325 0.098 RC
10.0 ML
2.5 LW
N
0 -7 M
0 7 L
-7 0 M
7 0 L
S
GR
GS
[0.8 0 0 0.8 0 -0.40002] CT
0.702 GC
[10 6] 0 setdash
2 LJ
0.625 LW
N
516 76.683 M
426.225 87.641 L
396.515 91.267 L
310.461 101.771 L
202.674 114.928 L
147.144 121.706 L
74 130.635 L
S
GR
GS
[0.8 0 0 0.8 0 -0.40002] CT
0.702 GC
[10 6] 0 setdash
2 LJ
0.625 LW
N
516 191.082 M
426.225 221.939 L
396.515 232.15 L
310.461 261.728 L
202.674 298.776 L
147.144 317.863 L
S
GR
GS
[0.8 0 0 0.8 0 -0.40002] CT
1 GC
N
506 358 M
506 325 L
386 325 L
386 358 L
cp
f
GR
GS
[0.8 0 0 0.8 344.25229 266.91076] CT
/Helvetica 11.25 F
GS
[1 0 0 1 0 0] CT
0 4 moveto 
1 -1 scale
(Vol: 1.0375) t 
GR
GR
GS
[0.8 0 0 0.8 0 -0.40002] CT
0 0.447 0.741 RC
1 LJ
2.5 LW
N
389.983 334.138 M
427.328 334.138 L
S
GR
GS
[0.8 0 0 0.8 326.92449 266.91076] CT
0 0.447 0.741 RC
10.0 ML
2.5 LW
N
0 -6 M
0 6 L
-6 0 M
6 0 L
-3.977 -3.977 M
3.977 3.977 L
-3.977 3.977 M
3.977 -3.977 L
S
GR
GS
[0.8 0 0 0.8 344.25229 278.68923] CT
/Helvetica 11.25 F
GS
[1 0 0 1 0 0] CT
0 4 moveto 
1 -1 scale
(BEM: 2.9216) t 
GR
GR
GS
[0.8 0 0 0.8 0 -0.40002] CT
0.851 0.325 0.098 RC
1 LJ
2.5 LW
N
389.983 348.862 M
427.328 348.862 L
S
GR
GS
[0.8 0 0 0.8 326.92449 278.68923] CT
0.851 0.325 0.098 RC
10.0 ML
2.5 LW
N
0 -6 M
0 6 L
-6 0 M
6 0 L
S
GR
GS
[0.8 0 0 0.8 0 -0.40002] CT
0.149 GC
10.0 ML
0.625 LW
N
386 358 M
386 325 L
506 325 L
506 358 L
cp
S
GR
%%Trailer
%%Pages: 1
%%EOF
