#M	 Fx	Fy	Fx	Fy	hmin 	hmax	hmean
0	-0.03444963205	-0.0394518814	-0.0956243569	-0.09997588125			0.6735864807	1.286986442	0.9581488201
1	-0.04048869496	-0.04431104293	-0.1105591332	-0.1108044822			0.3367932404	0.6434932211	0.4780642092
2	-0.05249393941	-0.05458471013	-0.1152143551	-0.115122337			0.1683966202	0.3217466105	0.2387608139
3	-0.06435440988	-0.06549170273	-0.1147814081	-0.1147173587			0.08419831009	0.1608733053	0.1193100364
4	-0.07438841755	-0.0750545596	-0.1141762366	-0.1141448981			0.04209915505	0.08043665263	0.05963709301
5	-0.08249788836	-0.08291679234	-0.1138526247	-0.1138386728			0.02104957752	0.04021832632	0.02981402272
8	-0.09406987	-0.09426486311	-0.1136417999	-0.1136393447			0.005262394381	0.01005458158	0.00745265277
