%!PS-Adobe-3.0 EPSF-3.0
%%Creator: (MATLAB, The Mathworks, Inc. Version 9.13.0.2105380 \(R2022b\) Update 2. Operating System: Linux)
%%Title: ./LMCFSP_dualnorm_getMeshSphere.eps
<<<<<<< HEAD:Piyush's codes/Magnetostatics/LinearMaterialCstFld/LMCFSP_dualnorm_getMeshSphere.eps
%%CreationDate: 2024-01-22T02:12:28
=======
%%CreationDate: 2024-01-31T18:02:36
>>>>>>> f4de00b5db4de07fdb797f1545578c2683f6c040:Piyush's codes/Magnetostatics/LinearMaterialCstFld/LMCFSP_data/LMCFSP_dualnorm_getMeshSphere.eps
%%Pages: (atend)
%%BoundingBox:    19     8   420   313
%%LanguageLevel: 2
%%EndComments
%%BeginProlog
%%BeginResource: procset (Apache XML Graphics Std ProcSet) 1.2 0
%%Version: 1.2 0
%%Copyright: (Copyright 2001-2003,2010 The Apache Software Foundation. License terms: http://www.apache.org/licenses/LICENSE-2.0)
/bd{bind def}bind def
/ld{load def}bd
/GR/grestore ld
/GS/gsave ld
/RM/rmoveto ld
/C/curveto ld
/t/show ld
/L/lineto ld
/ML/setmiterlimit ld
/CT/concat ld
/f/fill ld
/N/newpath ld
/S/stroke ld
/CC/setcmykcolor ld
/A/ashow ld
/cp/closepath ld
/RC/setrgbcolor ld
/LJ/setlinejoin ld
/GC/setgray ld
/LW/setlinewidth ld
/M/moveto ld
/re {4 2 roll M
1 index 0 rlineto
0 exch rlineto
neg 0 rlineto
cp } bd
/_ctm matrix def
/_tm matrix def
/BT { _ctm currentmatrix pop matrix _tm copy pop 0 0 moveto } bd
/ET { _ctm setmatrix } bd
/iTm { _ctm setmatrix _tm concat } bd
/Tm { _tm astore pop iTm 0 0 moveto } bd
/ux 0.0 def
/uy 0.0 def
/F {
  /Tp exch def
  /Tf exch def
  Tf findfont Tp scalefont setfont
  /cf Tf def  /cs Tp def
} bd
/ULS {currentpoint /uy exch def /ux exch def} bd
/ULE {
  /Tcx currentpoint pop def
  gsave
  newpath
  cf findfont cs scalefont dup
  /FontMatrix get 0 get /Ts exch def /FontInfo get dup
  /UnderlinePosition get Ts mul /To exch def
  /UnderlineThickness get Ts mul /Tt exch def
  ux uy To add moveto  Tcx uy To add lineto
  Tt setlinewidth stroke
  grestore
} bd
/OLE {
  /Tcx currentpoint pop def
  gsave
  newpath
  cf findfont cs scalefont dup
  /FontMatrix get 0 get /Ts exch def /FontInfo get dup
  /UnderlinePosition get Ts mul /To exch def
  /UnderlineThickness get Ts mul /Tt exch def
  ux uy To add cs add moveto Tcx uy To add cs add lineto
  Tt setlinewidth stroke
  grestore
} bd
/SOE {
  /Tcx currentpoint pop def
  gsave
  newpath
  cf findfont cs scalefont dup
  /FontMatrix get 0 get /Ts exch def /FontInfo get dup
  /UnderlinePosition get Ts mul /To exch def
  /UnderlineThickness get Ts mul /Tt exch def
  ux uy To add cs 10 mul 26 idiv add moveto Tcx uy To add cs 10 mul 26 idiv add lineto
  Tt setlinewidth stroke
  grestore
} bd
/QT {
/Y22 exch store
/X22 exch store
/Y21 exch store
/X21 exch store
currentpoint
/Y21 load 2 mul add 3 div exch
/X21 load 2 mul add 3 div exch
/X21 load 2 mul /X22 load add 3 div
/Y21 load 2 mul /Y22 load add 3 div
/X22 load /Y22 load curveto
} bd
/SSPD {
dup length /d exch dict def
{
/v exch def
/k exch def
currentpagedevice k known {
/cpdv currentpagedevice k get def
v cpdv ne {
/upd false def
/nullv v type /nulltype eq def
/nullcpdv cpdv type /nulltype eq def
nullv nullcpdv or
{
/upd true def
} {
/sametype v type cpdv type eq def
sametype {
v type /arraytype eq {
/vlen v length def
/cpdvlen cpdv length def
vlen cpdvlen eq {
0 1 vlen 1 sub {
/i exch def
/obj v i get def
/cpdobj cpdv i get def
obj cpdobj ne {
/upd true def
exit
} if
} for
} {
/upd true def
} ifelse
} {
v type /dicttype eq {
v {
/dv exch def
/dk exch def
/cpddv cpdv dk get def
dv cpddv ne {
/upd true def
exit
} if
} forall
} {
/upd true def
} ifelse
} ifelse
} if
} ifelse
upd true eq {
d k v put
} if
} if
} if
} forall
d length 0 gt {
d setpagedevice
} if
} bd
/RE { % /NewFontName [NewEncodingArray] /FontName RE -
  findfont dup length dict begin
  {
    1 index /FID ne
    {def} {pop pop} ifelse
  } forall
  /Encoding exch def
  /FontName 1 index def
  currentdict definefont pop
  end
} bind def
%%EndResource
%%BeginResource: procset (Apache XML Graphics EPS ProcSet) 1.0 0
%%Version: 1.0 0
%%Copyright: (Copyright 2002-2003 The Apache Software Foundation. License terms: http://www.apache.org/licenses/LICENSE-2.0)
/BeginEPSF { %def
/b4_Inc_state save def         % Save state for cleanup
/dict_count countdictstack def % Count objects on dict stack
/op_count count 1 sub def      % Count objects on operand stack
userdict begin                 % Push userdict on dict stack
/showpage { } def              % Redefine showpage, { } = null proc
0 setgray 0 setlinecap         % Prepare graphics state
1 setlinewidth 0 setlinejoin
10 setmiterlimit [ ] 0 setdash newpath
/languagelevel where           % If level not equal to 1 then
{pop languagelevel             % set strokeadjust and
1 ne                           % overprint to their defaults.
{false setstrokeadjust false setoverprint
} if
} if
} bd
/EndEPSF { %def
count op_count sub {pop} repeat            % Clean up stacks
countdictstack dict_count sub {end} repeat
b4_Inc_state restore
} bd
%%EndResource
%FOPBeginFontDict
%%IncludeResource: font Courier-Oblique
%%IncludeResource: font Courier-BoldOblique
%%IncludeResource: font Courier-Bold
%%IncludeResource: font ZapfDingbats
%%IncludeResource: font Symbol
%%IncludeResource: font Helvetica
%%IncludeResource: font Helvetica-Oblique
%%IncludeResource: font Helvetica-Bold
%%IncludeResource: font Helvetica-BoldOblique
%%IncludeResource: font Times-Roman
%%IncludeResource: font Times-Italic
%%IncludeResource: font Times-Bold
%%IncludeResource: font Times-BoldItalic
%%IncludeResource: font Courier
%FOPEndFontDict
%%BeginResource: encoding WinAnsiEncoding
/WinAnsiEncoding [
/.notdef /.notdef /.notdef /.notdef /.notdef
/.notdef /.notdef /.notdef /.notdef /.notdef
/.notdef /.notdef /.notdef /.notdef /.notdef
/.notdef /.notdef /.notdef /.notdef /.notdef
/.notdef /.notdef /.notdef /.notdef /.notdef
/.notdef /.notdef /.notdef /.notdef /.notdef
/.notdef /.notdef /space /exclam /quotedbl
/numbersign /dollar /percent /ampersand /quotesingle
/parenleft /parenright /asterisk /plus /comma
/hyphen /period /slash /zero /one
/two /three /four /five /six
/seven /eight /nine /colon /semicolon
/less /equal /greater /question /at
/A /B /C /D /E
/F /G /H /I /J
/K /L /M /N /O
/P /Q /R /S /T
/U /V /W /X /Y
/Z /bracketleft /backslash /bracketright /asciicircum
/underscore /quoteleft /a /b /c
/d /e /f /g /h
/i /j /k /l /m
/n /o /p /q /r
/s /t /u /v /w
/x /y /z /braceleft /bar
/braceright /asciitilde /bullet /Euro /bullet
/quotesinglbase /florin /quotedblbase /ellipsis /dagger
/daggerdbl /circumflex /perthousand /Scaron /guilsinglleft
/OE /bullet /Zcaron /bullet /bullet
/quoteleft /quoteright /quotedblleft /quotedblright /bullet
/endash /emdash /asciitilde /trademark /scaron
/guilsinglright /oe /bullet /zcaron /Ydieresis
/space /exclamdown /cent /sterling /currency
/yen /brokenbar /section /dieresis /copyright
/ordfeminine /guillemotleft /logicalnot /sfthyphen /registered
/macron /degree /plusminus /twosuperior /threesuperior
/acute /mu /paragraph /middot /cedilla
/onesuperior /ordmasculine /guillemotright /onequarter /onehalf
/threequarters /questiondown /Agrave /Aacute /Acircumflex
/Atilde /Adieresis /Aring /AE /Ccedilla
/Egrave /Eacute /Ecircumflex /Edieresis /Igrave
/Iacute /Icircumflex /Idieresis /Eth /Ntilde
/Ograve /Oacute /Ocircumflex /Otilde /Odieresis
/multiply /Oslash /Ugrave /Uacute /Ucircumflex
/Udieresis /Yacute /Thorn /germandbls /agrave
/aacute /acircumflex /atilde /adieresis /aring
/ae /ccedilla /egrave /eacute /ecircumflex
/edieresis /igrave /iacute /icircumflex /idieresis
/eth /ntilde /ograve /oacute /ocircumflex
/otilde /odieresis /divide /oslash /ugrave
/uacute /ucircumflex /udieresis /yacute /thorn
/ydieresis
] def
%%EndResource
%FOPBeginFontReencode
/Courier-Oblique findfont
dup length dict begin
  {1 index /FID ne {def} {pop pop} ifelse} forall
  /Encoding WinAnsiEncoding def
  currentdict
end
/Courier-Oblique exch definefont pop
/Courier-BoldOblique findfont
dup length dict begin
  {1 index /FID ne {def} {pop pop} ifelse} forall
  /Encoding WinAnsiEncoding def
  currentdict
end
/Courier-BoldOblique exch definefont pop
/Courier-Bold findfont
dup length dict begin
  {1 index /FID ne {def} {pop pop} ifelse} forall
  /Encoding WinAnsiEncoding def
  currentdict
end
/Courier-Bold exch definefont pop
/Helvetica findfont
dup length dict begin
  {1 index /FID ne {def} {pop pop} ifelse} forall
  /Encoding WinAnsiEncoding def
  currentdict
end
/Helvetica exch definefont pop
/Helvetica-Oblique findfont
dup length dict begin
  {1 index /FID ne {def} {pop pop} ifelse} forall
  /Encoding WinAnsiEncoding def
  currentdict
end
/Helvetica-Oblique exch definefont pop
/Helvetica-Bold findfont
dup length dict begin
  {1 index /FID ne {def} {pop pop} ifelse} forall
  /Encoding WinAnsiEncoding def
  currentdict
end
/Helvetica-Bold exch definefont pop
/Helvetica-BoldOblique findfont
dup length dict begin
  {1 index /FID ne {def} {pop pop} ifelse} forall
  /Encoding WinAnsiEncoding def
  currentdict
end
/Helvetica-BoldOblique exch definefont pop
/Times-Roman findfont
dup length dict begin
  {1 index /FID ne {def} {pop pop} ifelse} forall
  /Encoding WinAnsiEncoding def
  currentdict
end
/Times-Roman exch definefont pop
/Times-Italic findfont
dup length dict begin
  {1 index /FID ne {def} {pop pop} ifelse} forall
  /Encoding WinAnsiEncoding def
  currentdict
end
/Times-Italic exch definefont pop
/Times-Bold findfont
dup length dict begin
  {1 index /FID ne {def} {pop pop} ifelse} forall
  /Encoding WinAnsiEncoding def
  currentdict
end
/Times-Bold exch definefont pop
/Times-BoldItalic findfont
dup length dict begin
  {1 index /FID ne {def} {pop pop} ifelse} forall
  /Encoding WinAnsiEncoding def
  currentdict
end
/Times-BoldItalic exch definefont pop
/Courier findfont
dup length dict begin
  {1 index /FID ne {def} {pop pop} ifelse} forall
  /Encoding WinAnsiEncoding def
  currentdict
end
/Courier exch definefont pop
%FOPEndFontReencode
%%EndProlog
%%Page: 1 1
%%PageBoundingBox: 0 0 456 330
%%BeginPageSetup
N
   19     8 M
  439     8 L
  439   321 L
   19   321 L
cp
clip
[1 0 0 -1 0 330] CT
%%EndPageSetup
GS
[0.8 0 0 0.8 0 -0.40002] CT
1 GC
N
0 0 570 413 re
f
GR
GS
[0.8 0 0 0.8 0 -0.40002] CT
1 GC
N
0 0 570 413 re
f
GR
GS
[0.8 0 0 0.8 0 -0.40002] CT
1 GC
N
74 368 M
516 368 L
516 31 L
74 31 L
cp
f
GR
GS
[0.8 0 0 0.8 0 -0.40002] CT
0.149 GC
2 setlinecap
1 LJ
0.625 LW
N
74 368 M
516 368 L
S
GR
GS
[0.8 0 0 0.8 0 -0.40002] CT
0.149 GC
2 setlinecap
1 LJ
0.625 LW
N
74 31 M
516 31 L
S
GR
GS
[0.8 0 0 0.8 0 -0.40002] CT
0.149 GC
2 setlinecap
1 LJ
0.625 LW
N
200.803 368 M
200.803 363.58 L
S
GR
GS
[0.8 0 0 0.8 0 -0.40002] CT
0.149 GC
2 setlinecap
1 LJ
0.625 LW
N
287.789 368 M
287.789 363.58 L
S
GR
GS
[0.8 0 0 0.8 0 -0.40002] CT
0.149 GC
2 setlinecap
1 LJ
0.625 LW
N
349.508 368 M
349.508 363.58 L
S
GR
GS
[0.8 0 0 0.8 0 -0.40002] CT
0.149 GC
2 setlinecap
1 LJ
0.625 LW
N
397.38 368 M
397.38 363.58 L
S
GR
GS
[0.8 0 0 0.8 0 -0.40002] CT
0.149 GC
2 setlinecap
1 LJ
0.625 LW
N
436.494 368 M
436.494 363.58 L
S
GR
GS
[0.8 0 0 0.8 0 -0.40002] CT
0.149 GC
2 setlinecap
1 LJ
0.625 LW
N
469.565 368 M
469.565 363.58 L
S
GR
GS
[0.8 0 0 0.8 0 -0.40002] CT
0.149 GC
2 setlinecap
1 LJ
0.625 LW
N
498.212 368 M
498.212 363.58 L
S
GR
GS
[0.8 0 0 0.8 0 -0.40002] CT
0.149 GC
2 setlinecap
1 LJ
0.625 LW
N
200.803 31 M
200.803 35.42 L
S
GR
GS
[0.8 0 0 0.8 0 -0.40002] CT
0.149 GC
2 setlinecap
1 LJ
0.625 LW
N
287.789 31 M
287.789 35.42 L
S
GR
GS
[0.8 0 0 0.8 0 -0.40002] CT
0.149 GC
2 setlinecap
1 LJ
0.625 LW
N
349.508 31 M
349.508 35.42 L
S
GR
GS
[0.8 0 0 0.8 0 -0.40002] CT
0.149 GC
2 setlinecap
1 LJ
0.625 LW
N
397.38 31 M
397.38 35.42 L
S
GR
GS
[0.8 0 0 0.8 0 -0.40002] CT
0.149 GC
2 setlinecap
1 LJ
0.625 LW
N
436.494 31 M
436.494 35.42 L
S
GR
GS
[0.8 0 0 0.8 0 -0.40002] CT
0.149 GC
2 setlinecap
1 LJ
0.625 LW
N
469.565 31 M
469.565 35.42 L
S
GR
GS
[0.8 0 0 0.8 0 -0.40002] CT
0.149 GC
2 setlinecap
1 LJ
0.625 LW
N
498.212 31 M
498.212 35.42 L
S
GR
GS
[0.8 0 0 0.8 0 -0.40002] CT
0.149 GC
2 setlinecap
1 LJ
0.625 LW
N
91.213 368 M
91.213 365.79 L
S
GR
GS
[0.8 0 0 0.8 0 -0.40002] CT
0.149 GC
2 setlinecap
1 LJ
0.625 LW
N
124.283 368 M
124.283 365.79 L
S
GR
GS
[0.8 0 0 0.8 0 -0.40002] CT
0.149 GC
2 setlinecap
1 LJ
0.625 LW
N
152.931 368 M
152.931 365.79 L
S
GR
GS
[0.8 0 0 0.8 0 -0.40002] CT
0.149 GC
2 setlinecap
1 LJ
0.625 LW
N
178.199 368 M
178.199 365.79 L
S
GR
GS
[0.8 0 0 0.8 0 -0.40002] CT
0.149 GC
2 setlinecap
1 LJ
0.625 LW
N
221.25 368 M
221.25 365.79 L
S
GR
GS
[0.8 0 0 0.8 0 -0.40002] CT
0.149 GC
2 setlinecap
1 LJ
0.625 LW
N
239.917 368 M
239.917 365.79 L
S
GR
GS
[0.8 0 0 0.8 0 -0.40002] CT
0.149 GC
2 setlinecap
1 LJ
0.625 LW
N
257.089 368 M
257.089 365.79 L
S
GR
GS
[0.8 0 0 0.8 0 -0.40002] CT
0.149 GC
2 setlinecap
1 LJ
0.625 LW
N
272.988 368 M
272.988 365.79 L
S
GR
GS
[0.8 0 0 0.8 0 -0.40002] CT
0.149 GC
2 setlinecap
1 LJ
0.625 LW
N
301.635 368 M
301.635 365.79 L
S
GR
GS
[0.8 0 0 0.8 0 -0.40002] CT
0.149 GC
2 setlinecap
1 LJ
0.625 LW
N
314.641 368 M
314.641 365.79 L
S
GR
GS
[0.8 0 0 0.8 0 -0.40002] CT
0.149 GC
2 setlinecap
1 LJ
0.625 LW
N
326.904 368 M
326.904 365.79 L
S
GR
GS
[0.8 0 0 0.8 0 -0.40002] CT
0.149 GC
2 setlinecap
1 LJ
0.625 LW
N
338.503 368 M
338.503 365.79 L
S
GR
GS
[0.8 0 0 0.8 0 -0.40002] CT
0.149 GC
2 setlinecap
1 LJ
0.625 LW
N
359.975 368 M
359.975 365.79 L
S
GR
GS
[0.8 0 0 0.8 0 -0.40002] CT
0.149 GC
2 setlinecap
1 LJ
0.625 LW
N
369.955 368 M
369.955 365.79 L
S
GR
GS
[0.8 0 0 0.8 0 -0.40002] CT
0.149 GC
2 setlinecap
1 LJ
0.625 LW
N
379.491 368 M
379.491 365.79 L
S
GR
GS
[0.8 0 0 0.8 0 -0.40002] CT
0.149 GC
2 setlinecap
1 LJ
0.625 LW
N
388.622 368 M
388.622 365.79 L
S
GR
GS
[0.8 0 0 0.8 0 -0.40002] CT
0.149 GC
2 setlinecap
1 LJ
0.625 LW
N
405.794 368 M
405.794 365.79 L
S
GR
GS
[0.8 0 0 0.8 0 -0.40002] CT
0.149 GC
2 setlinecap
1 LJ
0.625 LW
N
413.891 368 M
413.891 365.79 L
S
GR
GS
[0.8 0 0 0.8 0 -0.40002] CT
0.149 GC
2 setlinecap
1 LJ
0.625 LW
N
421.693 368 M
421.693 365.79 L
S
GR
GS
[0.8 0 0 0.8 0 -0.40002] CT
0.149 GC
2 setlinecap
1 LJ
0.625 LW
N
429.221 368 M
429.221 365.79 L
S
GR
GS
[0.8 0 0 0.8 0 -0.40002] CT
0.149 GC
2 setlinecap
1 LJ
0.625 LW
N
443.529 368 M
443.529 365.79 L
S
GR
GS
[0.8 0 0 0.8 0 -0.40002] CT
0.149 GC
2 setlinecap
1 LJ
0.625 LW
N
450.34 368 M
450.34 365.79 L
S
GR
GS
[0.8 0 0 0.8 0 -0.40002] CT
0.149 GC
2 setlinecap
1 LJ
0.625 LW
N
456.942 368 M
456.942 365.79 L
S
GR
GS
[0.8 0 0 0.8 0 -0.40002] CT
0.149 GC
2 setlinecap
1 LJ
0.625 LW
N
463.346 368 M
463.346 365.79 L
S
GR
GS
[0.8 0 0 0.8 0 -0.40002] CT
0.149 GC
2 setlinecap
1 LJ
0.625 LW
N
475.609 368 M
475.609 365.79 L
S
GR
GS
[0.8 0 0 0.8 0 -0.40002] CT
0.149 GC
2 setlinecap
1 LJ
0.625 LW
N
481.487 368 M
481.487 365.79 L
S
GR
GS
[0.8 0 0 0.8 0 -0.40002] CT
0.149 GC
2 setlinecap
1 LJ
0.625 LW
N
487.208 368 M
487.208 365.79 L
S
GR
GS
[0.8 0 0 0.8 0 -0.40002] CT
0.149 GC
2 setlinecap
1 LJ
0.625 LW
N
492.781 368 M
492.781 365.79 L
S
GR
GS
[0.8 0 0 0.8 0 -0.40002] CT
0.149 GC
2 setlinecap
1 LJ
0.625 LW
N
503.51 368 M
503.51 365.79 L
S
GR
GS
[0.8 0 0 0.8 0 -0.40002] CT
0.149 GC
2 setlinecap
1 LJ
0.625 LW
N
508.679 368 M
508.679 365.79 L
S
GR
GS
[0.8 0 0 0.8 0 -0.40002] CT
0.149 GC
2 setlinecap
1 LJ
0.625 LW
N
513.728 368 M
513.728 365.79 L
S
GR
GS
[0.8 0 0 0.8 0 -0.40002] CT
0.149 GC
2 setlinecap
1 LJ
0.625 LW
N
91.213 31 M
91.213 33.21 L
S
GR
GS
[0.8 0 0 0.8 0 -0.40002] CT
0.149 GC
2 setlinecap
1 LJ
0.625 LW
N
124.283 31 M
124.283 33.21 L
S
GR
GS
[0.8 0 0 0.8 0 -0.40002] CT
0.149 GC
2 setlinecap
1 LJ
0.625 LW
N
152.931 31 M
152.931 33.21 L
S
GR
GS
[0.8 0 0 0.8 0 -0.40002] CT
0.149 GC
2 setlinecap
1 LJ
0.625 LW
N
178.199 31 M
178.199 33.21 L
S
GR
GS
[0.8 0 0 0.8 0 -0.40002] CT
0.149 GC
2 setlinecap
1 LJ
0.625 LW
N
221.25 31 M
221.25 33.21 L
S
GR
GS
[0.8 0 0 0.8 0 -0.40002] CT
0.149 GC
2 setlinecap
1 LJ
0.625 LW
N
239.917 31 M
239.917 33.21 L
S
GR
GS
[0.8 0 0 0.8 0 -0.40002] CT
0.149 GC
2 setlinecap
1 LJ
0.625 LW
N
257.089 31 M
257.089 33.21 L
S
GR
GS
[0.8 0 0 0.8 0 -0.40002] CT
0.149 GC
2 setlinecap
1 LJ
0.625 LW
N
272.988 31 M
272.988 33.21 L
S
GR
GS
[0.8 0 0 0.8 0 -0.40002] CT
0.149 GC
2 setlinecap
1 LJ
0.625 LW
N
301.635 31 M
301.635 33.21 L
S
GR
GS
[0.8 0 0 0.8 0 -0.40002] CT
0.149 GC
2 setlinecap
1 LJ
0.625 LW
N
314.641 31 M
314.641 33.21 L
S
GR
GS
[0.8 0 0 0.8 0 -0.40002] CT
0.149 GC
2 setlinecap
1 LJ
0.625 LW
N
326.904 31 M
326.904 33.21 L
S
GR
GS
[0.8 0 0 0.8 0 -0.40002] CT
0.149 GC
2 setlinecap
1 LJ
0.625 LW
N
338.503 31 M
338.503 33.21 L
S
GR
GS
[0.8 0 0 0.8 0 -0.40002] CT
0.149 GC
2 setlinecap
1 LJ
0.625 LW
N
359.975 31 M
359.975 33.21 L
S
GR
GS
[0.8 0 0 0.8 0 -0.40002] CT
0.149 GC
2 setlinecap
1 LJ
0.625 LW
N
369.955 31 M
369.955 33.21 L
S
GR
GS
[0.8 0 0 0.8 0 -0.40002] CT
0.149 GC
2 setlinecap
1 LJ
0.625 LW
N
379.491 31 M
379.491 33.21 L
S
GR
GS
[0.8 0 0 0.8 0 -0.40002] CT
0.149 GC
2 setlinecap
1 LJ
0.625 LW
N
388.622 31 M
388.622 33.21 L
S
GR
GS
[0.8 0 0 0.8 0 -0.40002] CT
0.149 GC
2 setlinecap
1 LJ
0.625 LW
N
405.794 31 M
405.794 33.21 L
S
GR
GS
[0.8 0 0 0.8 0 -0.40002] CT
0.149 GC
2 setlinecap
1 LJ
0.625 LW
N
413.891 31 M
413.891 33.21 L
S
GR
GS
[0.8 0 0 0.8 0 -0.40002] CT
0.149 GC
2 setlinecap
1 LJ
0.625 LW
N
421.693 31 M
421.693 33.21 L
S
GR
GS
[0.8 0 0 0.8 0 -0.40002] CT
0.149 GC
2 setlinecap
1 LJ
0.625 LW
N
429.221 31 M
429.221 33.21 L
S
GR
GS
[0.8 0 0 0.8 0 -0.40002] CT
0.149 GC
2 setlinecap
1 LJ
0.625 LW
N
443.529 31 M
443.529 33.21 L
S
GR
GS
[0.8 0 0 0.8 0 -0.40002] CT
0.149 GC
2 setlinecap
1 LJ
0.625 LW
N
450.34 31 M
450.34 33.21 L
S
GR
GS
[0.8 0 0 0.8 0 -0.40002] CT
0.149 GC
2 setlinecap
1 LJ
0.625 LW
N
456.942 31 M
456.942 33.21 L
S
GR
GS
[0.8 0 0 0.8 0 -0.40002] CT
0.149 GC
2 setlinecap
1 LJ
0.625 LW
N
463.346 31 M
463.346 33.21 L
S
GR
GS
[0.8 0 0 0.8 0 -0.40002] CT
0.149 GC
2 setlinecap
1 LJ
0.625 LW
N
475.609 31 M
475.609 33.21 L
S
GR
GS
[0.8 0 0 0.8 0 -0.40002] CT
0.149 GC
2 setlinecap
1 LJ
0.625 LW
N
481.487 31 M
481.487 33.21 L
S
GR
GS
[0.8 0 0 0.8 0 -0.40002] CT
0.149 GC
2 setlinecap
1 LJ
0.625 LW
N
487.208 31 M
487.208 33.21 L
S
GR
GS
[0.8 0 0 0.8 0 -0.40002] CT
0.149 GC
2 setlinecap
1 LJ
0.625 LW
N
492.781 31 M
492.781 33.21 L
S
GR
GS
[0.8 0 0 0.8 0 -0.40002] CT
0.149 GC
2 setlinecap
1 LJ
0.625 LW
N
503.51 31 M
503.51 33.21 L
S
GR
GS
[0.8 0 0 0.8 0 -0.40002] CT
0.149 GC
2 setlinecap
1 LJ
0.625 LW
N
508.679 31 M
508.679 33.21 L
S
GR
GS
[0.8 0 0 0.8 0 -0.40002] CT
0.149 GC
2 setlinecap
1 LJ
0.625 LW
N
513.728 31 M
513.728 33.21 L
S
GR
GS
[0.8 0 0 0.8 160.64227 298] CT
0.149 GC
/Helvetica 12.5 F
GS
[1 0 0 1 0 0] CT
-10 12 moveto 
1 -1 scale
(0.1) t 
GR
GR
GS
[0.8 0 0 0.8 230.23159 298] CT
0.149 GC
/Helvetica 12.5 F
GS
[1 0 0 1 0 0] CT
-14 12 moveto 
1 -1 scale
(0.15) t 
GR
GR
GS
[0.8 0 0 0.8 279.60601 298] CT
0.149 GC
/Helvetica 12.5 F
GS
[1 0 0 1 0 0] CT
-10 12 moveto 
1 -1 scale
(0.2) t 
GR
GR
GS
[0.8 0 0 0.8 317.90376 298] CT
0.149 GC
/Helvetica 12.5 F
GS
[1 0 0 1 0 0] CT
-14 12 moveto 
1 -1 scale
(0.25) t 
GR
GR
GS
[0.8 0 0 0.8 349.19534 298] CT
0.149 GC
/Helvetica 12.5 F
GS
[1 0 0 1 0 0] CT
-10 12 moveto 
1 -1 scale
(0.3) t 
GR
GR
GS
[0.8 0 0 0.8 375.65198 298] CT
0.149 GC
/Helvetica 12.5 F
GS
[1 0 0 1 0 0] CT
-14 12 moveto 
1 -1 scale
(0.35) t 
GR
GR
GS
[0.8 0 0 0.8 398.56975 298] CT
0.149 GC
/Helvetica 12.5 F
GS
[1 0 0 1 0 0] CT
-10 12 moveto 
1 -1 scale
(0.4) t 
GR
GR
GS
[0.8 0 0 0.8 236.00017 311] CT
0.149 GC
/Helvetica 13.75 F
GS
[1 0 0 1 0 0] CT
-38 13 moveto 
1 -1 scale
(meshwidth) t 
GR
GR
GS
[0.8 0 0 0.8 0 -0.40002] CT
0.149 GC
2 setlinecap
1 LJ
0.625 LW
N
74 368 M
74 31 L
S
GR
GS
[0.8 0 0 0.8 0 -0.40002] CT
0.149 GC
2 setlinecap
1 LJ
0.625 LW
N
516 368 M
516 31 L
S
GR
GS
[0.8 0 0 0.8 0 -0.40002] CT
0.149 GC
2 setlinecap
1 LJ
0.625 LW
N
74 368 M
78.42 368 L
S
GR
GS
[0.8 0 0 0.8 0 -0.40002] CT
0.149 GC
2 setlinecap
1 LJ
0.625 LW
N
<<<<<<< HEAD:Piyush's codes/Magnetostatics/LinearMaterialCstFld/LMCFSP_dualnorm_getMeshSphere.eps
74 220.078 M
78.42 220.078 L
=======
73 223.444 M
77.34 223.444 L
>>>>>>> f4de00b5db4de07fdb797f1545578c2683f6c040:Piyush's codes/Magnetostatics/LinearMaterialCstFld/LMCFSP_data/LMCFSP_dualnorm_getMeshSphere.eps
S
GR
GS
[0.8 0 0 0.8 0 -0.40002] CT
0.149 GC
2 setlinecap
1 LJ
0.625 LW
N
<<<<<<< HEAD:Piyush's codes/Magnetostatics/LinearMaterialCstFld/LMCFSP_dualnorm_getMeshSphere.eps
74 72.155 M
78.42 72.155 L
=======
73 72.888 M
77.34 72.888 L
>>>>>>> f4de00b5db4de07fdb797f1545578c2683f6c040:Piyush's codes/Magnetostatics/LinearMaterialCstFld/LMCFSP_data/LMCFSP_dualnorm_getMeshSphere.eps
S
GR
GS
[0.8 0 0 0.8 0 -0.40002] CT
0.149 GC
2 setlinecap
1 LJ
0.625 LW
N
516 368 M
511.58 368 L
S
GR
GS
[0.8 0 0 0.8 0 -0.40002] CT
0.149 GC
2 setlinecap
1 LJ
0.625 LW
N
<<<<<<< HEAD:Piyush's codes/Magnetostatics/LinearMaterialCstFld/LMCFSP_dualnorm_getMeshSphere.eps
516 220.078 M
511.58 220.078 L
=======
507 223.444 M
502.66 223.444 L
>>>>>>> f4de00b5db4de07fdb797f1545578c2683f6c040:Piyush's codes/Magnetostatics/LinearMaterialCstFld/LMCFSP_data/LMCFSP_dualnorm_getMeshSphere.eps
S
GR
GS
[0.8 0 0 0.8 0 -0.40002] CT
0.149 GC
2 setlinecap
1 LJ
0.625 LW
N
<<<<<<< HEAD:Piyush's codes/Magnetostatics/LinearMaterialCstFld/LMCFSP_dualnorm_getMeshSphere.eps
516 72.155 M
511.58 72.155 L
=======
507 72.888 M
502.66 72.888 L
>>>>>>> f4de00b5db4de07fdb797f1545578c2683f6c040:Piyush's codes/Magnetostatics/LinearMaterialCstFld/LMCFSP_data/LMCFSP_dualnorm_getMeshSphere.eps
S
GR
GS
[0.8 0 0 0.8 0 -0.40002] CT
0.149 GC
2 setlinecap
1 LJ
0.625 LW
N
74 368 M
76.21 368 L
S
GR
GS
[0.8 0 0 0.8 0 -0.40002] CT
0.149 GC
2 setlinecap
1 LJ
0.625 LW
N
<<<<<<< HEAD:Piyush's codes/Magnetostatics/LinearMaterialCstFld/LMCFSP_dualnorm_getMeshSphere.eps
74 323.471 M
76.21 323.471 L
=======
73 328.678 M
75.17 328.678 L
>>>>>>> f4de00b5db4de07fdb797f1545578c2683f6c040:Piyush's codes/Magnetostatics/LinearMaterialCstFld/LMCFSP_data/LMCFSP_dualnorm_getMeshSphere.eps
S
GR
GS
[0.8 0 0 0.8 0 -0.40002] CT
0.149 GC
2 setlinecap
1 LJ
0.625 LW
N
<<<<<<< HEAD:Piyush's codes/Magnetostatics/LinearMaterialCstFld/LMCFSP_dualnorm_getMeshSphere.eps
74 297.423 M
76.21 297.423 L
=======
73 302.167 M
75.17 302.167 L
>>>>>>> f4de00b5db4de07fdb797f1545578c2683f6c040:Piyush's codes/Magnetostatics/LinearMaterialCstFld/LMCFSP_data/LMCFSP_dualnorm_getMeshSphere.eps
S
GR
GS
[0.8 0 0 0.8 0 -0.40002] CT
0.149 GC
2 setlinecap
1 LJ
0.625 LW
N
<<<<<<< HEAD:Piyush's codes/Magnetostatics/LinearMaterialCstFld/LMCFSP_dualnorm_getMeshSphere.eps
74 278.942 M
76.21 278.942 L
=======
73 283.356 M
75.17 283.356 L
>>>>>>> f4de00b5db4de07fdb797f1545578c2683f6c040:Piyush's codes/Magnetostatics/LinearMaterialCstFld/LMCFSP_data/LMCFSP_dualnorm_getMeshSphere.eps
S
GR
GS
[0.8 0 0 0.8 0 -0.40002] CT
0.149 GC
2 setlinecap
1 LJ
0.625 LW
N
<<<<<<< HEAD:Piyush's codes/Magnetostatics/LinearMaterialCstFld/LMCFSP_dualnorm_getMeshSphere.eps
74 264.607 M
76.21 264.607 L
=======
73 268.766 M
75.17 268.766 L
>>>>>>> f4de00b5db4de07fdb797f1545578c2683f6c040:Piyush's codes/Magnetostatics/LinearMaterialCstFld/LMCFSP_data/LMCFSP_dualnorm_getMeshSphere.eps
S
GR
GS
[0.8 0 0 0.8 0 -0.40002] CT
0.149 GC
2 setlinecap
1 LJ
0.625 LW
N
<<<<<<< HEAD:Piyush's codes/Magnetostatics/LinearMaterialCstFld/LMCFSP_dualnorm_getMeshSphere.eps
74 252.894 M
76.21 252.894 L
=======
73 256.845 M
75.17 256.845 L
>>>>>>> f4de00b5db4de07fdb797f1545578c2683f6c040:Piyush's codes/Magnetostatics/LinearMaterialCstFld/LMCFSP_data/LMCFSP_dualnorm_getMeshSphere.eps
S
GR
GS
[0.8 0 0 0.8 0 -0.40002] CT
0.149 GC
2 setlinecap
1 LJ
0.625 LW
N
<<<<<<< HEAD:Piyush's codes/Magnetostatics/LinearMaterialCstFld/LMCFSP_dualnorm_getMeshSphere.eps
74 242.991 M
76.21 242.991 L
=======
73 246.765 M
75.17 246.765 L
>>>>>>> f4de00b5db4de07fdb797f1545578c2683f6c040:Piyush's codes/Magnetostatics/LinearMaterialCstFld/LMCFSP_data/LMCFSP_dualnorm_getMeshSphere.eps
S
GR
GS
[0.8 0 0 0.8 0 -0.40002] CT
0.149 GC
2 setlinecap
1 LJ
0.625 LW
N
<<<<<<< HEAD:Piyush's codes/Magnetostatics/LinearMaterialCstFld/LMCFSP_dualnorm_getMeshSphere.eps
74 234.413 M
76.21 234.413 L
=======
73 238.034 M
75.17 238.034 L
>>>>>>> f4de00b5db4de07fdb797f1545578c2683f6c040:Piyush's codes/Magnetostatics/LinearMaterialCstFld/LMCFSP_data/LMCFSP_dualnorm_getMeshSphere.eps
S
GR
GS
[0.8 0 0 0.8 0 -0.40002] CT
0.149 GC
2 setlinecap
1 LJ
0.625 LW
N
<<<<<<< HEAD:Piyush's codes/Magnetostatics/LinearMaterialCstFld/LMCFSP_dualnorm_getMeshSphere.eps
74 226.846 M
76.21 226.846 L
=======
73 230.333 M
75.17 230.333 L
>>>>>>> f4de00b5db4de07fdb797f1545578c2683f6c040:Piyush's codes/Magnetostatics/LinearMaterialCstFld/LMCFSP_data/LMCFSP_dualnorm_getMeshSphere.eps
S
GR
GS
[0.8 0 0 0.8 0 -0.40002] CT
0.149 GC
2 setlinecap
1 LJ
0.625 LW
N
<<<<<<< HEAD:Piyush's codes/Magnetostatics/LinearMaterialCstFld/LMCFSP_dualnorm_getMeshSphere.eps
74 220.078 M
76.21 220.078 L
=======
73 223.444 M
75.17 223.444 L
>>>>>>> f4de00b5db4de07fdb797f1545578c2683f6c040:Piyush's codes/Magnetostatics/LinearMaterialCstFld/LMCFSP_data/LMCFSP_dualnorm_getMeshSphere.eps
S
GR
GS
[0.8 0 0 0.8 0 -0.40002] CT
0.149 GC
2 setlinecap
1 LJ
0.625 LW
N
<<<<<<< HEAD:Piyush's codes/Magnetostatics/LinearMaterialCstFld/LMCFSP_dualnorm_getMeshSphere.eps
74 175.549 M
76.21 175.549 L
=======
73 178.122 M
75.17 178.122 L
>>>>>>> f4de00b5db4de07fdb797f1545578c2683f6c040:Piyush's codes/Magnetostatics/LinearMaterialCstFld/LMCFSP_data/LMCFSP_dualnorm_getMeshSphere.eps
S
GR
GS
[0.8 0 0 0.8 0 -0.40002] CT
0.149 GC
2 setlinecap
1 LJ
0.625 LW
N
<<<<<<< HEAD:Piyush's codes/Magnetostatics/LinearMaterialCstFld/LMCFSP_dualnorm_getMeshSphere.eps
74 149.501 M
76.21 149.501 L
=======
73 151.611 M
75.17 151.611 L
>>>>>>> f4de00b5db4de07fdb797f1545578c2683f6c040:Piyush's codes/Magnetostatics/LinearMaterialCstFld/LMCFSP_data/LMCFSP_dualnorm_getMeshSphere.eps
S
GR
GS
[0.8 0 0 0.8 0 -0.40002] CT
0.149 GC
2 setlinecap
1 LJ
0.625 LW
N
<<<<<<< HEAD:Piyush's codes/Magnetostatics/LinearMaterialCstFld/LMCFSP_dualnorm_getMeshSphere.eps
74 131.02 M
76.21 131.02 L
=======
73 132.8 M
75.17 132.8 L
>>>>>>> f4de00b5db4de07fdb797f1545578c2683f6c040:Piyush's codes/Magnetostatics/LinearMaterialCstFld/LMCFSP_data/LMCFSP_dualnorm_getMeshSphere.eps
S
GR
GS
[0.8 0 0 0.8 0 -0.40002] CT
0.149 GC
2 setlinecap
1 LJ
0.625 LW
N
<<<<<<< HEAD:Piyush's codes/Magnetostatics/LinearMaterialCstFld/LMCFSP_dualnorm_getMeshSphere.eps
74 116.684 M
76.21 116.684 L
=======
73 118.21 M
75.17 118.21 L
>>>>>>> f4de00b5db4de07fdb797f1545578c2683f6c040:Piyush's codes/Magnetostatics/LinearMaterialCstFld/LMCFSP_data/LMCFSP_dualnorm_getMeshSphere.eps
S
GR
GS
[0.8 0 0 0.8 0 -0.40002] CT
0.149 GC
2 setlinecap
1 LJ
0.625 LW
N
<<<<<<< HEAD:Piyush's codes/Magnetostatics/LinearMaterialCstFld/LMCFSP_dualnorm_getMeshSphere.eps
74 104.972 M
76.21 104.972 L
=======
73 106.289 M
75.17 106.289 L
>>>>>>> f4de00b5db4de07fdb797f1545578c2683f6c040:Piyush's codes/Magnetostatics/LinearMaterialCstFld/LMCFSP_data/LMCFSP_dualnorm_getMeshSphere.eps
S
GR
GS
[0.8 0 0 0.8 0 -0.40002] CT
0.149 GC
2 setlinecap
1 LJ
0.625 LW
N
<<<<<<< HEAD:Piyush's codes/Magnetostatics/LinearMaterialCstFld/LMCFSP_dualnorm_getMeshSphere.eps
74 95.069 M
76.21 95.069 L
=======
73 96.209 M
75.17 96.209 L
>>>>>>> f4de00b5db4de07fdb797f1545578c2683f6c040:Piyush's codes/Magnetostatics/LinearMaterialCstFld/LMCFSP_data/LMCFSP_dualnorm_getMeshSphere.eps
S
GR
GS
[0.8 0 0 0.8 0 -0.40002] CT
0.149 GC
2 setlinecap
1 LJ
0.625 LW
N
<<<<<<< HEAD:Piyush's codes/Magnetostatics/LinearMaterialCstFld/LMCFSP_dualnorm_getMeshSphere.eps
74 86.49 M
76.21 86.49 L
=======
73 87.478 M
75.17 87.478 L
>>>>>>> f4de00b5db4de07fdb797f1545578c2683f6c040:Piyush's codes/Magnetostatics/LinearMaterialCstFld/LMCFSP_data/LMCFSP_dualnorm_getMeshSphere.eps
S
GR
GS
[0.8 0 0 0.8 0 -0.40002] CT
0.149 GC
2 setlinecap
1 LJ
0.625 LW
N
<<<<<<< HEAD:Piyush's codes/Magnetostatics/LinearMaterialCstFld/LMCFSP_dualnorm_getMeshSphere.eps
74 78.924 M
76.21 78.924 L
=======
73 79.777 M
75.17 79.777 L
>>>>>>> f4de00b5db4de07fdb797f1545578c2683f6c040:Piyush's codes/Magnetostatics/LinearMaterialCstFld/LMCFSP_data/LMCFSP_dualnorm_getMeshSphere.eps
S
GR
GS
[0.8 0 0 0.8 0 -0.40002] CT
0.149 GC
2 setlinecap
1 LJ
0.625 LW
N
<<<<<<< HEAD:Piyush's codes/Magnetostatics/LinearMaterialCstFld/LMCFSP_dualnorm_getMeshSphere.eps
74 72.155 M
76.21 72.155 L
S
GR
GS
[0.8 0 0 0.8 0 -0.40002] CT
0.149 GC
2 setlinecap
1 LJ
0.625 LW
N
516 368 M
513.79 368 L
=======
73 72.888 M
75.17 72.888 L
>>>>>>> f4de00b5db4de07fdb797f1545578c2683f6c040:Piyush's codes/Magnetostatics/LinearMaterialCstFld/LMCFSP_data/LMCFSP_dualnorm_getMeshSphere.eps
S
GR
GS
[0.8 0 0 0.8 0 -0.40002] CT
0.149 GC
2 setlinecap
1 LJ
0.625 LW
N
516 323.471 M
513.79 323.471 L
S
GR
GS
[0.8 0 0 0.8 0 -0.40002] CT
0.149 GC
2 setlinecap
1 LJ
0.625 LW
N
<<<<<<< HEAD:Piyush's codes/Magnetostatics/LinearMaterialCstFld/LMCFSP_dualnorm_getMeshSphere.eps
516 297.423 M
513.79 297.423 L
=======
507 328.678 M
504.83 328.678 L
>>>>>>> f4de00b5db4de07fdb797f1545578c2683f6c040:Piyush's codes/Magnetostatics/LinearMaterialCstFld/LMCFSP_data/LMCFSP_dualnorm_getMeshSphere.eps
S
GR
GS
[0.8 0 0 0.8 0 -0.40002] CT
0.149 GC
2 setlinecap
1 LJ
0.625 LW
N
<<<<<<< HEAD:Piyush's codes/Magnetostatics/LinearMaterialCstFld/LMCFSP_dualnorm_getMeshSphere.eps
516 278.942 M
513.79 278.942 L
=======
507 302.167 M
504.83 302.167 L
>>>>>>> f4de00b5db4de07fdb797f1545578c2683f6c040:Piyush's codes/Magnetostatics/LinearMaterialCstFld/LMCFSP_data/LMCFSP_dualnorm_getMeshSphere.eps
S
GR
GS
[0.8 0 0 0.8 0 -0.40002] CT
0.149 GC
2 setlinecap
1 LJ
0.625 LW
N
<<<<<<< HEAD:Piyush's codes/Magnetostatics/LinearMaterialCstFld/LMCFSP_dualnorm_getMeshSphere.eps
516 264.607 M
513.79 264.607 L
=======
507 283.356 M
504.83 283.356 L
>>>>>>> f4de00b5db4de07fdb797f1545578c2683f6c040:Piyush's codes/Magnetostatics/LinearMaterialCstFld/LMCFSP_data/LMCFSP_dualnorm_getMeshSphere.eps
S
GR
GS
[0.8 0 0 0.8 0 -0.40002] CT
0.149 GC
2 setlinecap
1 LJ
0.625 LW
N
<<<<<<< HEAD:Piyush's codes/Magnetostatics/LinearMaterialCstFld/LMCFSP_dualnorm_getMeshSphere.eps
516 252.894 M
513.79 252.894 L
=======
507 268.766 M
504.83 268.766 L
>>>>>>> f4de00b5db4de07fdb797f1545578c2683f6c040:Piyush's codes/Magnetostatics/LinearMaterialCstFld/LMCFSP_data/LMCFSP_dualnorm_getMeshSphere.eps
S
GR
GS
[0.8 0 0 0.8 0 -0.40002] CT
0.149 GC
2 setlinecap
1 LJ
0.625 LW
N
<<<<<<< HEAD:Piyush's codes/Magnetostatics/LinearMaterialCstFld/LMCFSP_dualnorm_getMeshSphere.eps
516 242.991 M
513.79 242.991 L
=======
507 256.845 M
504.83 256.845 L
>>>>>>> f4de00b5db4de07fdb797f1545578c2683f6c040:Piyush's codes/Magnetostatics/LinearMaterialCstFld/LMCFSP_data/LMCFSP_dualnorm_getMeshSphere.eps
S
GR
GS
[0.8 0 0 0.8 0 -0.40002] CT
0.149 GC
2 setlinecap
1 LJ
0.625 LW
N
<<<<<<< HEAD:Piyush's codes/Magnetostatics/LinearMaterialCstFld/LMCFSP_dualnorm_getMeshSphere.eps
516 234.413 M
513.79 234.413 L
=======
507 246.765 M
504.83 246.765 L
>>>>>>> f4de00b5db4de07fdb797f1545578c2683f6c040:Piyush's codes/Magnetostatics/LinearMaterialCstFld/LMCFSP_data/LMCFSP_dualnorm_getMeshSphere.eps
S
GR
GS
[0.8 0 0 0.8 0 -0.40002] CT
0.149 GC
2 setlinecap
1 LJ
0.625 LW
N
<<<<<<< HEAD:Piyush's codes/Magnetostatics/LinearMaterialCstFld/LMCFSP_dualnorm_getMeshSphere.eps
516 226.846 M
513.79 226.846 L
=======
507 238.034 M
504.83 238.034 L
>>>>>>> f4de00b5db4de07fdb797f1545578c2683f6c040:Piyush's codes/Magnetostatics/LinearMaterialCstFld/LMCFSP_data/LMCFSP_dualnorm_getMeshSphere.eps
S
GR
GS
[0.8 0 0 0.8 0 -0.40002] CT
0.149 GC
2 setlinecap
1 LJ
0.625 LW
N
<<<<<<< HEAD:Piyush's codes/Magnetostatics/LinearMaterialCstFld/LMCFSP_dualnorm_getMeshSphere.eps
516 220.078 M
513.79 220.078 L
=======
507 230.333 M
504.83 230.333 L
>>>>>>> f4de00b5db4de07fdb797f1545578c2683f6c040:Piyush's codes/Magnetostatics/LinearMaterialCstFld/LMCFSP_data/LMCFSP_dualnorm_getMeshSphere.eps
S
GR
GS
[0.8 0 0 0.8 0 -0.40002] CT
0.149 GC
2 setlinecap
1 LJ
0.625 LW
N
<<<<<<< HEAD:Piyush's codes/Magnetostatics/LinearMaterialCstFld/LMCFSP_dualnorm_getMeshSphere.eps
516 175.549 M
513.79 175.549 L
=======
507 223.444 M
504.83 223.444 L
>>>>>>> f4de00b5db4de07fdb797f1545578c2683f6c040:Piyush's codes/Magnetostatics/LinearMaterialCstFld/LMCFSP_data/LMCFSP_dualnorm_getMeshSphere.eps
S
GR
GS
[0.8 0 0 0.8 0 -0.40002] CT
0.149 GC
2 setlinecap
1 LJ
0.625 LW
N
<<<<<<< HEAD:Piyush's codes/Magnetostatics/LinearMaterialCstFld/LMCFSP_dualnorm_getMeshSphere.eps
516 149.501 M
513.79 149.501 L
=======
507 178.122 M
504.83 178.122 L
>>>>>>> f4de00b5db4de07fdb797f1545578c2683f6c040:Piyush's codes/Magnetostatics/LinearMaterialCstFld/LMCFSP_data/LMCFSP_dualnorm_getMeshSphere.eps
S
GR
GS
[0.8 0 0 0.8 0 -0.40002] CT
0.149 GC
2 setlinecap
1 LJ
0.625 LW
N
<<<<<<< HEAD:Piyush's codes/Magnetostatics/LinearMaterialCstFld/LMCFSP_dualnorm_getMeshSphere.eps
516 131.02 M
513.79 131.02 L
=======
507 151.611 M
504.83 151.611 L
>>>>>>> f4de00b5db4de07fdb797f1545578c2683f6c040:Piyush's codes/Magnetostatics/LinearMaterialCstFld/LMCFSP_data/LMCFSP_dualnorm_getMeshSphere.eps
S
GR
GS
[0.8 0 0 0.8 0 -0.40002] CT
0.149 GC
2 setlinecap
1 LJ
0.625 LW
N
<<<<<<< HEAD:Piyush's codes/Magnetostatics/LinearMaterialCstFld/LMCFSP_dualnorm_getMeshSphere.eps
516 116.684 M
513.79 116.684 L
=======
507 132.8 M
504.83 132.8 L
>>>>>>> f4de00b5db4de07fdb797f1545578c2683f6c040:Piyush's codes/Magnetostatics/LinearMaterialCstFld/LMCFSP_data/LMCFSP_dualnorm_getMeshSphere.eps
S
GR
GS
[0.8 0 0 0.8 0 -0.40002] CT
0.149 GC
2 setlinecap
1 LJ
0.625 LW
N
<<<<<<< HEAD:Piyush's codes/Magnetostatics/LinearMaterialCstFld/LMCFSP_dualnorm_getMeshSphere.eps
516 104.972 M
513.79 104.972 L
=======
507 118.21 M
504.83 118.21 L
>>>>>>> f4de00b5db4de07fdb797f1545578c2683f6c040:Piyush's codes/Magnetostatics/LinearMaterialCstFld/LMCFSP_data/LMCFSP_dualnorm_getMeshSphere.eps
S
GR
GS
[0.8 0 0 0.8 0 -0.40002] CT
0.149 GC
2 setlinecap
1 LJ
0.625 LW
N
<<<<<<< HEAD:Piyush's codes/Magnetostatics/LinearMaterialCstFld/LMCFSP_dualnorm_getMeshSphere.eps
516 95.069 M
513.79 95.069 L
=======
507 106.289 M
504.83 106.289 L
>>>>>>> f4de00b5db4de07fdb797f1545578c2683f6c040:Piyush's codes/Magnetostatics/LinearMaterialCstFld/LMCFSP_data/LMCFSP_dualnorm_getMeshSphere.eps
S
GR
GS
[0.8 0 0 0.8 0 -0.40002] CT
0.149 GC
2 setlinecap
1 LJ
0.625 LW
N
<<<<<<< HEAD:Piyush's codes/Magnetostatics/LinearMaterialCstFld/LMCFSP_dualnorm_getMeshSphere.eps
516 86.49 M
513.79 86.49 L
=======
507 96.209 M
504.83 96.209 L
>>>>>>> f4de00b5db4de07fdb797f1545578c2683f6c040:Piyush's codes/Magnetostatics/LinearMaterialCstFld/LMCFSP_data/LMCFSP_dualnorm_getMeshSphere.eps
S
GR
GS
[0.8 0 0 0.8 0 -0.40002] CT
0.149 GC
2 setlinecap
1 LJ
0.625 LW
N
<<<<<<< HEAD:Piyush's codes/Magnetostatics/LinearMaterialCstFld/LMCFSP_dualnorm_getMeshSphere.eps
516 78.924 M
513.79 78.924 L
=======
507 87.478 M
504.83 87.478 L
>>>>>>> f4de00b5db4de07fdb797f1545578c2683f6c040:Piyush's codes/Magnetostatics/LinearMaterialCstFld/LMCFSP_data/LMCFSP_dualnorm_getMeshSphere.eps
S
GR
GS
[0.8 0 0 0.8 0 -0.40002] CT
0.149 GC
2 setlinecap
1 LJ
0.625 LW
N
<<<<<<< HEAD:Piyush's codes/Magnetostatics/LinearMaterialCstFld/LMCFSP_dualnorm_getMeshSphere.eps
516 72.155 M
513.79 72.155 L
=======
507 79.777 M
504.83 79.777 L
>>>>>>> f4de00b5db4de07fdb797f1545578c2683f6c040:Piyush's codes/Magnetostatics/LinearMaterialCstFld/LMCFSP_data/LMCFSP_dualnorm_getMeshSphere.eps
S
GR
GS
[0.8 0 0 0.8 34.4 299.6] CT
0.149 GC
<<<<<<< HEAD:Piyush's codes/Magnetostatics/LinearMaterialCstFld/LMCFSP_dualnorm_getMeshSphere.eps
/Helvetica 12.5 F
=======
2 setlinecap
1 LJ
0.667 LW
N
507 72.888 M
504.83 72.888 L
S
GR
GS
[0.75 0 0 0.75 30 285] CT
0.149 GC
/Helvetica 13.333 F
>>>>>>> f4de00b5db4de07fdb797f1545578c2683f6c040:Piyush's codes/Magnetostatics/LinearMaterialCstFld/LMCFSP_data/LMCFSP_dualnorm_getMeshSphere.eps
GS
[1 0 0 1 0 0] CT
0 0 moveto 
1 -1 scale
(10) t 
GR
GR
GS
[0.8 0 0 0.8 47.2 294.8] CT
0.149 GC
/Helvetica 10 F
GS
[1 0 0 1 0 0] CT
0 0 moveto 
1 -1 scale
(-2) t 
GR
GR
GS
<<<<<<< HEAD:Piyush's codes/Magnetostatics/LinearMaterialCstFld/LMCFSP_dualnorm_getMeshSphere.eps
[0.8 0 0 0.8 34.4 181.19999] CT
=======
[0.75 0 0 0.75 30 171.75] CT
>>>>>>> f4de00b5db4de07fdb797f1545578c2683f6c040:Piyush's codes/Magnetostatics/LinearMaterialCstFld/LMCFSP_data/LMCFSP_dualnorm_getMeshSphere.eps
0.149 GC
/Helvetica 12.5 F
GS
[1 0 0 1 0 0] CT
0 0 moveto 
1 -1 scale
(10) t 
GR
GR
GS
<<<<<<< HEAD:Piyush's codes/Magnetostatics/LinearMaterialCstFld/LMCFSP_dualnorm_getMeshSphere.eps
[0.8 0 0 0.8 47.2 176.39999] CT
=======
[0.75 0 0 0.75 42.75 167.25] CT
>>>>>>> f4de00b5db4de07fdb797f1545578c2683f6c040:Piyush's codes/Magnetostatics/LinearMaterialCstFld/LMCFSP_data/LMCFSP_dualnorm_getMeshSphere.eps
0.149 GC
/Helvetica 10 F
GS
[1 0 0 1 0 0] CT
0 0 moveto 
1 -1 scale
(-1) t 
GR
GR
GS
<<<<<<< HEAD:Piyush's codes/Magnetostatics/LinearMaterialCstFld/LMCFSP_dualnorm_getMeshSphere.eps
[0.8 0 0 0.8 36.8 62.79998] CT
=======
[0.75 0 0 0.75 33 59.25] CT
>>>>>>> f4de00b5db4de07fdb797f1545578c2683f6c040:Piyush's codes/Magnetostatics/LinearMaterialCstFld/LMCFSP_data/LMCFSP_dualnorm_getMeshSphere.eps
0.149 GC
/Helvetica 12.5 F
GS
[1 0 0 1 0 0] CT
0 0 moveto 
1 -1 scale
(10) t 
GR
GR
GS
<<<<<<< HEAD:Piyush's codes/Magnetostatics/LinearMaterialCstFld/LMCFSP_dualnorm_getMeshSphere.eps
[0.8 0 0 0.8 49.6 57.99998] CT
=======
[0.75 0 0 0.75 45.75 54.75] CT
>>>>>>> f4de00b5db4de07fdb797f1545578c2683f6c040:Piyush's codes/Magnetostatics/LinearMaterialCstFld/LMCFSP_data/LMCFSP_dualnorm_getMeshSphere.eps
0.149 GC
/Helvetica 10 F
GS
[1 0 0 1 0 0] CT
0 0 moveto 
1 -1 scale
(0) t 
GR
GR
GS
[0 -0.8 0.8 0 31.4 159.19985] CT
0.149 GC
/Helvetica 13.75 F
GS
[1 0 0 1 0 0] CT
-54.5 -4 moveto 
1 -1 scale
(dual norm error) t 
GR
GR
GS
[0.8 0 0 0.8 0 -0.40002] CT
0 0.447 0.741 RC
1 LJ
2.5 LW
N
<<<<<<< HEAD:Piyush's codes/Magnetostatics/LinearMaterialCstFld/LMCFSP_dualnorm_getMeshSphere.eps
516 31 M
443.848 68.541 L
370.511 95.57 L
296.639 111.851 L
222.526 121.067 L
148.294 125.885 L
74 127.992 L
=======
507 31 M
436.154 69.209 L
364.145 96.72 L
291.609 113.29 L
218.838 122.67 L
145.949 127.575 L
73 129.719 L
>>>>>>> f4de00b5db4de07fdb797f1545578c2683f6c040:Piyush's codes/Magnetostatics/LinearMaterialCstFld/LMCFSP_data/LMCFSP_dualnorm_getMeshSphere.eps
S
GR
GS
[0.8 0 0 0.8 412.8 24.39998] CT
0 0.447 0.741 RC
10.0 ML
2.5 LW
N
0 -7 M
0 7 L
-7 0 M
7 0 L
-4.419 -4.419 M
4.419 4.419 L
-4.419 4.419 M
4.419 -4.419 L
S
GR
GS
<<<<<<< HEAD:Piyush's codes/Magnetostatics/LinearMaterialCstFld/LMCFSP_dualnorm_getMeshSphere.eps
[0.8 0 0 0.8 355.07864 54.43252] CT
=======
[0.75 0 0 0.75 327.11565 51.9068] CT
>>>>>>> f4de00b5db4de07fdb797f1545578c2683f6c040:Piyush's codes/Magnetostatics/LinearMaterialCstFld/LMCFSP_data/LMCFSP_dualnorm_getMeshSphere.eps
0 0.447 0.741 RC
10.0 ML
2.5 LW
N
0 -7 M
0 7 L
-7 0 M
7 0 L
-4.419 -4.419 M
4.419 4.419 L
-4.419 4.419 M
4.419 -4.419 L
S
GR
GS
<<<<<<< HEAD:Piyush's codes/Magnetostatics/LinearMaterialCstFld/LMCFSP_dualnorm_getMeshSphere.eps
[0.8 0 0 0.8 296.40916 76.05633] CT
=======
[0.75 0 0 0.75 273.10854 72.54004] CT
>>>>>>> f4de00b5db4de07fdb797f1545578c2683f6c040:Piyush's codes/Magnetostatics/LinearMaterialCstFld/LMCFSP_data/LMCFSP_dualnorm_getMeshSphere.eps
0 0.447 0.741 RC
10.0 ML
2.5 LW
N
0 -7 M
0 7 L
-7 0 M
7 0 L
-4.419 -4.419 M
4.419 4.419 L
-4.419 4.419 M
4.419 -4.419 L
S
GR
GS
<<<<<<< HEAD:Piyush's codes/Magnetostatics/LinearMaterialCstFld/LMCFSP_dualnorm_getMeshSphere.eps
[0.8 0 0 0.8 237.31111 89.08043] CT
=======
[0.75 0 0 0.75 218.70692 84.96752] CT
>>>>>>> f4de00b5db4de07fdb797f1545578c2683f6c040:Piyush's codes/Magnetostatics/LinearMaterialCstFld/LMCFSP_data/LMCFSP_dualnorm_getMeshSphere.eps
0 0.447 0.741 RC
10.0 ML
2.5 LW
N
0 -7 M
0 7 L
-7 0 M
7 0 L
-4.419 -4.419 M
4.419 4.419 L
-4.419 4.419 M
4.419 -4.419 L
S
GR
GS
<<<<<<< HEAD:Piyush's codes/Magnetostatics/LinearMaterialCstFld/LMCFSP_dualnorm_getMeshSphere.eps
[0.8 0 0 0.8 178.02076 96.45339] CT
=======
[0.75 0 0 0.75 164.12827 92.00274] CT
>>>>>>> f4de00b5db4de07fdb797f1545578c2683f6c040:Piyush's codes/Magnetostatics/LinearMaterialCstFld/LMCFSP_data/LMCFSP_dualnorm_getMeshSphere.eps
0 0.447 0.741 RC
10.0 ML
2.5 LW
N
0 -7 M
0 7 L
-7 0 M
7 0 L
-4.419 -4.419 M
4.419 4.419 L
-4.419 4.419 M
4.419 -4.419 L
S
GR
GS
<<<<<<< HEAD:Piyush's codes/Magnetostatics/LinearMaterialCstFld/LMCFSP_dualnorm_getMeshSphere.eps
[0.8 0 0 0.8 118.63525 100.30813] CT
=======
[0.75 0 0 0.75 109.46203 95.6809] CT
>>>>>>> f4de00b5db4de07fdb797f1545578c2683f6c040:Piyush's codes/Magnetostatics/LinearMaterialCstFld/LMCFSP_data/LMCFSP_dualnorm_getMeshSphere.eps
0 0.447 0.741 RC
10.0 ML
2.5 LW
N
0 -7 M
0 7 L
-7 0 M
7 0 L
-4.419 -4.419 M
4.419 4.419 L
-4.419 4.419 M
4.419 -4.419 L
S
GR
GS
<<<<<<< HEAD:Piyush's codes/Magnetostatics/LinearMaterialCstFld/LMCFSP_dualnorm_getMeshSphere.eps
[0.8 0 0 0.8 59.2 101.99387] CT
=======
[0.75 0 0 0.75 54.75 97.28942] CT
>>>>>>> f4de00b5db4de07fdb797f1545578c2683f6c040:Piyush's codes/Magnetostatics/LinearMaterialCstFld/LMCFSP_data/LMCFSP_dualnorm_getMeshSphere.eps
0 0.447 0.741 RC
10.0 ML
2.5 LW
N
0 -7 M
0 7 L
-7 0 M
7 0 L
-4.419 -4.419 M
4.419 4.419 L
-4.419 4.419 M
4.419 -4.419 L
S
GR
GS
[0.8 0 0 0.8 0 -0.40002] CT
0.851 0.325 0.098 RC
1 LJ
2.5 LW
N
<<<<<<< HEAD:Piyush's codes/Magnetostatics/LinearMaterialCstFld/LMCFSP_dualnorm_getMeshSphere.eps
516 42.233 M
443.848 90.333 L
370.511 137.581 L
296.639 185.184 L
222.526 238.693 L
148.294 312.344 L
S
GR
GS
[0.8 0 0 0.8 412.8 33.38661] CT
=======
507 42.433 M
436.154 91.389 L
364.145 139.478 L
291.609 187.929 L
218.838 242.391 L
145.949 317.353 L
S
GR
GS
[0.75 0 0 0.75 380.25 31.82496] CT
>>>>>>> f4de00b5db4de07fdb797f1545578c2683f6c040:Piyush's codes/Magnetostatics/LinearMaterialCstFld/LMCFSP_data/LMCFSP_dualnorm_getMeshSphere.eps
0.851 0.325 0.098 RC
10.0 ML
2.5 LW
N
0 -7 M
0 7 L
-7 0 M
7 0 L
S
GR
GS
<<<<<<< HEAD:Piyush's codes/Magnetostatics/LinearMaterialCstFld/LMCFSP_dualnorm_getMeshSphere.eps
[0.8 0 0 0.8 355.07864 71.86616] CT
=======
[0.75 0 0 0.75 327.11565 68.54182] CT
>>>>>>> f4de00b5db4de07fdb797f1545578c2683f6c040:Piyush's codes/Magnetostatics/LinearMaterialCstFld/LMCFSP_data/LMCFSP_dualnorm_getMeshSphere.eps
0.851 0.325 0.098 RC
10.0 ML
2.5 LW
N
0 -7 M
0 7 L
-7 0 M
7 0 L
S
GR
GS
<<<<<<< HEAD:Piyush's codes/Magnetostatics/LinearMaterialCstFld/LMCFSP_dualnorm_getMeshSphere.eps
[0.8 0 0 0.8 296.40916 109.66464] CT
=======
[0.75 0 0 0.75 273.10854 104.6088] CT
>>>>>>> f4de00b5db4de07fdb797f1545578c2683f6c040:Piyush's codes/Magnetostatics/LinearMaterialCstFld/LMCFSP_data/LMCFSP_dualnorm_getMeshSphere.eps
0.851 0.325 0.098 RC
10.0 ML
2.5 LW
N
0 -7 M
0 7 L
-7 0 M
7 0 L
S
GR
GS
<<<<<<< HEAD:Piyush's codes/Magnetostatics/LinearMaterialCstFld/LMCFSP_dualnorm_getMeshSphere.eps
[0.8 0 0 0.8 237.31111 147.74696] CT
=======
[0.75 0 0 0.75 218.70692 140.94662] CT
>>>>>>> f4de00b5db4de07fdb797f1545578c2683f6c040:Piyush's codes/Magnetostatics/LinearMaterialCstFld/LMCFSP_data/LMCFSP_dualnorm_getMeshSphere.eps
0.851 0.325 0.098 RC
10.0 ML
2.5 LW
N
0 -7 M
0 7 L
-7 0 M
7 0 L
S
GR
GS
<<<<<<< HEAD:Piyush's codes/Magnetostatics/LinearMaterialCstFld/LMCFSP_dualnorm_getMeshSphere.eps
[0.8 0 0 0.8 178.02076 190.55427] CT
=======
[0.75 0 0 0.75 164.12827 181.79299] CT
>>>>>>> f4de00b5db4de07fdb797f1545578c2683f6c040:Piyush's codes/Magnetostatics/LinearMaterialCstFld/LMCFSP_data/LMCFSP_dualnorm_getMeshSphere.eps
0.851 0.325 0.098 RC
10.0 ML
2.5 LW
N
0 -7 M
0 7 L
-7 0 M
7 0 L
S
GR
GS
<<<<<<< HEAD:Piyush's codes/Magnetostatics/LinearMaterialCstFld/LMCFSP_dualnorm_getMeshSphere.eps
[0.8 0 0 0.8 118.63525 249.47524] CT
=======
[0.75 0 0 0.75 109.46203 238.01486] CT
>>>>>>> f4de00b5db4de07fdb797f1545578c2683f6c040:Piyush's codes/Magnetostatics/LinearMaterialCstFld/LMCFSP_data/LMCFSP_dualnorm_getMeshSphere.eps
0.851 0.325 0.098 RC
10.0 ML
2.5 LW
N
0 -7 M
0 7 L
-7 0 M
7 0 L
S
GR
GS
[0.8 0 0 0.8 0 -0.40002] CT
0.702 GC
[10 6] 0 setdash
2 LJ
0.625 LW
N
<<<<<<< HEAD:Piyush's codes/Magnetostatics/LinearMaterialCstFld/LMCFSP_dualnorm_getMeshSphere.eps
516 51.564 M
443.848 66.6 L
370.511 81.882 L
296.639 97.277 L
222.526 112.721 L
148.294 128.19 L
74 143.672 L
=======
507 51.931 M
436.154 67.234 L
364.145 82.788 L
291.609 98.457 L
218.838 114.176 L
145.949 129.92 L
73 145.678 L
>>>>>>> f4de00b5db4de07fdb797f1545578c2683f6c040:Piyush's codes/Magnetostatics/LinearMaterialCstFld/LMCFSP_data/LMCFSP_dualnorm_getMeshSphere.eps
S
GR
GS
[0.8 0 0 0.8 0 -0.40002] CT
0.702 GC
[10 6] 0 setdash
2 LJ
0.625 LW
N
<<<<<<< HEAD:Piyush's codes/Magnetostatics/LinearMaterialCstFld/LMCFSP_dualnorm_getMeshSphere.eps
516 36.744 M
443.848 88.379 L
370.511 140.862 L
296.639 193.728 L
222.526 246.766 L
148.294 299.889 L
=======
507 36.847 M
436.154 89.4 L
364.145 142.818 L
291.609 196.625 L
218.838 250.607 L
145.949 304.676 L
>>>>>>> f4de00b5db4de07fdb797f1545578c2683f6c040:Piyush's codes/Magnetostatics/LinearMaterialCstFld/LMCFSP_data/LMCFSP_dualnorm_getMeshSphere.eps
S
GR
GS
[0.8 0 0 0.8 0 -0.40002] CT
1 GC
N
506 358 M
506 325 L
386 325 L
386 358 L
cp
f
GR
GS
[0.8 0 0 0.8 344.25229 266.91076] CT
/Helvetica 11.25 F
GS
[1 0 0 1 0 0] CT
0 4 moveto 
1 -1 scale
(Vol: 0.69591) t 
GR
GR
GS
[0.8 0 0 0.8 0 -0.40002] CT
0 0.447 0.741 RC
1 LJ
2.5 LW
N
389.983 334.138 M
427.328 334.138 L
S
GR
GS
[0.8 0 0 0.8 326.92449 266.91076] CT
0 0.447 0.741 RC
10.0 ML
2.5 LW
N
0 -6 M
0 6 L
-6 0 M
6 0 L
-3.977 -3.977 M
3.977 3.977 L
-3.977 3.977 M
3.977 -3.977 L
S
GR
GS
[0.8 0 0 0.8 344.25229 278.68923] CT
/Helvetica 11.25 F
GS
[1 0 0 1 0 0] CT
0 4 moveto 
1 -1 scale
(BEM: 2.3899) t 
GR
GR
GS
[0.8 0 0 0.8 0 -0.40002] CT
0.851 0.325 0.098 RC
1 LJ
2.5 LW
N
389.983 348.862 M
427.328 348.862 L
S
GR
GS
[0.8 0 0 0.8 326.92449 278.68923] CT
0.851 0.325 0.098 RC
10.0 ML
2.5 LW
N
0 -6 M
0 6 L
-6 0 M
6 0 L
S
GR
GS
[0.8 0 0 0.8 0 -0.40002] CT
0.149 GC
10.0 ML
0.625 LW
N
386 358 M
386 325 L
506 325 L
506 358 L
cp
S
GR
%%Trailer
%%Pages: 1
%%EOF
