%!PS-Adobe-3.0 EPSF-3.0
%%Creator: (MATLAB, The Mathworks, Inc. Version 9.14.0.2254940 \(R2023a\) Update 2. Operating System: Linux)
%%Title: ./1ALT_LMCFSP_forcesNtorques_getMeshCube_torques.eps
%%CreationDate: 2024-02-09T10:48:34
%%Pages: (atend)
%%BoundingBox:    15     6   388   298
%%LanguageLevel: 3
%%EndComments
%%BeginProlog
%%BeginResource: procset (Apache XML Graphics Std ProcSet) 1.2 0
%%Version: 1.2 0
%%Copyright: (Copyright 2001-2003,2010 The Apache Software Foundation. License terms: http://www.apache.org/licenses/LICENSE-2.0)
/bd{bind def}bind def
/ld{load def}bd
/GR/grestore ld
/GS/gsave ld
/RM/rmoveto ld
/C/curveto ld
/t/show ld
/L/lineto ld
/ML/setmiterlimit ld
/CT/concat ld
/f/fill ld
/N/newpath ld
/S/stroke ld
/CC/setcmykcolor ld
/A/ashow ld
/cp/closepath ld
/RC/setrgbcolor ld
/LJ/setlinejoin ld
/GC/setgray ld
/LW/setlinewidth ld
/M/moveto ld
/re {4 2 roll M
1 index 0 rlineto
0 exch rlineto
neg 0 rlineto
cp } bd
/_ctm matrix def
/_tm matrix def
/BT { _ctm currentmatrix pop matrix _tm copy pop 0 0 moveto } bd
/ET { _ctm setmatrix } bd
/iTm { _ctm setmatrix _tm concat } bd
/Tm { _tm astore pop iTm 0 0 moveto } bd
/ux 0.0 def
/uy 0.0 def
/F {
  /Tp exch def
  /Tf exch def
  Tf findfont Tp scalefont setfont
  /cf Tf def  /cs Tp def
} bd
/ULS {currentpoint /uy exch def /ux exch def} bd
/ULE {
  /Tcx currentpoint pop def
  gsave
  newpath
  cf findfont cs scalefont dup
  /FontMatrix get 0 get /Ts exch def /FontInfo get dup
  /UnderlinePosition get Ts mul /To exch def
  /UnderlineThickness get Ts mul /Tt exch def
  ux uy To add moveto  Tcx uy To add lineto
  Tt setlinewidth stroke
  grestore
} bd
/OLE {
  /Tcx currentpoint pop def
  gsave
  newpath
  cf findfont cs scalefont dup
  /FontMatrix get 0 get /Ts exch def /FontInfo get dup
  /UnderlinePosition get Ts mul /To exch def
  /UnderlineThickness get Ts mul /Tt exch def
  ux uy To add cs add moveto Tcx uy To add cs add lineto
  Tt setlinewidth stroke
  grestore
} bd
/SOE {
  /Tcx currentpoint pop def
  gsave
  newpath
  cf findfont cs scalefont dup
  /FontMatrix get 0 get /Ts exch def /FontInfo get dup
  /UnderlinePosition get Ts mul /To exch def
  /UnderlineThickness get Ts mul /Tt exch def
  ux uy To add cs 10 mul 26 idiv add moveto Tcx uy To add cs 10 mul 26 idiv add lineto
  Tt setlinewidth stroke
  grestore
} bd
/QT {
/Y22 exch store
/X22 exch store
/Y21 exch store
/X21 exch store
currentpoint
/Y21 load 2 mul add 3 div exch
/X21 load 2 mul add 3 div exch
/X21 load 2 mul /X22 load add 3 div
/Y21 load 2 mul /Y22 load add 3 div
/X22 load /Y22 load curveto
} bd
/SSPD {
dup length /d exch dict def
{
/v exch def
/k exch def
currentpagedevice k known {
/cpdv currentpagedevice k get def
v cpdv ne {
/upd false def
/nullv v type /nulltype eq def
/nullcpdv cpdv type /nulltype eq def
nullv nullcpdv or
{
/upd true def
} {
/sametype v type cpdv type eq def
sametype {
v type /arraytype eq {
/vlen v length def
/cpdvlen cpdv length def
vlen cpdvlen eq {
0 1 vlen 1 sub {
/i exch def
/obj v i get def
/cpdobj cpdv i get def
obj cpdobj ne {
/upd true def
exit
} if
} for
} {
/upd true def
} ifelse
} {
v type /dicttype eq {
v {
/dv exch def
/dk exch def
/cpddv cpdv dk get def
dv cpddv ne {
/upd true def
exit
} if
} forall
} {
/upd true def
} ifelse
} ifelse
} if
} ifelse
upd true eq {
d k v put
} if
} if
} if
} forall
d length 0 gt {
d setpagedevice
} if
} bd
/RE { % /NewFontName [NewEncodingArray] /FontName RE -
  findfont dup length dict begin
  {
    1 index /FID ne
    {def} {pop pop} ifelse
  } forall
  /Encoding exch def
  /FontName 1 index def
  currentdict definefont pop
  end
} bind def
%%EndResource
%%BeginResource: procset (Apache XML Graphics EPS ProcSet) 1.0 0
%%Version: 1.0 0
%%Copyright: (Copyright 2002-2003 The Apache Software Foundation. License terms: http://www.apache.org/licenses/LICENSE-2.0)
/BeginEPSF { %def
/b4_Inc_state save def         % Save state for cleanup
/dict_count countdictstack def % Count objects on dict stack
/op_count count 1 sub def      % Count objects on operand stack
userdict begin                 % Push userdict on dict stack
/showpage { } def              % Redefine showpage, { } = null proc
0 setgray 0 setlinecap         % Prepare graphics state
1 setlinewidth 0 setlinejoin
10 setmiterlimit [ ] 0 setdash newpath
/languagelevel where           % If level not equal to 1 then
{pop languagelevel             % set strokeadjust and
1 ne                           % overprint to their defaults.
{false setstrokeadjust false setoverprint
} if
} if
} bd
/EndEPSF { %def
count op_count sub {pop} repeat            % Clean up stacks
countdictstack dict_count sub {end} repeat
b4_Inc_state restore
} bd
%%EndResource
%FOPBeginFontDict
%%IncludeResource: font Courier-Oblique
%%IncludeResource: font Courier-BoldOblique
%%IncludeResource: font Courier-Bold
%%IncludeResource: font ZapfDingbats
%%IncludeResource: font Symbol
%%IncludeResource: font Helvetica
%%IncludeResource: font Helvetica-Oblique
%%IncludeResource: font Helvetica-Bold
%%IncludeResource: font Helvetica-BoldOblique
%%IncludeResource: font Times-Roman
%%IncludeResource: font Times-Italic
%%IncludeResource: font Times-Bold
%%IncludeResource: font Times-BoldItalic
%%IncludeResource: font Courier
%FOPEndFontDict
%%BeginResource: encoding WinAnsiEncoding
/WinAnsiEncoding [
/.notdef /.notdef /.notdef /.notdef /.notdef
/.notdef /.notdef /.notdef /.notdef /.notdef
/.notdef /.notdef /.notdef /.notdef /.notdef
/.notdef /.notdef /.notdef /.notdef /.notdef
/.notdef /.notdef /.notdef /.notdef /.notdef
/.notdef /.notdef /.notdef /.notdef /.notdef
/.notdef /.notdef /space /exclam /quotedbl
/numbersign /dollar /percent /ampersand /quotesingle
/parenleft /parenright /asterisk /plus /comma
/hyphen /period /slash /zero /one
/two /three /four /five /six
/seven /eight /nine /colon /semicolon
/less /equal /greater /question /at
/A /B /C /D /E
/F /G /H /I /J
/K /L /M /N /O
/P /Q /R /S /T
/U /V /W /X /Y
/Z /bracketleft /backslash /bracketright /asciicircum
/underscore /quoteleft /a /b /c
/d /e /f /g /h
/i /j /k /l /m
/n /o /p /q /r
/s /t /u /v /w
/x /y /z /braceleft /bar
/braceright /asciitilde /bullet /Euro /bullet
/quotesinglbase /florin /quotedblbase /ellipsis /dagger
/daggerdbl /circumflex /perthousand /Scaron /guilsinglleft
/OE /bullet /Zcaron /bullet /bullet
/quoteleft /quoteright /quotedblleft /quotedblright /bullet
/endash /emdash /asciitilde /trademark /scaron
/guilsinglright /oe /bullet /zcaron /Ydieresis
/space /exclamdown /cent /sterling /currency
/yen /brokenbar /section /dieresis /copyright
/ordfeminine /guillemotleft /logicalnot /sfthyphen /registered
/macron /degree /plusminus /twosuperior /threesuperior
/acute /mu /paragraph /middot /cedilla
/onesuperior /ordmasculine /guillemotright /onequarter /onehalf
/threequarters /questiondown /Agrave /Aacute /Acircumflex
/Atilde /Adieresis /Aring /AE /Ccedilla
/Egrave /Eacute /Ecircumflex /Edieresis /Igrave
/Iacute /Icircumflex /Idieresis /Eth /Ntilde
/Ograve /Oacute /Ocircumflex /Otilde /Odieresis
/multiply /Oslash /Ugrave /Uacute /Ucircumflex
/Udieresis /Yacute /Thorn /germandbls /agrave
/aacute /acircumflex /atilde /adieresis /aring
/ae /ccedilla /egrave /eacute /ecircumflex
/edieresis /igrave /iacute /icircumflex /idieresis
/eth /ntilde /ograve /oacute /ocircumflex
/otilde /odieresis /divide /oslash /ugrave
/uacute /ucircumflex /udieresis /yacute /thorn
/ydieresis
] def
%%EndResource
%FOPBeginFontReencode
/Courier-Oblique findfont
dup length dict begin
  {1 index /FID ne {def} {pop pop} ifelse} forall
  /Encoding WinAnsiEncoding def
  currentdict
end
/Courier-Oblique exch definefont pop
/Courier-BoldOblique findfont
dup length dict begin
  {1 index /FID ne {def} {pop pop} ifelse} forall
  /Encoding WinAnsiEncoding def
  currentdict
end
/Courier-BoldOblique exch definefont pop
/Courier-Bold findfont
dup length dict begin
  {1 index /FID ne {def} {pop pop} ifelse} forall
  /Encoding WinAnsiEncoding def
  currentdict
end
/Courier-Bold exch definefont pop
/Helvetica findfont
dup length dict begin
  {1 index /FID ne {def} {pop pop} ifelse} forall
  /Encoding WinAnsiEncoding def
  currentdict
end
/Helvetica exch definefont pop
/Helvetica-Oblique findfont
dup length dict begin
  {1 index /FID ne {def} {pop pop} ifelse} forall
  /Encoding WinAnsiEncoding def
  currentdict
end
/Helvetica-Oblique exch definefont pop
/Helvetica-Bold findfont
dup length dict begin
  {1 index /FID ne {def} {pop pop} ifelse} forall
  /Encoding WinAnsiEncoding def
  currentdict
end
/Helvetica-Bold exch definefont pop
/Helvetica-BoldOblique findfont
dup length dict begin
  {1 index /FID ne {def} {pop pop} ifelse} forall
  /Encoding WinAnsiEncoding def
  currentdict
end
/Helvetica-BoldOblique exch definefont pop
/Times-Roman findfont
dup length dict begin
  {1 index /FID ne {def} {pop pop} ifelse} forall
  /Encoding WinAnsiEncoding def
  currentdict
end
/Times-Roman exch definefont pop
/Times-Italic findfont
dup length dict begin
  {1 index /FID ne {def} {pop pop} ifelse} forall
  /Encoding WinAnsiEncoding def
  currentdict
end
/Times-Italic exch definefont pop
/Times-Bold findfont
dup length dict begin
  {1 index /FID ne {def} {pop pop} ifelse} forall
  /Encoding WinAnsiEncoding def
  currentdict
end
/Times-Bold exch definefont pop
/Times-BoldItalic findfont
dup length dict begin
  {1 index /FID ne {def} {pop pop} ifelse} forall
  /Encoding WinAnsiEncoding def
  currentdict
end
/Times-BoldItalic exch definefont pop
/Courier findfont
dup length dict begin
  {1 index /FID ne {def} {pop pop} ifelse} forall
  /Encoding WinAnsiEncoding def
  currentdict
end
/Courier exch definefont pop
%FOPEndFontReencode
%%EndProlog
%%Page: 1 1
%%PageBoundingBox: 0 0 420 315
%%BeginPageSetup
N
   15     6 M
  403     6 L
  403   304 L
   15   304 L
cp
clip
[1 0 0 -1 0 315] CT
%%EndPageSetup
GS
[0.75 0 0 0.75 0 0] CT
1 GC
N
0 0 560 420 re
f
GR
GS
[0.75 0 0 0.75 0 0] CT
1 GC
N
0 0 560 420 re
f
GR
GS
[0.75 0 0 0.75 0 0] CT
1 GC
N
73 374 M
507 374 L
507 31 L
73 31 L
cp
f
GR
GS
[0.75 0 0 0.75 0 0] CT
0.149 GC
2 setlinecap
1 LJ
0.667 LW
N
73 374 M
507 374 L
S
GR
GS
[0.75 0 0 0.75 0 0] CT
0.149 GC
2 setlinecap
1 LJ
0.667 LW
N
73 31 M
507 31 L
S
GR
GS
[0.75 0 0 0.75 0 0] CT
0.149 GC
2 setlinecap
1 LJ
0.667 LW
N
94.229 374 M
94.229 369.66 L
S
GR
GS
[0.75 0 0 0.75 0 0] CT
0.149 GC
2 setlinecap
1 LJ
0.667 LW
N
197.931 374 M
197.931 369.66 L
S
GR
GS
[0.75 0 0 0.75 0 0] CT
0.149 GC
2 setlinecap
1 LJ
0.667 LW
N
278.368 374 M
278.368 369.66 L
S
GR
GS
[0.75 0 0 0.75 0 0] CT
0.149 GC
2 setlinecap
1 LJ
0.667 LW
N
344.09 374 M
344.09 369.66 L
S
GR
GS
[0.75 0 0 0.75 0 0] CT
0.149 GC
2 setlinecap
1 LJ
0.667 LW
N
399.657 374 M
399.657 369.66 L
S
GR
GS
[0.75 0 0 0.75 0 0] CT
0.149 GC
2 setlinecap
1 LJ
0.667 LW
N
447.792 374 M
447.792 369.66 L
S
GR
GS
[0.75 0 0 0.75 0 0] CT
0.149 GC
2 setlinecap
1 LJ
0.667 LW
N
490.249 374 M
490.249 369.66 L
S
GR
GS
[0.75 0 0 0.75 0 0] CT
0.149 GC
2 setlinecap
1 LJ
0.667 LW
N
94.229 31 M
94.229 35.34 L
S
GR
GS
[0.75 0 0 0.75 0 0] CT
0.149 GC
2 setlinecap
1 LJ
0.667 LW
N
197.931 31 M
197.931 35.34 L
S
GR
GS
[0.75 0 0 0.75 0 0] CT
0.149 GC
2 setlinecap
1 LJ
0.667 LW
N
278.368 31 M
278.368 35.34 L
S
GR
GS
[0.75 0 0 0.75 0 0] CT
0.149 GC
2 setlinecap
1 LJ
0.667 LW
N
344.09 31 M
344.09 35.34 L
S
GR
GS
[0.75 0 0 0.75 0 0] CT
0.149 GC
2 setlinecap
1 LJ
0.667 LW
N
399.657 31 M
399.657 35.34 L
S
GR
GS
[0.75 0 0 0.75 0 0] CT
0.149 GC
2 setlinecap
1 LJ
0.667 LW
N
447.792 31 M
447.792 35.34 L
S
GR
GS
[0.75 0 0 0.75 0 0] CT
0.149 GC
2 setlinecap
1 LJ
0.667 LW
N
490.249 31 M
490.249 35.34 L
S
GR
GS
[0.75 0 0 0.75 0 0] CT
0.149 GC
2 setlinecap
1 LJ
0.667 LW
N
117.493 374 M
117.493 371.83 L
S
GR
GS
[0.75 0 0 0.75 0 0] CT
0.149 GC
2 setlinecap
1 LJ
0.667 LW
N
139.347 374 M
139.347 371.83 L
S
GR
GS
[0.75 0 0 0.75 0 0] CT
0.149 GC
2 setlinecap
1 LJ
0.667 LW
N
159.951 374 M
159.951 371.83 L
S
GR
GS
[0.75 0 0 0.75 0 0] CT
0.149 GC
2 setlinecap
1 LJ
0.667 LW
N
179.441 374 M
179.441 371.83 L
S
GR
GS
[0.75 0 0 0.75 0 0] CT
0.149 GC
2 setlinecap
1 LJ
0.667 LW
N
215.518 374 M
215.518 371.83 L
S
GR
GS
[0.75 0 0 0.75 0 0] CT
0.149 GC
2 setlinecap
1 LJ
0.667 LW
N
232.287 374 M
232.287 371.83 L
S
GR
GS
[0.75 0 0 0.75 0 0] CT
0.149 GC
2 setlinecap
1 LJ
0.667 LW
N
248.311 374 M
248.311 371.83 L
S
GR
GS
[0.75 0 0 0.75 0 0] CT
0.149 GC
2 setlinecap
1 LJ
0.667 LW
N
263.653 374 M
263.653 371.83 L
S
GR
GS
[0.75 0 0 0.75 0 0] CT
0.149 GC
2 setlinecap
1 LJ
0.667 LW
N
292.506 374 M
292.506 371.83 L
S
GR
GS
[0.75 0 0 0.75 0 0] CT
0.149 GC
2 setlinecap
1 LJ
0.667 LW
N
306.11 374 M
306.11 371.83 L
S
GR
GS
[0.75 0 0 0.75 0 0] CT
0.149 GC
2 setlinecap
1 LJ
0.667 LW
N
319.22 374 M
319.22 371.83 L
S
GR
GS
[0.75 0 0 0.75 0 0] CT
0.149 GC
2 setlinecap
1 LJ
0.667 LW
N
331.869 374 M
331.869 371.83 L
S
GR
GS
[0.75 0 0 0.75 0 0] CT
0.149 GC
2 setlinecap
1 LJ
0.667 LW
N
355.91 374 M
355.91 371.83 L
S
GR
GS
[0.75 0 0 0.75 0 0] CT
0.149 GC
2 setlinecap
1 LJ
0.667 LW
N
367.354 374 M
367.354 371.83 L
S
GR
GS
[0.75 0 0 0.75 0 0] CT
0.149 GC
2 setlinecap
1 LJ
0.667 LW
N
378.447 374 M
378.447 371.83 L
S
GR
GS
[0.75 0 0 0.75 0 0] CT
0.149 GC
2 setlinecap
1 LJ
0.667 LW
N
389.208 374 M
389.208 371.83 L
S
GR
GS
[0.75 0 0 0.75 0 0] CT
0.149 GC
2 setlinecap
1 LJ
0.667 LW
N
409.812 374 M
409.812 371.83 L
S
GR
GS
[0.75 0 0 0.75 0 0] CT
0.149 GC
2 setlinecap
1 LJ
0.667 LW
N
419.688 374 M
419.688 371.83 L
S
GR
GS
[0.75 0 0 0.75 0 0] CT
0.149 GC
2 setlinecap
1 LJ
0.667 LW
N
429.302 374 M
429.302 371.83 L
S
GR
GS
[0.75 0 0 0.75 0 0] CT
0.149 GC
2 setlinecap
1 LJ
0.667 LW
N
438.665 374 M
438.665 371.83 L
S
GR
GS
[0.75 0 0 0.75 0 0] CT
0.149 GC
2 setlinecap
1 LJ
0.667 LW
N
456.693 374 M
456.693 371.83 L
S
GR
GS
[0.75 0 0 0.75 0 0] CT
0.149 GC
2 setlinecap
1 LJ
0.667 LW
N
465.379 374 M
465.379 371.83 L
S
GR
GS
[0.75 0 0 0.75 0 0] CT
0.149 GC
2 setlinecap
1 LJ
0.667 LW
N
473.861 374 M
473.861 371.83 L
S
GR
GS
[0.75 0 0 0.75 0 0] CT
0.149 GC
2 setlinecap
1 LJ
0.667 LW
N
482.148 374 M
482.148 371.83 L
S
GR
GS
[0.75 0 0 0.75 0 0] CT
0.149 GC
2 setlinecap
1 LJ
0.667 LW
N
498.172 374 M
498.172 371.83 L
S
GR
GS
[0.75 0 0 0.75 0 0] CT
0.149 GC
2 setlinecap
1 LJ
0.667 LW
N
505.924 374 M
505.924 371.83 L
S
GR
GS
[0.75 0 0 0.75 0 0] CT
0.149 GC
2 setlinecap
1 LJ
0.667 LW
N
117.493 31 M
117.493 33.17 L
S
GR
GS
[0.75 0 0 0.75 0 0] CT
0.149 GC
2 setlinecap
1 LJ
0.667 LW
N
139.347 31 M
139.347 33.17 L
S
GR
GS
[0.75 0 0 0.75 0 0] CT
0.149 GC
2 setlinecap
1 LJ
0.667 LW
N
159.951 31 M
159.951 33.17 L
S
GR
GS
[0.75 0 0 0.75 0 0] CT
0.149 GC
2 setlinecap
1 LJ
0.667 LW
N
179.441 31 M
179.441 33.17 L
S
GR
GS
[0.75 0 0 0.75 0 0] CT
0.149 GC
2 setlinecap
1 LJ
0.667 LW
N
215.518 31 M
215.518 33.17 L
S
GR
GS
[0.75 0 0 0.75 0 0] CT
0.149 GC
2 setlinecap
1 LJ
0.667 LW
N
232.287 31 M
232.287 33.17 L
S
GR
GS
[0.75 0 0 0.75 0 0] CT
0.149 GC
2 setlinecap
1 LJ
0.667 LW
N
248.311 31 M
248.311 33.17 L
S
GR
GS
[0.75 0 0 0.75 0 0] CT
0.149 GC
2 setlinecap
1 LJ
0.667 LW
N
263.653 31 M
263.653 33.17 L
S
GR
GS
[0.75 0 0 0.75 0 0] CT
0.149 GC
2 setlinecap
1 LJ
0.667 LW
N
292.506 31 M
292.506 33.17 L
S
GR
GS
[0.75 0 0 0.75 0 0] CT
0.149 GC
2 setlinecap
1 LJ
0.667 LW
N
306.11 31 M
306.11 33.17 L
S
GR
GS
[0.75 0 0 0.75 0 0] CT
0.149 GC
2 setlinecap
1 LJ
0.667 LW
N
319.22 31 M
319.22 33.17 L
S
GR
GS
[0.75 0 0 0.75 0 0] CT
0.149 GC
2 setlinecap
1 LJ
0.667 LW
N
331.869 31 M
331.869 33.17 L
S
GR
GS
[0.75 0 0 0.75 0 0] CT
0.149 GC
2 setlinecap
1 LJ
0.667 LW
N
355.91 31 M
355.91 33.17 L
S
GR
GS
[0.75 0 0 0.75 0 0] CT
0.149 GC
2 setlinecap
1 LJ
0.667 LW
N
367.354 31 M
367.354 33.17 L
S
GR
GS
[0.75 0 0 0.75 0 0] CT
0.149 GC
2 setlinecap
1 LJ
0.667 LW
N
378.447 31 M
378.447 33.17 L
S
GR
GS
[0.75 0 0 0.75 0 0] CT
0.149 GC
2 setlinecap
1 LJ
0.667 LW
N
389.208 31 M
389.208 33.17 L
S
GR
GS
[0.75 0 0 0.75 0 0] CT
0.149 GC
2 setlinecap
1 LJ
0.667 LW
N
409.812 31 M
409.812 33.17 L
S
GR
GS
[0.75 0 0 0.75 0 0] CT
0.149 GC
2 setlinecap
1 LJ
0.667 LW
N
419.688 31 M
419.688 33.17 L
S
GR
GS
[0.75 0 0 0.75 0 0] CT
0.149 GC
2 setlinecap
1 LJ
0.667 LW
N
429.302 31 M
429.302 33.17 L
S
GR
GS
[0.75 0 0 0.75 0 0] CT
0.149 GC
2 setlinecap
1 LJ
0.667 LW
N
438.665 31 M
438.665 33.17 L
S
GR
GS
[0.75 0 0 0.75 0 0] CT
0.149 GC
2 setlinecap
1 LJ
0.667 LW
N
456.693 31 M
456.693 33.17 L
S
GR
GS
[0.75 0 0 0.75 0 0] CT
0.149 GC
2 setlinecap
1 LJ
0.667 LW
N
465.379 31 M
465.379 33.17 L
S
GR
GS
[0.75 0 0 0.75 0 0] CT
0.149 GC
2 setlinecap
1 LJ
0.667 LW
N
473.861 31 M
473.861 33.17 L
S
GR
GS
[0.75 0 0 0.75 0 0] CT
0.149 GC
2 setlinecap
1 LJ
0.667 LW
N
482.148 31 M
482.148 33.17 L
S
GR
GS
[0.75 0 0 0.75 0 0] CT
0.149 GC
2 setlinecap
1 LJ
0.667 LW
N
498.172 31 M
498.172 33.17 L
S
GR
GS
[0.75 0 0 0.75 0 0] CT
0.149 GC
2 setlinecap
1 LJ
0.667 LW
N
505.924 31 M
505.924 33.17 L
S
GR
GS
[0.75 0 0 0.75 70.67161 284.50001] CT
0.149 GC
/Helvetica 13.333 F
GS
[1 0 0 1 0 0] CT
-15 13 moveto 
1 -1 scale
(0.15) t 
GR
GR
GS
[0.75 0 0 0.75 148.44788 284.50001] CT
0.149 GC
/Helvetica 13.333 F
GS
[1 0 0 1 0 0] CT
-11 13 moveto 
1 -1 scale
(0.2) t 
GR
GR
GS
[0.75 0 0 0.75 208.77585 284.50001] CT
0.149 GC
/Helvetica 13.333 F
GS
[1 0 0 1 0 0] CT
-15 13 moveto 
1 -1 scale
(0.25) t 
GR
GR
GS
[0.75 0 0 0.75 258.06738 284.50001] CT
0.149 GC
/Helvetica 13.333 F
GS
[1 0 0 1 0 0] CT
-11 13 moveto 
1 -1 scale
(0.3) t 
GR
GR
GS
[0.75 0 0 0.75 299.74278 284.50001] CT
0.149 GC
/Helvetica 13.333 F
GS
[1 0 0 1 0 0] CT
-15 13 moveto 
1 -1 scale
(0.35) t 
GR
GR
GS
[0.75 0 0 0.75 335.84365 284.50001] CT
0.149 GC
/Helvetica 13.333 F
GS
[1 0 0 1 0 0] CT
-11 13 moveto 
1 -1 scale
(0.4) t 
GR
GR
GS
[0.75 0 0 0.75 367.68688 284.50001] CT
0.149 GC
/Helvetica 13.333 F
GS
[1 0 0 1 0 0] CT
-15 13 moveto 
1 -1 scale
(0.45) t 
GR
GR
GS
[0.75 0 0 0.75 217.50016 298.24999] CT
0.149 GC
/Helvetica 14.667 F
GS
[1 0 0 1 0 0] CT
-47.5 14 moveto 
1 -1 scale
(meshwidth h) t 
GR
GR
GS
[0.75 0 0 0.75 0 0] CT
0.149 GC
2 setlinecap
1 LJ
0.667 LW
N
73 374 M
73 31 L
S
GR
GS
[0.75 0 0 0.75 0 0] CT
0.149 GC
2 setlinecap
1 LJ
0.667 LW
N
507 374 M
507 31 L
S
GR
GS
[0.75 0 0 0.75 0 0] CT
0.149 GC
2 setlinecap
1 LJ
0.667 LW
N
73 374 M
77.34 374 L
S
GR
GS
[0.75 0 0 0.75 0 0] CT
0.149 GC
2 setlinecap
1 LJ
0.667 LW
N
73 288.25 M
77.34 288.25 L
S
GR
GS
[0.75 0 0 0.75 0 0] CT
0.149 GC
2 setlinecap
1 LJ
0.667 LW
N
73 202.5 M
77.34 202.5 L
S
GR
GS
[0.75 0 0 0.75 0 0] CT
0.149 GC
2 setlinecap
1 LJ
0.667 LW
N
73 116.75 M
77.34 116.75 L
S
GR
GS
[0.75 0 0 0.75 0 0] CT
0.149 GC
2 setlinecap
1 LJ
0.667 LW
N
73 31 M
77.34 31 L
S
GR
GS
[0.75 0 0 0.75 0 0] CT
0.149 GC
2 setlinecap
1 LJ
0.667 LW
N
507 374 M
502.66 374 L
S
GR
GS
[0.75 0 0 0.75 0 0] CT
0.149 GC
2 setlinecap
1 LJ
0.667 LW
N
507 288.25 M
502.66 288.25 L
S
GR
GS
[0.75 0 0 0.75 0 0] CT
0.149 GC
2 setlinecap
1 LJ
0.667 LW
N
507 202.5 M
502.66 202.5 L
S
GR
GS
[0.75 0 0 0.75 0 0] CT
0.149 GC
2 setlinecap
1 LJ
0.667 LW
N
507 116.75 M
502.66 116.75 L
S
GR
GS
[0.75 0 0 0.75 0 0] CT
0.149 GC
2 setlinecap
1 LJ
0.667 LW
N
507 31 M
502.66 31 L
S
GR
GS
[0.75 0 0 0.75 0 0] CT
0.149 GC
2 setlinecap
1 LJ
0.667 LW
N
73 374 M
75.17 374 L
S
GR
GS
[0.75 0 0 0.75 0 0] CT
0.149 GC
2 setlinecap
1 LJ
0.667 LW
N
73 348.187 M
75.17 348.187 L
S
GR
GS
[0.75 0 0 0.75 0 0] CT
0.149 GC
2 setlinecap
1 LJ
0.667 LW
N
73 333.087 M
75.17 333.087 L
S
GR
GS
[0.75 0 0 0.75 0 0] CT
0.149 GC
2 setlinecap
1 LJ
0.667 LW
N
73 322.373 M
75.17 322.373 L
S
GR
GS
[0.75 0 0 0.75 0 0] CT
0.149 GC
2 setlinecap
1 LJ
0.667 LW
N
73 314.063 M
75.17 314.063 L
S
GR
GS
[0.75 0 0 0.75 0 0] CT
0.149 GC
2 setlinecap
1 LJ
0.667 LW
N
73 307.274 M
75.17 307.274 L
S
GR
GS
[0.75 0 0 0.75 0 0] CT
0.149 GC
2 setlinecap
1 LJ
0.667 LW
N
73 301.533 M
75.17 301.533 L
S
GR
GS
[0.75 0 0 0.75 0 0] CT
0.149 GC
2 setlinecap
1 LJ
0.667 LW
N
73 296.56 M
75.17 296.56 L
S
GR
GS
[0.75 0 0 0.75 0 0] CT
0.149 GC
2 setlinecap
1 LJ
0.667 LW
N
73 292.174 M
75.17 292.174 L
S
GR
GS
[0.75 0 0 0.75 0 0] CT
0.149 GC
2 setlinecap
1 LJ
0.667 LW
N
73 288.25 M
75.17 288.25 L
S
GR
GS
[0.75 0 0 0.75 0 0] CT
0.149 GC
2 setlinecap
1 LJ
0.667 LW
N
73 262.437 M
75.17 262.437 L
S
GR
GS
[0.75 0 0 0.75 0 0] CT
0.149 GC
2 setlinecap
1 LJ
0.667 LW
N
73 247.337 M
75.17 247.337 L
S
GR
GS
[0.75 0 0 0.75 0 0] CT
0.149 GC
2 setlinecap
1 LJ
0.667 LW
N
73 236.623 M
75.17 236.623 L
S
GR
GS
[0.75 0 0 0.75 0 0] CT
0.149 GC
2 setlinecap
1 LJ
0.667 LW
N
73 228.313 M
75.17 228.313 L
S
GR
GS
[0.75 0 0 0.75 0 0] CT
0.149 GC
2 setlinecap
1 LJ
0.667 LW
N
73 221.524 M
75.17 221.524 L
S
GR
GS
[0.75 0 0 0.75 0 0] CT
0.149 GC
2 setlinecap
1 LJ
0.667 LW
N
73 215.783 M
75.17 215.783 L
S
GR
GS
[0.75 0 0 0.75 0 0] CT
0.149 GC
2 setlinecap
1 LJ
0.667 LW
N
73 210.81 M
75.17 210.81 L
S
GR
GS
[0.75 0 0 0.75 0 0] CT
0.149 GC
2 setlinecap
1 LJ
0.667 LW
N
73 206.424 M
75.17 206.424 L
S
GR
GS
[0.75 0 0 0.75 0 0] CT
0.149 GC
2 setlinecap
1 LJ
0.667 LW
N
73 202.5 M
75.17 202.5 L
S
GR
GS
[0.75 0 0 0.75 0 0] CT
0.149 GC
2 setlinecap
1 LJ
0.667 LW
N
73 176.687 M
75.17 176.687 L
S
GR
GS
[0.75 0 0 0.75 0 0] CT
0.149 GC
2 setlinecap
1 LJ
0.667 LW
N
73 161.587 M
75.17 161.587 L
S
GR
GS
[0.75 0 0 0.75 0 0] CT
0.149 GC
2 setlinecap
1 LJ
0.667 LW
N
73 150.873 M
75.17 150.873 L
S
GR
GS
[0.75 0 0 0.75 0 0] CT
0.149 GC
2 setlinecap
1 LJ
0.667 LW
N
73 142.563 M
75.17 142.563 L
S
GR
GS
[0.75 0 0 0.75 0 0] CT
0.149 GC
2 setlinecap
1 LJ
0.667 LW
N
73 135.774 M
75.17 135.774 L
S
GR
GS
[0.75 0 0 0.75 0 0] CT
0.149 GC
2 setlinecap
1 LJ
0.667 LW
N
73 130.033 M
75.17 130.033 L
S
GR
GS
[0.75 0 0 0.75 0 0] CT
0.149 GC
2 setlinecap
1 LJ
0.667 LW
N
73 125.06 M
75.17 125.06 L
S
GR
GS
[0.75 0 0 0.75 0 0] CT
0.149 GC
2 setlinecap
1 LJ
0.667 LW
N
73 120.674 M
75.17 120.674 L
S
GR
GS
[0.75 0 0 0.75 0 0] CT
0.149 GC
2 setlinecap
1 LJ
0.667 LW
N
73 116.75 M
75.17 116.75 L
S
GR
GS
[0.75 0 0 0.75 0 0] CT
0.149 GC
2 setlinecap
1 LJ
0.667 LW
N
73 90.937 M
75.17 90.937 L
S
GR
GS
[0.75 0 0 0.75 0 0] CT
0.149 GC
2 setlinecap
1 LJ
0.667 LW
N
73 75.837 M
75.17 75.837 L
S
GR
GS
[0.75 0 0 0.75 0 0] CT
0.149 GC
2 setlinecap
1 LJ
0.667 LW
N
73 65.123 M
75.17 65.123 L
S
GR
GS
[0.75 0 0 0.75 0 0] CT
0.149 GC
2 setlinecap
1 LJ
0.667 LW
N
73 56.813 M
75.17 56.813 L
S
GR
GS
[0.75 0 0 0.75 0 0] CT
0.149 GC
2 setlinecap
1 LJ
0.667 LW
N
73 50.024 M
75.17 50.024 L
S
GR
GS
[0.75 0 0 0.75 0 0] CT
0.149 GC
2 setlinecap
1 LJ
0.667 LW
N
73 44.283 M
75.17 44.283 L
S
GR
GS
[0.75 0 0 0.75 0 0] CT
0.149 GC
2 setlinecap
1 LJ
0.667 LW
N
73 39.31 M
75.17 39.31 L
S
GR
GS
[0.75 0 0 0.75 0 0] CT
0.149 GC
2 setlinecap
1 LJ
0.667 LW
N
73 34.924 M
75.17 34.924 L
S
GR
GS
[0.75 0 0 0.75 0 0] CT
0.149 GC
2 setlinecap
1 LJ
0.667 LW
N
73 31 M
75.17 31 L
S
GR
GS
[0.75 0 0 0.75 0 0] CT
0.149 GC
2 setlinecap
1 LJ
0.667 LW
N
507 374 M
504.83 374 L
S
GR
GS
[0.75 0 0 0.75 0 0] CT
0.149 GC
2 setlinecap
1 LJ
0.667 LW
N
507 348.187 M
504.83 348.187 L
S
GR
GS
[0.75 0 0 0.75 0 0] CT
0.149 GC
2 setlinecap
1 LJ
0.667 LW
N
507 333.087 M
504.83 333.087 L
S
GR
GS
[0.75 0 0 0.75 0 0] CT
0.149 GC
2 setlinecap
1 LJ
0.667 LW
N
507 322.373 M
504.83 322.373 L
S
GR
GS
[0.75 0 0 0.75 0 0] CT
0.149 GC
2 setlinecap
1 LJ
0.667 LW
N
507 314.063 M
504.83 314.063 L
S
GR
GS
[0.75 0 0 0.75 0 0] CT
0.149 GC
2 setlinecap
1 LJ
0.667 LW
N
507 307.274 M
504.83 307.274 L
S
GR
GS
[0.75 0 0 0.75 0 0] CT
0.149 GC
2 setlinecap
1 LJ
0.667 LW
N
507 301.533 M
504.83 301.533 L
S
GR
GS
[0.75 0 0 0.75 0 0] CT
0.149 GC
2 setlinecap
1 LJ
0.667 LW
N
507 296.56 M
504.83 296.56 L
S
GR
GS
[0.75 0 0 0.75 0 0] CT
0.149 GC
2 setlinecap
1 LJ
0.667 LW
N
507 292.174 M
504.83 292.174 L
S
GR
GS
[0.75 0 0 0.75 0 0] CT
0.149 GC
2 setlinecap
1 LJ
0.667 LW
N
507 288.25 M
504.83 288.25 L
S
GR
GS
[0.75 0 0 0.75 0 0] CT
0.149 GC
2 setlinecap
1 LJ
0.667 LW
N
507 262.437 M
504.83 262.437 L
S
GR
GS
[0.75 0 0 0.75 0 0] CT
0.149 GC
2 setlinecap
1 LJ
0.667 LW
N
507 247.337 M
504.83 247.337 L
S
GR
GS
[0.75 0 0 0.75 0 0] CT
0.149 GC
2 setlinecap
1 LJ
0.667 LW
N
507 236.623 M
504.83 236.623 L
S
GR
GS
[0.75 0 0 0.75 0 0] CT
0.149 GC
2 setlinecap
1 LJ
0.667 LW
N
507 228.313 M
504.83 228.313 L
S
GR
GS
[0.75 0 0 0.75 0 0] CT
0.149 GC
2 setlinecap
1 LJ
0.667 LW
N
507 221.524 M
504.83 221.524 L
S
GR
GS
[0.75 0 0 0.75 0 0] CT
0.149 GC
2 setlinecap
1 LJ
0.667 LW
N
507 215.783 M
504.83 215.783 L
S
GR
GS
[0.75 0 0 0.75 0 0] CT
0.149 GC
2 setlinecap
1 LJ
0.667 LW
N
507 210.81 M
504.83 210.81 L
S
GR
GS
[0.75 0 0 0.75 0 0] CT
0.149 GC
2 setlinecap
1 LJ
0.667 LW
N
507 206.424 M
504.83 206.424 L
S
GR
GS
[0.75 0 0 0.75 0 0] CT
0.149 GC
2 setlinecap
1 LJ
0.667 LW
N
507 202.5 M
504.83 202.5 L
S
GR
GS
[0.75 0 0 0.75 0 0] CT
0.149 GC
2 setlinecap
1 LJ
0.667 LW
N
507 176.687 M
504.83 176.687 L
S
GR
GS
[0.75 0 0 0.75 0 0] CT
0.149 GC
2 setlinecap
1 LJ
0.667 LW
N
507 161.587 M
504.83 161.587 L
S
GR
GS
[0.75 0 0 0.75 0 0] CT
0.149 GC
2 setlinecap
1 LJ
0.667 LW
N
507 150.873 M
504.83 150.873 L
S
GR
GS
[0.75 0 0 0.75 0 0] CT
0.149 GC
2 setlinecap
1 LJ
0.667 LW
N
507 142.563 M
504.83 142.563 L
S
GR
GS
[0.75 0 0 0.75 0 0] CT
0.149 GC
2 setlinecap
1 LJ
0.667 LW
N
507 135.774 M
504.83 135.774 L
S
GR
GS
[0.75 0 0 0.75 0 0] CT
0.149 GC
2 setlinecap
1 LJ
0.667 LW
N
507 130.033 M
504.83 130.033 L
S
GR
GS
[0.75 0 0 0.75 0 0] CT
0.149 GC
2 setlinecap
1 LJ
0.667 LW
N
507 125.06 M
504.83 125.06 L
S
GR
GS
[0.75 0 0 0.75 0 0] CT
0.149 GC
2 setlinecap
1 LJ
0.667 LW
N
507 120.674 M
504.83 120.674 L
S
GR
GS
[0.75 0 0 0.75 0 0] CT
0.149 GC
2 setlinecap
1 LJ
0.667 LW
N
507 116.75 M
504.83 116.75 L
S
GR
GS
[0.75 0 0 0.75 0 0] CT
0.149 GC
2 setlinecap
1 LJ
0.667 LW
N
507 90.937 M
504.83 90.937 L
S
GR
GS
[0.75 0 0 0.75 0 0] CT
0.149 GC
2 setlinecap
1 LJ
0.667 LW
N
507 75.837 M
504.83 75.837 L
S
GR
GS
[0.75 0 0 0.75 0 0] CT
0.149 GC
2 setlinecap
1 LJ
0.667 LW
N
507 65.123 M
504.83 65.123 L
S
GR
GS
[0.75 0 0 0.75 0 0] CT
0.149 GC
2 setlinecap
1 LJ
0.667 LW
N
507 56.813 M
504.83 56.813 L
S
GR
GS
[0.75 0 0 0.75 0 0] CT
0.149 GC
2 setlinecap
1 LJ
0.667 LW
N
507 50.024 M
504.83 50.024 L
S
GR
GS
[0.75 0 0 0.75 0 0] CT
0.149 GC
2 setlinecap
1 LJ
0.667 LW
N
507 44.283 M
504.83 44.283 L
S
GR
GS
[0.75 0 0 0.75 0 0] CT
0.149 GC
2 setlinecap
1 LJ
0.667 LW
N
507 39.31 M
504.83 39.31 L
S
GR
GS
[0.75 0 0 0.75 0 0] CT
0.149 GC
2 setlinecap
1 LJ
0.667 LW
N
507 34.924 M
504.83 34.924 L
S
GR
GS
[0.75 0 0 0.75 0 0] CT
0.149 GC
2 setlinecap
1 LJ
0.667 LW
N
507 31 M
504.83 31 L
S
GR
GS
[0.75 0 0 0.75 30 285] CT
0.149 GC
/Helvetica 13.333 F
GS
[1 0 0 1 0 0] CT
0 0 moveto 
1 -1 scale
(10) t 
GR
GR
GS
[0.75 0 0 0.75 42.75 280.5] CT
0.149 GC
/Helvetica 10.667 F
GS
[1 0 0 1 0 0] CT
0 0 moveto 
1 -1 scale
(-2) t 
GR
GR
GS
[0.75 0 0 0.75 30 220.5] CT
0.149 GC
/Helvetica 13.333 F
GS
[1 0 0 1 0 0] CT
0 0 moveto 
1 -1 scale
(10) t 
GR
GR
GS
[0.75 0 0 0.75 42.75 216] CT
0.149 GC
/Helvetica 10.667 F
GS
[1 0 0 1 0 0] CT
0 0 moveto 
1 -1 scale
(-1) t 
GR
GR
GS
[0.75 0 0 0.75 33 156.75] CT
0.149 GC
/Helvetica 13.333 F
GS
[1 0 0 1 0 0] CT
0 0 moveto 
1 -1 scale
(10) t 
GR
GR
GS
[0.75 0 0 0.75 45.75 152.25] CT
0.149 GC
/Helvetica 10.667 F
GS
[1 0 0 1 0 0] CT
0 0 moveto 
1 -1 scale
(0) t 
GR
GR
GS
[0.75 0 0 0.75 33 92.25] CT
0.149 GC
/Helvetica 13.333 F
GS
[1 0 0 1 0 0] CT
0 0 moveto 
1 -1 scale
(10) t 
GR
GR
GS
[0.75 0 0 0.75 45.75 87.75] CT
0.149 GC
/Helvetica 10.667 F
GS
[1 0 0 1 0 0] CT
0 0 moveto 
1 -1 scale
(1) t 
GR
GR
GS
[0.75 0 0 0.75 33 27.75] CT
0.149 GC
/Helvetica 13.333 F
GS
[1 0 0 1 0 0] CT
0 0 moveto 
1 -1 scale
(10) t 
GR
GR
GS
[0.75 0 0 0.75 45.75 23.25] CT
0.149 GC
/Helvetica 10.667 F
GS
[1 0 0 1 0 0] CT
0 0 moveto 
1 -1 scale
(2) t 
GR
GR
GS
[0 -0.75 0.75 0 26.75 151.87487] CT
0.149 GC
/Helvetica 14.667 F
GS
[1 0 0 1 0 0] CT
-73 -4 moveto 
1 -1 scale
(Error in total torque) t 
GR
GR
GS
[0.75 0 0 0.75 0 0] CT
0 0.447 0.741 RC
1 LJ
2.667 LW
N
507 210.177 M
403.298 255.787 L
322.861 295.578 L
257.139 288.983 L
153.437 308.456 L
73 326.782 L
S
GR
GS
[0.75 0 0 0.75 380.25 157.63284] CT
0 0.447 0.741 RC
10.0 ML
2.667 LW
N
0 -7 M
0 7 L
-7 0 M
7 0 L
S
GR
GS
[0.75 0 0 0.75 302.47373 191.84026] CT
0 0.447 0.741 RC
10.0 ML
2.667 LW
N
0 -7 M
0 7 L
-7 0 M
7 0 L
S
GR
GS
[0.75 0 0 0.75 242.14577 221.68364] CT
0 0.447 0.741 RC
10.0 ML
2.667 LW
N
0 -7 M
0 7 L
-7 0 M
7 0 L
S
GR
GS
[0.75 0 0 0.75 192.85423 216.73748] CT
0 0.447 0.741 RC
10.0 ML
2.667 LW
N
0 -7 M
0 7 L
-7 0 M
7 0 L
S
GR
GS
[0.75 0 0 0.75 115.07796 231.34216] CT
0 0.447 0.741 RC
10.0 ML
2.667 LW
N
0 -7 M
0 7 L
-7 0 M
7 0 L
S
GR
GS
[0.75 0 0 0.75 54.75 245.08635] CT
0 0.447 0.741 RC
10.0 ML
2.667 LW
N
0 -7 M
0 7 L
-7 0 M
7 0 L
S
GR
GS
[0.75 0 0 0.75 0 0] CT
0.851 0.325 0.098 RC
1 LJ
2.667 LW
N
507 83.644 M
403.298 98.67 L
322.861 110.486 L
257.139 119.77 L
153.437 133.974 L
73 144.639 L
S
GR
GS
[0.75 0 0 0.75 380.25 62.73318] CT
0.851 0.325 0.098 RC
10.0 ML
2.667 LW
N
0 -8.887 M
-7.696 4.443 L
7.696 4.443 L
cp
S
GR
GS
[0.75 0 0 0.75 302.47373 74.00224] CT
0.851 0.325 0.098 RC
10.0 ML
2.667 LW
N
0 -8.887 M
-7.696 4.443 L
7.696 4.443 L
cp
S
GR
GS
[0.75 0 0 0.75 242.14577 82.86481] CT
0.851 0.325 0.098 RC
10.0 ML
2.667 LW
N
0 -8.887 M
-7.696 4.443 L
7.696 4.443 L
cp
S
GR
GS
[0.75 0 0 0.75 192.85423 89.8277] CT
0.851 0.325 0.098 RC
10.0 ML
2.667 LW
N
0 -8.887 M
-7.696 4.443 L
7.696 4.443 L
cp
S
GR
GS
[0.75 0 0 0.75 115.07796 100.48077] CT
0.851 0.325 0.098 RC
10.0 ML
2.667 LW
N
0 -8.887 M
-7.696 4.443 L
7.696 4.443 L
cp
S
GR
GS
[0.75 0 0 0.75 54.75 108.47943] CT
0.851 0.325 0.098 RC
10.0 ML
2.667 LW
N
0 -8.887 M
-7.696 4.443 L
7.696 4.443 L
cp
S
GR
GS
[0.75 0 0 0.75 0 0] CT
[10 6] 0 setdash
2 LJ
0.667 LW
N
507 226.156 M
403.298 251.887 L
322.861 271.845 L
257.139 288.152 L
153.437 313.883 L
73 333.841 L
S
GR
GS
[0.75 0 0 0.75 0 0] CT
[10 6] 0 setdash
2 LJ
0.667 LW
N
507 84.11 M
403.298 98.706 L
322.861 110.027 L
257.139 119.277 L
153.437 133.872 L
73 145.193 L
S
GR
GS
[0.75 0 0 0.75 0 0] CT
1 GC
N
496 363 M
496 329 L
418 329 L
418 363 L
cp
f
GR
GS
[0.75 0 0 0.75 348.75 253.77173] CT
/Helvetica 12 F
GS
[1 0 0 1 0 0] CT
0 4.5 moveto 
1 -1 scale
(BEM) t 
GR
GR
GS
[0.75 0 0 0.75 0 0] CT
0 0.447 0.741 RC
1 LJ
2.667 LW
N
422 338.362 M
462 338.362 L
S
GR
GS
[0.75 0 0 0.75 331.5 253.77173] CT
0 0.447 0.741 RC
10.0 ML
2.667 LW
N
0 -6 M
0 6 L
-6 0 M
6 0 L
S
GR
GS
[0.75 0 0 0.75 348.75 265.22827] CT
/Helvetica 12 F
GS
[1 0 0 1 0 0] CT
0 4.5 moveto 
1 -1 scale
(MST) t 
GR
GR
GS
[0.75 0 0 0.75 0 0] CT
0.851 0.325 0.098 RC
1 LJ
2.667 LW
N
422 353.638 M
462 353.638 L
S
GR
GS
[0.75 0 0 0.75 331.5 265.22827] CT
0.851 0.325 0.098 RC
10.0 ML
2.667 LW
N
0 -7.998 M
-6.926 3.999 L
6.926 3.999 L
cp
S
GR
GS
[0.75 0 0 0.75 0 0] CT
0.149 GC
10.0 ML
0.667 LW
N
418 363 M
418 329 L
496 329 L
496 363 L
cp
S
GR
%%Trailer
%%Pages: 1
%%EOF
