%!PS-Adobe-3.0 EPSF-3.0
%%Title: sqsq_dualnorm.eps
%%Creator: matplotlib version 3.2.2, http://matplotlib.org/
%%CreationDate: Sat Jul  3 14:09:55 2021
%%Orientation: portrait
%%BoundingBox: 75.6 223.20000000000002 536.4 568.8
%%EndComments
%%BeginProlog
/mpldict 8 dict def
mpldict begin
/m { moveto } bind def
/l { lineto } bind def
/r { rlineto } bind def
/c { curveto } bind def
/cl { closepath } bind def
/box {
m
1 index 0 r
0 exch r
neg 0 r
cl
} bind def
/clipbox {
box
clip
newpath
} bind def
%!PS-Adobe-3.0 Resource-Font
%%Title: DejaVu Sans
%%Copyright: Copyright (c) 2003 by Bitstream, Inc. All Rights Reserved. Copyright (c) 2006 by Tavmjong Bah. All Rights Reserved. DejaVu changes are in public domain 
%%Creator: Converted from TrueType to type 3 by PPR
25 dict begin
/_d{bind def}bind def
/_m{moveto}_d
/_l{lineto}_d
/_cl{closepath eofill}_d
/_c{curveto}_d
/_sc{7 -1 roll{setcachedevice}{pop pop pop pop pop pop}ifelse}_d
/_e{exec}_d
/FontName /DejaVuSans def
/PaintType 0 def
/FontMatrix[.001 0 0 .001 0 0]def
/FontBBox[-1021 -463 1793 1232]def
/FontType 3 def
/Encoding [ /space /parenleft /parenright /period /zero /one /two /three /four /six /B /D /E /M /a /d /e /h /i /l /m /n /o /p /r /s /t /u /v /y /minus ] def
/FontInfo 10 dict dup begin
/FamilyName (DejaVu Sans) def
/FullName (DejaVu Sans) def
/Notice (Copyright (c) 2003 by Bitstream, Inc. All Rights Reserved. Copyright (c) 2006 by Tavmjong Bah. All Rights Reserved. DejaVu changes are in public domain ) def
/Weight (Book) def
/Version (Version 2.35) def
/ItalicAngle 0.0 def
/isFixedPitch false def
/UnderlinePosition -130 def
/UnderlineThickness 90 def
end readonly def
/CharStrings 32 dict dup begin
/.notdef 0 def
/space{318 0 0 0 0 0 _sc
}_d
/parenleft{390 0 86 -131 310 759 _sc
310 759 _m
266 683 234 609 213 536 _c
191 463 181 389 181 314 _c
181 238 191 164 213 91 _c
234 17 266 -56 310 -131 _c
232 -131 _l
183 -54 146 20 122 94 _c
98 168 86 241 86 314 _c
86 386 98 459 122 533 _c
146 607 182 682 232 759 _c
310 759 _l
_cl}_d
/parenright{390 0 80 -131 304 759 _sc
80 759 _m
158 759 _l
206 682 243 607 267 533 _c
291 459 304 386 304 314 _c
304 241 291 168 267 94 _c
243 20 206 -54 158 -131 _c
80 -131 _l
123 -56 155 17 177 91 _c
198 164 209 238 209 314 _c
209 389 198 463 177 536 _c
155 609 123 683 80 759 _c
_cl}_d
/period{318 0 107 0 210 124 _sc
107 124 _m
210 124 _l
210 0 _l
107 0 _l
107 124 _l
_cl}_d
/zero{636 0 66 -13 570 742 _sc
318 664 _m
267 664 229 639 203 589 _c
177 539 165 464 165 364 _c
165 264 177 189 203 139 _c
229 89 267 64 318 64 _c
369 64 407 89 433 139 _c
458 189 471 264 471 364 _c
471 464 458 539 433 589 _c
407 639 369 664 318 664 _c
318 742 _m
399 742 461 709 505 645 _c
548 580 570 486 570 364 _c
570 241 548 147 505 83 _c
461 19 399 -13 318 -13 _c
236 -13 173 19 130 83 _c
87 147 66 241 66 364 _c
66 486 87 580 130 645 _c
173 709 236 742 318 742 _c
_cl}_d
/one{636 0 110 0 544 729 _sc
124 83 _m
285 83 _l
285 639 _l
110 604 _l
110 694 _l
284 729 _l
383 729 _l
383 83 _l
544 83 _l
544 0 _l
124 0 _l
124 83 _l
_cl}_d
/two{{636 0 73 0 536 742 _sc
192 83 _m
536 83 _l
536 0 _l
73 0 _l
73 83 _l
110 121 161 173 226 239 _c
290 304 331 346 348 365 _c
380 400 402 430 414 455 _c
426 479 433 504 433 528 _c
433 566 419 598 392 622 _c
365 646 330 659 286 659 _c
255 659 222 653 188 643 _c
154 632 117 616 78 594 _c
78 694 _l
118 710 155 722 189 730 _c
223 738 255 742 284 742 _c
}_e{359 742 419 723 464 685 _c
509 647 532 597 532 534 _c
532 504 526 475 515 449 _c
504 422 484 390 454 354 _c
446 344 420 317 376 272 _c
332 227 271 164 192 83 _c
_cl}_e}_d
/three{{636 0 76 -13 556 742 _sc
406 393 _m
453 383 490 362 516 330 _c
542 298 556 258 556 212 _c
556 140 531 84 482 45 _c
432 6 362 -13 271 -13 _c
240 -13 208 -10 176 -4 _c
144 1 110 10 76 22 _c
76 117 _l
103 101 133 89 166 81 _c
198 73 232 69 268 69 _c
330 69 377 81 409 105 _c
441 129 458 165 458 212 _c
458 254 443 288 413 312 _c
383 336 341 349 287 349 _c
}_e{202 349 _l
202 430 _l
291 430 _l
339 430 376 439 402 459 _c
428 478 441 506 441 543 _c
441 580 427 609 401 629 _c
374 649 336 659 287 659 _c
260 659 231 656 200 650 _c
169 644 135 635 98 623 _c
98 711 _l
135 721 170 729 203 734 _c
235 739 266 742 296 742 _c
370 742 429 725 473 691 _c
517 657 539 611 539 553 _c
539 513 527 479 504 451 _c
481 423 448 403 406 393 _c
_cl}_e}_d
/four{636 0 49 0 580 729 _sc
378 643 _m
129 254 _l
378 254 _l
378 643 _l
352 729 _m
476 729 _l
476 254 _l
580 254 _l
580 172 _l
476 172 _l
476 0 _l
378 0 _l
378 172 _l
49 172 _l
49 267 _l
352 729 _l
_cl}_d
/six{{636 0 70 -13 573 742 _sc
330 404 _m
286 404 251 388 225 358 _c
199 328 186 286 186 234 _c
186 181 199 139 225 109 _c
251 79 286 64 330 64 _c
374 64 409 79 435 109 _c
461 139 474 181 474 234 _c
474 286 461 328 435 358 _c
409 388 374 404 330 404 _c
526 713 _m
526 623 _l
501 635 476 644 451 650 _c
425 656 400 659 376 659 _c
310 659 260 637 226 593 _c
}_e{192 549 172 482 168 394 _c
187 422 211 444 240 459 _c
269 474 301 482 336 482 _c
409 482 467 459 509 415 _c
551 371 573 310 573 234 _c
573 159 550 99 506 54 _c
462 9 403 -13 330 -13 _c
246 -13 181 19 137 83 _c
92 147 70 241 70 364 _c
70 479 97 571 152 639 _c
206 707 280 742 372 742 _c
396 742 421 739 447 735 _c
472 730 498 723 526 713 _c
_cl}_e}_d
/B{{686 0 98 0 615 729 _sc
197 348 _m
197 81 _l
355 81 _l
408 81 447 92 473 114 _c
498 136 511 169 511 215 _c
511 260 498 293 473 315 _c
447 337 408 348 355 348 _c
197 348 _l
197 648 _m
197 428 _l
343 428 _l
391 428 426 437 450 455 _c
474 473 486 500 486 538 _c
486 574 474 602 450 620 _c
426 638 391 648 343 648 _c
197 648 _l
98 729 _m
350 729 _l
}_e{425 729 483 713 524 682 _c
564 650 585 606 585 549 _c
585 504 574 468 553 442 _c
532 416 502 399 462 393 _c
510 382 548 360 575 327 _c
601 294 615 253 615 204 _c
615 138 592 88 548 53 _c
504 17 441 0 360 0 _c
98 0 _l
98 729 _l
_cl}_e}_d
/D{770 0 98 0 711 729 _sc
197 648 _m
197 81 _l
316 81 _l
416 81 490 103 537 149 _c
583 195 607 267 607 365 _c
607 463 583 534 537 580 _c
490 625 416 648 316 648 _c
197 648 _l
98 729 _m
301 729 _l
442 729 546 699 612 641 _c
678 582 711 490 711 365 _c
711 239 677 147 611 88 _c
545 29 441 0 301 0 _c
98 0 _l
98 729 _l
_cl}_d
/E{632 0 98 0 568 729 _sc
98 729 _m
559 729 _l
559 646 _l
197 646 _l
197 430 _l
544 430 _l
544 347 _l
197 347 _l
197 83 _l
568 83 _l
568 0 _l
98 0 _l
98 729 _l
_cl}_d
/M{863 0 98 0 765 729 _sc
98 729 _m
245 729 _l
431 233 _l
618 729 _l
765 729 _l
765 0 _l
669 0 _l
669 640 _l
481 140 _l
382 140 _l
194 640 _l
194 0 _l
98 0 _l
98 729 _l
_cl}_d
/a{{613 0 60 -13 522 560 _sc
343 275 _m
270 275 220 266 192 250 _c
164 233 150 205 150 165 _c
150 133 160 107 181 89 _c
202 70 231 61 267 61 _c
317 61 357 78 387 114 _c
417 149 432 196 432 255 _c
432 275 _l
343 275 _l
522 312 _m
522 0 _l
432 0 _l
432 83 _l
411 49 385 25 355 10 _c
325 -5 287 -13 243 -13 _c
187 -13 142 2 109 33 _c
76 64 60 106 60 159 _c
}_e{60 220 80 266 122 298 _c
163 329 224 345 306 345 _c
432 345 _l
432 354 _l
432 395 418 427 391 450 _c
364 472 326 484 277 484 _c
245 484 215 480 185 472 _c
155 464 127 453 100 439 _c
100 522 _l
132 534 164 544 195 550 _c
226 556 256 560 286 560 _c
365 560 424 539 463 498 _c
502 457 522 395 522 312 _c
_cl}_e}_d
/d{{635 0 55 -13 544 760 _sc
454 464 _m
454 760 _l
544 760 _l
544 0 _l
454 0 _l
454 82 _l
435 49 411 25 382 10 _c
353 -5 319 -13 279 -13 _c
213 -13 159 13 117 65 _c
75 117 55 187 55 273 _c
55 359 75 428 117 481 _c
159 533 213 560 279 560 _c
319 560 353 552 382 536 _c
411 520 435 496 454 464 _c
148 273 _m
148 207 161 155 188 117 _c
215 79 253 61 301 61 _c
}_e{348 61 385 79 413 117 _c
440 155 454 207 454 273 _c
454 339 440 390 413 428 _c
385 466 348 485 301 485 _c
253 485 215 466 188 428 _c
161 390 148 339 148 273 _c
_cl}_e}_d
/e{{615 0 55 -13 562 560 _sc
562 296 _m
562 252 _l
149 252 _l
153 190 171 142 205 110 _c
238 78 284 62 344 62 _c
378 62 412 66 444 74 _c
476 82 509 95 541 113 _c
541 28 _l
509 14 476 3 442 -3 _c
408 -9 373 -13 339 -13 _c
251 -13 182 12 131 62 _c
80 112 55 181 55 268 _c
55 357 79 428 127 481 _c
175 533 241 560 323 560 _c
397 560 455 536 498 489 _c
}_e{540 441 562 377 562 296 _c
472 322 _m
471 371 457 410 431 440 _c
404 469 368 484 324 484 _c
274 484 234 469 204 441 _c
174 413 156 373 152 322 _c
472 322 _l
_cl}_e}_d
/h{634 0 91 0 549 760 _sc
549 330 _m
549 0 _l
459 0 _l
459 327 _l
459 379 448 417 428 443 _c
408 469 378 482 338 482 _c
289 482 251 466 223 435 _c
195 404 181 362 181 309 _c
181 0 _l
91 0 _l
91 760 _l
181 760 _l
181 462 _l
202 494 227 519 257 535 _c
286 551 320 560 358 560 _c
420 560 468 540 500 501 _c
532 462 549 405 549 330 _c
_cl}_d
/i{278 0 94 0 184 760 _sc
94 547 _m
184 547 _l
184 0 _l
94 0 _l
94 547 _l
94 760 _m
184 760 _l
184 646 _l
94 646 _l
94 760 _l
_cl}_d
/l{278 0 94 0 184 760 _sc
94 760 _m
184 760 _l
184 0 _l
94 0 _l
94 760 _l
_cl}_d
/m{{974 0 91 0 889 560 _sc
520 442 _m
542 482 569 511 600 531 _c
631 550 668 560 711 560 _c
767 560 811 540 842 500 _c
873 460 889 403 889 330 _c
889 0 _l
799 0 _l
799 327 _l
799 379 789 418 771 444 _c
752 469 724 482 686 482 _c
639 482 602 466 575 435 _c
548 404 535 362 535 309 _c
535 0 _l
445 0 _l
445 327 _l
445 379 435 418 417 444 _c
398 469 369 482 331 482 _c
}_e{285 482 248 466 221 435 _c
194 404 181 362 181 309 _c
181 0 _l
91 0 _l
91 547 _l
181 547 _l
181 462 _l
201 495 226 520 255 536 _c
283 552 317 560 357 560 _c
397 560 430 550 458 530 _c
486 510 506 480 520 442 _c
_cl}_e}_d
/n{634 0 91 0 549 560 _sc
549 330 _m
549 0 _l
459 0 _l
459 327 _l
459 379 448 417 428 443 _c
408 469 378 482 338 482 _c
289 482 251 466 223 435 _c
195 404 181 362 181 309 _c
181 0 _l
91 0 _l
91 547 _l
181 547 _l
181 462 _l
202 494 227 519 257 535 _c
286 551 320 560 358 560 _c
420 560 468 540 500 501 _c
532 462 549 405 549 330 _c
_cl}_d
/o{612 0 55 -13 557 560 _sc
306 484 _m
258 484 220 465 192 427 _c
164 389 150 338 150 273 _c
150 207 163 156 191 118 _c
219 80 257 62 306 62 _c
354 62 392 80 420 118 _c
448 156 462 207 462 273 _c
462 337 448 389 420 427 _c
392 465 354 484 306 484 _c
306 560 _m
384 560 445 534 490 484 _c
534 433 557 363 557 273 _c
557 183 534 113 490 63 _c
445 12 384 -13 306 -13 _c
227 -13 165 12 121 63 _c
77 113 55 183 55 273 _c
55 363 77 433 121 484 _c
165 534 227 560 306 560 _c
_cl}_d
/p{{635 0 91 -207 580 560 _sc
181 82 _m
181 -207 _l
91 -207 _l
91 547 _l
181 547 _l
181 464 _l
199 496 223 520 252 536 _c
281 552 316 560 356 560 _c
422 560 476 533 518 481 _c
559 428 580 359 580 273 _c
580 187 559 117 518 65 _c
476 13 422 -13 356 -13 _c
316 -13 281 -5 252 10 _c
223 25 199 49 181 82 _c
487 273 _m
487 339 473 390 446 428 _c
418 466 381 485 334 485 _c
}_e{286 485 249 466 222 428 _c
194 390 181 339 181 273 _c
181 207 194 155 222 117 _c
249 79 286 61 334 61 _c
381 61 418 79 446 117 _c
473 155 487 207 487 273 _c
_cl}_e}_d
/r{411 0 91 0 411 560 _sc
411 463 _m
401 469 390 473 378 476 _c
366 478 353 480 339 480 _c
288 480 249 463 222 430 _c
194 397 181 350 181 288 _c
181 0 _l
91 0 _l
91 547 _l
181 547 _l
181 462 _l
199 495 224 520 254 536 _c
284 552 321 560 365 560 _c
371 560 378 559 386 559 _c
393 558 401 557 411 555 _c
411 463 _l
_cl}_d
/s{{521 0 54 -13 472 560 _sc
443 531 _m
443 446 _l
417 458 391 468 364 475 _c
336 481 308 485 279 485 _c
234 485 200 478 178 464 _c
156 450 145 430 145 403 _c
145 382 153 366 169 354 _c
185 342 217 330 265 320 _c
296 313 _l
360 299 405 279 432 255 _c
458 230 472 195 472 151 _c
472 100 452 60 412 31 _c
372 1 316 -13 246 -13 _c
216 -13 186 -10 154 -5 _c
}_e{122 0 89 8 54 20 _c
54 113 _l
87 95 120 82 152 74 _c
184 65 216 61 248 61 _c
290 61 323 68 346 82 _c
368 96 380 117 380 144 _c
380 168 371 187 355 200 _c
339 213 303 226 247 238 _c
216 245 _l
160 257 119 275 95 299 _c
70 323 58 356 58 399 _c
58 450 76 490 112 518 _c
148 546 200 560 268 560 _c
301 560 332 557 362 552 _c
391 547 418 540 443 531 _c
}_e{_cl}_e}_d
/t{392 0 27 0 368 702 _sc
183 702 _m
183 547 _l
368 547 _l
368 477 _l
183 477 _l
183 180 _l
183 135 189 106 201 94 _c
213 81 238 75 276 75 _c
368 75 _l
368 0 _l
276 0 _l
206 0 158 13 132 39 _c
106 65 93 112 93 180 _c
93 477 _l
27 477 _l
27 547 _l
93 547 _l
93 702 _l
183 702 _l
_cl}_d
/u{634 0 85 -13 543 560 _sc
85 216 _m
85 547 _l
175 547 _l
175 219 _l
175 167 185 129 205 103 _c
225 77 255 64 296 64 _c
344 64 383 79 411 110 _c
439 141 453 183 453 237 _c
453 547 _l
543 547 _l
543 0 _l
453 0 _l
453 84 _l
431 50 405 26 377 10 _c
348 -5 315 -13 277 -13 _c
214 -13 166 6 134 45 _c
101 83 85 140 85 216 _c
311 560 _m
311 560 _l
_cl}_d
/v{592 0 30 0 562 547 _sc
30 547 _m
125 547 _l
296 88 _l
467 547 _l
562 547 _l
357 0 _l
235 0 _l
30 547 _l
_cl}_d
/y{592 0 30 -207 562 547 _sc
322 -50 _m
296 -114 271 -157 247 -177 _c
223 -197 191 -207 151 -207 _c
79 -207 _l
79 -132 _l
132 -132 _l
156 -132 175 -126 189 -114 _c
203 -102 218 -75 235 -31 _c
251 9 _l
30 547 _l
125 547 _l
296 119 _l
467 547 _l
562 547 _l
322 -50 _l
_cl}_d
/minus{838 0 106 272 732 355 _sc
106 355 _m
732 355 _l
732 272 _l
106 272 _l
106 355 _l
_cl}_d
end readonly def

/BuildGlyph
 {exch begin
 CharStrings exch
 2 copy known not{pop /.notdef}if
 true 3 1 roll get exec
 end}_d

/BuildChar {
 1 index /Encoding get exch get
 1 index /BuildGlyph get exec
}_d

FontName currentdict end definefont pop
end
%%EndProlog
mpldict begin
75.6 223.2 translate
460.8 345.6 0 0 clipbox
gsave
0 0 m
460.8 0 l
460.8 345.6 l
0 345.6 l
cl
1.000 setgray
fill
grestore
gsave
57.6 38.016 m
414.72 38.016 l
414.72 304.128 l
57.6 304.128 l
cl
1.000 setgray
fill
grestore
gsave
357.1 266.1 57.6 38.02 clipbox
237.744943 215.39265 m
273.456943 215.39265 l
273.456943 222.097832 l
cl
0.800 setgray
fill
grestore
gsave
357.1 266.1 57.6 38.02 clipbox
237.744943 120.590314 m
273.456943 120.590314 l
273.456943 141.711636 l
cl
0.800 setgray
fill
grestore
1.500 setlinewidth
1 setlinejoin
0 setlinecap
[5.55 2.4] 0 setdash
0.753 setgray
gsave
357.1 266.1 57.6 38.02 clipbox
398.487273 281.428873 m
337.688834 269.783323 l
302.124027 262.971112 l
276.890394 258.137772 l
257.317669 254.388742 l
241.325587 251.325562 l
227.804475 248.735679 l
216.091955 246.492221 l
205.76078 244.513351 l
196.51923 242.743192 l
188.15923 241.141887 l
180.527148 239.680011 l
173.506314 238.335215 l
167.006036 237.090129 l
160.954423 235.930981 l
155.293516 234.846671 l
149.975912 233.828118 l
144.962341 232.867801 l
140.21991 231.959419 l
135.72079 231.097641 l
131.441229 230.277919 l
127.360791 229.496337 l
123.461766 228.749504 l
119.728709 228.034461 l
116.148065 227.348611 l
112.707875 226.689665 l
109.397534 226.05559 l
106.207597 225.444578 l
103.129611 224.85501 l
100.155983 224.285431 l
97.27987 223.73453 l
94.495077 223.20112 l
91.795984 222.684126 l
89.177473 222.182567 l
86.634871 221.695548 l
84.163902 221.22225 l
81.760639 220.761921 l
79.421471 220.313868 l
77.143068 219.877454 l
74.922351 219.45209 l
stroke
grestore
gsave
357.1 266.1 57.6 38.02 clipbox
398.487273 244.747778 m
337.688834 209.747195 l
302.124027 189.273167 l
276.890394 174.746613 l
257.317669 163.478942 l
241.325587 154.272585 l
227.804475 146.488721 l
216.091955 139.746031 l
205.76078 133.798557 l
196.51923 128.47836 l
188.15923 123.665657 l
180.527148 119.272003 l
173.506314 115.230233 l
167.006036 111.488139 l
160.954423 108.004332 l
155.293516 104.745449 l
149.975912 101.684198 l
144.962341 98.797975 l
140.21991 96.067841 l
135.72079 93.477778 l
131.441229 91.014111 l
127.360791 88.665075 l
123.461766 86.420476 l
119.728709 84.271421 l
116.148065 82.210107 l
112.707875 80.229651 l
109.397534 78.323947 l
106.207597 76.487556 l
103.129611 74.715614 l
100.155983 73.00375 l
97.27987 71.348022 l
94.495077 69.744867 l
91.795984 68.191047 l
89.177473 66.683616 l
86.634871 65.219886 l
84.163902 63.797393 l
81.760639 62.413877 l
79.421471 61.067259 l
77.143068 59.755623 l
74.922351 58.477196 l
stroke
grestore
gsave
357.1 266.1 57.6 38.02 clipbox
398.487273 262.682964 m
362.922466 255.571616 l
337.688834 250.526035 l
318.116108 246.612378 l
302.124027 243.414687 l
288.602914 240.711078 l
276.890394 238.369106 l
266.55922 236.30334 l
257.317669 234.455449 l
248.957669 232.783828 l
241.325587 231.257758 l
234.304753 229.85391 l
227.804475 228.55415 l
221.752862 227.344101 l
216.091955 226.212177 l
210.774351 225.148898 l
205.76078 224.146411 l
201.018349 223.19814 l
196.51923 222.29852 l
192.239668 221.442802 l
188.15923 220.6269 l
184.260206 219.847272 l
180.527148 219.10083 l
176.946504 218.384863 l
173.506314 217.696981 l
170.195973 217.035063 l
167.006036 216.397221 l
163.92805 215.781763 l
160.954423 215.187173 l
158.078309 214.61208 l
155.293516 214.055248 l
152.594423 213.515552 l
149.975912 212.991969 l
147.433311 212.483564 l
144.962341 211.989482 l
142.559078 211.508939 l
140.21991 211.041211 l
137.941507 210.585634 l
135.72079 210.141591 l
133.554912 209.708514 l
131.441229 209.285873 l
129.377284 208.873178 l
127.360791 208.469971 l
125.389616 208.075825 l
123.461766 207.690343 l
121.57538 207.313151 l
119.728709 206.943901 l
117.920117 206.582264 l
116.148065 206.227934 l
114.411105 205.880621 l
112.707875 205.540052 l
111.037089 205.205971 l
109.397534 204.878135 l
107.788065 204.556314 l
106.207597 204.240292 l
104.655103 203.929864 l
103.129611 203.624834 l
101.630196 203.32502 l
100.155983 203.030244 l
98.706139 202.740341 l
97.27987 202.455152 l
95.876422 202.174526 l
94.495077 201.898319 l
93.135149 201.626396 l
91.795984 201.358623 l
90.476957 201.094878 l
89.177473 200.83504 l
87.896959 200.578995 l
86.634871 200.326635 l
85.390686 200.077854 l
84.163902 199.832553 l
82.95404 199.590636 l
81.760639 199.35201 l
80.583258 199.116587 l
79.421471 198.884282 l
78.274872 198.655014 l
77.143068 198.428705 l
76.025682 198.205279 l
74.922351 197.984663 l
73.832727 197.766787 l
stroke
grestore
gsave
357.1 266.1 57.6 38.02 clipbox
398.487273 243.804385 m
362.922466 222.586039 l
337.688834 207.531384 l
318.116108 195.854086 l
302.124027 186.313038 l
288.602914 178.246198 l
276.890394 171.258383 l
266.55922 165.094693 l
257.317669 159.581084 l
248.957669 154.593419 l
241.325587 150.040037 l
234.304753 145.851332 l
227.804475 141.973197 l
221.752862 138.362739 l
216.091955 134.985382 l
210.774351 131.812842 l
205.76078 128.821692 l
201.018349 125.992307 l
196.51923 123.308083 l
192.239668 120.754851 l
188.15923 118.320418 l
184.260206 115.994218 l
180.527148 113.767036 l
176.946504 111.630785 l
173.506314 109.578331 l
170.195973 107.603346 l
167.006036 105.700196 l
163.92805 103.863836 l
160.954423 102.089738 l
158.078309 100.373818 l
155.293516 98.712381 l
152.594423 97.102073 l
149.975912 95.539841 l
147.433311 94.022898 l
144.962341 92.548691 l
142.559078 91.114878 l
140.21991 89.719306 l
137.941507 88.359986 l
135.72079 87.035082 l
133.554912 85.742896 l
131.441229 84.48185 l
129.377284 83.250479 l
127.360791 82.047417 l
125.389616 80.871393 l
123.461766 79.721217 l
121.57538 78.595779 l
119.728709 77.494035 l
117.920117 76.41501 l
116.148065 75.357784 l
114.411105 74.321495 l
112.707875 73.30533 l
111.037089 72.308521 l
109.397534 71.330345 l
107.788065 70.370119 l
106.207597 69.427195 l
104.655103 68.50096 l
103.129611 67.590835 l
101.630196 66.696268 l
100.155983 65.816737 l
98.706139 64.951744 l
97.27987 64.100817 l
95.876422 63.263505 l
94.495077 62.43938 l
93.135149 61.628032 l
91.795984 60.829072 l
90.476957 60.042126 l
89.177473 59.26684 l
87.896959 58.502872 l
86.634871 57.749896 l
85.390686 57.007602 l
84.163902 56.27569 l
82.95404 55.553873 l
81.760639 54.841877 l
80.583258 54.139439 l
79.421471 53.446305 l
78.274872 52.762231 l
77.143068 52.086985 l
76.025682 51.42034 l
74.922351 50.762081 l
73.832727 50.112 l
stroke
grestore
0.800 setlinewidth
[] 0 setdash
0.000 setgray
gsave
/o {
gsave
newpath
translate
0.8 setlinewidth
1 setlinejoin
0 setlinecap
0 0 m
0 -3.5 l

gsave
0.000 setgray
fill
grestore
stroke
grestore
} bind def
237.745 38.016 o
grestore
gsave
225.744943 22.094125 translate
0.000000 rotate
/DejaVuSans findfont
10.0 scalefont
setfont
0.000000 0.976562 moveto
/one glyphshow
6.362305 0.976562 moveto
/zero glyphshow
/DejaVuSans findfont
7.0 scalefont
setfont
12.820312 4.804688 moveto
/minus glyphshow
18.685547 4.804688 moveto
/two glyphshow

grestore
0.600 setlinewidth
gsave
/o {
gsave
newpath
translate
0.6 setlinewidth
1 setlinejoin
0 setlinecap
0 0 m
0 -2 l

gsave
0.000 setgray
fill
grestore
stroke
grestore
} bind def
96.5753 38.016 o
grestore
gsave
/o {
gsave
newpath
translate
0.6 setlinewidth
1 setlinejoin
0 setlinecap
0 0 m
0 -2 l

gsave
0.000 setgray
fill
grestore
stroke
grestore
} bind def
132.14 38.016 o
grestore
gsave
/o {
gsave
newpath
translate
0.6 setlinewidth
1 setlinejoin
0 setlinecap
0 0 m
0 -2 l

gsave
0.000 setgray
fill
grestore
stroke
grestore
} bind def
157.374 38.016 o
grestore
gsave
/o {
gsave
newpath
translate
0.6 setlinewidth
1 setlinejoin
0 setlinecap
0 0 m
0 -2 l

gsave
0.000 setgray
fill
grestore
stroke
grestore
} bind def
176.947 38.016 o
grestore
gsave
/o {
gsave
newpath
translate
0.6 setlinewidth
1 setlinejoin
0 setlinecap
0 0 m
0 -2 l

gsave
0.000 setgray
fill
grestore
stroke
grestore
} bind def
192.939 38.016 o
grestore
gsave
/o {
gsave
newpath
translate
0.6 setlinewidth
1 setlinejoin
0 setlinecap
0 0 m
0 -2 l

gsave
0.000 setgray
fill
grestore
stroke
grestore
} bind def
206.46 38.016 o
grestore
gsave
/o {
gsave
newpath
translate
0.6 setlinewidth
1 setlinejoin
0 setlinecap
0 0 m
0 -2 l

gsave
0.000 setgray
fill
grestore
stroke
grestore
} bind def
218.172 38.016 o
grestore
gsave
/o {
gsave
newpath
translate
0.6 setlinewidth
1 setlinejoin
0 setlinecap
0 0 m
0 -2 l

gsave
0.000 setgray
fill
grestore
stroke
grestore
} bind def
228.503 38.016 o
grestore
gsave
/o {
gsave
newpath
translate
0.6 setlinewidth
1 setlinejoin
0 setlinecap
0 0 m
0 -2 l

gsave
0.000 setgray
fill
grestore
stroke
grestore
} bind def
298.543 38.016 o
grestore
gsave
/o {
gsave
newpath
translate
0.6 setlinewidth
1 setlinejoin
0 setlinecap
0 0 m
0 -2 l

gsave
0.000 setgray
fill
grestore
stroke
grestore
} bind def
334.108 38.016 o
grestore
gsave
/o {
gsave
newpath
translate
0.6 setlinewidth
1 setlinejoin
0 setlinecap
0 0 m
0 -2 l

gsave
0.000 setgray
fill
grestore
stroke
grestore
} bind def
359.342 38.016 o
grestore
gsave
/o {
gsave
newpath
translate
0.6 setlinewidth
1 setlinejoin
0 setlinecap
0 0 m
0 -2 l

gsave
0.000 setgray
fill
grestore
stroke
grestore
} bind def
378.915 38.016 o
grestore
gsave
/o {
gsave
newpath
translate
0.6 setlinewidth
1 setlinejoin
0 setlinecap
0 0 m
0 -2 l

gsave
0.000 setgray
fill
grestore
stroke
grestore
} bind def
394.907 38.016 o
grestore
gsave
/o {
gsave
newpath
translate
0.6 setlinewidth
1 setlinejoin
0 setlinecap
0 0 m
0 -2 l

gsave
0.000 setgray
fill
grestore
stroke
grestore
} bind def
408.428 38.016 o
grestore
/DejaVuSans findfont
10.000 scalefont
setfont
gsave
232.988125 8.422250 translate
0.000000 rotate
0.000000 0 m /h glyphshow
grestore
0.800 setlinewidth
gsave
/o {
gsave
newpath
translate
0.8 setlinewidth
1 setlinejoin
0 setlinecap
0 0 m
-3.5 0 l

gsave
0.000 setgray
fill
grestore
stroke
grestore
} bind def
57.6 120.59 o
grestore
gsave
26.600000 116.129377 translate
0.000000 rotate
/DejaVuSans findfont
10.0 scalefont
setfont
0.000000 0.976562 moveto
/one glyphshow
6.362305 0.976562 moveto
/zero glyphshow
/DejaVuSans findfont
7.0 scalefont
setfont
12.820312 4.804688 moveto
/minus glyphshow
18.685547 4.804688 moveto
/three glyphshow

grestore
gsave
/o {
gsave
newpath
translate
0.8 setlinewidth
1 setlinejoin
0 setlinecap
0 0 m
-3.5 0 l

gsave
0.000 setgray
fill
grestore
stroke
grestore
} bind def
57.6 215.393 o
grestore
gsave
26.600000 210.931712 translate
0.000000 rotate
/DejaVuSans findfont
10.0 scalefont
setfont
0.000000 0.976562 moveto
/one glyphshow
6.362305 0.976562 moveto
/zero glyphshow
/DejaVuSans findfont
7.0 scalefont
setfont
12.820312 4.804688 moveto
/minus glyphshow
18.685547 4.804688 moveto
/two glyphshow

grestore
0.600 setlinewidth
gsave
/o {
gsave
newpath
translate
0.6 setlinewidth
1 setlinejoin
0 setlinecap
0 0 m
-2 0 l

gsave
0.000 setgray
fill
grestore
stroke
grestore
} bind def
57.6 54.3263 o
grestore
gsave
/o {
gsave
newpath
translate
0.6 setlinewidth
1 setlinejoin
0 setlinecap
0 0 m
-2 0 l

gsave
0.000 setgray
fill
grestore
stroke
grestore
} bind def
57.6 71.0202 o
grestore
gsave
/o {
gsave
newpath
translate
0.6 setlinewidth
1 setlinejoin
0 setlinecap
0 0 m
-2 0 l

gsave
0.000 setgray
fill
grestore
stroke
grestore
} bind def
57.6 82.8647 o
grestore
gsave
/o {
gsave
newpath
translate
0.6 setlinewidth
1 setlinejoin
0 setlinecap
0 0 m
-2 0 l

gsave
0.000 setgray
fill
grestore
stroke
grestore
} bind def
57.6 92.052 o
grestore
gsave
/o {
gsave
newpath
translate
0.6 setlinewidth
1 setlinejoin
0 setlinecap
0 0 m
-2 0 l

gsave
0.000 setgray
fill
grestore
stroke
grestore
} bind def
57.6 99.5585 o
grestore
gsave
/o {
gsave
newpath
translate
0.6 setlinewidth
1 setlinejoin
0 setlinecap
0 0 m
-2 0 l

gsave
0.000 setgray
fill
grestore
stroke
grestore
} bind def
57.6 105.905 o
grestore
gsave
/o {
gsave
newpath
translate
0.6 setlinewidth
1 setlinejoin
0 setlinecap
0 0 m
-2 0 l

gsave
0.000 setgray
fill
grestore
stroke
grestore
} bind def
57.6 111.403 o
grestore
gsave
/o {
gsave
newpath
translate
0.6 setlinewidth
1 setlinejoin
0 setlinecap
0 0 m
-2 0 l

gsave
0.000 setgray
fill
grestore
stroke
grestore
} bind def
57.6 116.252 o
grestore
gsave
/o {
gsave
newpath
translate
0.6 setlinewidth
1 setlinejoin
0 setlinecap
0 0 m
-2 0 l

gsave
0.000 setgray
fill
grestore
stroke
grestore
} bind def
57.6 149.129 o
grestore
gsave
/o {
gsave
newpath
translate
0.6 setlinewidth
1 setlinejoin
0 setlinecap
0 0 m
-2 0 l

gsave
0.000 setgray
fill
grestore
stroke
grestore
} bind def
57.6 165.823 o
grestore
gsave
/o {
gsave
newpath
translate
0.6 setlinewidth
1 setlinejoin
0 setlinecap
0 0 m
-2 0 l

gsave
0.000 setgray
fill
grestore
stroke
grestore
} bind def
57.6 177.667 o
grestore
gsave
/o {
gsave
newpath
translate
0.6 setlinewidth
1 setlinejoin
0 setlinecap
0 0 m
-2 0 l

gsave
0.000 setgray
fill
grestore
stroke
grestore
} bind def
57.6 186.854 o
grestore
gsave
/o {
gsave
newpath
translate
0.6 setlinewidth
1 setlinejoin
0 setlinecap
0 0 m
-2 0 l

gsave
0.000 setgray
fill
grestore
stroke
grestore
} bind def
57.6 194.361 o
grestore
gsave
/o {
gsave
newpath
translate
0.6 setlinewidth
1 setlinejoin
0 setlinecap
0 0 m
-2 0 l

gsave
0.000 setgray
fill
grestore
stroke
grestore
} bind def
57.6 200.708 o
grestore
gsave
/o {
gsave
newpath
translate
0.6 setlinewidth
1 setlinejoin
0 setlinecap
0 0 m
-2 0 l

gsave
0.000 setgray
fill
grestore
stroke
grestore
} bind def
57.6 206.205 o
grestore
gsave
/o {
gsave
newpath
translate
0.6 setlinewidth
1 setlinejoin
0 setlinecap
0 0 m
-2 0 l

gsave
0.000 setgray
fill
grestore
stroke
grestore
} bind def
57.6 211.055 o
grestore
gsave
/o {
gsave
newpath
translate
0.6 setlinewidth
1 setlinejoin
0 setlinecap
0 0 m
-2 0 l

gsave
0.000 setgray
fill
grestore
stroke
grestore
} bind def
57.6 243.931 o
grestore
gsave
/o {
gsave
newpath
translate
0.6 setlinewidth
1 setlinejoin
0 setlinecap
0 0 m
-2 0 l

gsave
0.000 setgray
fill
grestore
stroke
grestore
} bind def
57.6 260.625 o
grestore
gsave
/o {
gsave
newpath
translate
0.6 setlinewidth
1 setlinejoin
0 setlinecap
0 0 m
-2 0 l

gsave
0.000 setgray
fill
grestore
stroke
grestore
} bind def
57.6 272.469 o
grestore
gsave
/o {
gsave
newpath
translate
0.6 setlinewidth
1 setlinejoin
0 setlinecap
0 0 m
-2 0 l

gsave
0.000 setgray
fill
grestore
stroke
grestore
} bind def
57.6 281.657 o
grestore
gsave
/o {
gsave
newpath
translate
0.6 setlinewidth
1 setlinejoin
0 setlinecap
0 0 m
-2 0 l

gsave
0.000 setgray
fill
grestore
stroke
grestore
} bind def
57.6 289.163 o
grestore
gsave
/o {
gsave
newpath
translate
0.6 setlinewidth
1 setlinejoin
0 setlinecap
0 0 m
-2 0 l

gsave
0.000 setgray
fill
grestore
stroke
grestore
} bind def
57.6 295.51 o
grestore
gsave
/o {
gsave
newpath
translate
0.6 setlinewidth
1 setlinejoin
0 setlinecap
0 0 m
-2 0 l

gsave
0.000 setgray
fill
grestore
stroke
grestore
} bind def
57.6 301.008 o
grestore
gsave
20.521875 131.189187 translate
90.000000 rotate
0.000000 0 m /D glyphshow
7.700195 0 m /u glyphshow
14.038086 0 m /a glyphshow
20.166016 0 m /l glyphshow
22.944336 0 m /space glyphshow
26.123047 0 m /n glyphshow
32.460938 0 m /o glyphshow
38.579102 0 m /r glyphshow
42.565430 0 m /m glyphshow
52.306641 0 m /space glyphshow
55.485352 0 m /e glyphshow
61.637695 0 m /r glyphshow
65.624023 0 m /r glyphshow
69.485352 0 m /o glyphshow
75.603516 0 m /r glyphshow
grestore
1.500 setlinewidth
2 setlinecap
1.000 0.000 0.000 setrgbcolor
gsave
357.1 266.1 57.6 38.02 clipbox
398.487273 245.147663 m
337.688834 208.388768 l
302.124027 188.451753 l
276.890394 174.307829 l
257.317669 163.298883 l
241.325587 154.276129 l
227.804475 146.626969 l
216.091955 139.984528 l
205.76078 134.111648 l
196.51923 128.846181 l
188.15923 124.072366 l
180.527148 119.704671 l
173.506314 115.678108 l
167.006036 111.942138 l
160.954423 108.456679 l
155.293516 105.189408 l
149.975912 102.113877 l
144.962341 99.208169 l
140.21991 96.453919 l
135.72079 93.835587 l
131.441229 91.339903 l
127.360791 88.955447 l
123.461766 86.672321 l
119.728709 84.481888 l
116.148065 82.376567 l
112.707875 80.349668 l
109.397534 78.395258 l
106.207597 76.508048 l
103.129611 74.683307 l
100.155983 72.916783 l
97.27987 71.204641 l
94.495077 69.543413 l
91.795984 67.929948 l
89.177473 66.361377 l
86.634871 64.835081 l
84.163902 63.348661 l
81.760639 61.899915 l
79.421471 60.486817 l
77.143068 59.107498 l
74.922351 57.760231 l
stroke
grestore
1.000 setlinewidth
0 setlinecap
gsave
357.1 266.1 57.6 38.02 clipbox
/o {
gsave
newpath
translate
1.0 setlinewidth
1 setlinejoin
0 setlinecap
0 -1.5 m
0.397805 -1.5 0.77937 -1.341951 1.06066 -1.06066 c
1.341951 -0.77937 1.5 -0.397805 1.5 0 c
1.5 0.397805 1.341951 0.77937 1.06066 1.06066 c
0.77937 1.341951 0.397805 1.5 0 1.5 c
-0.397805 1.5 -0.77937 1.341951 -1.06066 1.06066 c
-1.341951 0.77937 -1.5 0.397805 -1.5 0 c
-1.5 -0.397805 -1.341951 -0.77937 -1.06066 -1.06066 c
-0.77937 -1.341951 -0.397805 -1.5 0 -1.5 c
cl

gsave
1.000 0.000 0.000 setrgbcolor
fill
grestore
stroke
grestore
} bind def
398.487 245.148 o
337.689 208.389 o
302.124 188.452 o
276.89 174.308 o
257.318 163.299 o
241.326 154.276 o
227.804 146.627 o
216.092 139.985 o
205.761 134.112 o
196.519 128.846 o
188.159 124.072 o
180.527 119.705 o
173.506 115.678 o
167.006 111.942 o
160.954 108.457 o
155.294 105.189 o
149.976 102.114 o
144.962 99.2082 o
140.22 96.4539 o
135.721 93.8356 o
131.441 91.3399 o
127.361 88.9554 o
123.462 86.6723 o
119.729 84.4819 o
116.148 82.3766 o
112.708 80.3497 o
109.398 78.3953 o
106.208 76.508 o
103.13 74.6833 o
100.156 72.9168 o
97.2799 71.2046 o
94.4951 69.5434 o
91.796 67.9299 o
89.1775 66.3614 o
86.6349 64.8351 o
84.1639 63.3487 o
81.7606 61.8999 o
79.4215 60.4868 o
77.1431 59.1075 o
74.9224 57.7602 o
grestore
1.500 setlinewidth
2 setlinecap
0.000 0.000 1.000 setrgbcolor
gsave
357.1 266.1 57.6 38.02 clipbox
398.487273 292.032 m
337.688834 270.461151 l
302.124027 261.247341 l
276.890394 255.71644 l
257.317669 251.805636 l
241.325587 248.786295 l
227.804475 246.327224 l
216.091955 244.251998 l
205.76078 242.456062 l
196.51923 240.872498 l
188.15923 239.455928 l
180.527148 238.174167 l
173.506314 237.003557 l
167.006036 235.926195 l
160.954423 234.928202 l
155.293516 233.998597 l
149.975912 233.128543 l
144.962341 232.310818 l
140.21991 231.539445 l
135.72079 230.809422 l
131.441229 230.116517 l
127.360791 229.457118 l
123.461766 228.82812 l
119.728709 228.22683 l
116.148065 227.650899 l
112.707875 227.098267 l
109.397534 226.567115 l
106.207597 226.05583 l
103.129611 225.562974 l
100.155983 225.087261 l
97.27987 224.627534 l
94.495077 224.182752 l
91.795984 223.75197 l
89.177473 223.334332 l
86.634871 222.929057 l
84.163902 222.535433 l
81.760639 222.152808 l
79.421471 221.780581 l
77.143068 221.418202 l
74.922351 221.065162 l
stroke
grestore
1.000 setlinewidth
0 setlinecap
gsave
357.1 266.1 57.6 38.02 clipbox
/o {
gsave
newpath
translate
1.0 setlinewidth
1 setlinejoin
0 setlinecap
0 -1.5 m
0.397805 -1.5 0.77937 -1.341951 1.06066 -1.06066 c
1.341951 -0.77937 1.5 -0.397805 1.5 0 c
1.5 0.397805 1.341951 0.77937 1.06066 1.06066 c
0.77937 1.341951 0.397805 1.5 0 1.5 c
-0.397805 1.5 -0.77937 1.341951 -1.06066 1.06066 c
-1.341951 0.77937 -1.5 0.397805 -1.5 0 c
-1.5 -0.397805 -1.341951 -0.77937 -1.06066 -1.06066 c
-0.77937 -1.341951 -0.397805 -1.5 0 -1.5 c
cl

gsave
0.000 0.000 1.000 setrgbcolor
fill
grestore
stroke
grestore
} bind def
398.487 292.032 o
337.689 270.461 o
302.124 261.247 o
276.89 255.716 o
257.318 251.806 o
241.326 248.786 o
227.804 246.327 o
216.092 244.252 o
205.761 242.456 o
196.519 240.872 o
188.159 239.456 o
180.527 238.174 o
173.506 237.004 o
167.006 235.926 o
160.954 234.928 o
155.294 233.999 o
149.976 233.129 o
144.962 232.311 o
140.22 231.539 o
135.721 230.809 o
131.441 230.117 o
127.361 229.457 o
123.462 228.828 o
119.729 228.227 o
116.148 227.651 o
112.708 227.098 o
109.398 226.567 o
106.208 226.056 o
103.13 225.563 o
100.156 225.087 o
97.2799 224.628 o
94.4951 224.183 o
91.796 223.752 o
89.1775 223.334 o
86.6349 222.929 o
84.1639 222.535 o
81.7606 222.153 o
79.4215 221.781 o
77.1431 221.418 o
74.9224 221.065 o
grestore
1.500 setlinewidth
2 setlinecap
0.000 0.502 0.000 setrgbcolor
gsave
357.1 266.1 57.6 38.02 clipbox
398.487273 257.193175 m
362.922466 224.442079 l
337.688834 206.50311 l
318.116108 193.800951 l
302.124027 184.013676 l
288.602914 175.926431 l
276.890394 169.021548 l
266.55922 162.982509 l
257.317669 157.609943 l
248.957669 152.767348 l
241.325587 148.356976 l
234.304753 144.3062 l
227.804475 140.559491 l
221.752862 137.07339 l
216.091955 133.813219 l
210.774351 130.750845 l
205.76078 127.86312 l
201.018349 125.130763 l
196.51923 122.537537 l
192.239668 120.06964 l
188.15923 117.715236 l
184.260206 115.464098 l
180.527148 113.307329 l
176.946504 111.237137 l
173.506314 109.246661 l
170.195973 107.329828 l
167.006036 105.481234 l
163.92805 103.696052 l
160.954423 101.969951 l
158.078309 100.299027 l
155.293516 98.679756 l
152.594423 97.108937 l
149.975912 95.583661 l
147.433311 94.101273 l
144.962341 92.659344 l
142.559078 91.255644 l
140.21991 89.888124 l
137.941507 88.554897 l
135.72079 87.254216 l
133.554912 85.984467 l
131.441229 84.744152 l
129.377284 83.531881 l
127.360791 82.346356 l
125.389616 81.186371 l
123.461766 80.050799 l
121.57538 78.938583 l
119.728709 77.848736 l
117.920117 76.780331 l
116.148065 75.732497 l
114.411105 74.704416 l
112.707875 73.695317 l
111.037089 72.704472 l
109.397534 71.731197 l
107.788065 70.774841 l
106.207597 69.834794 l
104.655103 68.910472 l
103.129611 68.001328 l
101.630196 67.106838 l
100.155983 66.226506 l
98.706139 65.359863 l
97.27987 64.506459 l
95.876422 63.665868 l
94.495077 62.837683 l
93.135149 62.021517 l
91.795984 61.217001 l
90.476957 60.423781 l
89.177473 59.641519 l
87.896959 58.869894 l
86.634871 58.108596 l
85.390686 57.357329 l
84.163902 56.615811 l
82.95404 55.88377 l
81.760639 55.160946 l
80.583258 54.447089 l
79.421471 53.741958 l
78.274872 53.045323 l
77.143068 52.356963 l
76.025682 51.676663 l
74.922351 51.00422 l
73.832727 50.339435 l
stroke
grestore
1.000 setlinewidth
0 setlinecap
gsave
357.1 266.1 57.6 38.02 clipbox
/o {
gsave
newpath
translate
1.0 setlinewidth
1 setlinejoin
0 setlinecap
0 -1.5 m
0.397805 -1.5 0.77937 -1.341951 1.06066 -1.06066 c
1.341951 -0.77937 1.5 -0.397805 1.5 0 c
1.5 0.397805 1.341951 0.77937 1.06066 1.06066 c
0.77937 1.341951 0.397805 1.5 0 1.5 c
-0.397805 1.5 -0.77937 1.341951 -1.06066 1.06066 c
-1.341951 0.77937 -1.5 0.397805 -1.5 0 c
-1.5 -0.397805 -1.341951 -0.77937 -1.06066 -1.06066 c
-0.77937 -1.341951 -0.397805 -1.5 0 -1.5 c
cl

gsave
0.000 0.502 0.000 setrgbcolor
fill
grestore
stroke
grestore
} bind def
398.487 257.193 o
362.922 224.442 o
337.689 206.503 o
318.116 193.801 o
302.124 184.014 o
288.603 175.926 o
276.89 169.022 o
266.559 162.983 o
257.318 157.61 o
248.958 152.767 o
241.326 148.357 o
234.305 144.306 o
227.804 140.559 o
221.753 137.073 o
216.092 133.813 o
210.774 130.751 o
205.761 127.863 o
201.018 125.131 o
196.519 122.538 o
192.24 120.07 o
188.159 117.715 o
184.26 115.464 o
180.527 113.307 o
176.947 111.237 o
173.506 109.247 o
170.196 107.33 o
167.006 105.481 o
163.928 103.696 o
160.954 101.97 o
158.078 100.299 o
155.294 98.6798 o
152.594 97.1089 o
149.976 95.5837 o
147.433 94.1013 o
144.962 92.6593 o
142.559 91.2556 o
140.22 89.8881 o
137.942 88.5549 o
135.721 87.2542 o
133.555 85.9845 o
131.441 84.7442 o
129.377 83.5319 o
127.361 82.3464 o
125.39 81.1864 o
123.462 80.0508 o
121.575 78.9386 o
119.729 77.8487 o
117.92 76.7803 o
116.148 75.7325 o
114.411 74.7044 o
112.708 73.6953 o
111.037 72.7045 o
109.398 71.7312 o
107.788 70.7748 o
106.208 69.8348 o
104.655 68.9105 o
103.13 68.0013 o
101.63 67.1068 o
100.156 66.2265 o
98.7061 65.3599 o
97.2799 64.5065 o
95.8764 63.6659 o
94.4951 62.8377 o
93.1351 62.0215 o
91.796 61.217 o
90.477 60.4238 o
89.1775 59.6415 o
87.897 58.8699 o
86.6349 58.1086 o
85.3907 57.3573 o
84.1639 56.6158 o
82.954 55.8838 o
81.7606 55.1609 o
80.5833 54.4471 o
79.4215 53.742 o
78.2749 53.0453 o
77.1431 52.357 o
76.0257 51.6767 o
74.9224 51.0042 o
73.8327 50.3394 o
grestore
1.500 setlinewidth
2 setlinecap
1.000 0.647 0.000 setrgbcolor
gsave
357.1 266.1 57.6 38.02 clipbox
398.487273 279.795577 m
362.922466 263.130841 l
337.688834 253.253476 l
318.116108 246.796276 l
302.124027 242.158679 l
288.602914 238.612357 l
276.890394 235.77625 l
266.55922 233.427368 l
257.317669 231.429941 l
248.957669 229.695688 l
241.325587 228.164794 l
234.304753 226.795173 l
227.804475 225.55627 l
221.752862 224.425301 l
216.091955 223.384874 l
210.774351 222.421442 l
205.76078 221.524265 l
201.018349 220.684693 l
196.51923 219.895665 l
192.239668 219.151341 l
188.15923 218.446843 l
184.260206 217.77805 l
180.527148 217.141453 l
176.946504 216.534042 l
173.506314 215.953209 l
170.195973 215.396686 l
167.006036 214.862485 l
163.92805 214.348853 l
160.954423 213.854239 l
158.078309 213.377263 l
155.293516 212.91669 l
152.594423 212.471412 l
149.975912 212.04043 l
147.433311 211.622843 l
144.962341 211.21783 l
142.559078 210.824646 l
140.21991 210.442611 l
137.941507 210.071102 l
135.72079 209.709547 l
133.554912 209.35742 l
131.441229 209.014237 l
129.377284 208.679548 l
127.360791 208.352939 l
125.389616 208.034025 l
123.461766 207.722448 l
121.57538 207.417875 l
119.728709 207.119994 l
117.920117 206.828515 l
116.148065 206.543166 l
114.411105 206.263692 l
112.707875 205.989854 l
111.037089 205.721428 l
109.397534 205.458201 l
107.788065 205.199975 l
106.207597 204.946562 l
104.655103 204.697783 l
103.129611 204.453473 l
101.630196 204.21347 l
100.155983 203.977627 l
98.706139 203.745798 l
97.27987 203.51785 l
95.876422 203.293654 l
94.495077 203.073088 l
93.135149 202.856034 l
91.795984 202.642382 l
90.476957 202.432028 l
89.177473 202.224869 l
87.896959 202.02081 l
86.634871 201.819758 l
85.390686 201.621627 l
84.163902 201.426331 l
82.95404 201.233791 l
81.760639 201.043929 l
80.583258 200.856671 l
79.421471 200.671948 l
78.274872 200.48969 l
77.143068 200.309833 l
76.025682 200.132313 l
74.922351 199.957071 l
73.832727 199.784049 l
stroke
grestore
1.000 setlinewidth
0 setlinecap
gsave
357.1 266.1 57.6 38.02 clipbox
/o {
gsave
newpath
translate
1.0 setlinewidth
1 setlinejoin
0 setlinecap
0 -1.5 m
0.397805 -1.5 0.77937 -1.341951 1.06066 -1.06066 c
1.341951 -0.77937 1.5 -0.397805 1.5 0 c
1.5 0.397805 1.341951 0.77937 1.06066 1.06066 c
0.77937 1.341951 0.397805 1.5 0 1.5 c
-0.397805 1.5 -0.77937 1.341951 -1.06066 1.06066 c
-1.341951 0.77937 -1.5 0.397805 -1.5 0 c
-1.5 -0.397805 -1.341951 -0.77937 -1.06066 -1.06066 c
-0.77937 -1.341951 -0.397805 -1.5 0 -1.5 c
cl

gsave
1.000 0.647 0.000 setrgbcolor
fill
grestore
stroke
grestore
} bind def
398.487 279.796 o
362.922 263.131 o
337.689 253.253 o
318.116 246.796 o
302.124 242.159 o
288.603 238.612 o
276.89 235.776 o
266.559 233.427 o
257.318 231.43 o
248.958 229.696 o
241.326 228.165 o
234.305 226.795 o
227.804 225.556 o
221.753 224.425 o
216.092 223.385 o
210.774 222.421 o
205.761 221.524 o
201.018 220.685 o
196.519 219.896 o
192.24 219.151 o
188.159 218.447 o
184.26 217.778 o
180.527 217.141 o
176.947 216.534 o
173.506 215.953 o
170.196 215.397 o
167.006 214.862 o
163.928 214.349 o
160.954 213.854 o
158.078 213.377 o
155.294 212.917 o
152.594 212.471 o
149.976 212.04 o
147.433 211.623 o
144.962 211.218 o
142.559 210.825 o
140.22 210.443 o
137.942 210.071 o
135.721 209.71 o
133.555 209.357 o
131.441 209.014 o
129.377 208.68 o
127.361 208.353 o
125.39 208.034 o
123.462 207.722 o
121.575 207.418 o
119.729 207.12 o
117.92 206.829 o
116.148 206.543 o
114.411 206.264 o
112.708 205.99 o
111.037 205.721 o
109.398 205.458 o
107.788 205.2 o
106.208 204.947 o
104.655 204.698 o
103.13 204.453 o
101.63 204.213 o
100.156 203.978 o
98.7061 203.746 o
97.2799 203.518 o
95.8764 203.294 o
94.4951 203.073 o
93.1351 202.856 o
91.796 202.642 o
90.477 202.432 o
89.1775 202.225 o
87.897 202.021 o
86.6349 201.82 o
85.3907 201.622 o
84.1639 201.426 o
82.954 201.234 o
81.7606 201.044 o
80.5833 200.857 o
79.4215 200.672 o
78.2749 200.49 o
77.1431 200.31 o
76.0257 200.132 o
74.9224 199.957 o
73.8327 199.784 o
grestore
0.800 setlinewidth
0 setlinejoin
2 setlinecap
[] 0 setdash
0.000 setgray
gsave
57.6 38.016 m
57.6 304.128 l
stroke
grestore
gsave
414.72 38.016 m
414.72 304.128 l
stroke
grestore
gsave
57.6 38.016 m
414.72 38.016 l
stroke
grestore
gsave
57.6 304.128 m
414.72 304.128 l
stroke
grestore
gsave
252.421256 206.457864 translate
0.000000 rotate
0.000000 0 m /one glyphshow
grestore
gsave
280.599343 215.987428 translate
0.000000 rotate
0.000000 0 m /zero glyphshow
6.362305 0 m /period glyphshow
9.541016 0 m /four glyphshow
grestore
gsave
252.421256 108.772300 translate
0.000000 rotate
0.000000 0 m /one glyphshow
grestore
gsave
280.599343 128.393163 translate
0.000000 rotate
0.000000 0 m /one glyphshow
6.362305 0 m /period glyphshow
9.541016 0 m /two glyphshow
15.903320 0 m /six glyphshow
grestore
1.000 setlinewidth
0 setlinecap
0.800 setgray
gsave
208.595 43.016 m
407.72 43.016 l
409.053333 43.016 409.72 43.682667 409.72 45.016 c
409.72 102.7035 l
409.72 104.036833 409.053333 104.7035 407.72 104.7035 c
208.595 104.7035 l
207.261667 104.7035 206.595 104.036833 206.595 102.7035 c
206.595 45.016 l
206.595 43.682667 207.261667 43.016 208.595 43.016 c
cl
gsave
1.000 setgray
fill
grestore
stroke
grestore
1.500 setlinewidth
1 setlinejoin
2 setlinecap
[] 0 setdash
1.000 0.000 0.000 setrgbcolor
gsave
210.595 96.60975 m
230.595 96.60975 l
stroke
grestore
1.000 setlinewidth
0 setlinecap
gsave
/o {
gsave
newpath
translate
1.0 setlinewidth
1 setlinejoin
0 setlinecap
0 -1.5 m
0.397805 -1.5 0.77937 -1.341951 1.06066 -1.06066 c
1.341951 -0.77937 1.5 -0.397805 1.5 0 c
1.5 0.397805 1.341951 0.77937 1.06066 1.06066 c
0.77937 1.341951 0.397805 1.5 0 1.5 c
-0.397805 1.5 -0.77937 1.341951 -1.06066 1.06066 c
-1.341951 0.77937 -1.5 0.397805 -1.5 0 c
-1.5 -0.397805 -1.341951 -0.77937 -1.06066 -1.06066 c
-0.77937 -1.341951 -0.397805 -1.5 0 -1.5 c
cl

gsave
1.000 0.000 0.000 setrgbcolor
fill
grestore
stroke
grestore
} bind def
220.595 96.6097 o
grestore
0.000 setgray
gsave
238.595000 93.109750 translate
0.000000 rotate
0.000000 0 m /B glyphshow
6.860352 0 m /E glyphshow
13.178711 0 m /M glyphshow
21.806641 0 m /space glyphshow
24.985352 0 m /s glyphshow
30.195312 0 m /h glyphshow
36.533203 0 m /a glyphshow
42.661133 0 m /p glyphshow
49.008789 0 m /e glyphshow
55.161133 0 m /space glyphshow
58.339844 0 m /d glyphshow
64.687500 0 m /e glyphshow
70.839844 0 m /r glyphshow
74.951172 0 m /i glyphshow
77.729492 0 m /v glyphshow
83.647461 0 m /a glyphshow
89.775391 0 m /t glyphshow
93.696289 0 m /i glyphshow
96.474609 0 m /v glyphshow
102.392578 0 m /e glyphshow
108.544922 0 m /space glyphshow
111.723633 0 m /parenleft glyphshow
115.625000 0 m /p glyphshow
121.972656 0 m /o glyphshow
128.090820 0 m /l glyphshow
130.869141 0 m /y glyphshow
136.787109 0 m /parenright glyphshow
grestore
1.500 setlinewidth
2 setlinecap
0.000 0.000 1.000 setrgbcolor
gsave
210.595 81.937875 m
230.595 81.937875 l
stroke
grestore
1.000 setlinewidth
0 setlinecap
gsave
/o {
gsave
newpath
translate
1.0 setlinewidth
1 setlinejoin
0 setlinecap
0 -1.5 m
0.397805 -1.5 0.77937 -1.341951 1.06066 -1.06066 c
1.341951 -0.77937 1.5 -0.397805 1.5 0 c
1.5 0.397805 1.341951 0.77937 1.06066 1.06066 c
0.77937 1.341951 0.397805 1.5 0 1.5 c
-0.397805 1.5 -0.77937 1.341951 -1.06066 1.06066 c
-1.341951 0.77937 -1.5 0.397805 -1.5 0 c
-1.5 -0.397805 -1.341951 -0.77937 -1.06066 -1.06066 c
-0.77937 -1.341951 -0.397805 -1.5 0 -1.5 c
cl

gsave
0.000 0.000 1.000 setrgbcolor
fill
grestore
stroke
grestore
} bind def
220.595 81.9379 o
grestore
0.000 setgray
gsave
238.595000 78.437875 translate
0.000000 rotate
0.000000 0 m /B glyphshow
6.860352 0 m /o glyphshow
12.978516 0 m /u glyphshow
19.316406 0 m /n glyphshow
25.654297 0 m /d glyphshow
32.001953 0 m /a glyphshow
38.129883 0 m /r glyphshow
42.241211 0 m /y glyphshow
48.159180 0 m /space glyphshow
51.337891 0 m /s glyphshow
56.547852 0 m /h glyphshow
62.885742 0 m /a glyphshow
69.013672 0 m /p glyphshow
75.361328 0 m /e glyphshow
81.513672 0 m /space glyphshow
84.692383 0 m /d glyphshow
91.040039 0 m /e glyphshow
97.192383 0 m /r glyphshow
101.303711 0 m /i glyphshow
104.082031 0 m /v glyphshow
110.000000 0 m /a glyphshow
116.127930 0 m /t glyphshow
120.048828 0 m /i glyphshow
122.827148 0 m /v glyphshow
128.745117 0 m /e glyphshow
134.897461 0 m /space glyphshow
138.076172 0 m /parenleft glyphshow
141.977539 0 m /p glyphshow
148.325195 0 m /o glyphshow
154.443359 0 m /l glyphshow
157.221680 0 m /y glyphshow
163.139648 0 m /parenright glyphshow
grestore
1.500 setlinewidth
2 setlinecap
0.000 0.502 0.000 setrgbcolor
gsave
210.595 67.266 m
230.595 67.266 l
stroke
grestore
1.000 setlinewidth
0 setlinecap
gsave
/o {
gsave
newpath
translate
1.0 setlinewidth
1 setlinejoin
0 setlinecap
0 -1.5 m
0.397805 -1.5 0.77937 -1.341951 1.06066 -1.06066 c
1.341951 -0.77937 1.5 -0.397805 1.5 0 c
1.5 0.397805 1.341951 0.77937 1.06066 1.06066 c
0.77937 1.341951 0.397805 1.5 0 1.5 c
-0.397805 1.5 -0.77937 1.341951 -1.06066 1.06066 c
-1.341951 0.77937 -1.5 0.397805 -1.5 0 c
-1.5 -0.397805 -1.341951 -0.77937 -1.06066 -1.06066 c
-0.77937 -1.341951 -0.397805 -1.5 0 -1.5 c
cl

gsave
0.000 0.502 0.000 setrgbcolor
fill
grestore
stroke
grestore
} bind def
220.595 67.266 o
grestore
0.000 setgray
gsave
238.595000 63.766000 translate
0.000000 rotate
0.000000 0 m /B glyphshow
6.860352 0 m /E glyphshow
13.178711 0 m /M glyphshow
21.806641 0 m /space glyphshow
24.985352 0 m /s glyphshow
30.195312 0 m /h glyphshow
36.533203 0 m /a glyphshow
42.661133 0 m /p glyphshow
49.008789 0 m /e glyphshow
55.161133 0 m /space glyphshow
58.339844 0 m /d glyphshow
64.687500 0 m /e glyphshow
70.839844 0 m /r glyphshow
74.951172 0 m /i glyphshow
77.729492 0 m /v glyphshow
83.647461 0 m /a glyphshow
89.775391 0 m /t glyphshow
93.696289 0 m /i glyphshow
96.474609 0 m /v glyphshow
102.392578 0 m /e glyphshow
108.544922 0 m /space glyphshow
111.723633 0 m /parenleft glyphshow
115.625000 0 m /s glyphshow
120.834961 0 m /i glyphshow
123.613281 0 m /n glyphshow
129.951172 0 m /parenright glyphshow
grestore
1.500 setlinewidth
2 setlinecap
1.000 0.647 0.000 setrgbcolor
gsave
210.595 52.594125 m
230.595 52.594125 l
stroke
grestore
1.000 setlinewidth
0 setlinecap
gsave
/o {
gsave
newpath
translate
1.0 setlinewidth
1 setlinejoin
0 setlinecap
0 -1.5 m
0.397805 -1.5 0.77937 -1.341951 1.06066 -1.06066 c
1.341951 -0.77937 1.5 -0.397805 1.5 0 c
1.5 0.397805 1.341951 0.77937 1.06066 1.06066 c
0.77937 1.341951 0.397805 1.5 0 1.5 c
-0.397805 1.5 -0.77937 1.341951 -1.06066 1.06066 c
-1.341951 0.77937 -1.5 0.397805 -1.5 0 c
-1.5 -0.397805 -1.341951 -0.77937 -1.06066 -1.06066 c
-0.77937 -1.341951 -0.397805 -1.5 0 -1.5 c
cl

gsave
1.000 0.647 0.000 setrgbcolor
fill
grestore
stroke
grestore
} bind def
220.595 52.5941 o
grestore
0.000 setgray
gsave
238.595000 49.094125 translate
0.000000 rotate
0.000000 0 m /B glyphshow
6.860352 0 m /o glyphshow
12.978516 0 m /u glyphshow
19.316406 0 m /n glyphshow
25.654297 0 m /d glyphshow
32.001953 0 m /a glyphshow
38.129883 0 m /r glyphshow
42.241211 0 m /y glyphshow
48.159180 0 m /space glyphshow
51.337891 0 m /s glyphshow
56.547852 0 m /h glyphshow
62.885742 0 m /a glyphshow
69.013672 0 m /p glyphshow
75.361328 0 m /e glyphshow
81.513672 0 m /space glyphshow
84.692383 0 m /d glyphshow
91.040039 0 m /e glyphshow
97.192383 0 m /r glyphshow
101.303711 0 m /i glyphshow
104.082031 0 m /v glyphshow
110.000000 0 m /a glyphshow
116.127930 0 m /t glyphshow
120.048828 0 m /i glyphshow
122.827148 0 m /v glyphshow
128.745117 0 m /e glyphshow
134.897461 0 m /space glyphshow
138.076172 0 m /parenleft glyphshow
141.977539 0 m /s glyphshow
147.187500 0 m /i glyphshow
149.965820 0 m /n glyphshow
156.303711 0 m /parenright glyphshow
grestore

end
showpage
