%!PS-Adobe-3.0 EPSF-3.0
%%Creator: (MATLAB, The Mathworks, Inc. Version 9.14.0.2254940 \(R2023a\) Update 2. Operating System: Linux)
%%Title: ./PMSP_dualnorm_getMeshSphere.eps
%%CreationDate: 2024-02-07T00:21:15
%%Pages: (atend)
%%BoundingBox:    15     6   387   293
%%LanguageLevel: 2
%%EndComments
%%BeginProlog
%%BeginResource: procset (Apache XML Graphics Std ProcSet) 1.2 0
%%Version: 1.2 0
%%Copyright: (Copyright 2001-2003,2010 The Apache Software Foundation. License terms: http://www.apache.org/licenses/LICENSE-2.0)
/bd{bind def}bind def
/ld{load def}bd
/GR/grestore ld
/GS/gsave ld
/RM/rmoveto ld
/C/curveto ld
/t/show ld
/L/lineto ld
/ML/setmiterlimit ld
/CT/concat ld
/f/fill ld
/N/newpath ld
/S/stroke ld
/CC/setcmykcolor ld
/A/ashow ld
/cp/closepath ld
/RC/setrgbcolor ld
/LJ/setlinejoin ld
/GC/setgray ld
/LW/setlinewidth ld
/M/moveto ld
/re {4 2 roll M
1 index 0 rlineto
0 exch rlineto
neg 0 rlineto
cp } bd
/_ctm matrix def
/_tm matrix def
/BT { _ctm currentmatrix pop matrix _tm copy pop 0 0 moveto } bd
/ET { _ctm setmatrix } bd
/iTm { _ctm setmatrix _tm concat } bd
/Tm { _tm astore pop iTm 0 0 moveto } bd
/ux 0.0 def
/uy 0.0 def
/F {
  /Tp exch def
  /Tf exch def
  Tf findfont Tp scalefont setfont
  /cf Tf def  /cs Tp def
} bd
/ULS {currentpoint /uy exch def /ux exch def} bd
/ULE {
  /Tcx currentpoint pop def
  gsave
  newpath
  cf findfont cs scalefont dup
  /FontMatrix get 0 get /Ts exch def /FontInfo get dup
  /UnderlinePosition get Ts mul /To exch def
  /UnderlineThickness get Ts mul /Tt exch def
  ux uy To add moveto  Tcx uy To add lineto
  Tt setlinewidth stroke
  grestore
} bd
/OLE {
  /Tcx currentpoint pop def
  gsave
  newpath
  cf findfont cs scalefont dup
  /FontMatrix get 0 get /Ts exch def /FontInfo get dup
  /UnderlinePosition get Ts mul /To exch def
  /UnderlineThickness get Ts mul /Tt exch def
  ux uy To add cs add moveto Tcx uy To add cs add lineto
  Tt setlinewidth stroke
  grestore
} bd
/SOE {
  /Tcx currentpoint pop def
  gsave
  newpath
  cf findfont cs scalefont dup
  /FontMatrix get 0 get /Ts exch def /FontInfo get dup
  /UnderlinePosition get Ts mul /To exch def
  /UnderlineThickness get Ts mul /Tt exch def
  ux uy To add cs 10 mul 26 idiv add moveto Tcx uy To add cs 10 mul 26 idiv add lineto
  Tt setlinewidth stroke
  grestore
} bd
/QT {
/Y22 exch store
/X22 exch store
/Y21 exch store
/X21 exch store
currentpoint
/Y21 load 2 mul add 3 div exch
/X21 load 2 mul add 3 div exch
/X21 load 2 mul /X22 load add 3 div
/Y21 load 2 mul /Y22 load add 3 div
/X22 load /Y22 load curveto
} bd
/SSPD {
dup length /d exch dict def
{
/v exch def
/k exch def
currentpagedevice k known {
/cpdv currentpagedevice k get def
v cpdv ne {
/upd false def
/nullv v type /nulltype eq def
/nullcpdv cpdv type /nulltype eq def
nullv nullcpdv or
{
/upd true def
} {
/sametype v type cpdv type eq def
sametype {
v type /arraytype eq {
/vlen v length def
/cpdvlen cpdv length def
vlen cpdvlen eq {
0 1 vlen 1 sub {
/i exch def
/obj v i get def
/cpdobj cpdv i get def
obj cpdobj ne {
/upd true def
exit
} if
} for
} {
/upd true def
} ifelse
} {
v type /dicttype eq {
v {
/dv exch def
/dk exch def
/cpddv cpdv dk get def
dv cpddv ne {
/upd true def
exit
} if
} forall
} {
/upd true def
} ifelse
} ifelse
} if
} ifelse
upd true eq {
d k v put
} if
} if
} if
} forall
d length 0 gt {
d setpagedevice
} if
} bd
/RE { % /NewFontName [NewEncodingArray] /FontName RE -
  findfont dup length dict begin
  {
    1 index /FID ne
    {def} {pop pop} ifelse
  } forall
  /Encoding exch def
  /FontName 1 index def
  currentdict definefont pop
  end
} bind def
%%EndResource
%%BeginResource: procset (Apache XML Graphics EPS ProcSet) 1.0 0
%%Version: 1.0 0
%%Copyright: (Copyright 2002-2003 The Apache Software Foundation. License terms: http://www.apache.org/licenses/LICENSE-2.0)
/BeginEPSF { %def
/b4_Inc_state save def         % Save state for cleanup
/dict_count countdictstack def % Count objects on dict stack
/op_count count 1 sub def      % Count objects on operand stack
userdict begin                 % Push userdict on dict stack
/showpage { } def              % Redefine showpage, { } = null proc
0 setgray 0 setlinecap         % Prepare graphics state
1 setlinewidth 0 setlinejoin
10 setmiterlimit [ ] 0 setdash newpath
/languagelevel where           % If level not equal to 1 then
{pop languagelevel             % set strokeadjust and
1 ne                           % overprint to their defaults.
{false setstrokeadjust false setoverprint
} if
} if
} bd
/EndEPSF { %def
count op_count sub {pop} repeat            % Clean up stacks
countdictstack dict_count sub {end} repeat
b4_Inc_state restore
} bd
%%EndResource
%FOPBeginFontDict
%%IncludeResource: font Courier-Oblique
%%IncludeResource: font Courier-BoldOblique
%%IncludeResource: font Courier-Bold
%%IncludeResource: font ZapfDingbats
%%IncludeResource: font Symbol
%%IncludeResource: font Helvetica
%%IncludeResource: font Helvetica-Oblique
%%IncludeResource: font Helvetica-Bold
%%IncludeResource: font Helvetica-BoldOblique
%%IncludeResource: font Times-Roman
%%IncludeResource: font Times-Italic
%%IncludeResource: font Times-Bold
%%IncludeResource: font Times-BoldItalic
%%IncludeResource: font Courier
%FOPEndFontDict
%%BeginResource: encoding WinAnsiEncoding
/WinAnsiEncoding [
/.notdef /.notdef /.notdef /.notdef /.notdef
/.notdef /.notdef /.notdef /.notdef /.notdef
/.notdef /.notdef /.notdef /.notdef /.notdef
/.notdef /.notdef /.notdef /.notdef /.notdef
/.notdef /.notdef /.notdef /.notdef /.notdef
/.notdef /.notdef /.notdef /.notdef /.notdef
/.notdef /.notdef /space /exclam /quotedbl
/numbersign /dollar /percent /ampersand /quotesingle
/parenleft /parenright /asterisk /plus /comma
/hyphen /period /slash /zero /one
/two /three /four /five /six
/seven /eight /nine /colon /semicolon
/less /equal /greater /question /at
/A /B /C /D /E
/F /G /H /I /J
/K /L /M /N /O
/P /Q /R /S /T
/U /V /W /X /Y
/Z /bracketleft /backslash /bracketright /asciicircum
/underscore /quoteleft /a /b /c
/d /e /f /g /h
/i /j /k /l /m
/n /o /p /q /r
/s /t /u /v /w
/x /y /z /braceleft /bar
/braceright /asciitilde /bullet /Euro /bullet
/quotesinglbase /florin /quotedblbase /ellipsis /dagger
/daggerdbl /circumflex /perthousand /Scaron /guilsinglleft
/OE /bullet /Zcaron /bullet /bullet
/quoteleft /quoteright /quotedblleft /quotedblright /bullet
/endash /emdash /asciitilde /trademark /scaron
/guilsinglright /oe /bullet /zcaron /Ydieresis
/space /exclamdown /cent /sterling /currency
/yen /brokenbar /section /dieresis /copyright
/ordfeminine /guillemotleft /logicalnot /sfthyphen /registered
/macron /degree /plusminus /twosuperior /threesuperior
/acute /mu /paragraph /middot /cedilla
/onesuperior /ordmasculine /guillemotright /onequarter /onehalf
/threequarters /questiondown /Agrave /Aacute /Acircumflex
/Atilde /Adieresis /Aring /AE /Ccedilla
/Egrave /Eacute /Ecircumflex /Edieresis /Igrave
/Iacute /Icircumflex /Idieresis /Eth /Ntilde
/Ograve /Oacute /Ocircumflex /Otilde /Odieresis
/multiply /Oslash /Ugrave /Uacute /Ucircumflex
/Udieresis /Yacute /Thorn /germandbls /agrave
/aacute /acircumflex /atilde /adieresis /aring
/ae /ccedilla /egrave /eacute /ecircumflex
/edieresis /igrave /iacute /icircumflex /idieresis
/eth /ntilde /ograve /oacute /ocircumflex
/otilde /odieresis /divide /oslash /ugrave
/uacute /ucircumflex /udieresis /yacute /thorn
/ydieresis
] def
%%EndResource
%FOPBeginFontReencode
/Courier-Oblique findfont
dup length dict begin
  {1 index /FID ne {def} {pop pop} ifelse} forall
  /Encoding WinAnsiEncoding def
  currentdict
end
/Courier-Oblique exch definefont pop
/Courier-BoldOblique findfont
dup length dict begin
  {1 index /FID ne {def} {pop pop} ifelse} forall
  /Encoding WinAnsiEncoding def
  currentdict
end
/Courier-BoldOblique exch definefont pop
/Courier-Bold findfont
dup length dict begin
  {1 index /FID ne {def} {pop pop} ifelse} forall
  /Encoding WinAnsiEncoding def
  currentdict
end
/Courier-Bold exch definefont pop
/Helvetica findfont
dup length dict begin
  {1 index /FID ne {def} {pop pop} ifelse} forall
  /Encoding WinAnsiEncoding def
  currentdict
end
/Helvetica exch definefont pop
/Helvetica-Oblique findfont
dup length dict begin
  {1 index /FID ne {def} {pop pop} ifelse} forall
  /Encoding WinAnsiEncoding def
  currentdict
end
/Helvetica-Oblique exch definefont pop
/Helvetica-Bold findfont
dup length dict begin
  {1 index /FID ne {def} {pop pop} ifelse} forall
  /Encoding WinAnsiEncoding def
  currentdict
end
/Helvetica-Bold exch definefont pop
/Helvetica-BoldOblique findfont
dup length dict begin
  {1 index /FID ne {def} {pop pop} ifelse} forall
  /Encoding WinAnsiEncoding def
  currentdict
end
/Helvetica-BoldOblique exch definefont pop
/Times-Roman findfont
dup length dict begin
  {1 index /FID ne {def} {pop pop} ifelse} forall
  /Encoding WinAnsiEncoding def
  currentdict
end
/Times-Roman exch definefont pop
/Times-Italic findfont
dup length dict begin
  {1 index /FID ne {def} {pop pop} ifelse} forall
  /Encoding WinAnsiEncoding def
  currentdict
end
/Times-Italic exch definefont pop
/Times-Bold findfont
dup length dict begin
  {1 index /FID ne {def} {pop pop} ifelse} forall
  /Encoding WinAnsiEncoding def
  currentdict
end
/Times-Bold exch definefont pop
/Times-BoldItalic findfont
dup length dict begin
  {1 index /FID ne {def} {pop pop} ifelse} forall
  /Encoding WinAnsiEncoding def
  currentdict
end
/Times-BoldItalic exch definefont pop
/Courier findfont
dup length dict begin
  {1 index /FID ne {def} {pop pop} ifelse} forall
  /Encoding WinAnsiEncoding def
  currentdict
end
/Courier exch definefont pop
%FOPEndFontReencode
%%EndProlog
%%Page: 1 1
%%PageBoundingBox: 0 0 420 315
%%BeginPageSetup
N
   15     6 M
  402     6 L
  402   299 L
   15   299 L
cp
clip
[1 0 0 -1 0 315] CT
%%EndPageSetup
GS
[0.75 0 0 0.75 0 0] CT
1 GC
N
0 0 560 420 re
f
GR
GS
[0.75 0 0 0.75 0 0] CT
1 GC
N
0 0 560 420 re
f
GR
GS
[0.75 0 0 0.75 0 0] CT
1 GC
N
73 374 M
507 374 L
507 31 L
73 31 L
cp
f
GR
GS
[0.75 0 0 0.75 0 0] CT
0.149 GC
2 setlinecap
1 LJ
0.667 LW
N
73 374 M
507 374 L
S
GR
GS
[0.75 0 0 0.75 0 0] CT
0.149 GC
2 setlinecap
1 LJ
0.667 LW
N
73 31 M
507 31 L
S
GR
GS
[0.75 0 0 0.75 0 0] CT
0.149 GC
2 setlinecap
1 LJ
0.667 LW
N
197.508 374 M
197.508 369.66 L
S
GR
GS
[0.75 0 0 0.75 0 0] CT
0.149 GC
2 setlinecap
1 LJ
0.667 LW
N
282.92 374 M
282.92 369.66 L
S
GR
GS
[0.75 0 0 0.75 0 0] CT
0.149 GC
2 setlinecap
1 LJ
0.667 LW
N
343.521 374 M
343.521 369.66 L
S
GR
GS
[0.75 0 0 0.75 0 0] CT
0.149 GC
2 setlinecap
1 LJ
0.667 LW
N
390.527 374 M
390.527 369.66 L
S
GR
GS
[0.75 0 0 0.75 0 0] CT
0.149 GC
2 setlinecap
1 LJ
0.667 LW
N
428.933 374 M
428.933 369.66 L
S
GR
GS
[0.75 0 0 0.75 0 0] CT
0.149 GC
2 setlinecap
1 LJ
0.667 LW
N
461.405 374 M
461.405 369.66 L
S
GR
GS
[0.75 0 0 0.75 0 0] CT
0.149 GC
2 setlinecap
1 LJ
0.667 LW
N
489.534 374 M
489.534 369.66 L
S
GR
GS
[0.75 0 0 0.75 0 0] CT
0.149 GC
2 setlinecap
1 LJ
0.667 LW
N
197.508 31 M
197.508 35.34 L
S
GR
GS
[0.75 0 0 0.75 0 0] CT
0.149 GC
2 setlinecap
1 LJ
0.667 LW
N
282.92 31 M
282.92 35.34 L
S
GR
GS
[0.75 0 0 0.75 0 0] CT
0.149 GC
2 setlinecap
1 LJ
0.667 LW
N
343.521 31 M
343.521 35.34 L
S
GR
GS
[0.75 0 0 0.75 0 0] CT
0.149 GC
2 setlinecap
1 LJ
0.667 LW
N
390.527 31 M
390.527 35.34 L
S
GR
GS
[0.75 0 0 0.75 0 0] CT
0.149 GC
2 setlinecap
1 LJ
0.667 LW
N
428.933 31 M
428.933 35.34 L
S
GR
GS
[0.75 0 0 0.75 0 0] CT
0.149 GC
2 setlinecap
1 LJ
0.667 LW
N
461.405 31 M
461.405 35.34 L
S
GR
GS
[0.75 0 0 0.75 0 0] CT
0.149 GC
2 setlinecap
1 LJ
0.667 LW
N
489.534 31 M
489.534 35.34 L
S
GR
GS
[0.75 0 0 0.75 0 0] CT
0.149 GC
2 setlinecap
1 LJ
0.667 LW
N
89.901 374 M
89.901 371.83 L
S
GR
GS
[0.75 0 0 0.75 0 0] CT
0.149 GC
2 setlinecap
1 LJ
0.667 LW
N
122.373 374 M
122.373 371.83 L
S
GR
GS
[0.75 0 0 0.75 0 0] CT
0.149 GC
2 setlinecap
1 LJ
0.667 LW
N
150.502 374 M
150.502 371.83 L
S
GR
GS
[0.75 0 0 0.75 0 0] CT
0.149 GC
2 setlinecap
1 LJ
0.667 LW
N
175.313 374 M
175.313 371.83 L
S
GR
GS
[0.75 0 0 0.75 0 0] CT
0.149 GC
2 setlinecap
1 LJ
0.667 LW
N
217.585 374 M
217.585 371.83 L
S
GR
GS
[0.75 0 0 0.75 0 0] CT
0.149 GC
2 setlinecap
1 LJ
0.667 LW
N
235.914 374 M
235.914 371.83 L
S
GR
GS
[0.75 0 0 0.75 0 0] CT
0.149 GC
2 setlinecap
1 LJ
0.667 LW
N
252.775 374 M
252.775 371.83 L
S
GR
GS
[0.75 0 0 0.75 0 0] CT
0.149 GC
2 setlinecap
1 LJ
0.667 LW
N
268.386 374 M
268.386 371.83 L
S
GR
GS
[0.75 0 0 0.75 0 0] CT
0.149 GC
2 setlinecap
1 LJ
0.667 LW
N
296.515 374 M
296.515 371.83 L
S
GR
GS
[0.75 0 0 0.75 0 0] CT
0.149 GC
2 setlinecap
1 LJ
0.667 LW
N
309.286 374 M
309.286 371.83 L
S
GR
GS
[0.75 0 0 0.75 0 0] CT
0.149 GC
2 setlinecap
1 LJ
0.667 LW
N
321.327 374 M
321.327 371.83 L
S
GR
GS
[0.75 0 0 0.75 0 0] CT
0.149 GC
2 setlinecap
1 LJ
0.667 LW
N
332.716 374 M
332.716 371.83 L
S
GR
GS
[0.75 0 0 0.75 0 0] CT
0.149 GC
2 setlinecap
1 LJ
0.667 LW
N
353.799 374 M
353.799 371.83 L
S
GR
GS
[0.75 0 0 0.75 0 0] CT
0.149 GC
2 setlinecap
1 LJ
0.667 LW
N
363.598 374 M
363.598 371.83 L
S
GR
GS
[0.75 0 0 0.75 0 0] CT
0.149 GC
2 setlinecap
1 LJ
0.667 LW
N
372.962 374 M
372.962 371.83 L
S
GR
GS
[0.75 0 0 0.75 0 0] CT
0.149 GC
2 setlinecap
1 LJ
0.667 LW
N
381.927 374 M
381.927 371.83 L
S
GR
GS
[0.75 0 0 0.75 0 0] CT
0.149 GC
2 setlinecap
1 LJ
0.667 LW
N
398.789 374 M
398.789 371.83 L
S
GR
GS
[0.75 0 0 0.75 0 0] CT
0.149 GC
2 setlinecap
1 LJ
0.667 LW
N
406.739 374 M
406.739 371.83 L
S
GR
GS
[0.75 0 0 0.75 0 0] CT
0.149 GC
2 setlinecap
1 LJ
0.667 LW
N
414.4 374 M
414.4 371.83 L
S
GR
GS
[0.75 0 0 0.75 0 0] CT
0.149 GC
2 setlinecap
1 LJ
0.667 LW
N
421.792 374 M
421.792 371.83 L
S
GR
GS
[0.75 0 0 0.75 0 0] CT
0.149 GC
2 setlinecap
1 LJ
0.667 LW
N
435.84 374 M
435.84 371.83 L
S
GR
GS
[0.75 0 0 0.75 0 0] CT
0.149 GC
2 setlinecap
1 LJ
0.667 LW
N
442.528 374 M
442.528 371.83 L
S
GR
GS
[0.75 0 0 0.75 0 0] CT
0.149 GC
2 setlinecap
1 LJ
0.667 LW
N
449.011 374 M
449.011 371.83 L
S
GR
GS
[0.75 0 0 0.75 0 0] CT
0.149 GC
2 setlinecap
1 LJ
0.667 LW
N
455.299 374 M
455.299 371.83 L
S
GR
GS
[0.75 0 0 0.75 0 0] CT
0.149 GC
2 setlinecap
1 LJ
0.667 LW
N
467.34 374 M
467.34 371.83 L
S
GR
GS
[0.75 0 0 0.75 0 0] CT
0.149 GC
2 setlinecap
1 LJ
0.667 LW
N
473.111 374 M
473.111 371.83 L
S
GR
GS
[0.75 0 0 0.75 0 0] CT
0.149 GC
2 setlinecap
1 LJ
0.667 LW
N
478.729 374 M
478.729 371.83 L
S
GR
GS
[0.75 0 0 0.75 0 0] CT
0.149 GC
2 setlinecap
1 LJ
0.667 LW
N
484.201 374 M
484.201 371.83 L
S
GR
GS
[0.75 0 0 0.75 0 0] CT
0.149 GC
2 setlinecap
1 LJ
0.667 LW
N
494.736 374 M
494.736 371.83 L
S
GR
GS
[0.75 0 0 0.75 0 0] CT
0.149 GC
2 setlinecap
1 LJ
0.667 LW
N
499.812 374 M
499.812 371.83 L
S
GR
GS
[0.75 0 0 0.75 0 0] CT
0.149 GC
2 setlinecap
1 LJ
0.667 LW
N
504.769 374 M
504.769 371.83 L
S
GR
GS
[0.75 0 0 0.75 0 0] CT
0.149 GC
2 setlinecap
1 LJ
0.667 LW
N
89.901 31 M
89.901 33.17 L
S
GR
GS
[0.75 0 0 0.75 0 0] CT
0.149 GC
2 setlinecap
1 LJ
0.667 LW
N
122.373 31 M
122.373 33.17 L
S
GR
GS
[0.75 0 0 0.75 0 0] CT
0.149 GC
2 setlinecap
1 LJ
0.667 LW
N
150.502 31 M
150.502 33.17 L
S
GR
GS
[0.75 0 0 0.75 0 0] CT
0.149 GC
2 setlinecap
1 LJ
0.667 LW
N
175.313 31 M
175.313 33.17 L
S
GR
GS
[0.75 0 0 0.75 0 0] CT
0.149 GC
2 setlinecap
1 LJ
0.667 LW
N
217.585 31 M
217.585 33.17 L
S
GR
GS
[0.75 0 0 0.75 0 0] CT
0.149 GC
2 setlinecap
1 LJ
0.667 LW
N
235.914 31 M
235.914 33.17 L
S
GR
GS
[0.75 0 0 0.75 0 0] CT
0.149 GC
2 setlinecap
1 LJ
0.667 LW
N
252.775 31 M
252.775 33.17 L
S
GR
GS
[0.75 0 0 0.75 0 0] CT
0.149 GC
2 setlinecap
1 LJ
0.667 LW
N
268.386 31 M
268.386 33.17 L
S
GR
GS
[0.75 0 0 0.75 0 0] CT
0.149 GC
2 setlinecap
1 LJ
0.667 LW
N
296.515 31 M
296.515 33.17 L
S
GR
GS
[0.75 0 0 0.75 0 0] CT
0.149 GC
2 setlinecap
1 LJ
0.667 LW
N
309.286 31 M
309.286 33.17 L
S
GR
GS
[0.75 0 0 0.75 0 0] CT
0.149 GC
2 setlinecap
1 LJ
0.667 LW
N
321.327 31 M
321.327 33.17 L
S
GR
GS
[0.75 0 0 0.75 0 0] CT
0.149 GC
2 setlinecap
1 LJ
0.667 LW
N
332.716 31 M
332.716 33.17 L
S
GR
GS
[0.75 0 0 0.75 0 0] CT
0.149 GC
2 setlinecap
1 LJ
0.667 LW
N
353.799 31 M
353.799 33.17 L
S
GR
GS
[0.75 0 0 0.75 0 0] CT
0.149 GC
2 setlinecap
1 LJ
0.667 LW
N
363.598 31 M
363.598 33.17 L
S
GR
GS
[0.75 0 0 0.75 0 0] CT
0.149 GC
2 setlinecap
1 LJ
0.667 LW
N
372.962 31 M
372.962 33.17 L
S
GR
GS
[0.75 0 0 0.75 0 0] CT
0.149 GC
2 setlinecap
1 LJ
0.667 LW
N
381.927 31 M
381.927 33.17 L
S
GR
GS
[0.75 0 0 0.75 0 0] CT
0.149 GC
2 setlinecap
1 LJ
0.667 LW
N
398.789 31 M
398.789 33.17 L
S
GR
GS
[0.75 0 0 0.75 0 0] CT
0.149 GC
2 setlinecap
1 LJ
0.667 LW
N
406.739 31 M
406.739 33.17 L
S
GR
GS
[0.75 0 0 0.75 0 0] CT
0.149 GC
2 setlinecap
1 LJ
0.667 LW
N
414.4 31 M
414.4 33.17 L
S
GR
GS
[0.75 0 0 0.75 0 0] CT
0.149 GC
2 setlinecap
1 LJ
0.667 LW
N
421.792 31 M
421.792 33.17 L
S
GR
GS
[0.75 0 0 0.75 0 0] CT
0.149 GC
2 setlinecap
1 LJ
0.667 LW
N
435.84 31 M
435.84 33.17 L
S
GR
GS
[0.75 0 0 0.75 0 0] CT
0.149 GC
2 setlinecap
1 LJ
0.667 LW
N
442.528 31 M
442.528 33.17 L
S
GR
GS
[0.75 0 0 0.75 0 0] CT
0.149 GC
2 setlinecap
1 LJ
0.667 LW
N
449.011 31 M
449.011 33.17 L
S
GR
GS
[0.75 0 0 0.75 0 0] CT
0.149 GC
2 setlinecap
1 LJ
0.667 LW
N
455.299 31 M
455.299 33.17 L
S
GR
GS
[0.75 0 0 0.75 0 0] CT
0.149 GC
2 setlinecap
1 LJ
0.667 LW
N
467.34 31 M
467.34 33.17 L
S
GR
GS
[0.75 0 0 0.75 0 0] CT
0.149 GC
2 setlinecap
1 LJ
0.667 LW
N
473.111 31 M
473.111 33.17 L
S
GR
GS
[0.75 0 0 0.75 0 0] CT
0.149 GC
2 setlinecap
1 LJ
0.667 LW
N
478.729 31 M
478.729 33.17 L
S
GR
GS
[0.75 0 0 0.75 0 0] CT
0.149 GC
2 setlinecap
1 LJ
0.667 LW
N
484.201 31 M
484.201 33.17 L
S
GR
GS
[0.75 0 0 0.75 0 0] CT
0.149 GC
2 setlinecap
1 LJ
0.667 LW
N
494.736 31 M
494.736 33.17 L
S
GR
GS
[0.75 0 0 0.75 0 0] CT
0.149 GC
2 setlinecap
1 LJ
0.667 LW
N
499.812 31 M
499.812 33.17 L
S
GR
GS
[0.75 0 0 0.75 0 0] CT
0.149 GC
2 setlinecap
1 LJ
0.667 LW
N
504.769 31 M
504.769 33.17 L
S
GR
GS
[0.75 0 0 0.75 148.13083 284.50001] CT
0.149 GC
/Helvetica 13.333 F
GS
[1 0 0 1 0 0] CT
-11 13 moveto 
1 -1 scale
(0.1) t 
GR
GR
GS
[0.75 0 0 0.75 212.18999 284.50001] CT
0.149 GC
/Helvetica 13.333 F
GS
[1 0 0 1 0 0] CT
-15 13 moveto 
1 -1 scale
(0.15) t 
GR
GR
GS
[0.75 0 0 0.75 257.64072 284.50001] CT
0.149 GC
/Helvetica 13.333 F
GS
[1 0 0 1 0 0] CT
-11 13 moveto 
1 -1 scale
(0.2) t 
GR
GR
GS
[0.75 0 0 0.75 292.895 284.50001] CT
0.149 GC
/Helvetica 13.333 F
GS
[1 0 0 1 0 0] CT
-15 13 moveto 
1 -1 scale
(0.25) t 
GR
GR
GS
[0.75 0 0 0.75 321.6999 284.50001] CT
0.149 GC
/Helvetica 13.333 F
GS
[1 0 0 1 0 0] CT
-11 13 moveto 
1 -1 scale
(0.3) t 
GR
GR
GS
[0.75 0 0 0.75 346.05407 284.50001] CT
0.149 GC
/Helvetica 13.333 F
GS
[1 0 0 1 0 0] CT
-15 13 moveto 
1 -1 scale
(0.35) t 
GR
GR
GS
[0.75 0 0 0.75 367.15061 284.50001] CT
0.149 GC
/Helvetica 13.333 F
GS
[1 0 0 1 0 0] CT
-11 13 moveto 
1 -1 scale
(0.4) t 
GR
GR
GS
[0.75 0 0 0.75 217.50016 298.24999] CT
0.149 GC
/Helvetica 14.667 F
GS
[1 0 0 1 0 0] CT
-40.5 14 moveto 
1 -1 scale
(meshwidth) t 
GR
GR
GS
[0.75 0 0 0.75 0 0] CT
0.149 GC
2 setlinecap
1 LJ
0.667 LW
N
73 374 M
73 31 L
S
GR
GS
[0.75 0 0 0.75 0 0] CT
0.149 GC
2 setlinecap
1 LJ
0.667 LW
N
507 374 M
507 31 L
S
GR
GS
[0.75 0 0 0.75 0 0] CT
0.149 GC
2 setlinecap
1 LJ
0.667 LW
N
73 357.002 M
77.34 357.002 L
S
GR
GS
[0.75 0 0 0.75 0 0] CT
0.149 GC
2 setlinecap
1 LJ
0.667 LW
N
73 219.303 M
77.34 219.303 L
S
GR
GS
[0.75 0 0 0.75 0 0] CT
0.149 GC
2 setlinecap
1 LJ
0.667 LW
N
73 81.604 M
77.34 81.604 L
S
GR
GS
[0.75 0 0 0.75 0 0] CT
0.149 GC
2 setlinecap
1 LJ
0.667 LW
N
507 357.002 M
502.66 357.002 L
S
GR
GS
[0.75 0 0 0.75 0 0] CT
0.149 GC
2 setlinecap
1 LJ
0.667 LW
N
507 219.303 M
502.66 219.303 L
S
GR
GS
[0.75 0 0 0.75 0 0] CT
0.149 GC
2 setlinecap
1 LJ
0.667 LW
N
507 81.604 M
502.66 81.604 L
S
GR
GS
[0.75 0 0 0.75 0 0] CT
0.149 GC
2 setlinecap
1 LJ
0.667 LW
N
73 370.346 M
75.17 370.346 L
S
GR
GS
[0.75 0 0 0.75 0 0] CT
0.149 GC
2 setlinecap
1 LJ
0.667 LW
N
73 363.303 M
75.17 363.303 L
S
GR
GS
[0.75 0 0 0.75 0 0] CT
0.149 GC
2 setlinecap
1 LJ
0.667 LW
N
73 357.002 M
75.17 357.002 L
S
GR
GS
[0.75 0 0 0.75 0 0] CT
0.149 GC
2 setlinecap
1 LJ
0.667 LW
N
73 315.551 M
75.17 315.551 L
S
GR
GS
[0.75 0 0 0.75 0 0] CT
0.149 GC
2 setlinecap
1 LJ
0.667 LW
N
73 291.303 M
75.17 291.303 L
S
GR
GS
[0.75 0 0 0.75 0 0] CT
0.149 GC
2 setlinecap
1 LJ
0.667 LW
N
73 274.099 M
75.17 274.099 L
S
GR
GS
[0.75 0 0 0.75 0 0] CT
0.149 GC
2 setlinecap
1 LJ
0.667 LW
N
73 260.755 M
75.17 260.755 L
S
GR
GS
[0.75 0 0 0.75 0 0] CT
0.149 GC
2 setlinecap
1 LJ
0.667 LW
N
73 249.851 M
75.17 249.851 L
S
GR
GS
[0.75 0 0 0.75 0 0] CT
0.149 GC
2 setlinecap
1 LJ
0.667 LW
N
73 240.633 M
75.17 240.633 L
S
GR
GS
[0.75 0 0 0.75 0 0] CT
0.149 GC
2 setlinecap
1 LJ
0.667 LW
N
73 232.647 M
75.17 232.647 L
S
GR
GS
[0.75 0 0 0.75 0 0] CT
0.149 GC
2 setlinecap
1 LJ
0.667 LW
N
73 225.604 M
75.17 225.604 L
S
GR
GS
[0.75 0 0 0.75 0 0] CT
0.149 GC
2 setlinecap
1 LJ
0.667 LW
N
73 219.303 M
75.17 219.303 L
S
GR
GS
[0.75 0 0 0.75 0 0] CT
0.149 GC
2 setlinecap
1 LJ
0.667 LW
N
73 219.303 M
75.17 219.303 L
S
GR
GS
[0.75 0 0 0.75 0 0] CT
0.149 GC
2 setlinecap
1 LJ
0.667 LW
N
73 177.851 M
75.17 177.851 L
S
GR
GS
[0.75 0 0 0.75 0 0] CT
0.149 GC
2 setlinecap
1 LJ
0.667 LW
N
73 153.604 M
75.17 153.604 L
S
GR
GS
[0.75 0 0 0.75 0 0] CT
0.149 GC
2 setlinecap
1 LJ
0.667 LW
N
73 136.4 M
75.17 136.4 L
S
GR
GS
[0.75 0 0 0.75 0 0] CT
0.149 GC
2 setlinecap
1 LJ
0.667 LW
N
73 123.055 M
75.17 123.055 L
S
GR
GS
[0.75 0 0 0.75 0 0] CT
0.149 GC
2 setlinecap
1 LJ
0.667 LW
N
73 112.152 M
75.17 112.152 L
S
GR
GS
[0.75 0 0 0.75 0 0] CT
0.149 GC
2 setlinecap
1 LJ
0.667 LW
N
73 102.934 M
75.17 102.934 L
S
GR
GS
[0.75 0 0 0.75 0 0] CT
0.149 GC
2 setlinecap
1 LJ
0.667 LW
N
73 94.948 M
75.17 94.948 L
S
GR
GS
[0.75 0 0 0.75 0 0] CT
0.149 GC
2 setlinecap
1 LJ
0.667 LW
N
73 87.905 M
75.17 87.905 L
S
GR
GS
[0.75 0 0 0.75 0 0] CT
0.149 GC
2 setlinecap
1 LJ
0.667 LW
N
73 81.604 M
75.17 81.604 L
S
GR
GS
[0.75 0 0 0.75 0 0] CT
0.149 GC
2 setlinecap
1 LJ
0.667 LW
N
73 40.152 M
75.17 40.152 L
S
GR
GS
[0.75 0 0 0.75 0 0] CT
0.149 GC
2 setlinecap
1 LJ
0.667 LW
N
507 370.346 M
504.83 370.346 L
S
GR
GS
[0.75 0 0 0.75 0 0] CT
0.149 GC
2 setlinecap
1 LJ
0.667 LW
N
507 363.303 M
504.83 363.303 L
S
GR
GS
[0.75 0 0 0.75 0 0] CT
0.149 GC
2 setlinecap
1 LJ
0.667 LW
N
507 357.002 M
504.83 357.002 L
S
GR
GS
[0.75 0 0 0.75 0 0] CT
0.149 GC
2 setlinecap
1 LJ
0.667 LW
N
507 315.551 M
504.83 315.551 L
S
GR
GS
[0.75 0 0 0.75 0 0] CT
0.149 GC
2 setlinecap
1 LJ
0.667 LW
N
507 291.303 M
504.83 291.303 L
S
GR
GS
[0.75 0 0 0.75 0 0] CT
0.149 GC
2 setlinecap
1 LJ
0.667 LW
N
507 274.099 M
504.83 274.099 L
S
GR
GS
[0.75 0 0 0.75 0 0] CT
0.149 GC
2 setlinecap
1 LJ
0.667 LW
N
507 260.755 M
504.83 260.755 L
S
GR
GS
[0.75 0 0 0.75 0 0] CT
0.149 GC
2 setlinecap
1 LJ
0.667 LW
N
507 249.851 M
504.83 249.851 L
S
GR
GS
[0.75 0 0 0.75 0 0] CT
0.149 GC
2 setlinecap
1 LJ
0.667 LW
N
507 240.633 M
504.83 240.633 L
S
GR
GS
[0.75 0 0 0.75 0 0] CT
0.149 GC
2 setlinecap
1 LJ
0.667 LW
N
507 232.647 M
504.83 232.647 L
S
GR
GS
[0.75 0 0 0.75 0 0] CT
0.149 GC
2 setlinecap
1 LJ
0.667 LW
N
507 225.604 M
504.83 225.604 L
S
GR
GS
[0.75 0 0 0.75 0 0] CT
0.149 GC
2 setlinecap
1 LJ
0.667 LW
N
507 219.303 M
504.83 219.303 L
S
GR
GS
[0.75 0 0 0.75 0 0] CT
0.149 GC
2 setlinecap
1 LJ
0.667 LW
N
507 219.303 M
504.83 219.303 L
S
GR
GS
[0.75 0 0 0.75 0 0] CT
0.149 GC
2 setlinecap
1 LJ
0.667 LW
N
507 177.851 M
504.83 177.851 L
S
GR
GS
[0.75 0 0 0.75 0 0] CT
0.149 GC
2 setlinecap
1 LJ
0.667 LW
N
507 153.604 M
504.83 153.604 L
S
GR
GS
[0.75 0 0 0.75 0 0] CT
0.149 GC
2 setlinecap
1 LJ
0.667 LW
N
507 136.4 M
504.83 136.4 L
S
GR
GS
[0.75 0 0 0.75 0 0] CT
0.149 GC
2 setlinecap
1 LJ
0.667 LW
N
507 123.055 M
504.83 123.055 L
S
GR
GS
[0.75 0 0 0.75 0 0] CT
0.149 GC
2 setlinecap
1 LJ
0.667 LW
N
507 112.152 M
504.83 112.152 L
S
GR
GS
[0.75 0 0 0.75 0 0] CT
0.149 GC
2 setlinecap
1 LJ
0.667 LW
N
507 102.934 M
504.83 102.934 L
S
GR
GS
[0.75 0 0 0.75 0 0] CT
0.149 GC
2 setlinecap
1 LJ
0.667 LW
N
507 94.948 M
504.83 94.948 L
S
GR
GS
[0.75 0 0 0.75 0 0] CT
0.149 GC
2 setlinecap
1 LJ
0.667 LW
N
507 87.905 M
504.83 87.905 L
S
GR
GS
[0.75 0 0 0.75 0 0] CT
0.149 GC
2 setlinecap
1 LJ
0.667 LW
N
507 81.604 M
504.83 81.604 L
S
GR
GS
[0.75 0 0 0.75 0 0] CT
0.149 GC
2 setlinecap
1 LJ
0.667 LW
N
507 40.152 M
504.83 40.152 L
S
GR
GS
[0.75 0 0 0.75 30 272.25] CT
0.149 GC
/Helvetica 13.333 F
GS
[1 0 0 1 0 0] CT
0 0 moveto 
1 -1 scale
(10) t 
GR
GR
GS
[0.75 0 0 0.75 42.75 267.75] CT
0.149 GC
/Helvetica 10.667 F
GS
[1 0 0 1 0 0] CT
0 0 moveto 
1 -1 scale
(-5) t 
GR
GR
GS
[0.75 0 0 0.75 30 168.75] CT
0.149 GC
/Helvetica 13.333 F
GS
[1 0 0 1 0 0] CT
0 0 moveto 
1 -1 scale
(10) t 
GR
GR
GS
[0.75 0 0 0.75 42.75 164.25] CT
0.149 GC
/Helvetica 10.667 F
GS
[1 0 0 1 0 0] CT
0 0 moveto 
1 -1 scale
(-4) t 
GR
GR
GS
[0.75 0 0 0.75 30 66] CT
0.149 GC
/Helvetica 13.333 F
GS
[1 0 0 1 0 0] CT
0 0 moveto 
1 -1 scale
(10) t 
GR
GR
GS
[0.75 0 0 0.75 42.75 61.5] CT
0.149 GC
/Helvetica 10.667 F
GS
[1 0 0 1 0 0] CT
0 0 moveto 
1 -1 scale
(-3) t 
GR
GR
GS
[0 -0.75 0.75 0 26.75 151.87487] CT
0.149 GC
/Helvetica 14.667 F
GS
[1 0 0 1 0 0] CT
-58 -4 moveto 
1 -1 scale
(dual norm error) t 
GR
GR
GS
[0.75 0 0 0.75 0 0] CT
0 0.447 0.741 RC
1 LJ
2.667 LW
N
507 53.39 M
436.154 97.154 L
364.145 140.883 L
291.609 185.348 L
218.838 235.207 L
145.949 303.114 L
S
GR
GS
[0.75 0 0 0.75 380.25 40.04273] CT
0 0.447 0.741 RC
10.0 ML
2.667 LW
N
0 -7 M
0 7 L
-7 0 M
7 0 L
-4.714 -4.714 M
4.714 4.714 L
-4.714 4.714 M
4.714 -4.714 L
S
GR
GS
[0.75 0 0 0.75 327.11565 72.86517] CT
0 0.447 0.741 RC
10.0 ML
2.667 LW
N
0 -7 M
0 7 L
-7 0 M
7 0 L
-4.714 -4.714 M
4.714 4.714 L
-4.714 4.714 M
4.714 -4.714 L
S
GR
GS
[0.75 0 0 0.75 273.10854 105.66236] CT
0 0.447 0.741 RC
10.0 ML
2.667 LW
N
0 -7 M
0 7 L
-7 0 M
7 0 L
-4.714 -4.714 M
4.714 4.714 L
-4.714 4.714 M
4.714 -4.714 L
S
GR
GS
[0.75 0 0 0.75 218.70692 139.01073] CT
0 0.447 0.741 RC
10.0 ML
2.667 LW
N
0 -7 M
0 7 L
-7 0 M
7 0 L
-4.714 -4.714 M
4.714 4.714 L
-4.714 4.714 M
4.714 -4.714 L
S
GR
GS
[0.75 0 0 0.75 164.12827 176.40517] CT
0 0.447 0.741 RC
10.0 ML
2.667 LW
N
0 -7 M
0 7 L
-7 0 M
7 0 L
-4.714 -4.714 M
4.714 4.714 L
-4.714 4.714 M
4.714 -4.714 L
S
GR
GS
[0.75 0 0 0.75 109.46203 227.33526] CT
0 0.447 0.741 RC
10.0 ML
2.667 LW
N
0 -7 M
0 7 L
-7 0 M
7 0 L
-4.714 -4.714 M
4.714 4.714 L
-4.714 4.714 M
4.714 -4.714 L
S
GR
GS
[0.75 0 0 0.75 0 0] CT
0.851 0.325 0.098 RC
1 LJ
2.667 LW
N
507 44.211 M
436.154 87.914 L
364.145 131.485 L
291.609 172.301 L
218.838 218.342 L
145.949 283.14 L
73 374 L
S
GR
GS
[0.75 0 0 0.75 380.25 33.15819] CT
0.851 0.325 0.098 RC
N
0 -5.333 M
2.946 -5.333 5.333 -2.946 5.333 0 C
5.333 0 L
5.333 2.946 2.946 5.333 0 5.333 C
-2.946 5.333 -5.333 2.946 -5.333 0 C
-5.333 -2.946 -2.946 -5.333 0 -5.333 C
cp
0 -8 M
-4.418 -8 -8 -4.418 -8 0 C
-8 4.418 -4.418 8 0 8 C
4.418 8 8 4.418 8 0 C
8 0 L
8 -4.418 4.418 -8 0 -8 C
cp
f
GR
GS
[0.75 0 0 0.75 327.11565 65.93575] CT
0.851 0.325 0.098 RC
N
/f-1824262032{0 -5.333 M
2.946 -5.333 5.333 -2.946 5.333 0 C
5.333 0 L
5.333 2.946 2.946 5.333 0 5.333 C
-2.946 5.333 -5.333 2.946 -5.333 0 C
-5.333 -2.946 -2.946 -5.333 0 -5.333 C
cp
0 -8 M
-4.418 -8 -8 -4.418 -8 0 C
-8 4.418 -4.418 8 0 8 C
4.418 8 8 4.418 8 0 C
8 0 L
8 -4.418 4.418 -8 0 -8 C
cp}def
f-1824262032
f
GR
GS
[0.75 0 0 0.75 273.10854 98.61408] CT
0.851 0.325 0.098 RC
N
f-1824262032
f
GR
GS
[0.75 0 0 0.75 218.70692 129.22588] CT
0.851 0.325 0.098 RC
N
f-1824262032
f
GR
GS
[0.75 0 0 0.75 164.12827 163.75618] CT
0.851 0.325 0.098 RC
N
f-1824262032
f
GR
GS
[0.75 0 0 0.75 109.46203 212.35506] CT
0.851 0.325 0.098 RC
N
f-1824262032
f
GR
GS
[0.75 0 0 0.75 54.75 280.5] CT
0.851 0.325 0.098 RC
N
f-1824262032
f
GR
GS
[0.75 0 0 0.75 0 0] CT
0.702 GC
[10 6] 0 setdash
2 LJ
0.667 LW
N
507 31 M
436.154 82.268 L
364.145 134.379 L
291.609 186.87 L
218.838 239.531 L
145.949 292.278 L
73 345.068 L
S
GR
GS
[0.75 0 0 0.75 0 0] CT
0.702 GC
[10 6] 0 setdash
2 LJ
0.667 LW
N
507 47.861 M
436.154 95.687 L
364.145 144.298 L
291.609 193.264 L
218.838 242.39 L
145.949 291.594 L
S
GR
GS
[0.75 0 0 0.75 0 0] CT
1 GC
N
496 363 M
496 329 L
368 329 L
368 363 L
cp
f
GR
GS
[0.75 0 0 0.75 311.25 253.77173] CT
/Helvetica 12 F
GS
[1 0 0 1 0 0] CT
0 4.5 moveto 
1 -1 scale
(BEM: 2.3779) t 
GR
GR
GS
[0.75 0 0 0.75 0 0] CT
0 0.447 0.741 RC
1 LJ
2.667 LW
N
372 338.362 M
412 338.362 L
S
GR
GS
[0.75 0 0 0.75 294 253.77173] CT
0 0.447 0.741 RC
10.0 ML
2.667 LW
N
0 -6 M
0 6 L
-6 0 M
6 0 L
-4.243 -4.243 M
4.243 4.243 L
-4.243 4.243 M
4.243 -4.243 L
S
GR
GS
[0.75 0 0 0.75 311.25 265.22827] CT
/Helvetica 12 F
GS
[1 0 0 1 0 0] CT
0 4.5 moveto 
1 -1 scale
(MST: 2.5491) t 
GR
GR
GS
[0.75 0 0 0.75 0 0] CT
0.851 0.325 0.098 RC
1 LJ
2.667 LW
N
372 353.638 M
412 353.638 L
S
GR
GS
[0.75 0 0 0.75 294 265.22827] CT
0.851 0.325 0.098 RC
N
/f-1242752444{0 -4.667 M
2.577 -4.667 4.667 -2.577 4.667 0 C
4.667 0 L
4.667 2.577 2.577 4.667 0 4.667 C
-2.577 4.667 -4.667 2.577 -4.667 0 C
-4.667 -2.577 -2.577 -4.667 0 -4.667 C
cp
0 -7.333 M
-4.05 -7.333 -7.333 -4.05 -7.333 0 C
-7.333 4.05 -4.05 7.333 0 7.333 C
4.05 7.333 7.333 4.05 7.333 0 C
7.333 0 L
7.333 -4.05 4.05 -7.333 0 -7.333 C
cp}def
f-1242752444
f
GR
GS
[0.75 0 0 0.75 0 0] CT
0.149 GC
10.0 ML
0.667 LW
N
368 363 M
368 329 L
496 329 L
496 363 L
cp
S
GR
%%Trailer
%%Pages: 1
%%EOF
