#Fx_bnd, Fy_bnd; Fx_vol, Fy_vol 
-2.033795e-01, -1.810876e-01; -1.777896e-01, -2.569603e-01 
-2.742937e-01, -1.761393e-01; -1.771477e-01, -2.584268e-01 
-2.699833e-01, -2.091598e-01; -1.775024e-01, -2.582606e-01 
-2.781449e-01, -2.235720e-01; -1.774576e-01, -2.584383e-01 
-2.834486e-01, -2.058629e-01; -1.775252e-01, -2.585271e-01 
-2.789685e-01, -2.165812e-01; -1.775364e-01, -2.585187e-01 
-2.786336e-01, -2.318509e-01; -1.775325e-01, -2.585476e-01 
-2.692975e-01, -2.282840e-01; -1.775542e-01, -2.585631e-01 
