%!PS-Adobe-3.0 EPSF-3.0
%%Creator: (MATLAB, The Mathworks, Inc. Version 9.7.0.1190202 \(R2019b\). Operating System: Linux)
%%Title: ./sqkite_domain.eps
%%CreationDate: 2021-06-11T10:23:05
%%Pages: (atend)
%%BoundingBox:    60    21   345   301
%%LanguageLevel: 2
%%EndComments
%%BeginProlog
%%BeginResource: procset (Apache XML Graphics Std ProcSet) 1.2 0
%%Version: 1.2 0
%%Copyright: (Copyright 2001-2003,2010 The Apache Software Foundation. License terms: http://www.apache.org/licenses/LICENSE-2.0)
/bd{bind def}bind def
/ld{load def}bd
/GR/grestore ld
/GS/gsave ld
/RM/rmoveto ld
/C/curveto ld
/t/show ld
/L/lineto ld
/ML/setmiterlimit ld
/CT/concat ld
/f/fill ld
/N/newpath ld
/S/stroke ld
/CC/setcmykcolor ld
/A/ashow ld
/cp/closepath ld
/RC/setrgbcolor ld
/LJ/setlinejoin ld
/GC/setgray ld
/LW/setlinewidth ld
/M/moveto ld
/re {4 2 roll M
1 index 0 rlineto
0 exch rlineto
neg 0 rlineto
cp } bd
/_ctm matrix def
/_tm matrix def
/BT { _ctm currentmatrix pop matrix _tm copy pop 0 0 moveto } bd
/ET { _ctm setmatrix } bd
/iTm { _ctm setmatrix _tm concat } bd
/Tm { _tm astore pop iTm 0 0 moveto } bd
/ux 0.0 def
/uy 0.0 def
/F {
  /Tp exch def
  /Tf exch def
  Tf findfont Tp scalefont setfont
  /cf Tf def  /cs Tp def
} bd
/ULS {currentpoint /uy exch def /ux exch def} bd
/ULE {
  /Tcx currentpoint pop def
  gsave
  newpath
  cf findfont cs scalefont dup
  /FontMatrix get 0 get /Ts exch def /FontInfo get dup
  /UnderlinePosition get Ts mul /To exch def
  /UnderlineThickness get Ts mul /Tt exch def
  ux uy To add moveto  Tcx uy To add lineto
  Tt setlinewidth stroke
  grestore
} bd
/OLE {
  /Tcx currentpoint pop def
  gsave
  newpath
  cf findfont cs scalefont dup
  /FontMatrix get 0 get /Ts exch def /FontInfo get dup
  /UnderlinePosition get Ts mul /To exch def
  /UnderlineThickness get Ts mul /Tt exch def
  ux uy To add cs add moveto Tcx uy To add cs add lineto
  Tt setlinewidth stroke
  grestore
} bd
/SOE {
  /Tcx currentpoint pop def
  gsave
  newpath
  cf findfont cs scalefont dup
  /FontMatrix get 0 get /Ts exch def /FontInfo get dup
  /UnderlinePosition get Ts mul /To exch def
  /UnderlineThickness get Ts mul /Tt exch def
  ux uy To add cs 10 mul 26 idiv add moveto Tcx uy To add cs 10 mul 26 idiv add lineto
  Tt setlinewidth stroke
  grestore
} bd
/QT {
/Y22 exch store
/X22 exch store
/Y21 exch store
/X21 exch store
currentpoint
/Y21 load 2 mul add 3 div exch
/X21 load 2 mul add 3 div exch
/X21 load 2 mul /X22 load add 3 div
/Y21 load 2 mul /Y22 load add 3 div
/X22 load /Y22 load curveto
} bd
/SSPD {
dup length /d exch dict def
{
/v exch def
/k exch def
currentpagedevice k known {
/cpdv currentpagedevice k get def
v cpdv ne {
/upd false def
/nullv v type /nulltype eq def
/nullcpdv cpdv type /nulltype eq def
nullv nullcpdv or
{
/upd true def
} {
/sametype v type cpdv type eq def
sametype {
v type /arraytype eq {
/vlen v length def
/cpdvlen cpdv length def
vlen cpdvlen eq {
0 1 vlen 1 sub {
/i exch def
/obj v i get def
/cpdobj cpdv i get def
obj cpdobj ne {
/upd true def
exit
} if
} for
} {
/upd true def
} ifelse
} {
v type /dicttype eq {
v {
/dv exch def
/dk exch def
/cpddv cpdv dk get def
dv cpddv ne {
/upd true def
exit
} if
} forall
} {
/upd true def
} ifelse
} ifelse
} if
} ifelse
upd true eq {
d k v put
} if
} if
} if
} forall
d length 0 gt {
d setpagedevice
} if
} bd
/RE { % /NewFontName [NewEncodingArray] /FontName RE -
  findfont dup length dict begin
  {
    1 index /FID ne
    {def} {pop pop} ifelse
  } forall
  /Encoding exch def
  /FontName 1 index def
  currentdict definefont pop
  end
} bind def
%%EndResource
%%BeginResource: procset (Apache XML Graphics EPS ProcSet) 1.0 0
%%Version: 1.0 0
%%Copyright: (Copyright 2002-2003 The Apache Software Foundation. License terms: http://www.apache.org/licenses/LICENSE-2.0)
/BeginEPSF { %def
/b4_Inc_state save def         % Save state for cleanup
/dict_count countdictstack def % Count objects on dict stack
/op_count count 1 sub def      % Count objects on operand stack
userdict begin                 % Push userdict on dict stack
/showpage { } def              % Redefine showpage, { } = null proc
0 setgray 0 setlinecap         % Prepare graphics state
1 setlinewidth 0 setlinejoin
10 setmiterlimit [ ] 0 setdash newpath
/languagelevel where           % If level not equal to 1 then
{pop languagelevel             % set strokeadjust and
1 ne                           % overprint to their defaults.
{false setstrokeadjust false setoverprint
} if
} if
} bd
/EndEPSF { %def
count op_count sub {pop} repeat            % Clean up stacks
countdictstack dict_count sub {end} repeat
b4_Inc_state restore
} bd
%%EndResource
%FOPBeginFontDict
%%IncludeResource: font Courier-Oblique
%%IncludeResource: font Courier-BoldOblique
%%IncludeResource: font Courier-Bold
%%IncludeResource: font ZapfDingbats
%%IncludeResource: font Symbol
%%IncludeResource: font Helvetica
%%IncludeResource: font Helvetica-Oblique
%%IncludeResource: font Helvetica-Bold
%%IncludeResource: font Helvetica-BoldOblique
%%IncludeResource: font Times-Roman
%%IncludeResource: font Times-Italic
%%IncludeResource: font Times-Bold
%%IncludeResource: font Times-BoldItalic
%%IncludeResource: font Courier
%FOPEndFontDict
%%BeginResource: encoding WinAnsiEncoding
/WinAnsiEncoding [
/.notdef /.notdef /.notdef /.notdef /.notdef
/.notdef /.notdef /.notdef /.notdef /.notdef
/.notdef /.notdef /.notdef /.notdef /.notdef
/.notdef /.notdef /.notdef /.notdef /.notdef
/.notdef /.notdef /.notdef /.notdef /.notdef
/.notdef /.notdef /.notdef /.notdef /.notdef
/.notdef /.notdef /space /exclam /quotedbl
/numbersign /dollar /percent /ampersand /quotesingle
/parenleft /parenright /asterisk /plus /comma
/hyphen /period /slash /zero /one
/two /three /four /five /six
/seven /eight /nine /colon /semicolon
/less /equal /greater /question /at
/A /B /C /D /E
/F /G /H /I /J
/K /L /M /N /O
/P /Q /R /S /T
/U /V /W /X /Y
/Z /bracketleft /backslash /bracketright /asciicircum
/underscore /quoteleft /a /b /c
/d /e /f /g /h
/i /j /k /l /m
/n /o /p /q /r
/s /t /u /v /w
/x /y /z /braceleft /bar
/braceright /asciitilde /bullet /Euro /bullet
/quotesinglbase /florin /quotedblbase /ellipsis /dagger
/daggerdbl /circumflex /perthousand /Scaron /guilsinglleft
/OE /bullet /Zcaron /bullet /bullet
/quoteleft /quoteright /quotedblleft /quotedblright /bullet
/endash /emdash /asciitilde /trademark /scaron
/guilsinglright /oe /bullet /zcaron /Ydieresis
/space /exclamdown /cent /sterling /currency
/yen /brokenbar /section /dieresis /copyright
/ordfeminine /guillemotleft /logicalnot /sfthyphen /registered
/macron /degree /plusminus /twosuperior /threesuperior
/acute /mu /paragraph /middot /cedilla
/onesuperior /ordmasculine /guillemotright /onequarter /onehalf
/threequarters /questiondown /Agrave /Aacute /Acircumflex
/Atilde /Adieresis /Aring /AE /Ccedilla
/Egrave /Eacute /Ecircumflex /Edieresis /Igrave
/Iacute /Icircumflex /Idieresis /Eth /Ntilde
/Ograve /Oacute /Ocircumflex /Otilde /Odieresis
/multiply /Oslash /Ugrave /Uacute /Ucircumflex
/Udieresis /Yacute /Thorn /germandbls /agrave
/aacute /acircumflex /atilde /adieresis /aring
/ae /ccedilla /egrave /eacute /ecircumflex
/edieresis /igrave /iacute /icircumflex /idieresis
/eth /ntilde /ograve /oacute /ocircumflex
/otilde /odieresis /divide /oslash /ugrave
/uacute /ucircumflex /udieresis /yacute /thorn
/ydieresis
] def
%%EndResource
%FOPBeginFontReencode
/Courier-Oblique findfont
dup length dict begin
  {1 index /FID ne {def} {pop pop} ifelse} forall
  /Encoding WinAnsiEncoding def
  currentdict
end
/Courier-Oblique exch definefont pop
/Courier-BoldOblique findfont
dup length dict begin
  {1 index /FID ne {def} {pop pop} ifelse} forall
  /Encoding WinAnsiEncoding def
  currentdict
end
/Courier-BoldOblique exch definefont pop
/Courier-Bold findfont
dup length dict begin
  {1 index /FID ne {def} {pop pop} ifelse} forall
  /Encoding WinAnsiEncoding def
  currentdict
end
/Courier-Bold exch definefont pop
/Helvetica findfont
dup length dict begin
  {1 index /FID ne {def} {pop pop} ifelse} forall
  /Encoding WinAnsiEncoding def
  currentdict
end
/Helvetica exch definefont pop
/Helvetica-Oblique findfont
dup length dict begin
  {1 index /FID ne {def} {pop pop} ifelse} forall
  /Encoding WinAnsiEncoding def
  currentdict
end
/Helvetica-Oblique exch definefont pop
/Helvetica-Bold findfont
dup length dict begin
  {1 index /FID ne {def} {pop pop} ifelse} forall
  /Encoding WinAnsiEncoding def
  currentdict
end
/Helvetica-Bold exch definefont pop
/Helvetica-BoldOblique findfont
dup length dict begin
  {1 index /FID ne {def} {pop pop} ifelse} forall
  /Encoding WinAnsiEncoding def
  currentdict
end
/Helvetica-BoldOblique exch definefont pop
/Times-Roman findfont
dup length dict begin
  {1 index /FID ne {def} {pop pop} ifelse} forall
  /Encoding WinAnsiEncoding def
  currentdict
end
/Times-Roman exch definefont pop
/Times-Italic findfont
dup length dict begin
  {1 index /FID ne {def} {pop pop} ifelse} forall
  /Encoding WinAnsiEncoding def
  currentdict
end
/Times-Italic exch definefont pop
/Times-Bold findfont
dup length dict begin
  {1 index /FID ne {def} {pop pop} ifelse} forall
  /Encoding WinAnsiEncoding def
  currentdict
end
/Times-Bold exch definefont pop
/Times-BoldItalic findfont
dup length dict begin
  {1 index /FID ne {def} {pop pop} ifelse} forall
  /Encoding WinAnsiEncoding def
  currentdict
end
/Times-BoldItalic exch definefont pop
/Courier findfont
dup length dict begin
  {1 index /FID ne {def} {pop pop} ifelse} forall
  /Encoding WinAnsiEncoding def
  currentdict
end
/Courier exch definefont pop
%FOPEndFontReencode
%%EndProlog
%%Page: 1 1
%%PageBoundingBox: 0 0 413 320
%%BeginPageSetup
[1 0 0 -1 0 320] CT
%%EndPageSetup
GS
[0.75 0 0 0.75 0 -0.25] CT
N
0 0 M
550 0 L
550 427 L
0 427 L
0 0 L
cp
clip
1 GC
N
0 0 550 427 re
f
GR
GS
[0.75 0 0 0.75 0 -0.25] CT
1 GC
N
0 0 550 427 re
f
GR
GS
[0.75 0 0 0.75 0 -0.25] CT
1 GC
N
111 380 M
459 380 L
459 32 L
111 32 L
cp
f
GR
GS
[0.75 0 0 0.75 0 -0.25] CT
0.149 GC
2 setlinecap
1 LJ
0.667 LW
N
111 380 M
459 380 L
S
GR
GS
[0.75 0 0 0.75 0 -0.25] CT
0.149 GC
2 setlinecap
1 LJ
0.667 LW
N
111 32 M
459 32 L
S
GR
GS
[0.75 0 0 0.75 0 -0.25] CT
0.149 GC
2 setlinecap
1 LJ
0.667 LW
N
145.8 380 M
145.8 376.52 L
S
GR
GS
[0.75 0 0 0.75 0 -0.25] CT
0.149 GC
2 setlinecap
1 LJ
0.667 LW
N
215.4 380 M
215.4 376.52 L
S
GR
GS
[0.75 0 0 0.75 0 -0.25] CT
0.149 GC
2 setlinecap
1 LJ
0.667 LW
N
285 380 M
285 376.52 L
S
GR
GS
[0.75 0 0 0.75 0 -0.25] CT
0.149 GC
2 setlinecap
1 LJ
0.667 LW
N
354.6 380 M
354.6 376.52 L
S
GR
GS
[0.75 0 0 0.75 0 -0.25] CT
0.149 GC
2 setlinecap
1 LJ
0.667 LW
N
424.2 380 M
424.2 376.52 L
S
GR
GS
[0.75 0 0 0.75 0 -0.25] CT
0.149 GC
2 setlinecap
1 LJ
0.667 LW
N
145.8 32 M
145.8 35.48 L
S
GR
GS
[0.75 0 0 0.75 0 -0.25] CT
0.149 GC
2 setlinecap
1 LJ
0.667 LW
N
215.4 32 M
215.4 35.48 L
S
GR
GS
[0.75 0 0 0.75 0 -0.25] CT
0.149 GC
2 setlinecap
1 LJ
0.667 LW
N
285 32 M
285 35.48 L
S
GR
GS
[0.75 0 0 0.75 0 -0.25] CT
0.149 GC
2 setlinecap
1 LJ
0.667 LW
N
354.6 32 M
354.6 35.48 L
S
GR
GS
[0.75 0 0 0.75 0 -0.25] CT
0.149 GC
2 setlinecap
1 LJ
0.667 LW
N
424.2 32 M
424.2 35.48 L
S
GR
GS
[0.75 0 0 0.75 109.35 288.75001] CT
0.149 GC
/Helvetica 13.333 F
GS
[1 0 0 1 0 0] CT
-7 13 moveto 
1 -1 scale
(-2) t 
GR
GR
GS
[0.75 0 0 0.75 161.55 288.75001] CT
0.149 GC
/Helvetica 13.333 F
GS
[1 0 0 1 0 0] CT
-7 13 moveto 
1 -1 scale
(-1) t 
GR
GR
GS
[0.75 0 0 0.75 213.75 288.75001] CT
0.149 GC
/Helvetica 13.333 F
GS
[1 0 0 1 0 0] CT
-4.5 13 moveto 
1 -1 scale
(0) t 
GR
GR
GS
[0.75 0 0 0.75 265.95 288.75001] CT
0.149 GC
/Helvetica 13.333 F
GS
[1 0 0 1 0 0] CT
-4.5 13 moveto 
1 -1 scale
(1) t 
GR
GR
GS
[0.75 0 0 0.75 318.15001 288.75001] CT
0.149 GC
/Helvetica 13.333 F
GS
[1 0 0 1 0 0] CT
-4.5 13 moveto 
1 -1 scale
(2) t 
GR
GR
GS
[0.75 0 0 0.75 0 -0.25] CT
0.149 GC
2 setlinecap
1 LJ
0.667 LW
N
111 380 M
111 32 L
S
GR
GS
[0.75 0 0 0.75 0 -0.25] CT
0.149 GC
2 setlinecap
1 LJ
0.667 LW
N
459 380 M
459 32 L
S
GR
GS
[0.75 0 0 0.75 0 -0.25] CT
0.149 GC
2 setlinecap
1 LJ
0.667 LW
N
111 380 M
114.48 380 L
S
GR
GS
[0.75 0 0 0.75 0 -0.25] CT
0.149 GC
2 setlinecap
1 LJ
0.667 LW
N
111 345.2 M
114.48 345.2 L
S
GR
GS
[0.75 0 0 0.75 0 -0.25] CT
0.149 GC
2 setlinecap
1 LJ
0.667 LW
N
111 310.4 M
114.48 310.4 L
S
GR
GS
[0.75 0 0 0.75 0 -0.25] CT
0.149 GC
2 setlinecap
1 LJ
0.667 LW
N
111 275.6 M
114.48 275.6 L
S
GR
GS
[0.75 0 0 0.75 0 -0.25] CT
0.149 GC
2 setlinecap
1 LJ
0.667 LW
N
111 240.8 M
114.48 240.8 L
S
GR
GS
[0.75 0 0 0.75 0 -0.25] CT
0.149 GC
2 setlinecap
1 LJ
0.667 LW
N
111 206 M
114.48 206 L
S
GR
GS
[0.75 0 0 0.75 0 -0.25] CT
0.149 GC
2 setlinecap
1 LJ
0.667 LW
N
111 171.2 M
114.48 171.2 L
S
GR
GS
[0.75 0 0 0.75 0 -0.25] CT
0.149 GC
2 setlinecap
1 LJ
0.667 LW
N
111 136.4 M
114.48 136.4 L
S
GR
GS
[0.75 0 0 0.75 0 -0.25] CT
0.149 GC
2 setlinecap
1 LJ
0.667 LW
N
111 101.6 M
114.48 101.6 L
S
GR
GS
[0.75 0 0 0.75 0 -0.25] CT
0.149 GC
2 setlinecap
1 LJ
0.667 LW
N
111 66.8 M
114.48 66.8 L
S
GR
GS
[0.75 0 0 0.75 0 -0.25] CT
0.149 GC
2 setlinecap
1 LJ
0.667 LW
N
111 32 M
114.48 32 L
S
GR
GS
[0.75 0 0 0.75 0 -0.25] CT
0.149 GC
2 setlinecap
1 LJ
0.667 LW
N
459 380 M
455.52 380 L
S
GR
GS
[0.75 0 0 0.75 0 -0.25] CT
0.149 GC
2 setlinecap
1 LJ
0.667 LW
N
459 345.2 M
455.52 345.2 L
S
GR
GS
[0.75 0 0 0.75 0 -0.25] CT
0.149 GC
2 setlinecap
1 LJ
0.667 LW
N
459 310.4 M
455.52 310.4 L
S
GR
GS
[0.75 0 0 0.75 0 -0.25] CT
0.149 GC
2 setlinecap
1 LJ
0.667 LW
N
459 275.6 M
455.52 275.6 L
S
GR
GS
[0.75 0 0 0.75 0 -0.25] CT
0.149 GC
2 setlinecap
1 LJ
0.667 LW
N
459 240.8 M
455.52 240.8 L
S
GR
GS
[0.75 0 0 0.75 0 -0.25] CT
0.149 GC
2 setlinecap
1 LJ
0.667 LW
N
459 206 M
455.52 206 L
S
GR
GS
[0.75 0 0 0.75 0 -0.25] CT
0.149 GC
2 setlinecap
1 LJ
0.667 LW
N
459 171.2 M
455.52 171.2 L
S
GR
GS
[0.75 0 0 0.75 0 -0.25] CT
0.149 GC
2 setlinecap
1 LJ
0.667 LW
N
459 136.4 M
455.52 136.4 L
S
GR
GS
[0.75 0 0 0.75 0 -0.25] CT
0.149 GC
2 setlinecap
1 LJ
0.667 LW
N
459 101.6 M
455.52 101.6 L
S
GR
GS
[0.75 0 0 0.75 0 -0.25] CT
0.149 GC
2 setlinecap
1 LJ
0.667 LW
N
459 66.8 M
455.52 66.8 L
S
GR
GS
[0.75 0 0 0.75 0 -0.25] CT
0.149 GC
2 setlinecap
1 LJ
0.667 LW
N
459 32 M
455.52 32 L
S
GR
GS
[0.75 0 0 0.75 79.24999 284.75] CT
0.149 GC
/Helvetica 13.333 F
GS
[1 0 0 1 0 0] CT
-26 4.5 moveto 
1 -1 scale
(-2.5) t 
GR
GR
GS
[0.75 0 0 0.75 79.24999 258.65001] CT
0.149 GC
/Helvetica 13.333 F
GS
[1 0 0 1 0 0] CT
-14 4.5 moveto 
1 -1 scale
(-2) t 
GR
GR
GS
[0.75 0 0 0.75 79.24999 232.55] CT
0.149 GC
/Helvetica 13.333 F
GS
[1 0 0 1 0 0] CT
-26 4.5 moveto 
1 -1 scale
(-1.5) t 
GR
GR
GS
[0.75 0 0 0.75 79.24999 206.45] CT
0.149 GC
/Helvetica 13.333 F
GS
[1 0 0 1 0 0] CT
-14 4.5 moveto 
1 -1 scale
(-1) t 
GR
GR
GS
[0.75 0 0 0.75 79.24999 180.35] CT
0.149 GC
/Helvetica 13.333 F
GS
[1 0 0 1 0 0] CT
-26 4.5 moveto 
1 -1 scale
(-0.5) t 
GR
GR
GS
[0.75 0 0 0.75 79.24999 154.25] CT
0.149 GC
/Helvetica 13.333 F
GS
[1 0 0 1 0 0] CT
-9 4.5 moveto 
1 -1 scale
(0) t 
GR
GR
GS
[0.75 0 0 0.75 79.24999 128.15] CT
0.149 GC
/Helvetica 13.333 F
GS
[1 0 0 1 0 0] CT
-22 4.5 moveto 
1 -1 scale
(0.5) t 
GR
GR
GS
[0.75 0 0 0.75 79.24999 102.05] CT
0.149 GC
/Helvetica 13.333 F
GS
[1 0 0 1 0 0] CT
-9 4.5 moveto 
1 -1 scale
(1) t 
GR
GR
GS
[0.75 0 0 0.75 79.24999 75.95] CT
0.149 GC
/Helvetica 13.333 F
GS
[1 0 0 1 0 0] CT
-22 4.5 moveto 
1 -1 scale
(1.5) t 
GR
GR
GS
[0.75 0 0 0.75 79.24999 49.85] CT
0.149 GC
/Helvetica 13.333 F
GS
[1 0 0 1 0 0] CT
-9 4.5 moveto 
1 -1 scale
(2) t 
GR
GR
GS
[0.75 0 0 0.75 79.24999 23.75] CT
0.149 GC
/Helvetica 13.333 F
GS
[1 0 0 1 0 0] CT
-22 4.5 moveto 
1 -1 scale
(2.5) t 
GR
GR
GS
[0.75 0 0 0.75 0 -0.25] CT
1 LJ
0.667 LW
N
341.55 171.2 M
341.547 170.956 L
341.536 170.713 L
341.519 170.469 L
341.494 170.226 L
341.463 169.983 L
341.425 169.739 L
341.38 169.496 L
341.328 169.253 L
341.269 169.011 L
341.203 168.768 L
341.13 168.526 L
341.051 168.284 L
340.964 168.042 L
340.871 167.801 L
340.771 167.56 L
340.665 167.319 L
340.551 167.079 L
340.431 166.839 L
340.305 166.599 L
340.172 166.36 L
340.032 166.122 L
339.886 165.884 L
339.733 165.646 L
339.574 165.41 L
339.408 165.173 L
339.236 164.938 L
339.058 164.702 L
338.874 164.468 L
338.683 164.234 L
338.487 164.001 L
338.284 163.769 L
338.075 163.537 L
337.86 163.306 L
337.64 163.076 L
337.413 162.847 L
337.181 162.619 L
336.944 162.391 L
336.7 162.164 L
336.451 161.939 L
336.197 161.714 L
335.937 161.49 L
335.672 161.267 L
335.401 161.045 L
335.126 160.824 L
334.845 160.604 L
334.56 160.385 L
334.269 160.168 L
333.974 159.951 L
333.674 159.736 L
333.369 159.521 L
333.059 159.308 L
332.745 159.096 L
332.427 158.885 L
332.105 158.676 L
331.778 158.467 L
331.447 158.26 L
331.112 158.055 L
330.773 157.85 L
330.43 157.647 L
330.083 157.445 L
329.733 157.245 L
329.38 157.046 L
329.022 156.848 L
328.662 156.652 L
328.298 156.458 L
327.931 156.264 L
327.561 156.073 L
327.188 155.883 L
326.812 155.694 L
326.434 155.507 L
326.053 155.321 L
325.669 155.137 L
325.283 154.955 L
324.895 154.774 L
324.504 154.595 L
324.111 154.418 L
323.717 154.242 L
323.32 154.068 L
322.922 153.896 L
322.522 153.725 L
322.12 153.556 L
321.717 153.389 L
321.312 153.224 L
320.907 153.061 L
320.5 152.899 L
320.092 152.739 L
319.683 152.581 L
319.274 152.425 L
318.864 152.271 L
318.453 152.118 L
318.041 151.968 L
317.63 151.819 L
317.218 151.673 L
316.806 151.528 L
316.393 151.385 L
315.981 151.244 L
315.569 151.106 L
315.157 150.969 L
314.746 150.834 L
314.335 150.702 L
313.925 150.571 L
313.515 150.443 L
313.106 150.316 L
312.698 150.192 L
312.291 150.07 L
311.885 149.949 L
311.48 149.831 L
311.077 149.715 L
310.674 149.602 L
310.274 149.49 L
309.874 149.381 L
309.477 149.274 L
309.081 149.169 L
308.687 149.066 L
308.295 148.965 L
307.905 148.867 L
307.517 148.771 L
307.132 148.677 L
306.748 148.585 L
306.367 148.496 L
305.989 148.408 L
305.612 148.324 L
305.239 148.241 L
304.868 148.161 L
304.5 148.083 L
304.135 148.007 L
303.773 147.934 L
303.414 147.863 L
303.058 147.794 L
302.705 147.728 L
302.355 147.664 L
302.009 147.602 L
301.666 147.543 L
301.326 147.486 L
300.99 147.431 L
300.657 147.379 L
300.328 147.329 L
300.003 147.282 L
299.682 147.237 L
299.364 147.194 L
299.05 147.154 L
298.74 147.116 L
298.434 147.081 L
298.132 147.048 L
297.834 147.018 L
297.54 146.989 L
297.25 146.964 L
296.965 146.94 L
296.683 146.919 L
296.406 146.901 L
296.134 146.885 L
295.865 146.871 L
295.601 146.86 L
295.342 146.852 L
295.086 146.845 L
294.836 146.841 L
294.589 146.84 L
294.348 146.841 L
294.111 146.844 L
293.878 146.85 L
293.65 146.859 L
293.427 146.869 L
293.208 146.883 L
292.994 146.898 L
292.784 146.916 L
292.579 146.937 L
292.379 146.96 L
292.184 146.985 L
291.993 147.013 L
291.807 147.043 L
291.625 147.076 L
291.449 147.111 L
291.277 147.148 L
291.109 147.188 L
290.947 147.23 L
290.789 147.275 L
290.635 147.322 L
290.487 147.371 L
290.342 147.423 L
290.203 147.477 L
290.068 147.534 L
289.938 147.592 L
289.812 147.654 L
289.691 147.717 L
289.575 147.783 L
289.463 147.852 L
289.355 147.922 L
289.252 147.995 L
289.153 148.071 L
289.059 148.148 L
288.969 148.228 L
288.883 148.31 L
288.802 148.395 L
288.725 148.482 L
288.652 148.571 L
288.583 148.662 L
288.519 148.755 L
288.459 148.851 L
288.402 148.949 L
288.35 149.05 L
288.302 149.152 L
288.257 149.257 L
288.217 149.364 L
288.18 149.473 L
288.147 149.584 L
288.118 149.697 L
288.092 149.813 L
288.07 149.93 L
288.052 150.05 L
288.037 150.172 L
288.026 150.296 L
288.018 150.422 L
288.013 150.551 L
288.012 150.681 L
288.013 150.813 L
288.018 150.947 L
288.026 151.084 L
288.037 151.222 L
288.051 151.363 L
288.068 151.505 L
288.088 151.649 L
288.11 151.796 L
288.135 151.944 L
288.163 152.094 L
288.194 152.246 L
288.226 152.4 L
288.262 152.556 L
288.299 152.714 L
288.339 152.873 L
288.381 153.035 L
288.425 153.198 L
288.471 153.363 L
288.52 153.53 L
288.57 153.698 L
288.622 153.869 L
288.676 154.041 L
288.731 154.214 L
288.788 154.39 L
288.847 154.567 L
288.907 154.746 L
288.968 154.926 L
289.031 155.108 L
289.095 155.292 L
289.16 155.477 L
289.227 155.664 L
289.294 155.852 L
289.362 156.042 L
289.432 156.234 L
289.502 156.427 L
289.572 156.621 L
289.644 156.817 L
289.716 157.014 L
289.788 157.213 L
289.861 157.413 L
289.935 157.615 L
290.009 157.818 L
290.082 158.022 L
290.157 158.227 L
290.231 158.434 L
290.305 158.642 L
290.379 158.852 L
290.453 159.062 L
290.527 159.274 L
290.601 159.487 L
290.675 159.701 L
290.748 159.917 L
290.82 160.133 L
290.893 160.351 L
290.964 160.569 L
291.035 160.789 L
291.106 161.01 L
291.175 161.232 L
291.244 161.454 L
291.312 161.678 L
291.379 161.903 L
291.445 162.128 L
291.51 162.355 L
291.574 162.582 L
291.637 162.811 L
291.699 163.04 L
291.76 163.27 L
291.819 163.5 L
291.877 163.732 L
291.934 163.964 L
291.989 164.197 L
292.043 164.431 L
292.095 164.665 L
292.146 164.9 L
292.195 165.136 L
292.243 165.372 L
292.289 165.609 L
292.333 165.846 L
292.376 166.084 L
292.416 166.322 L
292.456 166.561 L
292.493 166.801 L
292.528 167.04 L
292.562 167.281 L
292.594 167.521 L
292.623 167.762 L
292.651 168.004 L
292.677 168.245 L
292.701 168.487 L
292.723 168.729 L
292.743 168.972 L
292.761 169.215 L
292.777 169.457 L
292.79 169.701 L
292.802 169.944 L
292.812 170.187 L
292.82 170.431 L
292.825 170.674 L
292.829 170.918 L
292.83 171.161 L
292.829 171.405 L
292.826 171.648 L
292.822 171.892 L
292.815 172.135 L
292.806 172.379 L
292.794 172.622 L
292.781 172.865 L
292.766 173.108 L
292.749 173.351 L
292.73 173.593 L
292.708 173.836 L
292.685 174.078 L
292.66 174.319 L
292.632 174.561 L
292.603 174.802 L
292.572 175.043 L
292.539 175.283 L
292.504 175.523 L
292.468 175.762 L
292.429 176.002 L
292.389 176.24 L
292.347 176.478 L
292.303 176.716 L
292.258 176.953 L
292.21 177.189 L
292.162 177.425 L
292.111 177.66 L
292.06 177.895 L
292.006 178.129 L
291.951 178.362 L
291.895 178.594 L
291.838 178.826 L
291.779 179.057 L
291.719 179.287 L
291.657 179.517 L
291.595 179.745 L
291.531 179.973 L
291.466 180.2 L
291.4 180.425 L
291.333 180.65 L
291.266 180.875 L
291.197 181.098 L
291.128 181.32 L
291.058 181.541 L
290.987 181.761 L
290.915 181.98 L
290.843 182.198 L
290.771 182.415 L
290.698 182.63 L
290.625 182.845 L
290.551 183.058 L
290.477 183.27 L
290.403 183.481 L
290.329 183.691 L
290.255 183.9 L
290.18 184.107 L
290.106 184.313 L
290.032 184.517 L
289.958 184.721 L
289.885 184.923 L
289.812 185.123 L
289.739 185.322 L
289.667 185.52 L
289.595 185.717 L
289.524 185.911 L
289.454 186.105 L
289.384 186.297 L
289.316 186.487 L
289.248 186.676 L
289.181 186.863 L
289.116 187.049 L
289.051 187.233 L
288.988 187.416 L
288.926 187.597 L
288.866 187.776 L
288.807 187.954 L
288.749 188.13 L
288.693 188.304 L
288.639 188.477 L
288.586 188.648 L
288.535 188.817 L
288.487 188.984 L
288.44 189.15 L
288.395 189.314 L
288.352 189.476 L
288.312 189.636 L
288.273 189.794 L
288.237 189.95 L
288.204 190.105 L
288.173 190.258 L
288.144 190.408 L
288.118 190.557 L
288.095 190.704 L
288.074 190.849 L
288.056 190.992 L
288.041 191.133 L
288.029 191.272 L
288.02 191.409 L
288.015 191.544 L
288.012 191.677 L
288.012 191.808 L
288.016 191.937 L
288.023 192.064 L
288.033 192.189 L
288.047 192.311 L
288.064 192.432 L
288.085 192.55 L
288.109 192.666 L
288.137 192.78 L
288.169 192.892 L
288.205 193.002 L
288.244 193.11 L
288.287 193.215 L
288.334 193.318 L
288.385 193.419 L
288.44 193.518 L
288.499 193.614 L
288.562 193.709 L
288.63 193.801 L
288.701 193.89 L
288.777 193.978 L
288.857 194.063 L
288.941 194.146 L
289.03 194.227 L
289.123 194.305 L
289.22 194.381 L
289.322 194.455 L
289.428 194.526 L
289.538 194.595 L
289.654 194.662 L
289.773 194.726 L
289.897 194.788 L
290.026 194.848 L
290.16 194.905 L
290.298 194.96 L
290.44 195.013 L
290.587 195.063 L
290.739 195.111 L
290.896 195.156 L
291.057 195.199 L
291.223 195.24 L
291.393 195.278 L
291.569 195.313 L
291.749 195.347 L
291.933 195.378 L
292.122 195.406 L
292.316 195.432 L
292.515 195.456 L
292.718 195.477 L
292.926 195.496 L
293.139 195.513 L
293.356 195.527 L
293.578 195.538 L
293.805 195.547 L
294.036 195.554 L
294.272 195.558 L
294.512 195.56 L
294.757 195.559 L
295.006 195.556 L
295.26 195.551 L
295.518 195.543 L
295.781 195.532 L
296.048 195.52 L
296.319 195.504 L
296.595 195.487 L
296.875 195.467 L
297.159 195.444 L
297.447 195.419 L
297.74 195.392 L
298.037 195.362 L
298.337 195.33 L
298.642 195.295 L
298.951 195.258 L
299.263 195.219 L
299.58 195.177 L
299.9 195.133 L
300.224 195.086 L
300.552 195.037 L
300.884 194.985 L
301.219 194.932 L
301.557 194.876 L
301.899 194.817 L
302.244 194.756 L
302.593 194.693 L
302.945 194.627 L
303.3 194.559 L
303.658 194.489 L
304.02 194.417 L
304.384 194.342 L
304.751 194.264 L
305.121 194.185 L
305.493 194.103 L
305.868 194.019 L
306.246 193.932 L
306.627 193.844 L
307.009 193.753 L
307.394 193.66 L
307.781 193.564 L
308.171 193.467 L
308.562 193.367 L
308.955 193.264 L
309.351 193.16 L
309.748 193.054 L
310.146 192.945 L
310.547 192.834 L
310.948 192.721 L
311.351 192.606 L
311.756 192.488 L
312.162 192.369 L
312.568 192.247 L
312.976 192.124 L
313.385 191.998 L
313.794 191.87 L
314.204 191.74 L
314.615 191.608 L
315.026 191.474 L
315.438 191.338 L
315.85 191.2 L
316.262 191.06 L
316.674 190.918 L
317.086 190.774 L
317.499 190.628 L
317.91 190.48 L
318.322 190.33 L
318.733 190.178 L
319.143 190.025 L
319.553 189.869 L
319.962 189.712 L
320.37 189.552 L
320.777 189.391 L
321.183 189.228 L
321.588 189.064 L
321.992 188.897 L
322.394 188.729 L
322.794 188.559 L
323.193 188.387 L
323.59 188.213 L
323.986 188.038 L
324.379 187.861 L
324.77 187.683 L
325.16 187.503 L
325.546 187.321 L
325.931 187.137 L
326.313 186.952 L
326.692 186.766 L
327.069 186.578 L
327.443 186.388 L
327.814 186.197 L
328.181 186.004 L
328.546 185.81 L
328.908 185.614 L
329.266 185.417 L
329.621 185.219 L
329.972 185.019 L
330.32 184.817 L
330.664 184.615 L
331.004 184.411 L
331.34 184.205 L
331.673 183.999 L
332.001 183.791 L
332.325 183.582 L
332.645 183.371 L
332.96 183.16 L
333.271 182.947 L
333.577 182.733 L
333.879 182.518 L
334.176 182.301 L
334.468 182.084 L
334.755 181.866 L
335.037 181.646 L
335.314 181.425 L
335.586 181.204 L
335.853 180.981 L
336.115 180.758 L
336.371 180.533 L
336.621 180.308 L
336.867 180.081 L
337.106 179.854 L
337.34 179.626 L
337.568 179.397 L
337.791 179.167 L
338.007 178.936 L
338.218 178.705 L
338.423 178.473 L
338.621 178.24 L
338.814 178.007 L
339 177.772 L
339.18 177.537 L
339.354 177.302 L
339.522 177.066 L
339.683 176.829 L
339.838 176.592 L
339.986 176.354 L
340.128 176.116 L
340.263 175.877 L
340.392 175.637 L
340.514 175.398 L
340.629 175.158 L
340.738 174.917 L
340.84 174.676 L
340.935 174.435 L
341.024 174.193 L
341.106 173.951 L
341.18 173.709 L
341.248 173.467 L
341.31 173.224 L
341.364 172.981 L
341.411 172.738 L
341.452 172.495 L
341.485 172.252 L
341.512 172.008 L
341.531 171.765 L
341.544 171.521 L
341.55 171.278 L
S
GR
GS
[0.75 0 0 0.75 0 -0.25] CT
1 LJ
0.667 LW
N
145.8 66.8 M
424.2 66.8 L
S
GR
GS
[0.75 0 0 0.75 0 -0.25] CT
1 LJ
0.667 LW
N
145.8 345.2 M
424.2 345.2 L
S
GR
GS
[0.75 0 0 0.75 0 -0.25] CT
1 LJ
0.667 LW
N
424.2 345.2 M
424.2 66.8 L
S
GR
GS
[0.75 0 0 0.75 0 -0.25] CT
1 LJ
0.667 LW
N
145.8 345.2 M
145.8 66.8 L
S
GR
GS
[0.75 0 0 0.75 161.55 206.45] CT
N
1.469 4.48 M
0.828 1.324 L
1.391 1.324 L
1.5 1.871 1.578 2.292 QT
1.656 2.714 1.797 2.886 QT
1.938 3.058 2.234 3.113 QT
2.531 3.167 3.203 3.167 QT
4.375 3.167 L
4.094 2.089 2.984 0.363 QT
1.875 -1.364 1.469 -2.145 QT
1.063 -2.926 1.063 -4.161 QT
1.063 -5.598 1.922 -6.684 QT
2.781 -7.77 4.125 -8.34 QT
5.469 -8.911 6.859 -8.911 QT
8.234 -8.911 9.578 -8.34 QT
10.922 -7.77 11.781 -6.676 QT
12.641 -5.583 12.641 -4.161 QT
12.641 -3.208 12.289 -2.348 QT
11.938 -1.489 11.391 -0.637 QT
10.844 0.214 10.203 1.261 QT
9.563 2.308 9.328 3.167 QT
10.484 3.167 L
11.172 3.167 11.484 3.113 QT
11.797 3.058 11.922 2.886 QT
12.047 2.714 12.125 2.292 QT
12.203 1.871 12.313 1.324 QT
12.859 1.324 L
12.234 4.48 L
8.875 4.48 L
8.688 4.48 8.688 4.23 QT
8.688 3.261 8.922 2.331 QT
9.156 1.402 9.617 0.089 QT
10.078 -1.223 10.344 -2.231 QT
10.609 -3.239 10.609 -4.161 QT
10.609 -5.301 10.164 -6.278 QT
9.719 -7.254 8.859 -7.84 QT
8 -8.426 6.859 -8.426 QT
5.125 -8.426 4.109 -7.184 QT
3.094 -5.942 3.094 -4.161 QT
3.109 -3.192 3.328 -2.333 QT
3.547 -1.473 4.047 -0.036 QT
4.547 1.402 4.781 2.331 QT
5.016 3.261 5.016 4.23 QT
5.016 4.48 4.828 4.48 QT
1.469 4.48 L
cp
f
GR
GS
[0.75 0 0 0.75 208.53001 159.47001] CT
N
0.578 4.48 M
0.578 3.808 L
2.547 3.808 2.547 3.214 QT
2.547 -7.223 L
2.547 -7.833 0.578 -7.833 QT
0.578 -8.504 L
10.531 -8.504 L
11.063 -4.145 L
10.516 -4.145 L
10.375 -5.348 10.195 -6.012 QT
10.016 -6.676 9.641 -7.075 QT
9.266 -7.473 8.602 -7.653 QT
7.938 -7.833 6.75 -7.833 QT
5.281 -7.833 L
4.938 -7.833 4.75 -7.801 QT
4.563 -7.77 4.438 -7.637 QT
4.313 -7.504 4.313 -7.223 QT
4.313 3.214 L
4.313 3.808 6.75 3.808 QT
6.75 4.48 L
0.578 4.48 L
cp
f
GR
GS
[0.75 0 0 0.75 208.53001 159.47001] CT
N
12.682 -3.232 M
12.682 -3.466 12.792 -3.732 QT
13.839 -6.528 L
14.01 -7.013 14.01 -7.31 QT
14.01 -7.7 13.729 -7.7 QT
13.214 -7.7 12.878 -7.169 QT
12.542 -6.638 12.385 -5.982 QT
12.354 -5.903 12.276 -5.903 QT
12.12 -5.903 L
12.01 -5.903 12.01 -6.028 QT
12.01 -6.06 L
12.229 -6.841 12.659 -7.442 QT
13.089 -8.044 13.745 -8.044 QT
14.214 -8.044 14.534 -7.739 QT
14.854 -7.435 14.854 -6.966 QT
14.854 -6.716 14.745 -6.45 QT
13.698 -3.653 L
13.51 -3.232 13.51 -2.872 QT
13.51 -2.497 13.807 -2.497 QT
14.323 -2.497 14.659 -3.036 QT
14.995 -3.575 15.135 -4.2 QT
15.167 -4.278 15.245 -4.278 QT
15.401 -4.278 L
15.448 -4.278 15.479 -4.247 QT
15.51 -4.216 15.51 -4.169 QT
15.51 -4.153 15.495 -4.122 QT
15.323 -3.388 14.885 -2.771 QT
14.448 -2.153 13.792 -2.153 QT
13.323 -2.153 13.003 -2.466 QT
12.682 -2.778 12.682 -3.232 QT
cp
14.151 -10.169 M
14.151 -10.45 14.378 -10.669 QT
14.604 -10.888 14.885 -10.888 QT
15.104 -10.888 15.245 -10.755 QT
15.385 -10.622 15.385 -10.403 QT
15.385 -10.122 15.151 -9.896 QT
14.917 -9.669 14.651 -9.669 QT
14.432 -9.669 14.292 -9.817 QT
14.151 -9.966 14.151 -10.169 QT
cp
f
GR
GS
[0.75 0 0 0.75 208.53001 159.47001] CT
N
17.168 -2.513 M
17.168 -2.591 17.184 -2.638 QT
18.153 -6.513 L
18.246 -6.872 18.246 -7.138 QT
18.246 -7.7 17.871 -7.7 QT
17.465 -7.7 17.27 -7.216 QT
17.075 -6.732 16.887 -5.982 QT
16.887 -5.95 16.848 -5.927 QT
16.809 -5.903 16.778 -5.903 QT
16.621 -5.903 L
16.575 -5.903 16.543 -5.95 QT
16.512 -5.997 16.512 -6.044 QT
16.653 -6.607 16.786 -6.997 QT
16.918 -7.388 17.192 -7.716 QT
17.465 -8.044 17.887 -8.044 QT
18.371 -8.044 18.746 -7.732 QT
19.121 -7.419 19.121 -6.95 QT
19.512 -7.45 20.028 -7.747 QT
20.543 -8.044 21.137 -8.044 QT
21.59 -8.044 21.926 -7.88 QT
22.262 -7.716 22.45 -7.396 QT
22.637 -7.075 22.637 -6.638 QT
22.637 -6.107 22.403 -5.349 QT
22.168 -4.591 21.809 -3.653 QT
21.621 -3.232 21.621 -2.872 QT
21.621 -2.497 21.918 -2.497 QT
22.434 -2.497 22.77 -3.036 QT
23.106 -3.575 23.246 -4.2 QT
23.278 -4.278 23.356 -4.278 QT
23.512 -4.278 L
23.559 -4.278 23.598 -4.247 QT
23.637 -4.216 23.637 -4.169 QT
23.637 -4.153 23.621 -4.122 QT
23.45 -3.388 23.004 -2.771 QT
22.559 -2.153 21.903 -2.153 QT
21.45 -2.153 21.121 -2.466 QT
20.793 -2.778 20.793 -3.232 QT
20.793 -3.466 20.903 -3.732 QT
21.059 -4.153 21.27 -4.747 QT
21.481 -5.341 21.621 -5.88 QT
21.762 -6.419 21.762 -6.825 QT
21.762 -7.2 21.614 -7.45 QT
21.465 -7.7 21.106 -7.7 QT
20.637 -7.7 20.231 -7.489 QT
19.825 -7.278 19.528 -6.935 QT
19.231 -6.591 18.981 -6.122 QT
18.106 -2.575 L
18.059 -2.403 17.903 -2.278 QT
17.746 -2.153 17.559 -2.153 QT
17.403 -2.153 17.286 -2.255 QT
17.168 -2.357 17.168 -2.513 QT
cp
f
GR
GS
[0.75 0 0 0.75 114.57 75.95] CT
N
/f1505686388{0.578 4.48 M
0.578 3.808 L
2.547 3.808 2.547 3.214 QT
2.547 -7.223 L
2.547 -7.833 0.578 -7.833 QT
0.578 -8.504 L
10.531 -8.504 L
11.063 -4.145 L
10.516 -4.145 L
10.375 -5.348 10.195 -6.012 QT
10.016 -6.676 9.641 -7.075 QT
9.266 -7.473 8.602 -7.653 QT
7.938 -7.833 6.75 -7.833 QT
5.281 -7.833 L
4.938 -7.833 4.75 -7.801 QT
4.563 -7.77 4.438 -7.637 QT
4.313 -7.504 4.313 -7.223 QT
4.313 3.214 L
4.313 3.808 6.75 3.808 QT
6.75 4.48 L
0.578 4.48 L
cp}def
f1505686388
f
GR
GS
[0.75 0 0 0.75 114.57 75.95] CT
N
/f-1084801971{14.276 -2.153 M
13.667 -2.153 13.19 -2.442 QT
12.714 -2.732 12.448 -3.224 QT
12.182 -3.716 12.182 -4.357 QT
12.182 -5.232 12.675 -6.099 QT
13.167 -6.966 13.987 -7.505 QT
14.807 -8.044 15.698 -8.044 QT
16.182 -8.044 16.557 -7.88 QT
16.932 -7.716 17.214 -7.411 QT
17.495 -7.107 17.643 -6.708 QT
17.792 -6.31 17.792 -5.841 QT
17.792 -5.169 17.503 -4.513 QT
17.214 -3.857 16.721 -3.317 QT
16.229 -2.778 15.589 -2.466 QT
14.948 -2.153 14.276 -2.153 QT
cp
14.307 -2.497 M
14.885 -2.497 15.362 -2.888 QT
15.839 -3.278 16.151 -3.88 QT
16.464 -4.482 16.628 -5.146 QT
16.792 -5.81 16.792 -6.357 QT
16.792 -6.919 16.51 -7.31 QT
16.229 -7.7 15.667 -7.7 QT
14.917 -7.7 14.339 -7.052 QT
13.76 -6.403 13.479 -5.497 QT
13.198 -4.591 13.198 -3.841 QT
13.198 -3.278 13.479 -2.888 QT
13.76 -2.497 14.307 -2.497 QT
cp}def
f-1084801971
f
GR
GS
[0.75 0 0 0.75 114.57 75.95] CT
N
/f713702728{19.375 -3.716 M
19.375 -4.138 19.493 -4.583 QT
19.61 -5.028 19.813 -5.575 QT
20.016 -6.122 20.172 -6.528 QT
20.344 -7.013 20.344 -7.31 QT
20.344 -7.7 20.063 -7.7 QT
19.547 -7.7 19.211 -7.169 QT
18.875 -6.638 18.719 -5.982 QT
18.688 -5.903 18.61 -5.903 QT
18.454 -5.903 L
18.344 -5.903 18.344 -6.028 QT
18.344 -6.06 L
18.563 -6.841 18.993 -7.442 QT
19.422 -8.044 20.079 -8.044 QT
20.547 -8.044 20.868 -7.739 QT
21.188 -7.435 21.188 -6.966 QT
21.188 -6.716 21.079 -6.45 QT
21.016 -6.294 20.813 -5.763 QT
20.61 -5.232 20.508 -4.88 QT
20.407 -4.528 20.336 -4.192 QT
20.266 -3.857 20.266 -3.513 QT
20.266 -3.091 20.446 -2.794 QT
20.625 -2.497 21.047 -2.497 QT
21.875 -2.497 22.5 -3.513 QT
22.516 -3.575 22.524 -3.622 QT
22.532 -3.669 22.532 -3.716 QT
23.469 -7.482 L
23.516 -7.653 23.672 -7.778 QT
23.829 -7.903 24.016 -7.903 QT
24.172 -7.903 24.289 -7.802 QT
24.407 -7.7 24.407 -7.528 QT
24.407 -7.45 24.407 -7.435 QT
23.454 -3.685 L
23.375 -3.294 23.375 -3.044 QT
23.375 -2.497 23.75 -2.497 QT
24.157 -2.497 24.368 -3.013 QT
24.579 -3.528 24.719 -4.2 QT
24.75 -4.278 24.829 -4.278 QT
24.985 -4.278 L
25.032 -4.278 25.063 -4.232 QT
25.094 -4.185 25.094 -4.153 QT
24.954 -3.591 24.829 -3.192 QT
24.704 -2.794 24.422 -2.474 QT
24.141 -2.153 23.719 -2.153 QT
23.313 -2.153 22.985 -2.38 QT
22.657 -2.607 22.532 -2.982 QT
22.235 -2.607 21.844 -2.38 QT
21.454 -2.153 21.016 -2.153 QT
20.266 -2.153 19.821 -2.56 QT
19.375 -2.966 19.375 -3.716 QT
cp}def
f713702728
f
GR
GS
[0.75 0 0 0.75 114.57 75.95] CT
N
/f-634450302{26.293 -3.341 M
26.293 -3.544 26.324 -3.716 QT
27.262 -7.435 L
25.902 -7.435 L
25.762 -7.435 25.762 -7.607 QT
25.824 -7.903 25.934 -7.903 QT
27.371 -7.903 L
27.902 -10.013 L
27.949 -10.185 28.106 -10.31 QT
28.262 -10.435 28.449 -10.435 QT
28.606 -10.435 28.723 -10.333 QT
28.84 -10.232 28.84 -10.075 QT
28.84 -10.028 28.832 -10.005 QT
28.824 -9.982 28.824 -9.966 QT
28.293 -7.903 L
29.637 -7.903 L
29.777 -7.903 29.777 -7.732 QT
29.762 -7.7 29.746 -7.622 QT
29.731 -7.544 29.699 -7.489 QT
29.668 -7.435 29.606 -7.435 QT
28.184 -7.435 L
27.246 -3.685 L
27.152 -3.31 27.152 -3.044 QT
27.152 -2.497 27.543 -2.497 QT
28.106 -2.497 28.551 -3.028 QT
28.996 -3.56 29.231 -4.2 QT
29.277 -4.278 29.324 -4.278 QT
29.481 -4.278 L
29.543 -4.278 29.574 -4.247 QT
29.606 -4.216 29.606 -4.169 QT
29.606 -4.138 29.59 -4.122 QT
29.309 -3.341 28.762 -2.747 QT
28.215 -2.153 27.512 -2.153 QT
26.996 -2.153 26.645 -2.489 QT
26.293 -2.825 26.293 -3.341 QT
cp}def
f-634450302
f
GR
%%Trailer
%%Pages: 1
%%EOF
