%!PS-Adobe-3.0 EPSF-3.0
%%Creator: (MATLAB, The Mathworks, Inc. Version 9.11.0.1769968 \(R2021b\). Operating System: Linux)
%%Title: (/scratch/users/ppanchal/Repositories/gypsilab/Piyush's codes/Dirichlet_BVP_SG/2D/Mesh_images/sqkite_bnd.eps)
%%CreationDate: 2022-07-06T13:14:21
%%Pages: (atend)
%%BoundingBox:     0     0   420   315
%%LanguageLevel: 3
%%EndComments
%%BeginProlog
%%BeginResource: procset (Apache XML Graphics Std ProcSet) 1.2 0
%%Version: 1.2 0
%%Copyright: (Copyright 2001-2003,2010 The Apache Software Foundation. License terms: http://www.apache.org/licenses/LICENSE-2.0)
/bd{bind def}bind def
/ld{load def}bd
/GR/grestore ld
/GS/gsave ld
/RM/rmoveto ld
/C/curveto ld
/t/show ld
/L/lineto ld
/ML/setmiterlimit ld
/CT/concat ld
/f/fill ld
/N/newpath ld
/S/stroke ld
/CC/setcmykcolor ld
/A/ashow ld
/cp/closepath ld
/RC/setrgbcolor ld
/LJ/setlinejoin ld
/GC/setgray ld
/LW/setlinewidth ld
/M/moveto ld
/re {4 2 roll M
1 index 0 rlineto
0 exch rlineto
neg 0 rlineto
cp } bd
/_ctm matrix def
/_tm matrix def
/BT { _ctm currentmatrix pop matrix _tm copy pop 0 0 moveto } bd
/ET { _ctm setmatrix } bd
/iTm { _ctm setmatrix _tm concat } bd
/Tm { _tm astore pop iTm 0 0 moveto } bd
/ux 0.0 def
/uy 0.0 def
/F {
  /Tp exch def
  /Tf exch def
  Tf findfont Tp scalefont setfont
  /cf Tf def  /cs Tp def
} bd
/ULS {currentpoint /uy exch def /ux exch def} bd
/ULE {
  /Tcx currentpoint pop def
  gsave
  newpath
  cf findfont cs scalefont dup
  /FontMatrix get 0 get /Ts exch def /FontInfo get dup
  /UnderlinePosition get Ts mul /To exch def
  /UnderlineThickness get Ts mul /Tt exch def
  ux uy To add moveto  Tcx uy To add lineto
  Tt setlinewidth stroke
  grestore
} bd
/OLE {
  /Tcx currentpoint pop def
  gsave
  newpath
  cf findfont cs scalefont dup
  /FontMatrix get 0 get /Ts exch def /FontInfo get dup
  /UnderlinePosition get Ts mul /To exch def
  /UnderlineThickness get Ts mul /Tt exch def
  ux uy To add cs add moveto Tcx uy To add cs add lineto
  Tt setlinewidth stroke
  grestore
} bd
/SOE {
  /Tcx currentpoint pop def
  gsave
  newpath
  cf findfont cs scalefont dup
  /FontMatrix get 0 get /Ts exch def /FontInfo get dup
  /UnderlinePosition get Ts mul /To exch def
  /UnderlineThickness get Ts mul /Tt exch def
  ux uy To add cs 10 mul 26 idiv add moveto Tcx uy To add cs 10 mul 26 idiv add lineto
  Tt setlinewidth stroke
  grestore
} bd
/QT {
/Y22 exch store
/X22 exch store
/Y21 exch store
/X21 exch store
currentpoint
/Y21 load 2 mul add 3 div exch
/X21 load 2 mul add 3 div exch
/X21 load 2 mul /X22 load add 3 div
/Y21 load 2 mul /Y22 load add 3 div
/X22 load /Y22 load curveto
} bd
/SSPD {
dup length /d exch dict def
{
/v exch def
/k exch def
currentpagedevice k known {
/cpdv currentpagedevice k get def
v cpdv ne {
/upd false def
/nullv v type /nulltype eq def
/nullcpdv cpdv type /nulltype eq def
nullv nullcpdv or
{
/upd true def
} {
/sametype v type cpdv type eq def
sametype {
v type /arraytype eq {
/vlen v length def
/cpdvlen cpdv length def
vlen cpdvlen eq {
0 1 vlen 1 sub {
/i exch def
/obj v i get def
/cpdobj cpdv i get def
obj cpdobj ne {
/upd true def
exit
} if
} for
} {
/upd true def
} ifelse
} {
v type /dicttype eq {
v {
/dv exch def
/dk exch def
/cpddv cpdv dk get def
dv cpddv ne {
/upd true def
exit
} if
} forall
} {
/upd true def
} ifelse
} ifelse
} if
} ifelse
upd true eq {
d k v put
} if
} if
} if
} forall
d length 0 gt {
d setpagedevice
} if
} bd
/RE { % /NewFontName [NewEncodingArray] /FontName RE -
  findfont dup length dict begin
  {
    1 index /FID ne
    {def} {pop pop} ifelse
  } forall
  /Encoding exch def
  /FontName 1 index def
  currentdict definefont pop
  end
} bind def
%%EndResource
%%BeginResource: procset (Apache XML Graphics EPS ProcSet) 1.0 0
%%Version: 1.0 0
%%Copyright: (Copyright 2002-2003 The Apache Software Foundation. License terms: http://www.apache.org/licenses/LICENSE-2.0)
/BeginEPSF { %def
/b4_Inc_state save def         % Save state for cleanup
/dict_count countdictstack def % Count objects on dict stack
/op_count count 1 sub def      % Count objects on operand stack
userdict begin                 % Push userdict on dict stack
/showpage { } def              % Redefine showpage, { } = null proc
0 setgray 0 setlinecap         % Prepare graphics state
1 setlinewidth 0 setlinejoin
10 setmiterlimit [ ] 0 setdash newpath
/languagelevel where           % If level not equal to 1 then
{pop languagelevel             % set strokeadjust and
1 ne                           % overprint to their defaults.
{false setstrokeadjust false setoverprint
} if
} if
} bd
/EndEPSF { %def
count op_count sub {pop} repeat            % Clean up stacks
countdictstack dict_count sub {end} repeat
b4_Inc_state restore
} bd
%%EndResource
%FOPBeginFontDict
%%IncludeResource: font Courier-Oblique
%%IncludeResource: font Courier-BoldOblique
%%IncludeResource: font Courier-Bold
%%IncludeResource: font ZapfDingbats
%%IncludeResource: font Symbol
%%IncludeResource: font Helvetica
%%IncludeResource: font Helvetica-Oblique
%%IncludeResource: font Helvetica-Bold
%%IncludeResource: font Helvetica-BoldOblique
%%IncludeResource: font Times-Roman
%%IncludeResource: font Times-Italic
%%IncludeResource: font Times-Bold
%%IncludeResource: font Times-BoldItalic
%%IncludeResource: font Courier
%FOPEndFontDict
%%BeginResource: encoding WinAnsiEncoding
/WinAnsiEncoding [
/.notdef /.notdef /.notdef /.notdef /.notdef
/.notdef /.notdef /.notdef /.notdef /.notdef
/.notdef /.notdef /.notdef /.notdef /.notdef
/.notdef /.notdef /.notdef /.notdef /.notdef
/.notdef /.notdef /.notdef /.notdef /.notdef
/.notdef /.notdef /.notdef /.notdef /.notdef
/.notdef /.notdef /space /exclam /quotedbl
/numbersign /dollar /percent /ampersand /quotesingle
/parenleft /parenright /asterisk /plus /comma
/hyphen /period /slash /zero /one
/two /three /four /five /six
/seven /eight /nine /colon /semicolon
/less /equal /greater /question /at
/A /B /C /D /E
/F /G /H /I /J
/K /L /M /N /O
/P /Q /R /S /T
/U /V /W /X /Y
/Z /bracketleft /backslash /bracketright /asciicircum
/underscore /quoteleft /a /b /c
/d /e /f /g /h
/i /j /k /l /m
/n /o /p /q /r
/s /t /u /v /w
/x /y /z /braceleft /bar
/braceright /asciitilde /bullet /Euro /bullet
/quotesinglbase /florin /quotedblbase /ellipsis /dagger
/daggerdbl /circumflex /perthousand /Scaron /guilsinglleft
/OE /bullet /Zcaron /bullet /bullet
/quoteleft /quoteright /quotedblleft /quotedblright /bullet
/endash /emdash /asciitilde /trademark /scaron
/guilsinglright /oe /bullet /zcaron /Ydieresis
/space /exclamdown /cent /sterling /currency
/yen /brokenbar /section /dieresis /copyright
/ordfeminine /guillemotleft /logicalnot /sfthyphen /registered
/macron /degree /plusminus /twosuperior /threesuperior
/acute /mu /paragraph /middot /cedilla
/onesuperior /ordmasculine /guillemotright /onequarter /onehalf
/threequarters /questiondown /Agrave /Aacute /Acircumflex
/Atilde /Adieresis /Aring /AE /Ccedilla
/Egrave /Eacute /Ecircumflex /Edieresis /Igrave
/Iacute /Icircumflex /Idieresis /Eth /Ntilde
/Ograve /Oacute /Ocircumflex /Otilde /Odieresis
/multiply /Oslash /Ugrave /Uacute /Ucircumflex
/Udieresis /Yacute /Thorn /germandbls /agrave
/aacute /acircumflex /atilde /adieresis /aring
/ae /ccedilla /egrave /eacute /ecircumflex
/edieresis /igrave /iacute /icircumflex /idieresis
/eth /ntilde /ograve /oacute /ocircumflex
/otilde /odieresis /divide /oslash /ugrave
/uacute /ucircumflex /udieresis /yacute /thorn
/ydieresis
] def
%%EndResource
%FOPBeginFontReencode
/Courier-Oblique findfont
dup length dict begin
  {1 index /FID ne {def} {pop pop} ifelse} forall
  /Encoding WinAnsiEncoding def
  currentdict
end
/Courier-Oblique exch definefont pop
/Courier-BoldOblique findfont
dup length dict begin
  {1 index /FID ne {def} {pop pop} ifelse} forall
  /Encoding WinAnsiEncoding def
  currentdict
end
/Courier-BoldOblique exch definefont pop
/Courier-Bold findfont
dup length dict begin
  {1 index /FID ne {def} {pop pop} ifelse} forall
  /Encoding WinAnsiEncoding def
  currentdict
end
/Courier-Bold exch definefont pop
/Helvetica findfont
dup length dict begin
  {1 index /FID ne {def} {pop pop} ifelse} forall
  /Encoding WinAnsiEncoding def
  currentdict
end
/Helvetica exch definefont pop
/Helvetica-Oblique findfont
dup length dict begin
  {1 index /FID ne {def} {pop pop} ifelse} forall
  /Encoding WinAnsiEncoding def
  currentdict
end
/Helvetica-Oblique exch definefont pop
/Helvetica-Bold findfont
dup length dict begin
  {1 index /FID ne {def} {pop pop} ifelse} forall
  /Encoding WinAnsiEncoding def
  currentdict
end
/Helvetica-Bold exch definefont pop
/Helvetica-BoldOblique findfont
dup length dict begin
  {1 index /FID ne {def} {pop pop} ifelse} forall
  /Encoding WinAnsiEncoding def
  currentdict
end
/Helvetica-BoldOblique exch definefont pop
/Times-Roman findfont
dup length dict begin
  {1 index /FID ne {def} {pop pop} ifelse} forall
  /Encoding WinAnsiEncoding def
  currentdict
end
/Times-Roman exch definefont pop
/Times-Italic findfont
dup length dict begin
  {1 index /FID ne {def} {pop pop} ifelse} forall
  /Encoding WinAnsiEncoding def
  currentdict
end
/Times-Italic exch definefont pop
/Times-Bold findfont
dup length dict begin
  {1 index /FID ne {def} {pop pop} ifelse} forall
  /Encoding WinAnsiEncoding def
  currentdict
end
/Times-Bold exch definefont pop
/Times-BoldItalic findfont
dup length dict begin
  {1 index /FID ne {def} {pop pop} ifelse} forall
  /Encoding WinAnsiEncoding def
  currentdict
end
/Times-BoldItalic exch definefont pop
/Courier findfont
dup length dict begin
  {1 index /FID ne {def} {pop pop} ifelse} forall
  /Encoding WinAnsiEncoding def
  currentdict
end
/Courier exch definefont pop
%FOPEndFontReencode
%%EndProlog
%%Page: 1 1
%%PageBoundingBox: 0 0 420 315
%%BeginPageSetup
[1 0 0 -1 0 315] CT
%%EndPageSetup
GS
[0.75 0 0 0.75 0 0] CT
1 GC
N
0 0 560 420 re
f
GR
GS
[0.75 0 0 0.75 0 0] CT
1 GC
N
0 0 560 420 re
f
GR
GS
[0.75 0 0 0.75 0 0] CT
1 GC
N
73 373.65 M
507 373.65 L
507 31.35 L
73 31.35 L
cp
f
GR
GS
[0.75 0 0 0.75 0 0] CT
0.149 GC
2 setlinecap
1 LJ
0.667 LW
N
73 373.65 M
507 373.65 L
S
GR
GS
[0.75 0 0 0.75 0 0] CT
0.149 GC
2 setlinecap
1 LJ
0.667 LW
N
118.85 373.65 M
118.85 369.31 L
S
GR
GS
[0.75 0 0 0.75 0 0] CT
0.149 GC
2 setlinecap
1 LJ
0.667 LW
N
204.425 373.65 M
204.425 369.31 L
S
GR
GS
[0.75 0 0 0.75 0 0] CT
0.149 GC
2 setlinecap
1 LJ
0.667 LW
N
290 373.65 M
290 369.31 L
S
GR
GS
[0.75 0 0 0.75 0 0] CT
0.149 GC
2 setlinecap
1 LJ
0.667 LW
N
375.575 373.65 M
375.575 369.31 L
S
GR
GS
[0.75 0 0 0.75 0 0] CT
0.149 GC
2 setlinecap
1 LJ
0.667 LW
N
461.15 373.65 M
461.15 369.31 L
S
GR
GS
[0.75 0 0 0.75 89.1375 284.2375] CT
0.149 GC
/Helvetica 13.333 F
GS
[1 0 0 1 0 0] CT
-7 13 moveto 
1 -1 scale
(-2) t 
GR
GR
GS
[0.75 0 0 0.75 153.31875 284.2375] CT
0.149 GC
/Helvetica 13.333 F
GS
[1 0 0 1 0 0] CT
-7 13 moveto 
1 -1 scale
(-1) t 
GR
GR
GS
[0.75 0 0 0.75 217.5 284.2375] CT
0.149 GC
/Helvetica 13.333 F
GS
[1 0 0 1 0 0] CT
-4.5 13 moveto 
1 -1 scale
(0) t 
GR
GR
GS
[0.75 0 0 0.75 281.68126 284.2375] CT
0.149 GC
/Helvetica 13.333 F
GS
[1 0 0 1 0 0] CT
-4.5 13 moveto 
1 -1 scale
(1) t 
GR
GR
GS
[0.75 0 0 0.75 345.8625 284.2375] CT
0.149 GC
/Helvetica 13.333 F
GS
[1 0 0 1 0 0] CT
-4.5 13 moveto 
1 -1 scale
(2) t 
GR
GR
GS
[0.75 0 0 0.75 0 0] CT
0.149 GC
2 setlinecap
1 LJ
0.667 LW
N
73 373.65 M
73 31.35 L
S
GR
GS
[0.75 0 0 0.75 0 0] CT
0.149 GC
2 setlinecap
1 LJ
0.667 LW
N
73 373.65 M
77.34 373.65 L
S
GR
GS
[0.75 0 0 0.75 0 0] CT
0.149 GC
2 setlinecap
1 LJ
0.667 LW
N
73 330.862 M
77.34 330.862 L
S
GR
GS
[0.75 0 0 0.75 0 0] CT
0.149 GC
2 setlinecap
1 LJ
0.667 LW
N
73 288.075 M
77.34 288.075 L
S
GR
GS
[0.75 0 0 0.75 0 0] CT
0.149 GC
2 setlinecap
1 LJ
0.667 LW
N
73 245.288 M
77.34 245.288 L
S
GR
GS
[0.75 0 0 0.75 0 0] CT
0.149 GC
2 setlinecap
1 LJ
0.667 LW
N
73 202.5 M
77.34 202.5 L
S
GR
GS
[0.75 0 0 0.75 0 0] CT
0.149 GC
2 setlinecap
1 LJ
0.667 LW
N
73 159.712 M
77.34 159.712 L
S
GR
GS
[0.75 0 0 0.75 0 0] CT
0.149 GC
2 setlinecap
1 LJ
0.667 LW
N
73 116.925 M
77.34 116.925 L
S
GR
GS
[0.75 0 0 0.75 0 0] CT
0.149 GC
2 setlinecap
1 LJ
0.667 LW
N
73 74.137 M
77.34 74.137 L
S
GR
GS
[0.75 0 0 0.75 0 0] CT
0.149 GC
2 setlinecap
1 LJ
0.667 LW
N
73 31.35 M
77.34 31.35 L
S
GR
GS
[0.75 0 0 0.75 50.74999 280.2375] CT
0.149 GC
/Helvetica 13.333 F
GS
[1 0 0 1 0 0] CT
-14 4.5 moveto 
1 -1 scale
(-2) t 
GR
GR
GS
[0.75 0 0 0.75 50.74999 248.14687] CT
0.149 GC
/Helvetica 13.333 F
GS
[1 0 0 1 0 0] CT
-26 4.5 moveto 
1 -1 scale
(-1.5) t 
GR
GR
GS
[0.75 0 0 0.75 50.74999 216.05626] CT
0.149 GC
/Helvetica 13.333 F
GS
[1 0 0 1 0 0] CT
-14 4.5 moveto 
1 -1 scale
(-1) t 
GR
GR
GS
[0.75 0 0 0.75 50.74999 183.96563] CT
0.149 GC
/Helvetica 13.333 F
GS
[1 0 0 1 0 0] CT
-26 4.5 moveto 
1 -1 scale
(-0.5) t 
GR
GR
GS
[0.75 0 0 0.75 50.74999 151.875] CT
0.149 GC
/Helvetica 13.333 F
GS
[1 0 0 1 0 0] CT
-9 4.5 moveto 
1 -1 scale
(0) t 
GR
GR
GS
[0.75 0 0 0.75 50.74999 119.78437] CT
0.149 GC
/Helvetica 13.333 F
GS
[1 0 0 1 0 0] CT
-22 4.5 moveto 
1 -1 scale
(0.5) t 
GR
GR
GS
[0.75 0 0 0.75 50.74999 87.69375] CT
0.149 GC
/Helvetica 13.333 F
GS
[1 0 0 1 0 0] CT
-9 4.5 moveto 
1 -1 scale
(1) t 
GR
GR
GS
[0.75 0 0 0.75 50.74999 55.60312] CT
0.149 GC
/Helvetica 13.333 F
GS
[1 0 0 1 0 0] CT
-22 4.5 moveto 
1 -1 scale
(1.5) t 
GR
GR
GS
[0.75 0 0 0.75 50.74999 23.5125] CT
0.149 GC
/Helvetica 13.333 F
GS
[1 0 0 1 0 0] CT
-9 4.5 moveto 
1 -1 scale
(2) t 
GR
GR
GS
[0.75 0 0 0.75 0 0] CT
0.075 0.745 0.722 RC
2 setlinecap
10.0 ML
2.667 LW
N
461.15 357.35 M
461.15 373.65 L
S
GR
GS
[0.75 0 0 0.75 0 0] CT
0.075 0.745 0.722 RC
2 setlinecap
10.0 ML
2.667 LW
N
461.15 341.05 M
461.15 357.35 L
S
GR
GS
[0.75 0 0 0.75 0 0] CT
0.075 0.745 0.722 RC
2 setlinecap
10.0 ML
2.667 LW
N
461.15 324.75 M
461.15 341.05 L
S
GR
GS
[0.75 0 0 0.75 0 0] CT
0.075 0.745 0.722 RC
2 setlinecap
10.0 ML
2.667 LW
N
461.15 308.45 M
461.15 324.75 L
S
GR
GS
[0.75 0 0 0.75 0 0] CT
0.075 0.745 0.722 RC
2 setlinecap
10.0 ML
2.667 LW
N
461.15 292.15 M
461.15 308.45 L
S
GR
GS
[0.75 0 0 0.75 0 0] CT
0.075 0.745 0.722 RC
2 setlinecap
10.0 ML
2.667 LW
N
461.15 275.85 M
461.15 292.15 L
S
GR
GS
[0.75 0 0 0.75 0 0] CT
0.075 0.745 0.722 RC
2 setlinecap
10.0 ML
2.667 LW
N
461.15 259.55 M
461.15 275.85 L
S
GR
GS
[0.75 0 0 0.75 0 0] CT
0.075 0.745 0.722 RC
2 setlinecap
10.0 ML
2.667 LW
N
461.15 243.25 M
461.15 259.55 L
S
GR
GS
[0.75 0 0 0.75 0 0] CT
0.075 0.745 0.722 RC
2 setlinecap
10.0 ML
2.667 LW
N
461.15 226.95 M
461.15 243.25 L
S
GR
GS
[0.75 0 0 0.75 0 0] CT
0.075 0.745 0.722 RC
2 setlinecap
10.0 ML
2.667 LW
N
461.15 210.65 M
461.15 226.95 L
S
GR
GS
[0.75 0 0 0.75 0 0] CT
0.075 0.745 0.722 RC
2 setlinecap
10.0 ML
2.667 LW
N
461.15 194.35 M
461.15 210.65 L
S
GR
GS
[0.75 0 0 0.75 0 0] CT
0.075 0.745 0.722 RC
2 setlinecap
10.0 ML
2.667 LW
N
461.15 178.05 M
461.15 194.35 L
S
GR
GS
[0.75 0 0 0.75 0 0] CT
0.075 0.745 0.722 RC
2 setlinecap
10.0 ML
2.667 LW
N
461.15 161.75 M
461.15 178.05 L
S
GR
GS
[0.75 0 0 0.75 0 0] CT
0.075 0.745 0.722 RC
2 setlinecap
10.0 ML
2.667 LW
N
461.15 145.45 M
461.15 161.75 L
S
GR
GS
[0.75 0 0 0.75 0 0] CT
0.075 0.745 0.722 RC
2 setlinecap
10.0 ML
2.667 LW
N
461.15 129.15 M
461.15 145.45 L
S
GR
GS
[0.75 0 0 0.75 0 0] CT
0.075 0.745 0.722 RC
2 setlinecap
10.0 ML
2.667 LW
N
461.15 112.85 M
461.15 129.15 L
S
GR
GS
[0.75 0 0 0.75 0 0] CT
0.075 0.745 0.722 RC
2 setlinecap
10.0 ML
2.667 LW
N
461.15 96.55 M
461.15 112.85 L
S
GR
GS
[0.75 0 0 0.75 0 0] CT
0.075 0.745 0.722 RC
2 setlinecap
10.0 ML
2.667 LW
N
461.15 80.25 M
461.15 96.55 L
S
GR
GS
[0.75 0 0 0.75 0 0] CT
0.075 0.745 0.722 RC
2 setlinecap
10.0 ML
2.667 LW
N
461.15 63.95 M
461.15 80.25 L
S
GR
GS
[0.75 0 0 0.75 0 0] CT
0.075 0.745 0.722 RC
2 setlinecap
10.0 ML
2.667 LW
N
461.15 47.65 M
461.15 63.95 L
S
GR
GS
[0.75 0 0 0.75 0 0] CT
0.075 0.745 0.722 RC
2 setlinecap
10.0 ML
2.667 LW
N
461.15 31.35 M
461.15 47.65 L
S
GR
GS
[0.75 0 0 0.75 0 0] CT
0.075 0.745 0.722 RC
2 setlinecap
10.0 ML
2.667 LW
N
444.85 31.35 M
461.15 31.35 L
S
GR
GS
[0.75 0 0 0.75 0 0] CT
0.075 0.745 0.722 RC
2 setlinecap
10.0 ML
2.667 LW
N
428.55 31.35 M
444.85 31.35 L
S
GR
GS
[0.75 0 0 0.75 0 0] CT
0.075 0.745 0.722 RC
2 setlinecap
10.0 ML
2.667 LW
N
412.25 31.35 M
428.55 31.35 L
S
GR
GS
[0.75 0 0 0.75 0 0] CT
0.075 0.745 0.722 RC
2 setlinecap
10.0 ML
2.667 LW
N
395.95 31.35 M
412.25 31.35 L
S
GR
GS
[0.75 0 0 0.75 0 0] CT
0.075 0.745 0.722 RC
2 setlinecap
10.0 ML
2.667 LW
N
379.65 31.35 M
395.95 31.35 L
S
GR
GS
[0.75 0 0 0.75 0 0] CT
0.075 0.745 0.722 RC
2 setlinecap
10.0 ML
2.667 LW
N
363.35 31.35 M
379.65 31.35 L
S
GR
GS
[0.75 0 0 0.75 0 0] CT
0.075 0.745 0.722 RC
2 setlinecap
10.0 ML
2.667 LW
N
347.05 31.35 M
363.35 31.35 L
S
GR
GS
[0.75 0 0 0.75 0 0] CT
0.075 0.745 0.722 RC
2 setlinecap
10.0 ML
2.667 LW
N
330.75 31.35 M
347.05 31.35 L
S
GR
GS
[0.75 0 0 0.75 0 0] CT
0.075 0.745 0.722 RC
2 setlinecap
10.0 ML
2.667 LW
N
314.45 31.35 M
330.75 31.35 L
S
GR
GS
[0.75 0 0 0.75 0 0] CT
0.075 0.745 0.722 RC
2 setlinecap
10.0 ML
2.667 LW
N
298.15 31.35 M
314.45 31.35 L
S
GR
GS
[0.75 0 0 0.75 0 0] CT
0.075 0.745 0.722 RC
2 setlinecap
10.0 ML
2.667 LW
N
281.85 31.35 M
298.15 31.35 L
S
GR
GS
[0.75 0 0 0.75 0 0] CT
0.075 0.745 0.722 RC
2 setlinecap
10.0 ML
2.667 LW
N
265.55 31.35 M
281.85 31.35 L
S
GR
GS
[0.75 0 0 0.75 0 0] CT
0.075 0.745 0.722 RC
2 setlinecap
10.0 ML
2.667 LW
N
249.25 31.35 M
265.55 31.35 L
S
GR
GS
[0.75 0 0 0.75 0 0] CT
0.075 0.745 0.722 RC
2 setlinecap
10.0 ML
2.667 LW
N
232.95 31.35 M
249.25 31.35 L
S
GR
GS
[0.75 0 0 0.75 0 0] CT
0.075 0.745 0.722 RC
2 setlinecap
10.0 ML
2.667 LW
N
216.65 31.35 M
232.95 31.35 L
S
GR
GS
[0.75 0 0 0.75 0 0] CT
0.075 0.745 0.722 RC
2 setlinecap
10.0 ML
2.667 LW
N
200.35 31.35 M
216.65 31.35 L
S
GR
GS
[0.75 0 0 0.75 0 0] CT
0.075 0.745 0.722 RC
2 setlinecap
10.0 ML
2.667 LW
N
184.05 31.35 M
200.35 31.35 L
S
GR
GS
[0.75 0 0 0.75 0 0] CT
0.075 0.745 0.722 RC
2 setlinecap
10.0 ML
2.667 LW
N
167.75 31.35 M
184.05 31.35 L
S
GR
GS
[0.75 0 0 0.75 0 0] CT
0.075 0.745 0.722 RC
2 setlinecap
10.0 ML
2.667 LW
N
151.45 31.35 M
167.75 31.35 L
S
GR
GS
[0.75 0 0 0.75 0 0] CT
0.075 0.745 0.722 RC
2 setlinecap
10.0 ML
2.667 LW
N
135.15 31.35 M
151.45 31.35 L
S
GR
GS
[0.75 0 0 0.75 0 0] CT
0.075 0.745 0.722 RC
2 setlinecap
10.0 ML
2.667 LW
N
118.85 31.35 M
135.15 31.35 L
S
GR
GS
[0.75 0 0 0.75 0 0] CT
0.075 0.745 0.722 RC
2 setlinecap
10.0 ML
2.667 LW
N
118.85 47.65 M
118.85 31.35 L
S
GR
GS
[0.75 0 0 0.75 0 0] CT
0.075 0.745 0.722 RC
2 setlinecap
10.0 ML
2.667 LW
N
118.85 63.95 M
118.85 47.65 L
S
GR
GS
[0.75 0 0 0.75 0 0] CT
0.075 0.745 0.722 RC
2 setlinecap
10.0 ML
2.667 LW
N
118.85 80.25 M
118.85 63.95 L
S
GR
GS
[0.75 0 0 0.75 0 0] CT
0.075 0.745 0.722 RC
2 setlinecap
10.0 ML
2.667 LW
N
118.85 96.55 M
118.85 80.25 L
S
GR
GS
[0.75 0 0 0.75 0 0] CT
0.075 0.745 0.722 RC
2 setlinecap
10.0 ML
2.667 LW
N
118.85 112.85 M
118.85 96.55 L
S
GR
GS
[0.75 0 0 0.75 0 0] CT
0.075 0.745 0.722 RC
2 setlinecap
10.0 ML
2.667 LW
N
118.85 129.15 M
118.85 112.85 L
S
GR
GS
[0.75 0 0 0.75 0 0] CT
0.075 0.745 0.722 RC
2 setlinecap
10.0 ML
2.667 LW
N
118.85 145.45 M
118.85 129.15 L
S
GR
GS
[0.75 0 0 0.75 0 0] CT
0.075 0.745 0.722 RC
2 setlinecap
10.0 ML
2.667 LW
N
118.85 161.75 M
118.85 145.45 L
S
GR
GS
[0.75 0 0 0.75 0 0] CT
0.075 0.745 0.722 RC
2 setlinecap
10.0 ML
2.667 LW
N
118.85 178.05 M
118.85 161.75 L
S
GR
GS
[0.75 0 0 0.75 0 0] CT
0.075 0.745 0.722 RC
2 setlinecap
10.0 ML
2.667 LW
N
118.85 194.35 M
118.85 178.05 L
S
GR
GS
[0.75 0 0 0.75 0 0] CT
0.075 0.745 0.722 RC
2 setlinecap
10.0 ML
2.667 LW
N
118.85 210.65 M
118.85 194.35 L
S
GR
GS
[0.75 0 0 0.75 0 0] CT
0.075 0.745 0.722 RC
2 setlinecap
10.0 ML
2.667 LW
N
118.85 226.95 M
118.85 210.65 L
S
GR
GS
[0.75 0 0 0.75 0 0] CT
0.075 0.745 0.722 RC
2 setlinecap
10.0 ML
2.667 LW
N
118.85 243.25 M
118.85 226.95 L
S
GR
GS
[0.75 0 0 0.75 0 0] CT
0.075 0.745 0.722 RC
2 setlinecap
10.0 ML
2.667 LW
N
118.85 259.55 M
118.85 243.25 L
S
GR
GS
[0.75 0 0 0.75 0 0] CT
0.075 0.745 0.722 RC
2 setlinecap
10.0 ML
2.667 LW
N
118.85 275.85 M
118.85 259.55 L
S
GR
GS
[0.75 0 0 0.75 0 0] CT
0.075 0.745 0.722 RC
2 setlinecap
10.0 ML
2.667 LW
N
118.85 292.15 M
118.85 275.85 L
S
GR
GS
[0.75 0 0 0.75 0 0] CT
0.075 0.745 0.722 RC
2 setlinecap
10.0 ML
2.667 LW
N
118.85 308.45 M
118.85 292.15 L
S
GR
GS
[0.75 0 0 0.75 0 0] CT
0.075 0.745 0.722 RC
2 setlinecap
10.0 ML
2.667 LW
N
118.85 324.75 M
118.85 308.45 L
S
GR
GS
[0.75 0 0 0.75 0 0] CT
0.075 0.745 0.722 RC
2 setlinecap
10.0 ML
2.667 LW
N
118.85 341.05 M
118.85 324.75 L
S
GR
GS
[0.75 0 0 0.75 0 0] CT
0.075 0.745 0.722 RC
2 setlinecap
10.0 ML
2.667 LW
N
118.85 357.35 M
118.85 341.05 L
S
GR
GS
[0.75 0 0 0.75 0 0] CT
0.075 0.745 0.722 RC
2 setlinecap
10.0 ML
2.667 LW
N
118.85 373.65 M
118.85 357.35 L
S
GR
GS
[0.75 0 0 0.75 0 0] CT
0.075 0.745 0.722 RC
2 setlinecap
10.0 ML
2.667 LW
N
135.15 373.65 M
118.85 373.65 L
S
GR
GS
[0.75 0 0 0.75 0 0] CT
0.075 0.745 0.722 RC
2 setlinecap
10.0 ML
2.667 LW
N
151.45 373.65 M
135.15 373.65 L
S
GR
GS
[0.75 0 0 0.75 0 0] CT
0.075 0.745 0.722 RC
2 setlinecap
10.0 ML
2.667 LW
N
167.75 373.65 M
151.45 373.65 L
S
GR
GS
[0.75 0 0 0.75 0 0] CT
0.075 0.745 0.722 RC
2 setlinecap
10.0 ML
2.667 LW
N
184.05 373.65 M
167.75 373.65 L
S
GR
GS
[0.75 0 0 0.75 0 0] CT
0.075 0.745 0.722 RC
2 setlinecap
10.0 ML
2.667 LW
N
200.35 373.65 M
184.05 373.65 L
S
GR
GS
[0.75 0 0 0.75 0 0] CT
0.075 0.745 0.722 RC
2 setlinecap
10.0 ML
2.667 LW
N
216.65 373.65 M
200.35 373.65 L
S
GR
GS
[0.75 0 0 0.75 0 0] CT
0.075 0.745 0.722 RC
2 setlinecap
10.0 ML
2.667 LW
N
232.95 373.65 M
216.65 373.65 L
S
GR
GS
[0.75 0 0 0.75 0 0] CT
0.075 0.745 0.722 RC
2 setlinecap
10.0 ML
2.667 LW
N
249.25 373.65 M
232.95 373.65 L
S
GR
GS
[0.75 0 0 0.75 0 0] CT
0.075 0.745 0.722 RC
2 setlinecap
10.0 ML
2.667 LW
N
265.55 373.65 M
249.25 373.65 L
S
GR
GS
[0.75 0 0 0.75 0 0] CT
0.075 0.745 0.722 RC
2 setlinecap
10.0 ML
2.667 LW
N
281.85 373.65 M
265.55 373.65 L
S
GR
GS
[0.75 0 0 0.75 0 0] CT
0.075 0.745 0.722 RC
2 setlinecap
10.0 ML
2.667 LW
N
298.15 373.65 M
281.85 373.65 L
S
GR
GS
[0.75 0 0 0.75 0 0] CT
0.075 0.745 0.722 RC
2 setlinecap
10.0 ML
2.667 LW
N
314.45 373.65 M
298.15 373.65 L
S
GR
GS
[0.75 0 0 0.75 0 0] CT
0.075 0.745 0.722 RC
2 setlinecap
10.0 ML
2.667 LW
N
330.75 373.65 M
314.45 373.65 L
S
GR
GS
[0.75 0 0 0.75 0 0] CT
0.075 0.745 0.722 RC
2 setlinecap
10.0 ML
2.667 LW
N
347.05 373.65 M
330.75 373.65 L
S
GR
GS
[0.75 0 0 0.75 0 0] CT
0.075 0.745 0.722 RC
2 setlinecap
10.0 ML
2.667 LW
N
363.35 373.65 M
347.05 373.65 L
S
GR
GS
[0.75 0 0 0.75 0 0] CT
0.075 0.745 0.722 RC
2 setlinecap
10.0 ML
2.667 LW
N
379.65 373.65 M
363.35 373.65 L
S
GR
GS
[0.75 0 0 0.75 0 0] CT
0.075 0.745 0.722 RC
2 setlinecap
10.0 ML
2.667 LW
N
395.95 373.65 M
379.65 373.65 L
S
GR
GS
[0.75 0 0 0.75 0 0] CT
0.075 0.745 0.722 RC
2 setlinecap
10.0 ML
2.667 LW
N
412.25 373.65 M
395.95 373.65 L
S
GR
GS
[0.75 0 0 0.75 0 0] CT
0.075 0.745 0.722 RC
2 setlinecap
10.0 ML
2.667 LW
N
428.55 373.65 M
412.25 373.65 L
S
GR
GS
[0.75 0 0 0.75 0 0] CT
0.075 0.745 0.722 RC
2 setlinecap
10.0 ML
2.667 LW
N
444.85 373.65 M
428.55 373.65 L
S
GR
GS
[0.75 0 0 0.75 0 0] CT
0.075 0.745 0.722 RC
2 setlinecap
10.0 ML
2.667 LW
N
461.15 373.65 M
444.85 373.65 L
S
GR
GS
[0.75 0 0 0.75 0 0] CT
0.075 0.745 0.722 RC
2 setlinecap
10.0 ML
2.667 LW
N
355.327 169.057 M
359.53 159.712 L
S
GR
GS
[0.75 0 0 0.75 0 0] CT
0.075 0.745 0.722 RC
2 setlinecap
10.0 ML
2.667 LW
N
347.153 175.594 M
355.327 169.057 L
S
GR
GS
[0.75 0 0 0.75 0 0] CT
0.075 0.745 0.722 RC
2 setlinecap
10.0 ML
2.667 LW
N
337.824 180.465 M
347.153 175.594 L
S
GR
GS
[0.75 0 0 0.75 0 0] CT
0.075 0.745 0.722 RC
2 setlinecap
10.0 ML
2.667 LW
N
327.987 184.284 M
337.824 180.465 L
S
GR
GS
[0.75 0 0 0.75 0 0] CT
0.075 0.745 0.722 RC
2 setlinecap
10.0 ML
2.667 LW
N
317.834 187.254 M
327.987 184.284 L
S
GR
GS
[0.75 0 0 0.75 0 0] CT
0.075 0.745 0.722 RC
2 setlinecap
10.0 ML
2.667 LW
N
307.411 189.26 M
317.834 187.254 L
S
GR
GS
[0.75 0 0 0.75 0 0] CT
0.075 0.745 0.722 RC
2 setlinecap
10.0 ML
2.667 LW
N
296.744 189.01 M
307.411 189.26 L
S
GR
GS
[0.75 0 0 0.75 0 0] CT
0.075 0.745 0.722 RC
2 setlinecap
10.0 ML
2.667 LW
N
294.762 180.066 M
296.744 189.01 L
S
GR
GS
[0.75 0 0 0.75 0 0] CT
0.075 0.745 0.722 RC
2 setlinecap
10.0 ML
2.667 LW
N
298.134 170.127 M
294.762 180.066 L
S
GR
GS
[0.75 0 0 0.75 0 0] CT
0.075 0.745 0.722 RC
2 setlinecap
10.0 ML
2.667 LW
N
299.627 159.715 M
298.134 170.127 L
S
GR
GS
[0.75 0 0 0.75 0 0] CT
0.075 0.745 0.722 RC
2 setlinecap
10.0 ML
2.667 LW
N
298.131 149.289 M
299.627 159.715 L
S
GR
GS
[0.75 0 0 0.75 0 0] CT
0.075 0.745 0.722 RC
2 setlinecap
10.0 ML
2.667 LW
N
294.72 139.233 M
298.131 149.289 L
S
GR
GS
[0.75 0 0 0.75 0 0] CT
0.075 0.745 0.722 RC
2 setlinecap
10.0 ML
2.667 LW
N
296.96 130.344 M
294.72 139.233 L
S
GR
GS
[0.75 0 0 0.75 0 0] CT
0.075 0.745 0.722 RC
2 setlinecap
10.0 ML
2.667 LW
N
307.271 130.147 M
296.96 130.344 L
S
GR
GS
[0.75 0 0 0.75 0 0] CT
0.075 0.745 0.722 RC
2 setlinecap
10.0 ML
2.667 LW
N
317.577 132.108 M
307.271 130.147 L
S
GR
GS
[0.75 0 0 0.75 0 0] CT
0.075 0.745 0.722 RC
2 setlinecap
10.0 ML
2.667 LW
N
327.693 135.042 M
317.577 132.108 L
S
GR
GS
[0.75 0 0 0.75 0 0] CT
0.075 0.745 0.722 RC
2 setlinecap
10.0 ML
2.667 LW
N
337.543 138.836 M
327.693 135.042 L
S
GR
GS
[0.75 0 0 0.75 0 0] CT
0.075 0.745 0.722 RC
2 setlinecap
10.0 ML
2.667 LW
N
346.935 143.697 M
337.543 138.836 L
S
GR
GS
[0.75 0 0 0.75 0 0] CT
0.075 0.745 0.722 RC
2 setlinecap
10.0 ML
2.667 LW
N
355.235 150.266 M
346.935 143.697 L
S
GR
GS
[0.75 0 0 0.75 0 0] CT
0.075 0.745 0.722 RC
2 setlinecap
10.0 ML
2.667 LW
N
359.53 159.712 M
355.235 150.266 L
S
GR
%%Trailer
%%Pages: 1
%%EOF
