%!PS-Adobe-3.0 EPSF-3.0
%%Creator: (MATLAB, The Mathworks, Inc. Version 9.11.0.1769968 \(R2021b\). Operating System: Linux)
%%Title: (/scratch/users/ppanchal/Repositories/gypsilab/Piyush's codes/Dirichlet_BVP_SG/2D/Mesh_images/sqsq_bnd.eps)
%%CreationDate: 2022-07-06T13:16:15
%%Pages: (atend)
%%BoundingBox:     0     0   420   315
%%LanguageLevel: 3
%%EndComments
%%BeginProlog
%%BeginResource: procset (Apache XML Graphics Std ProcSet) 1.2 0
%%Version: 1.2 0
%%Copyright: (Copyright 2001-2003,2010 The Apache Software Foundation. License terms: http://www.apache.org/licenses/LICENSE-2.0)
/bd{bind def}bind def
/ld{load def}bd
/GR/grestore ld
/GS/gsave ld
/RM/rmoveto ld
/C/curveto ld
/t/show ld
/L/lineto ld
/ML/setmiterlimit ld
/CT/concat ld
/f/fill ld
/N/newpath ld
/S/stroke ld
/CC/setcmykcolor ld
/A/ashow ld
/cp/closepath ld
/RC/setrgbcolor ld
/LJ/setlinejoin ld
/GC/setgray ld
/LW/setlinewidth ld
/M/moveto ld
/re {4 2 roll M
1 index 0 rlineto
0 exch rlineto
neg 0 rlineto
cp } bd
/_ctm matrix def
/_tm matrix def
/BT { _ctm currentmatrix pop matrix _tm copy pop 0 0 moveto } bd
/ET { _ctm setmatrix } bd
/iTm { _ctm setmatrix _tm concat } bd
/Tm { _tm astore pop iTm 0 0 moveto } bd
/ux 0.0 def
/uy 0.0 def
/F {
  /Tp exch def
  /Tf exch def
  Tf findfont Tp scalefont setfont
  /cf Tf def  /cs Tp def
} bd
/ULS {currentpoint /uy exch def /ux exch def} bd
/ULE {
  /Tcx currentpoint pop def
  gsave
  newpath
  cf findfont cs scalefont dup
  /FontMatrix get 0 get /Ts exch def /FontInfo get dup
  /UnderlinePosition get Ts mul /To exch def
  /UnderlineThickness get Ts mul /Tt exch def
  ux uy To add moveto  Tcx uy To add lineto
  Tt setlinewidth stroke
  grestore
} bd
/OLE {
  /Tcx currentpoint pop def
  gsave
  newpath
  cf findfont cs scalefont dup
  /FontMatrix get 0 get /Ts exch def /FontInfo get dup
  /UnderlinePosition get Ts mul /To exch def
  /UnderlineThickness get Ts mul /Tt exch def
  ux uy To add cs add moveto Tcx uy To add cs add lineto
  Tt setlinewidth stroke
  grestore
} bd
/SOE {
  /Tcx currentpoint pop def
  gsave
  newpath
  cf findfont cs scalefont dup
  /FontMatrix get 0 get /Ts exch def /FontInfo get dup
  /UnderlinePosition get Ts mul /To exch def
  /UnderlineThickness get Ts mul /Tt exch def
  ux uy To add cs 10 mul 26 idiv add moveto Tcx uy To add cs 10 mul 26 idiv add lineto
  Tt setlinewidth stroke
  grestore
} bd
/QT {
/Y22 exch store
/X22 exch store
/Y21 exch store
/X21 exch store
currentpoint
/Y21 load 2 mul add 3 div exch
/X21 load 2 mul add 3 div exch
/X21 load 2 mul /X22 load add 3 div
/Y21 load 2 mul /Y22 load add 3 div
/X22 load /Y22 load curveto
} bd
/SSPD {
dup length /d exch dict def
{
/v exch def
/k exch def
currentpagedevice k known {
/cpdv currentpagedevice k get def
v cpdv ne {
/upd false def
/nullv v type /nulltype eq def
/nullcpdv cpdv type /nulltype eq def
nullv nullcpdv or
{
/upd true def
} {
/sametype v type cpdv type eq def
sametype {
v type /arraytype eq {
/vlen v length def
/cpdvlen cpdv length def
vlen cpdvlen eq {
0 1 vlen 1 sub {
/i exch def
/obj v i get def
/cpdobj cpdv i get def
obj cpdobj ne {
/upd true def
exit
} if
} for
} {
/upd true def
} ifelse
} {
v type /dicttype eq {
v {
/dv exch def
/dk exch def
/cpddv cpdv dk get def
dv cpddv ne {
/upd true def
exit
} if
} forall
} {
/upd true def
} ifelse
} ifelse
} if
} ifelse
upd true eq {
d k v put
} if
} if
} if
} forall
d length 0 gt {
d setpagedevice
} if
} bd
/RE { % /NewFontName [NewEncodingArray] /FontName RE -
  findfont dup length dict begin
  {
    1 index /FID ne
    {def} {pop pop} ifelse
  } forall
  /Encoding exch def
  /FontName 1 index def
  currentdict definefont pop
  end
} bind def
%%EndResource
%%BeginResource: procset (Apache XML Graphics EPS ProcSet) 1.0 0
%%Version: 1.0 0
%%Copyright: (Copyright 2002-2003 The Apache Software Foundation. License terms: http://www.apache.org/licenses/LICENSE-2.0)
/BeginEPSF { %def
/b4_Inc_state save def         % Save state for cleanup
/dict_count countdictstack def % Count objects on dict stack
/op_count count 1 sub def      % Count objects on operand stack
userdict begin                 % Push userdict on dict stack
/showpage { } def              % Redefine showpage, { } = null proc
0 setgray 0 setlinecap         % Prepare graphics state
1 setlinewidth 0 setlinejoin
10 setmiterlimit [ ] 0 setdash newpath
/languagelevel where           % If level not equal to 1 then
{pop languagelevel             % set strokeadjust and
1 ne                           % overprint to their defaults.
{false setstrokeadjust false setoverprint
} if
} if
} bd
/EndEPSF { %def
count op_count sub {pop} repeat            % Clean up stacks
countdictstack dict_count sub {end} repeat
b4_Inc_state restore
} bd
%%EndResource
%FOPBeginFontDict
%%IncludeResource: font Courier-Oblique
%%IncludeResource: font Courier-BoldOblique
%%IncludeResource: font Courier-Bold
%%IncludeResource: font ZapfDingbats
%%IncludeResource: font Symbol
%%IncludeResource: font Helvetica
%%IncludeResource: font Helvetica-Oblique
%%IncludeResource: font Helvetica-Bold
%%IncludeResource: font Helvetica-BoldOblique
%%IncludeResource: font Times-Roman
%%IncludeResource: font Times-Italic
%%IncludeResource: font Times-Bold
%%IncludeResource: font Times-BoldItalic
%%IncludeResource: font Courier
%FOPEndFontDict
%%BeginResource: encoding WinAnsiEncoding
/WinAnsiEncoding [
/.notdef /.notdef /.notdef /.notdef /.notdef
/.notdef /.notdef /.notdef /.notdef /.notdef
/.notdef /.notdef /.notdef /.notdef /.notdef
/.notdef /.notdef /.notdef /.notdef /.notdef
/.notdef /.notdef /.notdef /.notdef /.notdef
/.notdef /.notdef /.notdef /.notdef /.notdef
/.notdef /.notdef /space /exclam /quotedbl
/numbersign /dollar /percent /ampersand /quotesingle
/parenleft /parenright /asterisk /plus /comma
/hyphen /period /slash /zero /one
/two /three /four /five /six
/seven /eight /nine /colon /semicolon
/less /equal /greater /question /at
/A /B /C /D /E
/F /G /H /I /J
/K /L /M /N /O
/P /Q /R /S /T
/U /V /W /X /Y
/Z /bracketleft /backslash /bracketright /asciicircum
/underscore /quoteleft /a /b /c
/d /e /f /g /h
/i /j /k /l /m
/n /o /p /q /r
/s /t /u /v /w
/x /y /z /braceleft /bar
/braceright /asciitilde /bullet /Euro /bullet
/quotesinglbase /florin /quotedblbase /ellipsis /dagger
/daggerdbl /circumflex /perthousand /Scaron /guilsinglleft
/OE /bullet /Zcaron /bullet /bullet
/quoteleft /quoteright /quotedblleft /quotedblright /bullet
/endash /emdash /asciitilde /trademark /scaron
/guilsinglright /oe /bullet /zcaron /Ydieresis
/space /exclamdown /cent /sterling /currency
/yen /brokenbar /section /dieresis /copyright
/ordfeminine /guillemotleft /logicalnot /sfthyphen /registered
/macron /degree /plusminus /twosuperior /threesuperior
/acute /mu /paragraph /middot /cedilla
/onesuperior /ordmasculine /guillemotright /onequarter /onehalf
/threequarters /questiondown /Agrave /Aacute /Acircumflex
/Atilde /Adieresis /Aring /AE /Ccedilla
/Egrave /Eacute /Ecircumflex /Edieresis /Igrave
/Iacute /Icircumflex /Idieresis /Eth /Ntilde
/Ograve /Oacute /Ocircumflex /Otilde /Odieresis
/multiply /Oslash /Ugrave /Uacute /Ucircumflex
/Udieresis /Yacute /Thorn /germandbls /agrave
/aacute /acircumflex /atilde /adieresis /aring
/ae /ccedilla /egrave /eacute /ecircumflex
/edieresis /igrave /iacute /icircumflex /idieresis
/eth /ntilde /ograve /oacute /ocircumflex
/otilde /odieresis /divide /oslash /ugrave
/uacute /ucircumflex /udieresis /yacute /thorn
/ydieresis
] def
%%EndResource
%FOPBeginFontReencode
/Courier-Oblique findfont
dup length dict begin
  {1 index /FID ne {def} {pop pop} ifelse} forall
  /Encoding WinAnsiEncoding def
  currentdict
end
/Courier-Oblique exch definefont pop
/Courier-BoldOblique findfont
dup length dict begin
  {1 index /FID ne {def} {pop pop} ifelse} forall
  /Encoding WinAnsiEncoding def
  currentdict
end
/Courier-BoldOblique exch definefont pop
/Courier-Bold findfont
dup length dict begin
  {1 index /FID ne {def} {pop pop} ifelse} forall
  /Encoding WinAnsiEncoding def
  currentdict
end
/Courier-Bold exch definefont pop
/Helvetica findfont
dup length dict begin
  {1 index /FID ne {def} {pop pop} ifelse} forall
  /Encoding WinAnsiEncoding def
  currentdict
end
/Helvetica exch definefont pop
/Helvetica-Oblique findfont
dup length dict begin
  {1 index /FID ne {def} {pop pop} ifelse} forall
  /Encoding WinAnsiEncoding def
  currentdict
end
/Helvetica-Oblique exch definefont pop
/Helvetica-Bold findfont
dup length dict begin
  {1 index /FID ne {def} {pop pop} ifelse} forall
  /Encoding WinAnsiEncoding def
  currentdict
end
/Helvetica-Bold exch definefont pop
/Helvetica-BoldOblique findfont
dup length dict begin
  {1 index /FID ne {def} {pop pop} ifelse} forall
  /Encoding WinAnsiEncoding def
  currentdict
end
/Helvetica-BoldOblique exch definefont pop
/Times-Roman findfont
dup length dict begin
  {1 index /FID ne {def} {pop pop} ifelse} forall
  /Encoding WinAnsiEncoding def
  currentdict
end
/Times-Roman exch definefont pop
/Times-Italic findfont
dup length dict begin
  {1 index /FID ne {def} {pop pop} ifelse} forall
  /Encoding WinAnsiEncoding def
  currentdict
end
/Times-Italic exch definefont pop
/Times-Bold findfont
dup length dict begin
  {1 index /FID ne {def} {pop pop} ifelse} forall
  /Encoding WinAnsiEncoding def
  currentdict
end
/Times-Bold exch definefont pop
/Times-BoldItalic findfont
dup length dict begin
  {1 index /FID ne {def} {pop pop} ifelse} forall
  /Encoding WinAnsiEncoding def
  currentdict
end
/Times-BoldItalic exch definefont pop
/Courier findfont
dup length dict begin
  {1 index /FID ne {def} {pop pop} ifelse} forall
  /Encoding WinAnsiEncoding def
  currentdict
end
/Courier exch definefont pop
%FOPEndFontReencode
%%EndProlog
%%Page: 1 1
%%PageBoundingBox: 0 0 420 315
%%BeginPageSetup
[1 0 0 -1 0 315] CT
%%EndPageSetup
GS
[0.75 0 0 0.75 0 0] CT
1 GC
N
0 0 560 420 re
f
GR
GS
[0.75 0 0 0.75 0 0] CT
1 GC
N
0 0 560 420 re
f
GR
GS
[0.75 0 0 0.75 0 0] CT
1 GC
N
73 373.65 M
507 373.65 L
507 31.35 L
73 31.35 L
cp
f
GR
GS
[0.75 0 0 0.75 0 0] CT
0.149 GC
2 setlinecap
1 LJ
0.667 LW
N
73 373.65 M
507 373.65 L
S
GR
GS
[0.75 0 0 0.75 0 0] CT
0.149 GC
2 setlinecap
1 LJ
0.667 LW
N
118.85 373.65 M
118.85 369.31 L
S
GR
GS
[0.75 0 0 0.75 0 0] CT
0.149 GC
2 setlinecap
1 LJ
0.667 LW
N
175.9 373.65 M
175.9 369.31 L
S
GR
GS
[0.75 0 0 0.75 0 0] CT
0.149 GC
2 setlinecap
1 LJ
0.667 LW
N
232.95 373.65 M
232.95 369.31 L
S
GR
GS
[0.75 0 0 0.75 0 0] CT
0.149 GC
2 setlinecap
1 LJ
0.667 LW
N
290 373.65 M
290 369.31 L
S
GR
GS
[0.75 0 0 0.75 0 0] CT
0.149 GC
2 setlinecap
1 LJ
0.667 LW
N
347.05 373.65 M
347.05 369.31 L
S
GR
GS
[0.75 0 0 0.75 0 0] CT
0.149 GC
2 setlinecap
1 LJ
0.667 LW
N
404.1 373.65 M
404.1 369.31 L
S
GR
GS
[0.75 0 0 0.75 0 0] CT
0.149 GC
2 setlinecap
1 LJ
0.667 LW
N
461.15 373.65 M
461.15 369.31 L
S
GR
GS
[0.75 0 0 0.75 89.1375 284.2375] CT
0.149 GC
/Helvetica 13.333 F
GS
[1 0 0 1 0 0] CT
-7 13 moveto 
1 -1 scale
(-3) t 
GR
GR
GS
[0.75 0 0 0.75 131.925 284.2375] CT
0.149 GC
/Helvetica 13.333 F
GS
[1 0 0 1 0 0] CT
-7 13 moveto 
1 -1 scale
(-2) t 
GR
GR
GS
[0.75 0 0 0.75 174.7125 284.2375] CT
0.149 GC
/Helvetica 13.333 F
GS
[1 0 0 1 0 0] CT
-7 13 moveto 
1 -1 scale
(-1) t 
GR
GR
GS
[0.75 0 0 0.75 217.5 284.2375] CT
0.149 GC
/Helvetica 13.333 F
GS
[1 0 0 1 0 0] CT
-4.5 13 moveto 
1 -1 scale
(0) t 
GR
GR
GS
[0.75 0 0 0.75 260.28749 284.2375] CT
0.149 GC
/Helvetica 13.333 F
GS
[1 0 0 1 0 0] CT
-4.5 13 moveto 
1 -1 scale
(1) t 
GR
GR
GS
[0.75 0 0 0.75 303.075 284.2375] CT
0.149 GC
/Helvetica 13.333 F
GS
[1 0 0 1 0 0] CT
-4.5 13 moveto 
1 -1 scale
(2) t 
GR
GR
GS
[0.75 0 0 0.75 345.8625 284.2375] CT
0.149 GC
/Helvetica 13.333 F
GS
[1 0 0 1 0 0] CT
-4.5 13 moveto 
1 -1 scale
(3) t 
GR
GR
GS
[0.75 0 0 0.75 0 0] CT
0.149 GC
2 setlinecap
1 LJ
0.667 LW
N
73 373.65 M
73 31.35 L
S
GR
GS
[0.75 0 0 0.75 0 0] CT
0.149 GC
2 setlinecap
1 LJ
0.667 LW
N
73 373.65 M
77.34 373.65 L
S
GR
GS
[0.75 0 0 0.75 0 0] CT
0.149 GC
2 setlinecap
1 LJ
0.667 LW
N
73 316.6 M
77.34 316.6 L
S
GR
GS
[0.75 0 0 0.75 0 0] CT
0.149 GC
2 setlinecap
1 LJ
0.667 LW
N
73 259.55 M
77.34 259.55 L
S
GR
GS
[0.75 0 0 0.75 0 0] CT
0.149 GC
2 setlinecap
1 LJ
0.667 LW
N
73 202.5 M
77.34 202.5 L
S
GR
GS
[0.75 0 0 0.75 0 0] CT
0.149 GC
2 setlinecap
1 LJ
0.667 LW
N
73 145.45 M
77.34 145.45 L
S
GR
GS
[0.75 0 0 0.75 0 0] CT
0.149 GC
2 setlinecap
1 LJ
0.667 LW
N
73 88.4 M
77.34 88.4 L
S
GR
GS
[0.75 0 0 0.75 0 0] CT
0.149 GC
2 setlinecap
1 LJ
0.667 LW
N
73 31.35 M
77.34 31.35 L
S
GR
GS
[0.75 0 0 0.75 50.75 280.2375] CT
0.149 GC
/Helvetica 13.333 F
GS
[1 0 0 1 0 0] CT
-14 4.5 moveto 
1 -1 scale
(-3) t 
GR
GR
GS
[0.75 0 0 0.75 50.75 237.45] CT
0.149 GC
/Helvetica 13.333 F
GS
[1 0 0 1 0 0] CT
-14 4.5 moveto 
1 -1 scale
(-2) t 
GR
GR
GS
[0.75 0 0 0.75 50.75 194.66249] CT
0.149 GC
/Helvetica 13.333 F
GS
[1 0 0 1 0 0] CT
-14 4.5 moveto 
1 -1 scale
(-1) t 
GR
GR
GS
[0.75 0 0 0.75 50.75 151.875] CT
0.149 GC
/Helvetica 13.333 F
GS
[1 0 0 1 0 0] CT
-9 4.5 moveto 
1 -1 scale
(0) t 
GR
GR
GS
[0.75 0 0 0.75 50.75 109.0875] CT
0.149 GC
/Helvetica 13.333 F
GS
[1 0 0 1 0 0] CT
-9 4.5 moveto 
1 -1 scale
(1) t 
GR
GR
GS
[0.75 0 0 0.75 50.75 66.3] CT
0.149 GC
/Helvetica 13.333 F
GS
[1 0 0 1 0 0] CT
-9 4.5 moveto 
1 -1 scale
(2) t 
GR
GR
GS
[0.75 0 0 0.75 50.75 23.5125] CT
0.149 GC
/Helvetica 13.333 F
GS
[1 0 0 1 0 0] CT
-9 4.5 moveto 
1 -1 scale
(3) t 
GR
GR
GS
[0.75 0 0 0.75 0 0] CT
0.075 0.745 0.722 RC
2 setlinecap
10.0 ML
2.667 LW
N
446.888 31.35 M
461.15 31.35 L
S
GR
GS
[0.75 0 0 0.75 0 0] CT
0.075 0.745 0.722 RC
2 setlinecap
10.0 ML
2.667 LW
N
432.625 31.35 M
446.888 31.35 L
S
GR
GS
[0.75 0 0 0.75 0 0] CT
0.075 0.745 0.722 RC
2 setlinecap
10.0 ML
2.667 LW
N
418.362 31.35 M
432.625 31.35 L
S
GR
GS
[0.75 0 0 0.75 0 0] CT
0.075 0.745 0.722 RC
2 setlinecap
10.0 ML
2.667 LW
N
404.1 31.35 M
418.362 31.35 L
S
GR
GS
[0.75 0 0 0.75 0 0] CT
0.075 0.745 0.722 RC
2 setlinecap
10.0 ML
2.667 LW
N
389.837 31.35 M
404.1 31.35 L
S
GR
GS
[0.75 0 0 0.75 0 0] CT
0.075 0.745 0.722 RC
2 setlinecap
10.0 ML
2.667 LW
N
375.575 31.35 M
389.837 31.35 L
S
GR
GS
[0.75 0 0 0.75 0 0] CT
0.075 0.745 0.722 RC
2 setlinecap
10.0 ML
2.667 LW
N
361.313 31.35 M
375.575 31.35 L
S
GR
GS
[0.75 0 0 0.75 0 0] CT
0.075 0.745 0.722 RC
2 setlinecap
10.0 ML
2.667 LW
N
347.05 31.35 M
361.313 31.35 L
S
GR
GS
[0.75 0 0 0.75 0 0] CT
0.075 0.745 0.722 RC
2 setlinecap
10.0 ML
2.667 LW
N
332.788 31.35 M
347.05 31.35 L
S
GR
GS
[0.75 0 0 0.75 0 0] CT
0.075 0.745 0.722 RC
2 setlinecap
10.0 ML
2.667 LW
N
318.525 31.35 M
332.788 31.35 L
S
GR
GS
[0.75 0 0 0.75 0 0] CT
0.075 0.745 0.722 RC
2 setlinecap
10.0 ML
2.667 LW
N
304.263 31.35 M
318.525 31.35 L
S
GR
GS
[0.75 0 0 0.75 0 0] CT
0.075 0.745 0.722 RC
2 setlinecap
10.0 ML
2.667 LW
N
290 31.35 M
304.263 31.35 L
S
GR
GS
[0.75 0 0 0.75 0 0] CT
0.075 0.745 0.722 RC
2 setlinecap
10.0 ML
2.667 LW
N
275.737 31.35 M
290 31.35 L
S
GR
GS
[0.75 0 0 0.75 0 0] CT
0.075 0.745 0.722 RC
2 setlinecap
10.0 ML
2.667 LW
N
261.475 31.35 M
275.737 31.35 L
S
GR
GS
[0.75 0 0 0.75 0 0] CT
0.075 0.745 0.722 RC
2 setlinecap
10.0 ML
2.667 LW
N
247.212 31.35 M
261.475 31.35 L
S
GR
GS
[0.75 0 0 0.75 0 0] CT
0.075 0.745 0.722 RC
2 setlinecap
10.0 ML
2.667 LW
N
232.95 31.35 M
247.212 31.35 L
S
GR
GS
[0.75 0 0 0.75 0 0] CT
0.075 0.745 0.722 RC
2 setlinecap
10.0 ML
2.667 LW
N
218.688 31.35 M
232.95 31.35 L
S
GR
GS
[0.75 0 0 0.75 0 0] CT
0.075 0.745 0.722 RC
2 setlinecap
10.0 ML
2.667 LW
N
204.425 31.35 M
218.688 31.35 L
S
GR
GS
[0.75 0 0 0.75 0 0] CT
0.075 0.745 0.722 RC
2 setlinecap
10.0 ML
2.667 LW
N
190.163 31.35 M
204.425 31.35 L
S
GR
GS
[0.75 0 0 0.75 0 0] CT
0.075 0.745 0.722 RC
2 setlinecap
10.0 ML
2.667 LW
N
175.9 31.35 M
190.163 31.35 L
S
GR
GS
[0.75 0 0 0.75 0 0] CT
0.075 0.745 0.722 RC
2 setlinecap
10.0 ML
2.667 LW
N
161.637 31.35 M
175.9 31.35 L
S
GR
GS
[0.75 0 0 0.75 0 0] CT
0.075 0.745 0.722 RC
2 setlinecap
10.0 ML
2.667 LW
N
147.375 31.35 M
161.637 31.35 L
S
GR
GS
[0.75 0 0 0.75 0 0] CT
0.075 0.745 0.722 RC
2 setlinecap
10.0 ML
2.667 LW
N
133.113 31.35 M
147.375 31.35 L
S
GR
GS
[0.75 0 0 0.75 0 0] CT
0.075 0.745 0.722 RC
2 setlinecap
10.0 ML
2.667 LW
N
118.85 31.35 M
133.113 31.35 L
S
GR
GS
[0.75 0 0 0.75 0 0] CT
0.075 0.745 0.722 RC
2 setlinecap
10.0 ML
2.667 LW
N
118.85 45.612 M
118.85 31.35 L
S
GR
GS
[0.75 0 0 0.75 0 0] CT
0.075 0.745 0.722 RC
2 setlinecap
10.0 ML
2.667 LW
N
118.85 59.875 M
118.85 45.612 L
S
GR
GS
[0.75 0 0 0.75 0 0] CT
0.075 0.745 0.722 RC
2 setlinecap
10.0 ML
2.667 LW
N
118.85 74.137 M
118.85 59.875 L
S
GR
GS
[0.75 0 0 0.75 0 0] CT
0.075 0.745 0.722 RC
2 setlinecap
10.0 ML
2.667 LW
N
118.85 88.4 M
118.85 74.137 L
S
GR
GS
[0.75 0 0 0.75 0 0] CT
0.075 0.745 0.722 RC
2 setlinecap
10.0 ML
2.667 LW
N
118.85 102.662 M
118.85 88.4 L
S
GR
GS
[0.75 0 0 0.75 0 0] CT
0.075 0.745 0.722 RC
2 setlinecap
10.0 ML
2.667 LW
N
118.85 116.925 M
118.85 102.662 L
S
GR
GS
[0.75 0 0 0.75 0 0] CT
0.075 0.745 0.722 RC
2 setlinecap
10.0 ML
2.667 LW
N
118.85 131.188 M
118.85 116.925 L
S
GR
GS
[0.75 0 0 0.75 0 0] CT
0.075 0.745 0.722 RC
2 setlinecap
10.0 ML
2.667 LW
N
118.85 145.45 M
118.85 131.188 L
S
GR
GS
[0.75 0 0 0.75 0 0] CT
0.075 0.745 0.722 RC
2 setlinecap
10.0 ML
2.667 LW
N
118.85 159.712 M
118.85 145.45 L
S
GR
GS
[0.75 0 0 0.75 0 0] CT
0.075 0.745 0.722 RC
2 setlinecap
10.0 ML
2.667 LW
N
118.85 173.975 M
118.85 159.712 L
S
GR
GS
[0.75 0 0 0.75 0 0] CT
0.075 0.745 0.722 RC
2 setlinecap
10.0 ML
2.667 LW
N
118.85 188.238 M
118.85 173.975 L
S
GR
GS
[0.75 0 0 0.75 0 0] CT
0.075 0.745 0.722 RC
2 setlinecap
10.0 ML
2.667 LW
N
118.85 202.5 M
118.85 188.238 L
S
GR
GS
[0.75 0 0 0.75 0 0] CT
0.075 0.745 0.722 RC
2 setlinecap
10.0 ML
2.667 LW
N
118.85 216.762 M
118.85 202.5 L
S
GR
GS
[0.75 0 0 0.75 0 0] CT
0.075 0.745 0.722 RC
2 setlinecap
10.0 ML
2.667 LW
N
118.85 231.025 M
118.85 216.762 L
S
GR
GS
[0.75 0 0 0.75 0 0] CT
0.075 0.745 0.722 RC
2 setlinecap
10.0 ML
2.667 LW
N
118.85 245.288 M
118.85 231.025 L
S
GR
GS
[0.75 0 0 0.75 0 0] CT
0.075 0.745 0.722 RC
2 setlinecap
10.0 ML
2.667 LW
N
118.85 259.55 M
118.85 245.288 L
S
GR
GS
[0.75 0 0 0.75 0 0] CT
0.075 0.745 0.722 RC
2 setlinecap
10.0 ML
2.667 LW
N
118.85 273.813 M
118.85 259.55 L
S
GR
GS
[0.75 0 0 0.75 0 0] CT
0.075 0.745 0.722 RC
2 setlinecap
10.0 ML
2.667 LW
N
118.85 288.075 M
118.85 273.813 L
S
GR
GS
[0.75 0 0 0.75 0 0] CT
0.075 0.745 0.722 RC
2 setlinecap
10.0 ML
2.667 LW
N
118.85 302.337 M
118.85 288.075 L
S
GR
GS
[0.75 0 0 0.75 0 0] CT
0.075 0.745 0.722 RC
2 setlinecap
10.0 ML
2.667 LW
N
118.85 316.6 M
118.85 302.337 L
S
GR
GS
[0.75 0 0 0.75 0 0] CT
0.075 0.745 0.722 RC
2 setlinecap
10.0 ML
2.667 LW
N
118.85 330.862 M
118.85 316.6 L
S
GR
GS
[0.75 0 0 0.75 0 0] CT
0.075 0.745 0.722 RC
2 setlinecap
10.0 ML
2.667 LW
N
118.85 345.125 M
118.85 330.862 L
S
GR
GS
[0.75 0 0 0.75 0 0] CT
0.075 0.745 0.722 RC
2 setlinecap
10.0 ML
2.667 LW
N
118.85 359.388 M
118.85 345.125 L
S
GR
GS
[0.75 0 0 0.75 0 0] CT
0.075 0.745 0.722 RC
2 setlinecap
10.0 ML
2.667 LW
N
118.85 373.65 M
118.85 359.388 L
S
GR
GS
[0.75 0 0 0.75 0 0] CT
0.075 0.745 0.722 RC
2 setlinecap
10.0 ML
2.667 LW
N
133.113 373.65 M
118.85 373.65 L
S
GR
GS
[0.75 0 0 0.75 0 0] CT
0.075 0.745 0.722 RC
2 setlinecap
10.0 ML
2.667 LW
N
147.375 373.65 M
133.113 373.65 L
S
GR
GS
[0.75 0 0 0.75 0 0] CT
0.075 0.745 0.722 RC
2 setlinecap
10.0 ML
2.667 LW
N
161.637 373.65 M
147.375 373.65 L
S
GR
GS
[0.75 0 0 0.75 0 0] CT
0.075 0.745 0.722 RC
2 setlinecap
10.0 ML
2.667 LW
N
175.9 373.65 M
161.637 373.65 L
S
GR
GS
[0.75 0 0 0.75 0 0] CT
0.075 0.745 0.722 RC
2 setlinecap
10.0 ML
2.667 LW
N
190.163 373.65 M
175.9 373.65 L
S
GR
GS
[0.75 0 0 0.75 0 0] CT
0.075 0.745 0.722 RC
2 setlinecap
10.0 ML
2.667 LW
N
204.425 373.65 M
190.163 373.65 L
S
GR
GS
[0.75 0 0 0.75 0 0] CT
0.075 0.745 0.722 RC
2 setlinecap
10.0 ML
2.667 LW
N
218.688 373.65 M
204.425 373.65 L
S
GR
GS
[0.75 0 0 0.75 0 0] CT
0.075 0.745 0.722 RC
2 setlinecap
10.0 ML
2.667 LW
N
232.95 373.65 M
218.688 373.65 L
S
GR
GS
[0.75 0 0 0.75 0 0] CT
0.075 0.745 0.722 RC
2 setlinecap
10.0 ML
2.667 LW
N
247.212 373.65 M
232.95 373.65 L
S
GR
GS
[0.75 0 0 0.75 0 0] CT
0.075 0.745 0.722 RC
2 setlinecap
10.0 ML
2.667 LW
N
261.475 373.65 M
247.212 373.65 L
S
GR
GS
[0.75 0 0 0.75 0 0] CT
0.075 0.745 0.722 RC
2 setlinecap
10.0 ML
2.667 LW
N
275.737 373.65 M
261.475 373.65 L
S
GR
GS
[0.75 0 0 0.75 0 0] CT
0.075 0.745 0.722 RC
2 setlinecap
10.0 ML
2.667 LW
N
290 373.65 M
275.737 373.65 L
S
GR
GS
[0.75 0 0 0.75 0 0] CT
0.075 0.745 0.722 RC
2 setlinecap
10.0 ML
2.667 LW
N
304.263 373.65 M
290 373.65 L
S
GR
GS
[0.75 0 0 0.75 0 0] CT
0.075 0.745 0.722 RC
2 setlinecap
10.0 ML
2.667 LW
N
318.525 373.65 M
304.263 373.65 L
S
GR
GS
[0.75 0 0 0.75 0 0] CT
0.075 0.745 0.722 RC
2 setlinecap
10.0 ML
2.667 LW
N
332.788 373.65 M
318.525 373.65 L
S
GR
GS
[0.75 0 0 0.75 0 0] CT
0.075 0.745 0.722 RC
2 setlinecap
10.0 ML
2.667 LW
N
347.05 373.65 M
332.788 373.65 L
S
GR
GS
[0.75 0 0 0.75 0 0] CT
0.075 0.745 0.722 RC
2 setlinecap
10.0 ML
2.667 LW
N
361.313 373.65 M
347.05 373.65 L
S
GR
GS
[0.75 0 0 0.75 0 0] CT
0.075 0.745 0.722 RC
2 setlinecap
10.0 ML
2.667 LW
N
375.575 373.65 M
361.313 373.65 L
S
GR
GS
[0.75 0 0 0.75 0 0] CT
0.075 0.745 0.722 RC
2 setlinecap
10.0 ML
2.667 LW
N
389.837 373.65 M
375.575 373.65 L
S
GR
GS
[0.75 0 0 0.75 0 0] CT
0.075 0.745 0.722 RC
2 setlinecap
10.0 ML
2.667 LW
N
404.1 373.65 M
389.837 373.65 L
S
GR
GS
[0.75 0 0 0.75 0 0] CT
0.075 0.745 0.722 RC
2 setlinecap
10.0 ML
2.667 LW
N
418.362 373.65 M
404.1 373.65 L
S
GR
GS
[0.75 0 0 0.75 0 0] CT
0.075 0.745 0.722 RC
2 setlinecap
10.0 ML
2.667 LW
N
432.625 373.65 M
418.362 373.65 L
S
GR
GS
[0.75 0 0 0.75 0 0] CT
0.075 0.745 0.722 RC
2 setlinecap
10.0 ML
2.667 LW
N
446.888 373.65 M
432.625 373.65 L
S
GR
GS
[0.75 0 0 0.75 0 0] CT
0.075 0.745 0.722 RC
2 setlinecap
10.0 ML
2.667 LW
N
461.15 373.65 M
446.888 373.65 L
S
GR
GS
[0.75 0 0 0.75 0 0] CT
0.075 0.745 0.722 RC
2 setlinecap
10.0 ML
2.667 LW
N
461.15 359.388 M
461.15 373.65 L
S
GR
GS
[0.75 0 0 0.75 0 0] CT
0.075 0.745 0.722 RC
2 setlinecap
10.0 ML
2.667 LW
N
461.15 345.125 M
461.15 359.388 L
S
GR
GS
[0.75 0 0 0.75 0 0] CT
0.075 0.745 0.722 RC
2 setlinecap
10.0 ML
2.667 LW
N
461.15 330.862 M
461.15 345.125 L
S
GR
GS
[0.75 0 0 0.75 0 0] CT
0.075 0.745 0.722 RC
2 setlinecap
10.0 ML
2.667 LW
N
461.15 316.6 M
461.15 330.862 L
S
GR
GS
[0.75 0 0 0.75 0 0] CT
0.075 0.745 0.722 RC
2 setlinecap
10.0 ML
2.667 LW
N
461.15 302.337 M
461.15 316.6 L
S
GR
GS
[0.75 0 0 0.75 0 0] CT
0.075 0.745 0.722 RC
2 setlinecap
10.0 ML
2.667 LW
N
461.15 288.075 M
461.15 302.337 L
S
GR
GS
[0.75 0 0 0.75 0 0] CT
0.075 0.745 0.722 RC
2 setlinecap
10.0 ML
2.667 LW
N
461.15 273.813 M
461.15 288.075 L
S
GR
GS
[0.75 0 0 0.75 0 0] CT
0.075 0.745 0.722 RC
2 setlinecap
10.0 ML
2.667 LW
N
461.15 259.55 M
461.15 273.813 L
S
GR
GS
[0.75 0 0 0.75 0 0] CT
0.075 0.745 0.722 RC
2 setlinecap
10.0 ML
2.667 LW
N
461.15 245.288 M
461.15 259.55 L
S
GR
GS
[0.75 0 0 0.75 0 0] CT
0.075 0.745 0.722 RC
2 setlinecap
10.0 ML
2.667 LW
N
461.15 231.025 M
461.15 245.288 L
S
GR
GS
[0.75 0 0 0.75 0 0] CT
0.075 0.745 0.722 RC
2 setlinecap
10.0 ML
2.667 LW
N
461.15 216.762 M
461.15 231.025 L
S
GR
GS
[0.75 0 0 0.75 0 0] CT
0.075 0.745 0.722 RC
2 setlinecap
10.0 ML
2.667 LW
N
461.15 202.5 M
461.15 216.762 L
S
GR
GS
[0.75 0 0 0.75 0 0] CT
0.075 0.745 0.722 RC
2 setlinecap
10.0 ML
2.667 LW
N
461.15 188.238 M
461.15 202.5 L
S
GR
GS
[0.75 0 0 0.75 0 0] CT
0.075 0.745 0.722 RC
2 setlinecap
10.0 ML
2.667 LW
N
461.15 173.975 M
461.15 188.238 L
S
GR
GS
[0.75 0 0 0.75 0 0] CT
0.075 0.745 0.722 RC
2 setlinecap
10.0 ML
2.667 LW
N
461.15 159.712 M
461.15 173.975 L
S
GR
GS
[0.75 0 0 0.75 0 0] CT
0.075 0.745 0.722 RC
2 setlinecap
10.0 ML
2.667 LW
N
461.15 145.45 M
461.15 159.712 L
S
GR
GS
[0.75 0 0 0.75 0 0] CT
0.075 0.745 0.722 RC
2 setlinecap
10.0 ML
2.667 LW
N
461.15 131.188 M
461.15 145.45 L
S
GR
GS
[0.75 0 0 0.75 0 0] CT
0.075 0.745 0.722 RC
2 setlinecap
10.0 ML
2.667 LW
N
461.15 116.925 M
461.15 131.188 L
S
GR
GS
[0.75 0 0 0.75 0 0] CT
0.075 0.745 0.722 RC
2 setlinecap
10.0 ML
2.667 LW
N
461.15 102.662 M
461.15 116.925 L
S
GR
GS
[0.75 0 0 0.75 0 0] CT
0.075 0.745 0.722 RC
2 setlinecap
10.0 ML
2.667 LW
N
461.15 88.4 M
461.15 102.662 L
S
GR
GS
[0.75 0 0 0.75 0 0] CT
0.075 0.745 0.722 RC
2 setlinecap
10.0 ML
2.667 LW
N
461.15 74.137 M
461.15 88.4 L
S
GR
GS
[0.75 0 0 0.75 0 0] CT
0.075 0.745 0.722 RC
2 setlinecap
10.0 ML
2.667 LW
N
461.15 59.875 M
461.15 74.137 L
S
GR
GS
[0.75 0 0 0.75 0 0] CT
0.075 0.745 0.722 RC
2 setlinecap
10.0 ML
2.667 LW
N
461.15 45.612 M
461.15 59.875 L
S
GR
GS
[0.75 0 0 0.75 0 0] CT
0.075 0.745 0.722 RC
2 setlinecap
10.0 ML
2.667 LW
N
461.15 31.35 M
461.15 45.612 L
S
GR
GS
[0.75 0 0 0.75 0 0] CT
0.075 0.745 0.722 RC
2 setlinecap
10.0 ML
2.667 LW
N
332.788 202.5 M
347.05 202.5 L
S
GR
GS
[0.75 0 0 0.75 0 0] CT
0.075 0.745 0.722 RC
2 setlinecap
10.0 ML
2.667 LW
N
318.525 202.5 M
332.788 202.5 L
S
GR
GS
[0.75 0 0 0.75 0 0] CT
0.075 0.745 0.722 RC
2 setlinecap
10.0 ML
2.667 LW
N
304.263 202.5 M
318.525 202.5 L
S
GR
GS
[0.75 0 0 0.75 0 0] CT
0.075 0.745 0.722 RC
2 setlinecap
10.0 ML
2.667 LW
N
290 202.5 M
304.263 202.5 L
S
GR
GS
[0.75 0 0 0.75 0 0] CT
0.075 0.745 0.722 RC
2 setlinecap
10.0 ML
2.667 LW
N
290 188.238 M
290 202.5 L
S
GR
GS
[0.75 0 0 0.75 0 0] CT
0.075 0.745 0.722 RC
2 setlinecap
10.0 ML
2.667 LW
N
290 173.975 M
290 188.238 L
S
GR
GS
[0.75 0 0 0.75 0 0] CT
0.075 0.745 0.722 RC
2 setlinecap
10.0 ML
2.667 LW
N
290 159.712 M
290 173.975 L
S
GR
GS
[0.75 0 0 0.75 0 0] CT
0.075 0.745 0.722 RC
2 setlinecap
10.0 ML
2.667 LW
N
290 145.45 M
290 159.712 L
S
GR
GS
[0.75 0 0 0.75 0 0] CT
0.075 0.745 0.722 RC
2 setlinecap
10.0 ML
2.667 LW
N
304.263 145.45 M
290 145.45 L
S
GR
GS
[0.75 0 0 0.75 0 0] CT
0.075 0.745 0.722 RC
2 setlinecap
10.0 ML
2.667 LW
N
318.525 145.45 M
304.263 145.45 L
S
GR
GS
[0.75 0 0 0.75 0 0] CT
0.075 0.745 0.722 RC
2 setlinecap
10.0 ML
2.667 LW
N
332.788 145.45 M
318.525 145.45 L
S
GR
GS
[0.75 0 0 0.75 0 0] CT
0.075 0.745 0.722 RC
2 setlinecap
10.0 ML
2.667 LW
N
347.05 145.45 M
332.788 145.45 L
S
GR
GS
[0.75 0 0 0.75 0 0] CT
0.075 0.745 0.722 RC
2 setlinecap
10.0 ML
2.667 LW
N
347.05 159.712 M
347.05 145.45 L
S
GR
GS
[0.75 0 0 0.75 0 0] CT
0.075 0.745 0.722 RC
2 setlinecap
10.0 ML
2.667 LW
N
347.05 173.975 M
347.05 159.712 L
S
GR
GS
[0.75 0 0 0.75 0 0] CT
0.075 0.745 0.722 RC
2 setlinecap
10.0 ML
2.667 LW
N
347.05 188.238 M
347.05 173.975 L
S
GR
GS
[0.75 0 0 0.75 0 0] CT
0.075 0.745 0.722 RC
2 setlinecap
10.0 ML
2.667 LW
N
347.05 202.5 M
347.05 188.238 L
S
GR
%%Trailer
%%Pages: 1
%%EOF
