%!PS-Adobe-3.0 EPSF-3.0
%%Title: eggshell_vs_bnd.eps
%%Creator: matplotlib version 3.2.2, http://matplotlib.org/
%%CreationDate: Sun Jun 27 15:23:44 2021
%%Orientation: portrait
%%BoundingBox: 75.6 223.20000000000002 536.4 568.8
%%EndComments
%%BeginProlog
/mpldict 8 dict def
mpldict begin
/m { moveto } bind def
/l { lineto } bind def
/r { rlineto } bind def
/c { curveto } bind def
/cl { closepath } bind def
/box {
m
1 index 0 r
0 exch r
neg 0 r
cl
} bind def
/clipbox {
box
clip
newpath
} bind def
%!PS-Adobe-3.0 Resource-Font
%%Title: DejaVu Sans
%%Copyright: Copyright (c) 2003 by Bitstream, Inc. All Rights Reserved. Copyright (c) 2006 by Tavmjong Bah. All Rights Reserved. DejaVu changes are in public domain 
%%Creator: Converted from TrueType to type 3 by PPR
25 dict begin
/_d{bind def}bind def
/_m{moveto}_d
/_l{lineto}_d
/_cl{closepath eofill}_d
/_c{curveto}_d
/_sc{7 -1 roll{setcachedevice}{pop pop pop pop pop pop}ifelse}_d
/_e{exec}_d
/FontName /DejaVuSans def
/PaintType 0 def
/FontMatrix[.001 0 0 .001 0 0]def
/FontBBox[-1021 -463 1793 1232]def
/FontType 3 def
/Encoding [ /space /period /zero /one /two /three /nine /B /E /F /M /R /V /a /d /e /f /h /i /l /m /n /o /r /t /u /v /y /minus ] def
/FontInfo 10 dict dup begin
/FamilyName (DejaVu Sans) def
/FullName (DejaVu Sans) def
/Notice (Copyright (c) 2003 by Bitstream, Inc. All Rights Reserved. Copyright (c) 2006 by Tavmjong Bah. All Rights Reserved. DejaVu changes are in public domain ) def
/Weight (Book) def
/Version (Version 2.35) def
/ItalicAngle 0.0 def
/isFixedPitch false def
/UnderlinePosition -130 def
/UnderlineThickness 90 def
end readonly def
/CharStrings 30 dict dup begin
/.notdef 0 def
/space{318 0 0 0 0 0 _sc
}_d
/period{318 0 107 0 210 124 _sc
107 124 _m
210 124 _l
210 0 _l
107 0 _l
107 124 _l
_cl}_d
/zero{636 0 66 -13 570 742 _sc
318 664 _m
267 664 229 639 203 589 _c
177 539 165 464 165 364 _c
165 264 177 189 203 139 _c
229 89 267 64 318 64 _c
369 64 407 89 433 139 _c
458 189 471 264 471 364 _c
471 464 458 539 433 589 _c
407 639 369 664 318 664 _c
318 742 _m
399 742 461 709 505 645 _c
548 580 570 486 570 364 _c
570 241 548 147 505 83 _c
461 19 399 -13 318 -13 _c
236 -13 173 19 130 83 _c
87 147 66 241 66 364 _c
66 486 87 580 130 645 _c
173 709 236 742 318 742 _c
_cl}_d
/one{636 0 110 0 544 729 _sc
124 83 _m
285 83 _l
285 639 _l
110 604 _l
110 694 _l
284 729 _l
383 729 _l
383 83 _l
544 83 _l
544 0 _l
124 0 _l
124 83 _l
_cl}_d
/two{{636 0 73 0 536 742 _sc
192 83 _m
536 83 _l
536 0 _l
73 0 _l
73 83 _l
110 121 161 173 226 239 _c
290 304 331 346 348 365 _c
380 400 402 430 414 455 _c
426 479 433 504 433 528 _c
433 566 419 598 392 622 _c
365 646 330 659 286 659 _c
255 659 222 653 188 643 _c
154 632 117 616 78 594 _c
78 694 _l
118 710 155 722 189 730 _c
223 738 255 742 284 742 _c
}_e{359 742 419 723 464 685 _c
509 647 532 597 532 534 _c
532 504 526 475 515 449 _c
504 422 484 390 454 354 _c
446 344 420 317 376 272 _c
332 227 271 164 192 83 _c
_cl}_e}_d
/three{{636 0 76 -13 556 742 _sc
406 393 _m
453 383 490 362 516 330 _c
542 298 556 258 556 212 _c
556 140 531 84 482 45 _c
432 6 362 -13 271 -13 _c
240 -13 208 -10 176 -4 _c
144 1 110 10 76 22 _c
76 117 _l
103 101 133 89 166 81 _c
198 73 232 69 268 69 _c
330 69 377 81 409 105 _c
441 129 458 165 458 212 _c
458 254 443 288 413 312 _c
383 336 341 349 287 349 _c
}_e{202 349 _l
202 430 _l
291 430 _l
339 430 376 439 402 459 _c
428 478 441 506 441 543 _c
441 580 427 609 401 629 _c
374 649 336 659 287 659 _c
260 659 231 656 200 650 _c
169 644 135 635 98 623 _c
98 711 _l
135 721 170 729 203 734 _c
235 739 266 742 296 742 _c
370 742 429 725 473 691 _c
517 657 539 611 539 553 _c
539 513 527 479 504 451 _c
481 423 448 403 406 393 _c
_cl}_e}_d
/nine{{636 0 63 -13 566 742 _sc
110 15 _m
110 105 _l
134 93 159 84 185 78 _c
210 72 235 69 260 69 _c
324 69 374 90 408 134 _c
442 178 462 244 468 334 _c
448 306 424 284 396 269 _c
367 254 335 247 300 247 _c
226 247 168 269 126 313 _c
84 357 63 417 63 494 _c
63 568 85 628 129 674 _c
173 719 232 742 306 742 _c
390 742 455 709 499 645 _c
543 580 566 486 566 364 _c
}_e{566 248 538 157 484 89 _c
429 21 356 -13 264 -13 _c
239 -13 214 -10 189 -6 _c
163 -2 137 5 110 15 _c
306 324 _m
350 324 385 339 411 369 _c
437 399 450 441 450 494 _c
450 546 437 588 411 618 _c
385 648 350 664 306 664 _c
262 664 227 648 201 618 _c
175 588 162 546 162 494 _c
162 441 175 399 201 369 _c
227 339 262 324 306 324 _c
_cl}_e}_d
/B{{686 0 98 0 615 729 _sc
197 348 _m
197 81 _l
355 81 _l
408 81 447 92 473 114 _c
498 136 511 169 511 215 _c
511 260 498 293 473 315 _c
447 337 408 348 355 348 _c
197 348 _l
197 648 _m
197 428 _l
343 428 _l
391 428 426 437 450 455 _c
474 473 486 500 486 538 _c
486 574 474 602 450 620 _c
426 638 391 648 343 648 _c
197 648 _l
98 729 _m
350 729 _l
}_e{425 729 483 713 524 682 _c
564 650 585 606 585 549 _c
585 504 574 468 553 442 _c
532 416 502 399 462 393 _c
510 382 548 360 575 327 _c
601 294 615 253 615 204 _c
615 138 592 88 548 53 _c
504 17 441 0 360 0 _c
98 0 _l
98 729 _l
_cl}_e}_d
/E{632 0 98 0 568 729 _sc
98 729 _m
559 729 _l
559 646 _l
197 646 _l
197 430 _l
544 430 _l
544 347 _l
197 347 _l
197 83 _l
568 83 _l
568 0 _l
98 0 _l
98 729 _l
_cl}_d
/F{575 0 98 0 517 729 _sc
98 729 _m
517 729 _l
517 646 _l
197 646 _l
197 431 _l
486 431 _l
486 348 _l
197 348 _l
197 0 _l
98 0 _l
98 729 _l
_cl}_d
/M{863 0 98 0 765 729 _sc
98 729 _m
245 729 _l
431 233 _l
618 729 _l
765 729 _l
765 0 _l
669 0 _l
669 640 _l
481 140 _l
382 140 _l
194 640 _l
194 0 _l
98 0 _l
98 729 _l
_cl}_d
/R{{695 0 98 0 666 729 _sc
444 342 _m
465 334 486 319 506 296 _c
526 272 546 240 566 199 _c
666 0 _l
560 0 _l
467 187 _l
443 235 419 268 397 284 _c
374 300 343 308 304 308 _c
197 308 _l
197 0 _l
98 0 _l
98 729 _l
321 729 _l
404 729 466 711 507 677 _c
548 642 569 589 569 519 _c
569 473 558 434 537 404 _c
515 374 484 353 444 342 _c
197 648 _m
197 389 _l
321 389 _l
}_e{368 389 404 400 428 422 _c
452 444 465 476 465 519 _c
465 561 452 593 428 615 _c
404 637 368 648 321 648 _c
197 648 _l
_cl}_e}_d
/V{684 0 8 0 676 729 _sc
286 0 _m
8 729 _l
111 729 _l
342 115 _l
573 729 _l
676 729 _l
398 0 _l
286 0 _l
_cl}_d
/a{{613 0 60 -13 522 560 _sc
343 275 _m
270 275 220 266 192 250 _c
164 233 150 205 150 165 _c
150 133 160 107 181 89 _c
202 70 231 61 267 61 _c
317 61 357 78 387 114 _c
417 149 432 196 432 255 _c
432 275 _l
343 275 _l
522 312 _m
522 0 _l
432 0 _l
432 83 _l
411 49 385 25 355 10 _c
325 -5 287 -13 243 -13 _c
187 -13 142 2 109 33 _c
76 64 60 106 60 159 _c
}_e{60 220 80 266 122 298 _c
163 329 224 345 306 345 _c
432 345 _l
432 354 _l
432 395 418 427 391 450 _c
364 472 326 484 277 484 _c
245 484 215 480 185 472 _c
155 464 127 453 100 439 _c
100 522 _l
132 534 164 544 195 550 _c
226 556 256 560 286 560 _c
365 560 424 539 463 498 _c
502 457 522 395 522 312 _c
_cl}_e}_d
/d{{635 0 55 -13 544 760 _sc
454 464 _m
454 760 _l
544 760 _l
544 0 _l
454 0 _l
454 82 _l
435 49 411 25 382 10 _c
353 -5 319 -13 279 -13 _c
213 -13 159 13 117 65 _c
75 117 55 187 55 273 _c
55 359 75 428 117 481 _c
159 533 213 560 279 560 _c
319 560 353 552 382 536 _c
411 520 435 496 454 464 _c
148 273 _m
148 207 161 155 188 117 _c
215 79 253 61 301 61 _c
}_e{348 61 385 79 413 117 _c
440 155 454 207 454 273 _c
454 339 440 390 413 428 _c
385 466 348 485 301 485 _c
253 485 215 466 188 428 _c
161 390 148 339 148 273 _c
_cl}_e}_d
/e{{615 0 55 -13 562 560 _sc
562 296 _m
562 252 _l
149 252 _l
153 190 171 142 205 110 _c
238 78 284 62 344 62 _c
378 62 412 66 444 74 _c
476 82 509 95 541 113 _c
541 28 _l
509 14 476 3 442 -3 _c
408 -9 373 -13 339 -13 _c
251 -13 182 12 131 62 _c
80 112 55 181 55 268 _c
55 357 79 428 127 481 _c
175 533 241 560 323 560 _c
397 560 455 536 498 489 _c
}_e{540 441 562 377 562 296 _c
472 322 _m
471 371 457 410 431 440 _c
404 469 368 484 324 484 _c
274 484 234 469 204 441 _c
174 413 156 373 152 322 _c
472 322 _l
_cl}_e}_d
/f{352 0 23 0 371 760 _sc
371 760 _m
371 685 _l
285 685 _l
253 685 230 678 218 665 _c
205 652 199 629 199 595 _c
199 547 _l
347 547 _l
347 477 _l
199 477 _l
199 0 _l
109 0 _l
109 477 _l
23 477 _l
23 547 _l
109 547 _l
109 585 _l
109 645 123 690 151 718 _c
179 746 224 760 286 760 _c
371 760 _l
_cl}_d
/h{634 0 91 0 549 760 _sc
549 330 _m
549 0 _l
459 0 _l
459 327 _l
459 379 448 417 428 443 _c
408 469 378 482 338 482 _c
289 482 251 466 223 435 _c
195 404 181 362 181 309 _c
181 0 _l
91 0 _l
91 760 _l
181 760 _l
181 462 _l
202 494 227 519 257 535 _c
286 551 320 560 358 560 _c
420 560 468 540 500 501 _c
532 462 549 405 549 330 _c
_cl}_d
/i{278 0 94 0 184 760 _sc
94 547 _m
184 547 _l
184 0 _l
94 0 _l
94 547 _l
94 760 _m
184 760 _l
184 646 _l
94 646 _l
94 760 _l
_cl}_d
/l{278 0 94 0 184 760 _sc
94 760 _m
184 760 _l
184 0 _l
94 0 _l
94 760 _l
_cl}_d
/m{{974 0 91 0 889 560 _sc
520 442 _m
542 482 569 511 600 531 _c
631 550 668 560 711 560 _c
767 560 811 540 842 500 _c
873 460 889 403 889 330 _c
889 0 _l
799 0 _l
799 327 _l
799 379 789 418 771 444 _c
752 469 724 482 686 482 _c
639 482 602 466 575 435 _c
548 404 535 362 535 309 _c
535 0 _l
445 0 _l
445 327 _l
445 379 435 418 417 444 _c
398 469 369 482 331 482 _c
}_e{285 482 248 466 221 435 _c
194 404 181 362 181 309 _c
181 0 _l
91 0 _l
91 547 _l
181 547 _l
181 462 _l
201 495 226 520 255 536 _c
283 552 317 560 357 560 _c
397 560 430 550 458 530 _c
486 510 506 480 520 442 _c
_cl}_e}_d
/n{634 0 91 0 549 560 _sc
549 330 _m
549 0 _l
459 0 _l
459 327 _l
459 379 448 417 428 443 _c
408 469 378 482 338 482 _c
289 482 251 466 223 435 _c
195 404 181 362 181 309 _c
181 0 _l
91 0 _l
91 547 _l
181 547 _l
181 462 _l
202 494 227 519 257 535 _c
286 551 320 560 358 560 _c
420 560 468 540 500 501 _c
532 462 549 405 549 330 _c
_cl}_d
/o{612 0 55 -13 557 560 _sc
306 484 _m
258 484 220 465 192 427 _c
164 389 150 338 150 273 _c
150 207 163 156 191 118 _c
219 80 257 62 306 62 _c
354 62 392 80 420 118 _c
448 156 462 207 462 273 _c
462 337 448 389 420 427 _c
392 465 354 484 306 484 _c
306 560 _m
384 560 445 534 490 484 _c
534 433 557 363 557 273 _c
557 183 534 113 490 63 _c
445 12 384 -13 306 -13 _c
227 -13 165 12 121 63 _c
77 113 55 183 55 273 _c
55 363 77 433 121 484 _c
165 534 227 560 306 560 _c
_cl}_d
/r{411 0 91 0 411 560 _sc
411 463 _m
401 469 390 473 378 476 _c
366 478 353 480 339 480 _c
288 480 249 463 222 430 _c
194 397 181 350 181 288 _c
181 0 _l
91 0 _l
91 547 _l
181 547 _l
181 462 _l
199 495 224 520 254 536 _c
284 552 321 560 365 560 _c
371 560 378 559 386 559 _c
393 558 401 557 411 555 _c
411 463 _l
_cl}_d
/t{392 0 27 0 368 702 _sc
183 702 _m
183 547 _l
368 547 _l
368 477 _l
183 477 _l
183 180 _l
183 135 189 106 201 94 _c
213 81 238 75 276 75 _c
368 75 _l
368 0 _l
276 0 _l
206 0 158 13 132 39 _c
106 65 93 112 93 180 _c
93 477 _l
27 477 _l
27 547 _l
93 547 _l
93 702 _l
183 702 _l
_cl}_d
/u{634 0 85 -13 543 560 _sc
85 216 _m
85 547 _l
175 547 _l
175 219 _l
175 167 185 129 205 103 _c
225 77 255 64 296 64 _c
344 64 383 79 411 110 _c
439 141 453 183 453 237 _c
453 547 _l
543 547 _l
543 0 _l
453 0 _l
453 84 _l
431 50 405 26 377 10 _c
348 -5 315 -13 277 -13 _c
214 -13 166 6 134 45 _c
101 83 85 140 85 216 _c
311 560 _m
311 560 _l
_cl}_d
/v{592 0 30 0 562 547 _sc
30 547 _m
125 547 _l
296 88 _l
467 547 _l
562 547 _l
357 0 _l
235 0 _l
30 547 _l
_cl}_d
/y{592 0 30 -207 562 547 _sc
322 -50 _m
296 -114 271 -157 247 -177 _c
223 -197 191 -207 151 -207 _c
79 -207 _l
79 -132 _l
132 -132 _l
156 -132 175 -126 189 -114 _c
203 -102 218 -75 235 -31 _c
251 9 _l
30 547 _l
125 547 _l
296 119 _l
467 547 _l
562 547 _l
322 -50 _l
_cl}_d
/minus{838 0 106 272 732 355 _sc
106 355 _m
732 355 _l
732 272 _l
106 272 _l
106 355 _l
_cl}_d
end readonly def

/BuildGlyph
 {exch begin
 CharStrings exch
 2 copy known not{pop /.notdef}if
 true 3 1 roll get exec
 end}_d

/BuildChar {
 1 index /Encoding get exch get
 1 index /BuildGlyph get exec
}_d

FontName currentdict end definefont pop
end
%%EndProlog
mpldict begin
75.6 223.2 translate
460.8 345.6 0 0 clipbox
gsave
0 0 m
460.8 0 l
460.8 345.6 l
0 345.6 l
cl
1.000 setgray
fill
grestore
gsave
57.6 38.016 m
414.72 38.016 l
414.72 304.128 l
57.6 304.128 l
cl
1.000 setgray
fill
grestore
gsave
357.1 266.1 57.6 38.02 clipbox
166.930437 249.857074 m
202.642437 249.857074 l
202.642437 254.809851 l
cl
0.800 setgray
fill
grestore
gsave
357.1 266.1 57.6 38.02 clipbox
166.930437 80.470636 m
202.642437 80.470636 l
202.642437 99.257031 l
cl
0.800 setgray
fill
grestore
gsave
357.1 266.1 57.6 38.02 clipbox
166.930437 189.206423 m
202.642437 189.206423 l
202.642437 194.500771 l
cl
0.800 setgray
fill
grestore
1.500 setlinewidth
1 setlinejoin
0 setlinecap
[5.55 2.4] 0 setdash
0.753 setgray
gsave
357.1 266.1 57.6 38.02 clipbox
398.487273 292.032 m
352.008986 285.545842 l
305.595897 279.068782 l
259.219305 272.596815 l
212.862041 266.127546 l
166.514725 259.659665 l
73.832727 246.725666 l
stroke
grestore
gsave
357.1 266.1 57.6 38.02 clipbox
398.487273 223.763574 m
352.008986 199.290104 l
305.595897 174.850964 l
259.219305 150.431042 l
212.862041 126.021298 l
166.514725 101.616791 l
73.832727 52.814431 l
stroke
grestore
gsave
357.1 266.1 57.6 38.02 clipbox
392.418644 238.348798 m
365.313135 234.386892 l
346.081471 231.575876 l
331.164232 229.395482 l
318.975961 227.61397 l
308.670925 226.107724 l
299.744297 224.802954 l
291.870452 223.652065 l
284.827059 222.62256 l
278.455534 221.691259 l
272.638788 220.841048 l
267.2879 220.05893 l
262.333751 219.334802 l
257.72155 218.660655 l
253.407123 218.030032 l
249.354342 217.437653 l
245.533279 216.879143 l
241.918863 216.350838 l
238.489885 215.849638 l
235.228242 215.372897 l
232.11836 214.918337 l
229.146742 214.483988 l
226.301614 214.068126 l
223.572647 213.669244 l
220.950726 213.286008 l
218.42777 212.917238 l
215.996578 212.56188 l
213.650709 212.218994 l
211.384376 211.887733 l
209.192363 211.567335 l
207.069949 211.25711 l
205.012851 210.956432 l
203.017168 210.664731 l
201.07934 210.381486 l
199.196105 210.106221 l
197.364472 209.838499 l
195.581689 209.577916 l
193.845217 209.324103 l
192.152711 209.076716 l
190.502 208.835438 l
188.891069 208.599975 l
187.318045 208.370052 l
185.781186 208.145415 l
184.278867 207.925827 l
182.809568 207.711066 l
181.371869 207.500923 l
179.96444 207.295205 l
178.586032 207.093728 l
177.235473 206.896322 l
175.911659 206.702826 l
174.613552 206.513086 l
173.340173 206.326962 l
172.090596 206.144316 l
170.863948 205.965022 l
169.659404 205.788958 l
168.47618 205.616011 l
167.313535 205.446072 l
166.170765 205.279037 l
165.047202 205.114811 l
163.942211 204.953299 l
162.855189 204.794413 l
161.78556 204.638069 l
160.732775 204.484188 l
159.696314 204.332693 l
158.675677 204.18351 l
157.670389 204.036571 l
156.679995 203.891809 l
155.704059 203.74916 l
154.742166 203.608564 l
153.793917 203.469962 l
152.858931 203.333299 l
151.936842 203.198521 l
151.027298 203.065577 l
150.129964 202.934417 l
149.244515 202.804994 l
148.370641 202.677264 l
147.508043 202.551181 l
146.656434 202.426705 l
145.815537 202.303794 l
144.985087 202.18241 l
144.164826 202.062516 l
143.354508 201.944075 l
142.553895 201.827053 l
141.762756 201.711415 l
stroke
grestore
0.800 setlinewidth
[] 0 setdash
0.000 setgray
gsave
/o {
gsave
newpath
translate
0.8 setlinewidth
1 setlinejoin
0 setlinecap
0 0 m
0 -3.5 l

gsave
0.000 setgray
fill
grestore
stroke
grestore
} bind def
93.4878 38.016 o
grestore
gsave
81.487754 22.094125 translate
0.000000 rotate
/DejaVuSans findfont
10.0 scalefont
setfont
0.000000 0.976562 moveto
/one glyphshow
6.362305 0.976562 moveto
/zero glyphshow
/DejaVuSans findfont
7.0 scalefont
setfont
12.820312 4.804688 moveto
/minus glyphshow
18.685547 4.804688 moveto
/two glyphshow

grestore
gsave
/o {
gsave
newpath
translate
0.8 setlinewidth
1 setlinejoin
0 setlinecap
0 0 m
0 -3.5 l

gsave
0.000 setgray
fill
grestore
stroke
grestore
} bind def
247.417 38.016 o
grestore
gsave
235.416513 23.094125 translate
0.000000 rotate
/DejaVuSans findfont
10.0 scalefont
setfont
0.000000 0.064063 moveto
/one glyphshow
6.362305 0.064063 moveto
/zero glyphshow
/DejaVuSans findfont
7.0 scalefont
setfont
12.820312 3.892188 moveto
/minus glyphshow
18.685547 3.892188 moveto
/one glyphshow

grestore
gsave
/o {
gsave
newpath
translate
0.8 setlinewidth
1 setlinejoin
0 setlinecap
0 0 m
0 -3.5 l

gsave
0.000 setgray
fill
grestore
stroke
grestore
} bind def
401.345 38.016 o
grestore
gsave
392.345273 22.094125 translate
0.000000 rotate
/DejaVuSans findfont
10.0 scalefont
setfont
0.000000 0.976562 moveto
/one glyphshow
6.362305 0.976562 moveto
/zero glyphshow
/DejaVuSans findfont
7.0 scalefont
setfont
12.820312 4.804688 moveto
/zero glyphshow

grestore
0.600 setlinewidth
gsave
/o {
gsave
newpath
translate
0.6 setlinewidth
1 setlinejoin
0 setlinecap
0 0 m
0 -2 l

gsave
0.000 setgray
fill
grestore
stroke
grestore
} bind def
59.3389 38.016 o
grestore
gsave
/o {
gsave
newpath
translate
0.6 setlinewidth
1 setlinejoin
0 setlinecap
0 0 m
0 -2 l

gsave
0.000 setgray
fill
grestore
stroke
grestore
} bind def
69.6439 38.016 o
grestore
gsave
/o {
gsave
newpath
translate
0.6 setlinewidth
1 setlinejoin
0 setlinecap
0 0 m
0 -2 l

gsave
0.000 setgray
fill
grestore
stroke
grestore
} bind def
78.5705 38.016 o
grestore
gsave
/o {
gsave
newpath
translate
0.6 setlinewidth
1 setlinejoin
0 setlinecap
0 0 m
0 -2 l

gsave
0.000 setgray
fill
grestore
stroke
grestore
} bind def
86.4444 38.016 o
grestore
gsave
/o {
gsave
newpath
translate
0.6 setlinewidth
1 setlinejoin
0 setlinecap
0 0 m
0 -2 l

gsave
0.000 setgray
fill
grestore
stroke
grestore
} bind def
139.825 38.016 o
grestore
gsave
/o {
gsave
newpath
translate
0.6 setlinewidth
1 setlinejoin
0 setlinecap
0 0 m
0 -2 l

gsave
0.000 setgray
fill
grestore
stroke
grestore
} bind def
166.93 38.016 o
grestore
gsave
/o {
gsave
newpath
translate
0.6 setlinewidth
1 setlinejoin
0 setlinecap
0 0 m
0 -2 l

gsave
0.000 setgray
fill
grestore
stroke
grestore
} bind def
186.162 38.016 o
grestore
gsave
/o {
gsave
newpath
translate
0.6 setlinewidth
1 setlinejoin
0 setlinecap
0 0 m
0 -2 l

gsave
0.000 setgray
fill
grestore
stroke
grestore
} bind def
201.079 38.016 o
grestore
gsave
/o {
gsave
newpath
translate
0.6 setlinewidth
1 setlinejoin
0 setlinecap
0 0 m
0 -2 l

gsave
0.000 setgray
fill
grestore
stroke
grestore
} bind def
213.268 38.016 o
grestore
gsave
/o {
gsave
newpath
translate
0.6 setlinewidth
1 setlinejoin
0 setlinecap
0 0 m
0 -2 l

gsave
0.000 setgray
fill
grestore
stroke
grestore
} bind def
223.573 38.016 o
grestore
gsave
/o {
gsave
newpath
translate
0.6 setlinewidth
1 setlinejoin
0 setlinecap
0 0 m
0 -2 l

gsave
0.000 setgray
fill
grestore
stroke
grestore
} bind def
232.499 38.016 o
grestore
gsave
/o {
gsave
newpath
translate
0.6 setlinewidth
1 setlinejoin
0 setlinecap
0 0 m
0 -2 l

gsave
0.000 setgray
fill
grestore
stroke
grestore
} bind def
240.373 38.016 o
grestore
gsave
/o {
gsave
newpath
translate
0.6 setlinewidth
1 setlinejoin
0 setlinecap
0 0 m
0 -2 l

gsave
0.000 setgray
fill
grestore
stroke
grestore
} bind def
293.754 38.016 o
grestore
gsave
/o {
gsave
newpath
translate
0.6 setlinewidth
1 setlinejoin
0 setlinecap
0 0 m
0 -2 l

gsave
0.000 setgray
fill
grestore
stroke
grestore
} bind def
320.859 38.016 o
grestore
gsave
/o {
gsave
newpath
translate
0.6 setlinewidth
1 setlinejoin
0 setlinecap
0 0 m
0 -2 l

gsave
0.000 setgray
fill
grestore
stroke
grestore
} bind def
340.091 38.016 o
grestore
gsave
/o {
gsave
newpath
translate
0.6 setlinewidth
1 setlinejoin
0 setlinecap
0 0 m
0 -2 l

gsave
0.000 setgray
fill
grestore
stroke
grestore
} bind def
355.008 38.016 o
grestore
gsave
/o {
gsave
newpath
translate
0.6 setlinewidth
1 setlinejoin
0 setlinecap
0 0 m
0 -2 l

gsave
0.000 setgray
fill
grestore
stroke
grestore
} bind def
367.196 38.016 o
grestore
gsave
/o {
gsave
newpath
translate
0.6 setlinewidth
1 setlinejoin
0 setlinecap
0 0 m
0 -2 l

gsave
0.000 setgray
fill
grestore
stroke
grestore
} bind def
377.501 38.016 o
grestore
gsave
/o {
gsave
newpath
translate
0.6 setlinewidth
1 setlinejoin
0 setlinecap
0 0 m
0 -2 l

gsave
0.000 setgray
fill
grestore
stroke
grestore
} bind def
386.428 38.016 o
grestore
gsave
/o {
gsave
newpath
translate
0.6 setlinewidth
1 setlinejoin
0 setlinecap
0 0 m
0 -2 l

gsave
0.000 setgray
fill
grestore
stroke
grestore
} bind def
394.302 38.016 o
grestore
/DejaVuSans findfont
10.000 scalefont
setfont
gsave
232.988125 8.422250 translate
0.000000 rotate
0.000000 0 m /h glyphshow
grestore
0.800 setlinewidth
gsave
/o {
gsave
newpath
translate
0.8 setlinewidth
1 setlinejoin
0 setlinecap
0 0 m
-3.5 0 l

gsave
0.000 setgray
fill
grestore
stroke
grestore
} bind def
57.6 80.4706 o
grestore
gsave
26.600000 76.009699 translate
0.000000 rotate
/DejaVuSans findfont
10.0 scalefont
setfont
0.000000 0.976562 moveto
/one glyphshow
6.362305 0.976562 moveto
/zero glyphshow
/DejaVuSans findfont
7.0 scalefont
setfont
12.820312 4.804688 moveto
/minus glyphshow
18.685547 4.804688 moveto
/three glyphshow

grestore
gsave
/o {
gsave
newpath
translate
0.8 setlinewidth
1 setlinejoin
0 setlinecap
0 0 m
-3.5 0 l

gsave
0.000 setgray
fill
grestore
stroke
grestore
} bind def
57.6 154.084 o
grestore
gsave
26.600000 149.623010 translate
0.000000 rotate
/DejaVuSans findfont
10.0 scalefont
setfont
0.000000 0.976562 moveto
/one glyphshow
6.362305 0.976562 moveto
/zero glyphshow
/DejaVuSans findfont
7.0 scalefont
setfont
12.820312 4.804688 moveto
/minus glyphshow
18.685547 4.804688 moveto
/two glyphshow

grestore
gsave
/o {
gsave
newpath
translate
0.8 setlinewidth
1 setlinejoin
0 setlinecap
0 0 m
-3.5 0 l

gsave
0.000 setgray
fill
grestore
stroke
grestore
} bind def
57.6 227.697 o
grestore
gsave
26.600000 223.736322 translate
0.000000 rotate
/DejaVuSans findfont
10.0 scalefont
setfont
0.000000 0.064063 moveto
/one glyphshow
6.362305 0.064063 moveto
/zero glyphshow
/DejaVuSans findfont
7.0 scalefont
setfont
12.820312 3.892188 moveto
/minus glyphshow
18.685547 3.892188 moveto
/one glyphshow

grestore
gsave
/o {
gsave
newpath
translate
0.8 setlinewidth
1 setlinejoin
0 setlinecap
0 0 m
-3.5 0 l

gsave
0.000 setgray
fill
grestore
stroke
grestore
} bind def
57.6 301.311 o
grestore
gsave
32.600000 296.849633 translate
0.000000 rotate
/DejaVuSans findfont
10.0 scalefont
setfont
0.000000 0.976562 moveto
/one glyphshow
6.362305 0.976562 moveto
/zero glyphshow
/DejaVuSans findfont
7.0 scalefont
setfont
12.820312 4.804688 moveto
/zero glyphshow

grestore
0.600 setlinewidth
gsave
/o {
gsave
newpath
translate
0.6 setlinewidth
1 setlinejoin
0 setlinecap
0 0 m
-2 0 l

gsave
0.000 setgray
fill
grestore
stroke
grestore
} bind def
57.6 41.9798 o
grestore
gsave
/o {
gsave
newpath
translate
0.6 setlinewidth
1 setlinejoin
0 setlinecap
0 0 m
-2 0 l

gsave
0.000 setgray
fill
grestore
stroke
grestore
} bind def
57.6 51.177 o
grestore
gsave
/o {
gsave
newpath
translate
0.6 setlinewidth
1 setlinejoin
0 setlinecap
0 0 m
-2 0 l

gsave
0.000 setgray
fill
grestore
stroke
grestore
} bind def
57.6 58.3108 o
grestore
gsave
/o {
gsave
newpath
translate
0.6 setlinewidth
1 setlinejoin
0 setlinecap
0 0 m
-2 0 l

gsave
0.000 setgray
fill
grestore
stroke
grestore
} bind def
57.6 64.1396 o
grestore
gsave
/o {
gsave
newpath
translate
0.6 setlinewidth
1 setlinejoin
0 setlinecap
0 0 m
-2 0 l

gsave
0.000 setgray
fill
grestore
stroke
grestore
} bind def
57.6 69.0678 o
grestore
gsave
/o {
gsave
newpath
translate
0.6 setlinewidth
1 setlinejoin
0 setlinecap
0 0 m
-2 0 l

gsave
0.000 setgray
fill
grestore
stroke
grestore
} bind def
57.6 73.3368 o
grestore
gsave
/o {
gsave
newpath
translate
0.6 setlinewidth
1 setlinejoin
0 setlinecap
0 0 m
-2 0 l

gsave
0.000 setgray
fill
grestore
stroke
grestore
} bind def
57.6 77.1023 o
grestore
gsave
/o {
gsave
newpath
translate
0.6 setlinewidth
1 setlinejoin
0 setlinecap
0 0 m
-2 0 l

gsave
0.000 setgray
fill
grestore
stroke
grestore
} bind def
57.6 102.63 o
grestore
gsave
/o {
gsave
newpath
translate
0.6 setlinewidth
1 setlinejoin
0 setlinecap
0 0 m
-2 0 l

gsave
0.000 setgray
fill
grestore
stroke
grestore
} bind def
57.6 115.593 o
grestore
gsave
/o {
gsave
newpath
translate
0.6 setlinewidth
1 setlinejoin
0 setlinecap
0 0 m
-2 0 l

gsave
0.000 setgray
fill
grestore
stroke
grestore
} bind def
57.6 124.79 o
grestore
gsave
/o {
gsave
newpath
translate
0.6 setlinewidth
1 setlinejoin
0 setlinecap
0 0 m
-2 0 l

gsave
0.000 setgray
fill
grestore
stroke
grestore
} bind def
57.6 131.924 o
grestore
gsave
/o {
gsave
newpath
translate
0.6 setlinewidth
1 setlinejoin
0 setlinecap
0 0 m
-2 0 l

gsave
0.000 setgray
fill
grestore
stroke
grestore
} bind def
57.6 137.753 o
grestore
gsave
/o {
gsave
newpath
translate
0.6 setlinewidth
1 setlinejoin
0 setlinecap
0 0 m
-2 0 l

gsave
0.000 setgray
fill
grestore
stroke
grestore
} bind def
57.6 142.681 o
grestore
gsave
/o {
gsave
newpath
translate
0.6 setlinewidth
1 setlinejoin
0 setlinecap
0 0 m
-2 0 l

gsave
0.000 setgray
fill
grestore
stroke
grestore
} bind def
57.6 146.95 o
grestore
gsave
/o {
gsave
newpath
translate
0.6 setlinewidth
1 setlinejoin
0 setlinecap
0 0 m
-2 0 l

gsave
0.000 setgray
fill
grestore
stroke
grestore
} bind def
57.6 150.716 o
grestore
gsave
/o {
gsave
newpath
translate
0.6 setlinewidth
1 setlinejoin
0 setlinecap
0 0 m
-2 0 l

gsave
0.000 setgray
fill
grestore
stroke
grestore
} bind def
57.6 176.244 o
grestore
gsave
/o {
gsave
newpath
translate
0.6 setlinewidth
1 setlinejoin
0 setlinecap
0 0 m
-2 0 l

gsave
0.000 setgray
fill
grestore
stroke
grestore
} bind def
57.6 189.206 o
grestore
gsave
/o {
gsave
newpath
translate
0.6 setlinewidth
1 setlinejoin
0 setlinecap
0 0 m
-2 0 l

gsave
0.000 setgray
fill
grestore
stroke
grestore
} bind def
57.6 198.404 o
grestore
gsave
/o {
gsave
newpath
translate
0.6 setlinewidth
1 setlinejoin
0 setlinecap
0 0 m
-2 0 l

gsave
0.000 setgray
fill
grestore
stroke
grestore
} bind def
57.6 205.537 o
grestore
gsave
/o {
gsave
newpath
translate
0.6 setlinewidth
1 setlinejoin
0 setlinecap
0 0 m
-2 0 l

gsave
0.000 setgray
fill
grestore
stroke
grestore
} bind def
57.6 211.366 o
grestore
gsave
/o {
gsave
newpath
translate
0.6 setlinewidth
1 setlinejoin
0 setlinecap
0 0 m
-2 0 l

gsave
0.000 setgray
fill
grestore
stroke
grestore
} bind def
57.6 216.294 o
grestore
gsave
/o {
gsave
newpath
translate
0.6 setlinewidth
1 setlinejoin
0 setlinecap
0 0 m
-2 0 l

gsave
0.000 setgray
fill
grestore
stroke
grestore
} bind def
57.6 220.563 o
grestore
gsave
/o {
gsave
newpath
translate
0.6 setlinewidth
1 setlinejoin
0 setlinecap
0 0 m
-2 0 l

gsave
0.000 setgray
fill
grestore
stroke
grestore
} bind def
57.6 224.329 o
grestore
gsave
/o {
gsave
newpath
translate
0.6 setlinewidth
1 setlinejoin
0 setlinecap
0 0 m
-2 0 l

gsave
0.000 setgray
fill
grestore
stroke
grestore
} bind def
57.6 249.857 o
grestore
gsave
/o {
gsave
newpath
translate
0.6 setlinewidth
1 setlinejoin
0 setlinecap
0 0 m
-2 0 l

gsave
0.000 setgray
fill
grestore
stroke
grestore
} bind def
57.6 262.82 o
grestore
gsave
/o {
gsave
newpath
translate
0.6 setlinewidth
1 setlinejoin
0 setlinecap
0 0 m
-2 0 l

gsave
0.000 setgray
fill
grestore
stroke
grestore
} bind def
57.6 272.017 o
grestore
gsave
/o {
gsave
newpath
translate
0.6 setlinewidth
1 setlinejoin
0 setlinecap
0 0 m
-2 0 l

gsave
0.000 setgray
fill
grestore
stroke
grestore
} bind def
57.6 279.151 o
grestore
gsave
/o {
gsave
newpath
translate
0.6 setlinewidth
1 setlinejoin
0 setlinecap
0 0 m
-2 0 l

gsave
0.000 setgray
fill
grestore
stroke
grestore
} bind def
57.6 284.98 o
grestore
gsave
/o {
gsave
newpath
translate
0.6 setlinewidth
1 setlinejoin
0 setlinecap
0 0 m
-2 0 l

gsave
0.000 setgray
fill
grestore
stroke
grestore
} bind def
57.6 289.908 o
grestore
gsave
/o {
gsave
newpath
translate
0.6 setlinewidth
1 setlinejoin
0 setlinecap
0 0 m
-2 0 l

gsave
0.000 setgray
fill
grestore
stroke
grestore
} bind def
57.6 294.177 o
grestore
gsave
/o {
gsave
newpath
translate
0.6 setlinewidth
1 setlinejoin
0 setlinecap
0 0 m
-2 0 l

gsave
0.000 setgray
fill
grestore
stroke
grestore
} bind def
57.6 297.942 o
grestore
gsave
20.521875 137.212625 translate
90.000000 rotate
0.000000 0 m /R glyphshow
6.448242 0 m /e glyphshow
12.600586 0 m /l glyphshow
15.378906 0 m /a glyphshow
21.506836 0 m /t glyphshow
25.427734 0 m /i glyphshow
28.206055 0 m /v glyphshow
34.124023 0 m /e glyphshow
40.276367 0 m /space glyphshow
43.455078 0 m /e glyphshow
49.607422 0 m /r glyphshow
53.593750 0 m /r glyphshow
57.455078 0 m /o glyphshow
63.573242 0 m /r glyphshow
grestore
1.500 setlinewidth
2 setlinecap
0.000 0.000 1.000 setrgbcolor
gsave
357.1 266.1 57.6 38.02 clipbox
398.487273 288.696485 m
352.008986 286.354708 l
305.595897 280.929 l
259.219305 274.213918 l
212.862041 267.028718 l
166.514725 259.677728 l
73.832727 244.855758 l
stroke
grestore
1.000 setlinewidth
0 setlinecap
gsave
357.1 266.1 57.6 38.02 clipbox
/o {
gsave
newpath
translate
1.0 setlinewidth
1 setlinejoin
0 setlinecap
0 -1.5 m
0.397805 -1.5 0.77937 -1.341951 1.06066 -1.06066 c
1.341951 -0.77937 1.5 -0.397805 1.5 0 c
1.5 0.397805 1.341951 0.77937 1.06066 1.06066 c
0.77937 1.341951 0.397805 1.5 0 1.5 c
-0.397805 1.5 -0.77937 1.341951 -1.06066 1.06066 c
-1.341951 0.77937 -1.5 0.397805 -1.5 0 c
-1.5 -0.397805 -1.341951 -0.77937 -1.06066 -1.06066 c
-0.77937 -1.341951 -0.397805 -1.5 0 -1.5 c
cl

gsave
0.000 0.000 1.000 setrgbcolor
fill
grestore
stroke
grestore
} bind def
398.487 288.696 o
352.009 286.355 o
305.596 280.929 o
259.219 274.214 o
212.862 267.029 o
166.515 259.678 o
73.8327 244.856 o
grestore
1.500 setlinewidth
2 setlinecap
0.000 0.502 0.000 setrgbcolor
gsave
357.1 266.1 57.6 38.02 clipbox
398.487273 238.189344 m
352.008986 184.20912 l
305.595897 164.464406 l
259.219305 154.553274 l
212.862041 131.696091 l
166.514725 105.563968 l
73.832727 50.112 l
stroke
grestore
1.000 setlinewidth
0 setlinecap
gsave
357.1 266.1 57.6 38.02 clipbox
/o {
gsave
newpath
translate
1.0 setlinewidth
1 setlinejoin
0 setlinecap
0 -1.5 m
0.397805 -1.5 0.77937 -1.341951 1.06066 -1.06066 c
1.341951 -0.77937 1.5 -0.397805 1.5 0 c
1.5 0.397805 1.341951 0.77937 1.06066 1.06066 c
0.77937 1.341951 0.397805 1.5 0 1.5 c
-0.397805 1.5 -0.77937 1.341951 -1.06066 1.06066 c
-1.341951 0.77937 -1.5 0.397805 -1.5 0 c
-1.5 -0.397805 -1.341951 -0.77937 -1.06066 -1.06066 c
-0.77937 -1.341951 -0.397805 -1.5 0 -1.5 c
cl

gsave
0.000 0.502 0.000 setrgbcolor
fill
grestore
stroke
grestore
} bind def
398.487 238.189 o
352.009 184.209 o
305.596 164.464 o
259.219 154.553 o
212.862 131.696 o
166.515 105.564 o
73.8327 50.112 o
grestore
1.500 setlinewidth
2 setlinecap
1.000 0.647 0.000 setrgbcolor
gsave
357.1 266.1 57.6 38.02 clipbox
392.418644 240.417009 m
365.313135 231.918686 l
346.081471 230.84492 l
331.164232 228.796667 l
318.975961 227.264846 l
308.670925 225.898047 l
299.744297 224.697899 l
291.870452 223.62292 l
284.827059 222.650523 l
278.455534 221.762662 l
272.638788 220.945801 l
267.2879 220.189373 l
262.333751 219.485003 l
257.72155 218.825945 l
253.407123 218.206679 l
249.354342 217.622642 l
245.533279 217.07001 l
241.918863 216.545553 l
238.489885 216.046515 l
235.228242 215.570527 l
232.11836 215.115536 l
229.146742 214.679754 l
226.301614 214.261612 l
223.572647 213.859726 l
220.950726 213.47287 l
218.42777 213.099951 l
215.996578 212.739993 l
213.650709 212.392117 l
211.384376 212.055533 l
209.192363 211.729526 l
207.069949 211.413446 l
205.012851 211.106702 l
203.017168 210.808754 l
201.07934 210.519109 l
199.196105 210.237312 l
197.364472 209.962948 l
195.581689 209.69563 l
193.845217 209.435004 l
192.152711 209.18074 l
190.502 208.932534 l
188.891069 208.690101 l
187.318045 208.453178 l
185.781186 208.221517 l
184.278867 207.994888 l
182.809568 207.773077 l
181.371869 207.555881 l
179.96444 207.343111 l
178.586032 207.134589 l
177.235473 206.930148 l
175.911659 206.72963 l
174.613552 206.532887 l
173.340173 206.339777 l
172.090596 206.150169 l
170.863948 205.963938 l
169.659404 205.780963 l
168.47618 205.601133 l
167.313535 205.424341 l
166.170765 205.250486 l
165.047202 205.07947 l
163.942211 204.911202 l
162.855189 204.745594 l
161.78556 204.582564 l
160.732775 204.422032 l
159.696314 204.263922 l
158.675677 204.108162 l
157.670389 203.954682 l
156.679995 203.803417 l
155.704059 203.654302 l
154.742166 203.507278 l
153.793917 203.362286 l
152.858931 203.219271 l
151.936842 203.07818 l
151.027298 202.93896 l
150.129964 202.801562 l
149.244515 202.66594 l
148.370641 202.532048 l
147.508043 202.399842 l
146.656434 202.269279 l
145.815537 202.14032 l
144.985087 202.012925 l
144.164826 201.887057 l
143.354508 201.762679 l
142.553895 201.639756 l
141.762756 201.518254 l
stroke
grestore
1.000 setlinewidth
0 setlinecap
gsave
357.1 266.1 57.6 38.02 clipbox
/o {
gsave
newpath
translate
1.0 setlinewidth
1 setlinejoin
0 setlinecap
0 -1.5 m
0.397805 -1.5 0.77937 -1.341951 1.06066 -1.06066 c
1.341951 -0.77937 1.5 -0.397805 1.5 0 c
1.5 0.397805 1.341951 0.77937 1.06066 1.06066 c
0.77937 1.341951 0.397805 1.5 0 1.5 c
-0.397805 1.5 -0.77937 1.341951 -1.06066 1.06066 c
-1.341951 0.77937 -1.5 0.397805 -1.5 0 c
-1.5 -0.397805 -1.341951 -0.77937 -1.06066 -1.06066 c
-0.77937 -1.341951 -0.397805 -1.5 0 -1.5 c
cl

gsave
1.000 0.647 0.000 setrgbcolor
fill
grestore
stroke
grestore
} bind def
392.419 240.417 o
365.313 231.919 o
346.081 230.845 o
331.164 228.797 o
318.976 227.265 o
308.671 225.898 o
299.744 224.698 o
291.87 223.623 o
284.827 222.651 o
278.456 221.763 o
272.639 220.946 o
267.288 220.189 o
262.334 219.485 o
257.722 218.826 o
253.407 218.207 o
249.354 217.623 o
245.533 217.07 o
241.919 216.546 o
238.49 216.047 o
235.228 215.571 o
232.118 215.116 o
229.147 214.68 o
226.302 214.262 o
223.573 213.86 o
220.951 213.473 o
218.428 213.1 o
215.997 212.74 o
213.651 212.392 o
211.384 212.056 o
209.192 211.73 o
207.07 211.413 o
205.013 211.107 o
203.017 210.809 o
201.079 210.519 o
199.196 210.237 o
197.364 209.963 o
195.582 209.696 o
193.845 209.435 o
192.153 209.181 o
190.502 208.933 o
188.891 208.69 o
187.318 208.453 o
185.781 208.222 o
184.279 207.995 o
182.81 207.773 o
181.372 207.556 o
179.964 207.343 o
178.586 207.135 o
177.235 206.93 o
175.912 206.73 o
174.614 206.533 o
173.34 206.34 o
172.091 206.15 o
170.864 205.964 o
169.659 205.781 o
168.476 205.601 o
167.314 205.424 o
166.171 205.25 o
165.047 205.079 o
163.942 204.911 o
162.855 204.746 o
161.786 204.583 o
160.733 204.422 o
159.696 204.264 o
158.676 204.108 o
157.67 203.955 o
156.68 203.803 o
155.704 203.654 o
154.742 203.507 o
153.794 203.362 o
152.859 203.219 o
151.937 203.078 o
151.027 202.939 o
150.13 202.802 o
149.245 202.666 o
148.371 202.532 o
147.508 202.4 o
146.656 202.269 o
145.816 202.14 o
144.985 202.013 o
144.165 201.887 o
143.355 201.763 o
142.554 201.64 o
141.763 201.518 o
grestore
0.800 setlinewidth
0 setlinejoin
2 setlinecap
[] 0 setdash
0.000 setgray
gsave
57.6 38.016 m
57.6 304.128 l
stroke
grestore
gsave
414.72 38.016 m
414.72 304.128 l
stroke
grestore
gsave
57.6 38.016 m
414.72 38.016 l
stroke
grestore
gsave
57.6 304.128 m
414.72 304.128 l
stroke
grestore
gsave
181.606749 241.272769 translate
0.000000 rotate
0.000000 0 m /one glyphshow
grestore
gsave
209.784837 249.575650 translate
0.000000 rotate
0.000000 0 m /zero glyphshow
6.362305 0 m /period glyphshow
9.541016 0 m /two glyphshow
15.903320 0 m /nine glyphshow
grestore
gsave
181.606749 69.119607 translate
0.000000 rotate
0.000000 0 m /one glyphshow
grestore
gsave
209.784837 87.106021 translate
0.000000 rotate
0.000000 0 m /one glyphshow
6.362305 0 m /period glyphshow
9.541016 0 m /one glyphshow
grestore
gsave
181.606749 180.553804 translate
0.000000 rotate
0.000000 0 m /one glyphshow
grestore
gsave
209.784837 189.095785 translate
0.000000 rotate
0.000000 0 m /zero glyphshow
6.362305 0 m /period glyphshow
9.541016 0 m /three glyphshow
15.903320 0 m /one glyphshow
grestore
1.000 setlinewidth
0 setlinecap
0.800 setgray
gsave
260.75125 43.016 m
407.72 43.016 l
409.053333 43.016 409.72 43.682667 409.72 45.016 c
409.72 88.031625 l
409.72 89.364958 409.053333 90.031625 407.72 90.031625 c
260.75125 90.031625 l
259.417917 90.031625 258.75125 89.364958 258.75125 88.031625 c
258.75125 45.016 l
258.75125 43.682667 259.417917 43.016 260.75125 43.016 c
cl
gsave
1.000 setgray
fill
grestore
stroke
grestore
1.500 setlinewidth
1 setlinejoin
2 setlinecap
[] 0 setdash
0.000 0.000 1.000 setrgbcolor
gsave
262.75125 81.937875 m
282.75125 81.937875 l
stroke
grestore
1.000 setlinewidth
0 setlinecap
gsave
/o {
gsave
newpath
translate
1.0 setlinewidth
1 setlinejoin
0 setlinecap
0 -1.5 m
0.397805 -1.5 0.77937 -1.341951 1.06066 -1.06066 c
1.341951 -0.77937 1.5 -0.397805 1.5 0 c
1.5 0.397805 1.341951 0.77937 1.06066 1.06066 c
0.77937 1.341951 0.397805 1.5 0 1.5 c
-0.397805 1.5 -0.77937 1.341951 -1.06066 1.06066 c
-1.341951 0.77937 -1.5 0.397805 -1.5 0 c
-1.5 -0.397805 -1.341951 -0.77937 -1.06066 -1.06066 c
-0.77937 -1.341951 -0.397805 -1.5 0 -1.5 c
cl

gsave
0.000 0.000 1.000 setrgbcolor
fill
grestore
stroke
grestore
} bind def
272.751 81.9379 o
grestore
0.000 setgray
gsave
290.751250 78.437875 translate
0.000000 rotate
0.000000 0 m /B glyphshow
6.860352 0 m /o glyphshow
12.978516 0 m /u glyphshow
19.316406 0 m /n glyphshow
25.654297 0 m /d glyphshow
32.001953 0 m /a glyphshow
38.129883 0 m /r glyphshow
42.241211 0 m /y glyphshow
48.159180 0 m /space glyphshow
51.337891 0 m /f glyphshow
54.858398 0 m /o glyphshow
60.976562 0 m /r glyphshow
64.962891 0 m /m glyphshow
74.704102 0 m /u glyphshow
81.041992 0 m /l glyphshow
83.820312 0 m /a glyphshow
89.948242 0 m /space glyphshow
93.126953 0 m /F glyphshow
98.878906 0 m /E glyphshow
105.197266 0 m /M glyphshow
grestore
1.500 setlinewidth
2 setlinecap
0.000 0.502 0.000 setrgbcolor
gsave
262.75125 67.266 m
282.75125 67.266 l
stroke
grestore
1.000 setlinewidth
0 setlinecap
gsave
/o {
gsave
newpath
translate
1.0 setlinewidth
1 setlinejoin
0 setlinecap
0 -1.5 m
0.397805 -1.5 0.77937 -1.341951 1.06066 -1.06066 c
1.341951 -0.77937 1.5 -0.397805 1.5 0 c
1.5 0.397805 1.341951 0.77937 1.06066 1.06066 c
0.77937 1.341951 0.397805 1.5 0 1.5 c
-0.397805 1.5 -0.77937 1.341951 -1.06066 1.06066 c
-1.341951 0.77937 -1.5 0.397805 -1.5 0 c
-1.5 -0.397805 -1.341951 -0.77937 -1.06066 -1.06066 c
-0.77937 -1.341951 -0.397805 -1.5 0 -1.5 c
cl

gsave
0.000 0.502 0.000 setrgbcolor
fill
grestore
stroke
grestore
} bind def
272.751 67.266 o
grestore
0.000 setgray
gsave
290.751250 63.766000 translate
0.000000 rotate
0.000000 0 m /V glyphshow
6.090820 0 m /o glyphshow
12.208984 0 m /l glyphshow
14.987305 0 m /u glyphshow
21.325195 0 m /m glyphshow
31.066406 0 m /e glyphshow
37.218750 0 m /space glyphshow
40.397461 0 m /f glyphshow
43.917969 0 m /o glyphshow
50.036133 0 m /r glyphshow
54.022461 0 m /m glyphshow
63.763672 0 m /u glyphshow
70.101562 0 m /l glyphshow
72.879883 0 m /a glyphshow
grestore
1.500 setlinewidth
2 setlinecap
1.000 0.647 0.000 setrgbcolor
gsave
262.75125 52.594125 m
282.75125 52.594125 l
stroke
grestore
1.000 setlinewidth
0 setlinecap
gsave
/o {
gsave
newpath
translate
1.0 setlinewidth
1 setlinejoin
0 setlinecap
0 -1.5 m
0.397805 -1.5 0.77937 -1.341951 1.06066 -1.06066 c
1.341951 -0.77937 1.5 -0.397805 1.5 0 c
1.5 0.397805 1.341951 0.77937 1.06066 1.06066 c
0.77937 1.341951 0.397805 1.5 0 1.5 c
-0.397805 1.5 -0.77937 1.341951 -1.06066 1.06066 c
-1.341951 0.77937 -1.5 0.397805 -1.5 0 c
-1.5 -0.397805 -1.341951 -0.77937 -1.06066 -1.06066 c
-0.77937 -1.341951 -0.397805 -1.5 0 -1.5 c
cl

gsave
1.000 0.647 0.000 setrgbcolor
fill
grestore
stroke
grestore
} bind def
272.751 52.5941 o
grestore
0.000 setgray
gsave
290.751250 49.094125 translate
0.000000 rotate
0.000000 0 m /B glyphshow
6.860352 0 m /o glyphshow
12.978516 0 m /u glyphshow
19.316406 0 m /n glyphshow
25.654297 0 m /d glyphshow
32.001953 0 m /a glyphshow
38.129883 0 m /r glyphshow
42.241211 0 m /y glyphshow
48.159180 0 m /space glyphshow
51.337891 0 m /f glyphshow
54.858398 0 m /o glyphshow
60.976562 0 m /r glyphshow
64.962891 0 m /m glyphshow
74.704102 0 m /u glyphshow
81.041992 0 m /l glyphshow
83.820312 0 m /a glyphshow
89.948242 0 m /space glyphshow
93.126953 0 m /B glyphshow
99.987305 0 m /E glyphshow
106.305664 0 m /M glyphshow
grestore

end
showpage
