\relax 
\@nameuse{bbl@beforestart}
\babel@aux{nil}{}
\@writefile{toc}{\contentsline {section}{\numberline {1}Gaussian quadrature adapted to a weight}{1}\protected@file@percent }
\@writefile{toc}{\contentsline {section}{\numberline {2}Multiply singular integrals}{1}\protected@file@percent }
\@writefile{toc}{\contentsline {subsection}{\numberline {2.1}Weakly singular kernel}{1}\protected@file@percent }
\@writefile{toc}{\contentsline {subsection}{\numberline {2.2}Principal value}{2}\protected@file@percent }
